ply
format ascii 1.0
comment Created by Open3D
element vertex 2000
property double x
property double y
property double z
property uchar red
property uchar green
property uchar blue
end_header
0.0311214 -0.626716 0.428909 198 186 188
0.0426579 -0.627532 0.426663 211 197 201
0.0524474 -0.631801 0.426574 203 189 189
0.0702273 -0.627268 0.42055 213 199 202
0.0842766 -0.627976 0.418028 212 198 201
0.00551862 -0.628037 0.432942 204 192 194
0.0146134 -0.627495 0.430439 202 191 192
0.0192635 -0.628523 0.429816 202 191 192
0.0235955 -0.625899 0.427504 202 190 194
0.0280637 -0.625045 0.426034 200 188 192
0.0373751 -0.626839 0.42475 203 189 191
0.0717111 -0.626361 0.417035 201 189 193
-0.0545152 -0.624876 0.444683 198 184 187
-0.0316342 -0.627937 0.439775 198 186 188
0.0208911 -0.627804 0.426301 201 190 191
0.0299351 -0.626998 0.423779 200 188 190
0.0392713 -0.628758 0.422477 201 189 193
0.0509536 -0.630294 0.4206 204 190 194
0.0643955 -0.627847 0.416524 204 192 196
0.0689555 -0.62756 0.415428 204 192 196
-0.0989319 -0.622824 0.454201 121 108 108
-0.0780966 -0.624586 0.448651 181 167 167
-0.0734525 -0.624572 0.447257 190 174 177
-0.0665358 -0.624923 0.445383 191 177 180
-0.0390285 -0.627252 0.438675 195 184 185
-0.0321628 -0.628072 0.437188 197 183 185
-0.0298769 -0.629228 0.437122 198 184 187
-0.0275812 -0.626767 0.435327 198 184 187
0.0135283 -0.628662 0.425719 200 188 190
-0.0948319 -0.624021 0.450668 189 175 177
-0.0900638 -0.623257 0.44884 189 175 177
-0.0809431 -0.625162 0.446969 180 165 168
-0.078742 -0.626506 0.446942 180 165 168
0.00856117 -0.631338 0.425436 200 188 190
0.0243698 -0.629016 0.420533 202 191 192
0.0266529 -0.629036 0.420005 202 190 194
0.0379582 -0.628088 0.416947 205 193 197
0.0403466 -0.628961 0.416817 205 193 195
0.0588631 -0.630153 0.413293 206 194 198
0.0676857 -0.627802 0.410319 206 194 198
-0.104893 -0.625561 0.451705 197 185 187
-0.0880578 -0.622096 0.444886 182 168 170
-0.0769358 -0.627079 0.443865 180 165 168
-0.033207 -0.627399 0.431598 197 185 187
-0.026366 -0.625414 0.428831 198 184 187
-0.0126303 -0.630252 0.427495 199 187 189
0.0146593 -0.628943 0.420068 202 191 192
0.0192973 -0.629959 0.419429 204 192 194
0.0237827 -0.629117 0.417972 205 193 195
0.0444162 -0.629872 0.413586 207 195 199
0.0489788 -0.629735 0.412509 206 194 198
0.055683 -0.62855 0.410493 206 194 198
0.0761326 -0.627221 0.405573 207 195 197
0.0906835 -0.630442 0.404147 208 197 198
-0.102698 -0.623582 0.44729 188 173 178
-0.0955356 -0.622499 0.444573 185 171 174
-0.072772 -0.627156 0.439877 185 171 176
0.0278427 -0.630148 0.414761 205 193 197
-0.100641 -0.622454 0.443344 190 178 182
-0.0296975 -0.627167 0.425042 197 185 187
-0.0137256 -0.630431 0.422349 200 188 190
-0.00912605 -0.631672 0.421739 201 190 191
0.0113587 -0.630868 0.416278 204 192 194
0.0454743 -0.629977 0.407942 208 196 200
0.0476273 -0.628991 0.407015 209 197 201
0.0868975 -0.629965 0.399227 209 197 201
-0.0849252 -0.623345 0.436196 184 170 173
-0.066706 -0.625851 0.431977 195 180 185
0.0792476 -0.629796 0.397976 211 198 203
0.0862397 -0.63004 0.396682 211 199 201
0.0255695 -0.631305 0.404944 208 197 198
0.0457811 -0.633774 0.398735 209 197 201
0.0473226 -0.632795 0.39528 212 200 204
-0.0951729 -0.5793 0.406806 209 197 203
-0.0772536 -0.5914 0.406643 201 189 193
-0.0751352 -0.591802 0.406199 206 194 198
-0.0687726 -0.592956 0.404857 206 194 198
-0.0626448 -0.597677 0.405134 205 193 197
-0.0585225 -0.601092 0.405438 204 190 194
-0.099321 -0.575584 0.404001 212 203 206
-0.0627896 -0.593073 0.400671 209 197 201
-0.0352942 -0.606015 0.398627 205 193 197
-0.111993 -0.572435 0.404116 214 204 207
-0.10995 -0.57297 0.403703 214 204 209
-0.0976578 -0.576004 0.401197 215 205 210
-0.0936661 -0.577852 0.400763 215 205 210
-0.0878013 -0.581925 0.400712 215 205 210
-0.0671888 -0.588657 0.397542 214 204 209
-0.0462408 -0.594573 0.394201 209 199 203
-0.0420755 -0.597863 0.394454 208 198 201
-0.0357159 -0.601362 0.394222 209 197 201
-0.0206047 -0.608324 0.393198 208 197 198
-0.0162004 -0.611426 0.393375 207 195 197
-0.0118292 -0.611723 0.392394 209 195 197
-0.122537 -0.569569 0.403783 214 207 212
-0.0999678 -0.574541 0.398828 218 208 214
-0.0739135 -0.587468 0.396471 216 206 212
-0.0634321 -0.589281 0.394244 217 207 211
-0.0550277 -0.590578 0.39244 215 205 208
-0.0445012 -0.592006 0.390158 212 203 206
-0.0340137 -0.597832 0.389775 212 203 206
-0.0254871 -0.59958 0.388272 211 202 205
0.00293193 -0.612424 0.386468 209 197 201
0.00948616 -0.612615 0.384967 209 197 201
0.0207374 -0.616467 0.383903 207 195 197
0.0254042 -0.619244 0.383968 209 198 199
0.0504795 -0.624125 0.380364 195 180 185
-0.0806088 -0.586195 0.395393 219 210 213
-0.0743429 -0.587383 0.394072 219 209 215
-0.0021077 -0.609397 0.3839 213 201 205
0.0373987 -0.613378 0.376269 207 195 201
0.0398114 -0.615165 0.37646 207 195 199
0.0444355 -0.616855 0.376125 205 193 197
0.0492174 -0.619435 0.37613 201 189 193
0.0651161 -0.621215 0.373459 181 165 166
0.0695402 -0.620846 0.372389 167 151 152
-0.129631 -0.57983 0.405224 191 181 187
-0.103048 -0.575671 0.395317 217 207 213
-0.0990823 -0.577552 0.394877 217 207 213
-0.0889115 -0.580758 0.393144 219 209 215
-0.0496789 -0.59219 0.386667 219 210 213
-0.0475746 -0.592466 0.386209 219 210 213
-0.0328818 -0.599719 0.385238 218 208 214
-0.028614 -0.599204 0.383917 218 209 212
0.0168678 -0.609802 0.376982 212 203 206
0.0213713 -0.611675 0.376688 214 202 208
0.0278953 -0.611626 0.375167 213 200 207
-0.125793 -0.569613 0.397489 217 207 213
-0.1229 -0.565715 0.39504 215 205 210
-0.103566 -0.576469 0.393347 217 207 213
-0.0975454 -0.578828 0.392478 218 208 214
-0.0956122 -0.580205 0.39245 218 208 214
-0.0853976 -0.583335 0.390692 219 210 213
-0.081253 -0.584165 0.38982 219 210 213
-0.0790859 -0.583651 0.388991 219 210 213
-0.0480386 -0.592354 0.383816 219 210 213
-0.0396905 -0.596152 0.383104 219 210 213
-0.00549614 -0.605391 0.378065 218 209 212
0.00100305 -0.60659 0.376956 217 207 213
0.013927 -0.606889 0.373986 215 205 210
0.0250578 -0.610624 0.372889 215 205 210
0.0491477 -0.611724 0.367949 211 198 205
0.0511824 -0.610671 0.36709 211 198 205
0.0649591 -0.614395 0.365644 205 192 199
0.073501 -0.61267 0.363198 193 181 185
-0.117554 -0.569078 0.392281 216 206 212
-0.115696 -0.570525 0.392274 216 206 212
-0.113673 -0.571064 0.391862 216 206 212
-0.111648 -0.571594 0.391449 214 207 212
-0.105705 -0.57404 0.390601 217 207 213
-0.0859109 -0.584131 0.388702 218 209 212
-0.0816672 -0.584045 0.38744 219 210 213
-0.0694454 -0.589087 0.38595 219 210 213
-0.0631088 -0.589197 0.384224 219 210 213
-0.0506414 -0.59288 0.382262 219 210 213
-0.0464359 -0.593424 0.381345 219 210 213
-0.0338356 -0.597638 0.379677 219 210 213
0.00272209 -0.608414 0.374757 218 208 214
0.00488081 -0.608477 0.374262 217 207 213
0.0070396 -0.608531 0.373767 218 208 214
0.0420389 -0.611935 0.367069 217 207 213
0.0726945 -0.611644 0.360442 206 193 200
0.0806595 -0.618377 0.361456 155 146 147
-0.121588 -0.566036 0.389945 215 205 210
-0.117414 -0.566244 0.388733 216 206 212
-0.0841472 -0.583504 0.3855 219 210 213
-0.0818833 -0.582078 0.384293 218 209 212
-0.077669 -0.58195 0.383036 219 210 213
-0.0737982 -0.585466 0.383307 218 209 212
-0.0698781 -0.588957 0.383564 219 210 213
-0.0593179 -0.588783 0.380565 219 210 213
-0.0322037 -0.597715 0.376811 221 211 214
-0.0258507 -0.59829 0.375397 219 209 215
0.00655283 -0.609344 0.371697 217 207 211
0.0302033 -0.608426 0.365837 216 206 212
0.0587626 -0.610805 0.360508 215 205 210
-0.10456 -0.575175 0.385861 215 208 211
-0.086405 -0.581111 0.382796 218 209 212
-0.0844524 -0.582444 0.382746 218 209 212
-0.0619044 -0.589246 0.379015 219 210 213
-0.0556985 -0.591099 0.378031 219 210 213
-0.0536544 -0.592318 0.377947 219 210 213
-0.0368827 -0.595284 0.374628 219 210 213
-0.0284629 -0.598896 0.373839 219 210 213
-0.0263437 -0.599079 0.373366 219 210 213
-0.0220948 -0.600352 0.372776 219 210 213
-0.0178628 -0.599724 0.371465 219 210 213
0.00804033 -0.607385 0.368088 218 209 212
0.0101898 -0.607421 0.367592 218 209 212
0.0449292 -0.609621 0.360533 216 206 212
0.0581485 -0.610679 0.358094 215 205 210
0.0712592 -0.610481 0.355284 209 199 205
0.0762859 -0.613757 0.355508 196 186 190
-0.104652 -0.573201 0.382734 217 209 212
-0.0868068 -0.580956 0.380436 218 208 214
-0.0685835 -0.588089 0.377985 219 210 213
-0.0602038 -0.588479 0.375822 219 210 213
-0.0415381 -0.593738 0.372813 219 210 213
-0.00549986 -0.604026 0.367588 218 209 212
0.0204568 -0.608264 0.363033 218 208 214
0.068307 -0.609624 0.353081 214 204 209
-0.132092 -0.570474 0.387696 176 163 172
-0.129147 -0.566567 0.385328 208 197 205
-0.100709 -0.57217 0.378789 216 206 212
-0.0831061 -0.58161 0.377212 218 209 212
-0.0790936 -0.58332 0.376713 219 210 213
-0.056544 -0.589846 0.372919 219 210 213
-0.0482874 -0.592822 0.371821 219 210 213
-0.0419812 -0.592637 0.370081 219 210 213
-0.023118 -0.597227 0.366942 219 210 213
0.0262401 -0.607095 0.358794 217 207 213
0.032982 -0.609759 0.358269 218 208 214
0.0395546 -0.610465 0.35707 217 207 213
0.0417093 -0.610369 0.356559 216 206 212
0.0800736 -0.616735 0.350851 154 147 147
-0.107261 -0.571453 0.378092 216 206 212
-0.101216 -0.572905 0.376837 217 207 211
-0.0932553 -0.575645 0.375521 218 209 212
-0.0795047 -0.583142 0.374359 218 209 212
-0.0610837 -0.588131 0.371096 219 210 213
-0.0383108 -0.594782 0.367499 219 210 213
-0.0362139 -0.594997 0.367034 219 210 213
-0.0341285 -0.59614 0.366919 219 210 213
-0.0257177 -0.596883 0.365041 219 210 213
-0.0151289 -0.600436 0.363703 219 210 213
0.0171891 -0.607948 0.35873 218 208 214
0.023442 -0.606019 0.356573 218 208 214
0.0324023 -0.609594 0.355867 218 208 214
0.040998 -0.609267 0.353835 216 206 212
0.0451656 -0.608112 0.352494 216 206 212
0.0515919 -0.607723 0.350959 216 206 212
0.0650688 -0.610455 0.349115 216 206 212
0.0763529 -0.612166 0.347424 203 193 197
-0.123468 -0.566133 0.378676 215 205 210
-0.0800096 -0.583879 0.372374 218 209 212
-0.0408532 -0.593432 0.365245 219 210 213
-0.0178197 -0.596359 0.360438 219 210 213
-0.0135726 -0.598491 0.360167 218 209 212
0.0164769 -0.605886 0.355681 218 208 214
0.0186107 -0.605879 0.355184 218 208 214
0.0336476 -0.606526 0.352003 217 207 213
0.0357827 -0.60645 0.351498 217 207 213
0.0554092 -0.608184 0.347859 216 206 212
0.0575494 -0.60802 0.347344 216 206 212
0.0598416 -0.608784 0.347138 216 206 212
0.061984 -0.608602 0.346621 216 206 212
-0.101958 -0.572515 0.372183 215 205 208
-0.0959163 -0.573889 0.370916 216 206 210
-0.0941444 -0.576174 0.371227 216 206 210
-0.0822705 -0.581439 0.369737 219 210 213
-0.0558559 -0.590499 0.365742 219 210 213
-0.0433495 -0.591125 0.362651 219 210 213
-0.0392132 -0.592516 0.362077 219 210 213
-0.028792 -0.59444 0.360094 219 210 213
-0.00550831 -0.60246 0.357215 218 209 212
0.00532295 -0.606541 0.356095 218 209 212
0.0159222 -0.605693 0.353298 216 206 212
0.0269564 -0.609342 0.352086 217 207 213
0.0352017 -0.606259 0.349118 218 208 214
0.0682803 -0.610635 0.34359 215 205 210
-0.0493577 -0.130033 0.197514 127 115 117
-0.127921 -0.563697 0.374473 214 204 209
-0.122502 -0.568111 0.374382 215 205 210
-0.11834 -0.568287 0.373188 215 205 210
-0.0846086 -0.579906 0.367474 218 209 212
-0.0785877 -0.581994 0.366526 218 209 212
-0.0355201 -0.59272 0.3588 219 210 213
-0.0271886 -0.59628 0.357948 218 209 212
-0.0209363 -0.59392 0.355529 219 210 213
-0.0102643 -0.602068 0.355808 218 209 212
0.0153685 -0.605489 0.35092 218 209 212
0.0435085 -0.608493 0.345649 216 206 212
0.0539055 -0.60592 0.342487 216 206 212
-0.133164 -0.566854 0.374846 200 190 195
-0.100821 -0.573469 0.367489 216 206 210
-0.0831753 -0.581935 0.365422 218 209 212
-0.0689274 -0.585404 0.362691 218 209 212
-0.0359777 -0.591553 0.356117 219 210 213
0.00613418 -0.60238 0.349558 218 209 212
0.0190662 -0.605252 0.347556 217 207 211
0.0339335 -0.6049 0.344063 216 206 212
0.0575479 -0.605374 0.339098 215 205 210
0.0711351 -0.608862 0.337484 215 205 210
-0.133095 -0.564823 0.371782 201 191 196
-0.126412 -0.562915 0.369089 212 202 208
-0.062995 -0.583322 0.357986 218 209 212
-0.0610133 -0.584561 0.357883 219 210 213
-0.0487901 -0.588083 0.35586 218 209 212
-0.046694 -0.587388 0.355067 218 209 212
-0.0135041 -0.597734 0.350259 218 209 212
-0.00718058 -0.598967 0.349146 218 209 212
-0.000833005 -0.600123 0.34802 218 208 214
0.0332482 -0.603728 0.341395 216 206 212
0.0659056 -0.607207 0.335564 215 205 210
-0.097543 -0.573898 0.362018 216 206 210
-0.0819366 -0.581847 0.360326 218 209 212
-0.0798988 -0.582225 0.359889 217 207 211
-0.0778597 -0.582595 0.35945 217 207 211
-0.0717352 -0.583653 0.358127 218 209 212
-0.0223961 -0.595097 0.349163 218 209 212
0.00716901 -0.601937 0.344355 217 207 211
0.0520915 -0.605257 0.335398 216 206 212
0.0563281 -0.604923 0.334381 216 206 212
0.0608738 -0.606442 0.333939 215 205 210
-0.122945 -0.56262 0.363332 214 204 209
-0.0842651 -0.580276 0.358096 217 207 211
-0.0598302 -0.584346 0.352798 219 210 213
-0.0249726 -0.593747 0.346976 219 210 213
-0.0208306 -0.593082 0.345718 219 210 213
-0.0103364 -0.597433 0.344619 218 209 212
0.00650897 -0.599787 0.341388 218 209 212
0.00854227 -0.598856 0.340595 217 207 211
0.0194299 -0.603568 0.33967 216 206 212
0.0278766 -0.603386 0.337688 216 206 212
0.0579852 -0.605446 0.331807 216 206 212
0.0687327 -0.60536 0.32953 215 205 210
-0.115409 -0.564466 0.359417 212 205 207
-0.0945248 -0.576108 0.357253 216 206 210
-0.0926326 -0.577462 0.357169 217 207 211
-0.0866845 -0.579619 0.356216 217 207 211
-0.0705251 -0.583465 0.353046 217 207 211
-0.0480839 -0.587549 0.348438 218 209 212
-0.0418977 -0.587286 0.346745 218 209 212
-0.039847 -0.587496 0.346288 218 209 212
-0.0275325 -0.593325 0.345117 218 209 212
-0.002452 -0.598412 0.340677 218 209 212
0.0102315 -0.600502 0.338381 217 207 211
0.0273087 -0.603126 0.335342 216 206 212
0.0357378 -0.602806 0.333351 216 206 212
0.059488 -0.605006 0.328948 216 206 212
0.0658258 -0.604389 0.327416 215 205 210
0.068106 -0.605111 0.327182 215 205 210
-0.14138 -0.576307 0.368762 126 117 118
-0.126754 -0.557325 0.358162 212 203 206
-0.109839 -0.565684 0.355903 215 205 208
-0.106337 -0.569419 0.356113 215 205 208
-0.102364 -0.570347 0.355274 216 206 210
-0.0808041 -0.578622 0.351928 217 207 211
-0.06476 -0.5832 0.349072 218 209 212
-0.0567223 -0.586241 0.347936 218 209 212
-0.0423821 -0.587949 0.344758 218 209 212
-0.011384 -0.595938 0.339646 218 209 212
0.0139564 -0.601174 0.335367 216 206 212
0.0204247 -0.603006 0.334485 216 206 212
0.0373784 -0.603386 0.330802 215 205 210
0.0505622 -0.606394 0.328919 215 205 210
0.0695908 -0.604619 0.324326 215 205 210
-0.131523 -0.558663 0.357763 212 203 206
-0.125127 -0.557589 0.355503 212 203 206
-0.0571572 -0.585951 0.345628 218 209 212
-0.0489795 -0.586975 0.343819 218 209 212
-0.0139921 -0.594602 0.337494 217 207 211
0.00281732 -0.598933 0.334873 217 207 211
0.00705795 -0.599932 0.334201 216 206 210
0.0133362 -0.599937 0.332741 216 206 212
0.023981 -0.601681 0.330871 215 205 210
0.0261759 -0.602575 0.330666 215 205 210
0.034359 -0.600352 0.328111 218 205 212
0.0365668 -0.601203 0.327899 218 205 212
0.0538983 -0.603888 0.325006 215 204 212
-0.118195 -0.562174 0.352665 212 203 206
-0.11624 -0.562686 0.352256 214 204 207
-0.114447 -0.564114 0.352188 215 205 208
-0.110679 -0.566025 0.351703 214 204 207
-0.0953907 -0.573385 0.349691 216 206 210
-0.0795792 -0.578397 0.346904 216 206 210
-0.0656712 -0.583551 0.344794 217 207 211
-0.0616682 -0.585089 0.344222 217 207 211
-0.0165833 -0.593245 0.335351 217 207 211
-0.014517 -0.593348 0.334879 217 207 213
-0.0040551 -0.596596 0.3334 217 207 211
0.000202195 -0.598601 0.333032 217 207 211
0.0085471 -0.598692 0.331099 216 206 210
0.0127917 -0.599641 0.330417 216 206 210
0.0169705 -0.599602 0.329441 215 205 210
0.0275119 -0.600309 0.327273 215 205 210
0.0509079 -0.60187 0.322631 215 204 212
0.0571936 -0.601335 0.32112 215 205 210
0.0700905 -0.601932 0.318614 215 204 212
-0.116568 -0.562379 0.349997 214 204 207
-0.083886 -0.576411 0.345161 217 207 211
-0.0779628 -0.578442 0.344181 216 206 210
-0.0601191 -0.586009 0.341791 217 207 211
-0.0478667 -0.587543 0.339076 217 207 211
-0.0417037 -0.587248 0.337398 217 207 211
-0.0396608 -0.587449 0.33694 217 207 211
-0.0273917 -0.592295 0.335388 218 209 212
-0.00457201 -0.596286 0.331087 216 206 210
0.0102296 -0.600297 0.328872 216 206 210
0.0332101 -0.599754 0.323475 215 205 210
0.0525448 -0.602353 0.320079 216 204 212
0.0609241 -0.601589 0.318061 214 203 211
0.0691152 -0.599739 0.315772 214 204 209
0.0712002 -0.599493 0.315265 215 205 210
-0.0517005 -0.125834 0.194254 50 21 15
-0.130693 -0.559248 0.350926 211 202 205
-0.109393 -0.56588 0.34676 214 204 207
-0.101805 -0.569586 0.345749 215 205 208
-0.0957381 -0.56995 0.344153 215 205 208
-0.0919007 -0.571712 0.343629 216 206 210
-0.0782633 -0.577177 0.341579 216 206 210
-0.0764411 -0.57941 0.341781 215 205 208
-0.074515 -0.580693 0.341661 216 206 210
-0.0543838 -0.585542 0.337831 217 207 211
-0.00929887 -0.593924 0.32915 216 206 212
-0.00301507 -0.596018 0.328302 217 207 211
0.0180382 -0.599903 0.324604 216 206 212
0.0326372 -0.599439 0.321165 215 205 210
0.0390074 -0.600068 0.319953 215 205 210
0.0477534 -0.602375 0.318765 216 204 212
0.0622378 -0.600118 0.314981 215 202 211
-0.11899 -0.560298 0.34557 212 203 206
-0.117219 -0.561734 0.345494 214 204 207
-0.0902874 -0.57178 0.340939 216 206 210
-0.0862082 -0.571615 0.339763 216 206 210
-0.0649686 -0.583834 0.337786 216 206 210
-0.0630065 -0.585074 0.337649 217 207 211
-0.0324502 -0.590372 0.331421 216 206 210
-0.0139533 -0.592472 0.32751 216 206 210
-0.0118672 -0.593514 0.327327 216 206 210
0.0318492 -0.5972 0.31832 216 204 210
0.036111 -0.597948 0.317605 215 205 210
0.0470229 -0.6011 0.316188 216 204 212
-0.123181 -0.558923 0.344143 212 203 206
-0.121425 -0.560372 0.344067 212 203 206
-0.119484 -0.560888 0.343659 212 203 206
-0.11398 -0.564249 0.343082 214 204 207
-0.111864 -0.563804 0.342342 214 204 207
-0.10615 -0.566145 0.34142 214 204 207
-0.092513 -0.570097 0.33879 216 206 210
-0.0885613 -0.570886 0.337937 215 205 208
-0.077049 -0.576845 0.336603 216 206 210
-0.0750489 -0.577183 0.336166 216 206 210
-0.0731336 -0.578458 0.336038 216 206 210
-0.0711276 -0.57878 0.335599 217 207 211
-0.0653864 -0.583492 0.335502 216 206 210
-0.0471293 -0.585816 0.331451 216 206 210
-0.0308788 -0.591145 0.328961 217 207 211
-0.0144517 -0.592127 0.325221 216 206 210
0.00215111 -0.595451 0.322269 216 206 210
0.00415981 -0.594511 0.321512 216 206 210
0.0229942 -0.597175 0.317983 215 205 210
0.0418784 -0.598193 0.314094 215 204 212
0.0503155 -0.598529 0.312368 215 202 211
0.0649969 -0.59807 0.309121 216 204 212
-0.0506921 -0.124579 0.192773 136 57 52
-0.0523818 -0.128937 0.194567 68 24 16
-0.106491 -0.565795 0.339174 214 204 207
-0.102431 -0.565757 0.338018 214 204 207
-0.100612 -0.567131 0.337916 214 204 207
-0.0966855 -0.567982 0.337073 215 205 208
-0.0734469 -0.577156 0.333466 216 206 210
-0.0675219 -0.579043 0.332452 217 207 211
-0.0535101 -0.581901 0.329637 216 206 210
-0.0515848 -0.584048 0.329783 216 206 210
-0.0495606 -0.584281 0.329331 216 206 212
-0.0475358 -0.584506 0.328879 217 207 213
-0.0190819 -0.589659 0.323309 216 206 210
-0.00268278 -0.591198 0.319827 215 205 208
0.0161491 -0.596012 0.316882 215 205 210
0.0222557 -0.594906 0.315161 214 204 209
0.0243172 -0.594841 0.314675 214 204 209
0.0286439 -0.596603 0.31423 214 204 209
0.0624692 -0.598911 0.307583 215 202 211
-0.053209 -0.126474 0.193897 55 24 16
-0.139805 -0.556529 0.343881 171 159 163
-0.133213 -0.554575 0.341367 210 200 204
-0.123799 -0.55822 0.339678 212 203 206
-0.106831 -0.565434 0.336933 214 204 207
-0.0912705 -0.569776 0.333871 215 205 208
-0.077833 -0.576126 0.332083 215 205 208
-0.0538907 -0.580579 0.327081 216 206 212
-0.0277293 -0.589763 0.323179 216 206 210
-0.0154886 -0.589486 0.320103 216 206 210
-0.0032409 -0.58987 0.317283 215 205 208
0.0302501 -0.597113 0.311718 214 204 209
0.0429069 -0.598307 0.309278 214 201 210
0.0469147 -0.59704 0.308036 215 202 211
0.0532604 -0.597471 0.306798 214 201 210
-0.13159 -0.55477 0.338745 210 200 204
-0.127951 -0.55679 0.338263 211 202 205
-0.116733 -0.561752 0.336455 212 203 206
-0.105216 -0.565516 0.334279 215 205 208
-0.103263 -0.56596 0.33386 214 204 207
-0.0918787 -0.571289 0.332246 215 205 208
-0.0879283 -0.572062 0.331389 215 205 208
-0.0643354 -0.578883 0.327054 216 206 212
-0.0503497 -0.581625 0.324223 216 206 210
-0.0423013 -0.582467 0.322418 216 206 212
-0.0282009 -0.587467 0.320347 215 205 208
-0.0241419 -0.586767 0.319144 215 205 208
-0.0180362 -0.588055 0.318028 215 205 208
-0.0159812 -0.589109 0.317837 216 206 210
-0.00980219 -0.591261 0.316976 215 205 208
0.0150599 -0.595279 0.312321 214 204 209
0.0210606 -0.59321 0.310352 215 205 210
0.0380601 -0.597257 0.30773 212 202 210
0.0442581 -0.596832 0.306253 214 201 210
0.0479708 -0.59363 0.304524 214 201 210
0.0652066 -0.596782 0.301773 213 200 209
-0.0514962 -0.124435 0.192247 130 59 49
-0.139939 -0.553964 0.338771 178 166 170
-0.13188 -0.554396 0.336529 210 200 204
-0.124782 -0.559337 0.335866 211 202 205
-0.115115 -0.561864 0.333815 212 203 206
-0.0626809 -0.57782 0.324072 216 206 210
-0.0468401 -0.583589 0.32164 216 206 210
-0.00421901 -0.590066 0.31303 215 205 208
-0.00213298 -0.591064 0.312823 215 205 208
-8.9983e-05 -0.591091 0.31235 215 205 208
0.0311792 -0.596265 0.306675 212 202 208
0.0436702 -0.596455 0.30398 214 201 210
0.0520578 -0.596732 0.302248 214 201 210
0.0541203 -0.59654 0.301752 213 200 209
0.062361 -0.595687 0.299765 213 200 209
0.0688828 -0.596872 0.298738 212 199 206
-0.135561 -0.551042 0.334484 210 200 204
-0.13026 -0.55456 0.333917 210 200 204
-0.117368 -0.560987 0.332006 214 204 207
-0.111401 -0.561492 0.330459 212 203 206
-0.104091 -0.566127 0.329709 214 204 207
-0.0868087 -0.572604 0.326781 215 205 208
-0.079094 -0.575922 0.325637 215 205 208
-0.0392217 -0.583969 0.317574 216 206 210
-0.0331828 -0.585428 0.316479 216 206 210
-0.0271174 -0.585852 0.3151 215 205 208
-0.0250989 -0.585014 0.314369 215 205 208
-0.0068029 -0.588661 0.310983 214 204 207
0.0305046 -0.594913 0.304159 214 202 208
0.0347278 -0.595653 0.30343 214 201 210
0.0535173 -0.596155 0.299486 213 200 209
-0.109793 -0.561555 0.327832 212 203 206
-0.102337 -0.565217 0.326765 214 204 207
-0.0911206 -0.571446 0.325407 214 204 207
-0.0635706 -0.577968 0.319883 216 206 210
-0.0235492 -0.585684 0.311934 215 205 208
-0.0154449 -0.587033 0.310344 215 203 207
0.0113121 -0.593168 0.305748 214 202 206
0.0214555 -0.591962 0.303099 214 202 208
0.0318807 -0.593441 0.301172 213 200 207
0.0590793 -0.595135 0.295741 213 200 207
-0.138004 -0.549677 0.33049 215 205 208
-0.112046 -0.56068 0.326039 212 203 206
-0.106103 -0.561103 0.324496 214 204 205
-0.0874332 -0.570836 0.32203 215 205 208
-0.0836079 -0.572508 0.321457 215 205 208
-0.0718446 -0.575436 0.319131 215 205 208
-0.0639795 -0.57755 0.317651 216 206 210
-0.0501628 -0.58215 0.315354 215 205 208
-0.0321076 -0.586676 0.312066 215 205 208
-0.017956 -0.586529 0.308569 214 204 207
-0.00570326 -0.589808 0.306537 214 204 207
0.0105643 -0.589855 0.302752 212 203 206
0.0146297 -0.589784 0.301799 212 203 206
0.0227571 -0.589542 0.299888 213 200 207
0.0312047 -0.592064 0.298684 213 200 207
0.0438333 -0.594142 0.296472 213 200 207
0.052021 -0.59343 0.29451 212 199 208
0.0564184 -0.594947 0.293982 212 199 208
-0.132817 -0.551871 0.327413 210 200 204
-0.108513 -0.561176 0.323008 212 203 206
-0.098994 -0.564276 0.32121 214 204 207
-0.0917203 -0.56966 0.320669 215 205 208
-0.0821171 -0.573384 0.319086 215 205 208
-0.0682792 -0.575602 0.316029 215 205 208
-0.0564907 -0.579111 0.313922 214 204 207
-0.0425772 -0.582529 0.311313 215 205 208
-0.0405712 -0.58271 0.310859 214 204 207
-0.0365749 -0.584013 0.310213 215 205 208
-0.0305513 -0.58639 0.309364 215 205 208
-0.0225044 -0.583009 0.306486 212 203 206
-0.0204979 -0.583108 0.306027 214 204 207
-0.014404 -0.586259 0.305406 212 203 206
-0.000220213 -0.587525 0.302385 214 204 207
0.0222069 -0.589115 0.297656 214 202 206
0.0326769 -0.591526 0.295961 212 199 206
0.0390319 -0.593063 0.294971 213 200 207
0.0412013 -0.59388 0.294714 212 199 206
-0.1308 -0.550126 0.324225 210 200 204
-0.12418 -0.556897 0.324104 211 202 205
-0.118439 -0.558398 0.322876 211 202 205
-0.106912 -0.561189 0.320395 212 203 206
-0.0843529 -0.571648 0.317018 215 205 208
-0.0705716 -0.573914 0.313975 215 205 208
-0.0608249 -0.577213 0.312318 215 205 208
-0.0568538 -0.57771 0.311429 215 205 208
-0.047062 -0.582667 0.310253 214 204 207
-0.0289901 -0.583186 0.305898 214 204 205
-0.00275285 -0.587067 0.300627 214 202 206
0.0216578 -0.588678 0.29543 212 199 206
0.0591351 -0.592705 0.288289 212 199 208
-0.141351 -0.55062 0.325243 180 168 172
-0.127702 -0.552618 0.32184 210 200 204
-0.121019 -0.559346 0.321679 211 202 205
-0.0904806 -0.569161 0.315819 212 203 206
-0.0768672 -0.572543 0.313074 214 204 207
-0.0749005 -0.572858 0.312639 215 205 208
-0.0710476 -0.574424 0.312037 215 205 208
-0.0691539 -0.575675 0.311868 215 205 208
-0.0612999 -0.577726 0.310369 214 204 207
-0.0593143 -0.577978 0.309925 215 205 208
-0.0533029 -0.577724 0.308325 214 204 207
-0.0414632 -0.581821 0.30641 214 204 207
-0.039463 -0.581993 0.305956 214 204 207
-0.0214631 -0.581244 0.301346 212 203 206
-0.0194366 -0.583272 0.301384 212 203 206
-0.0133437 -0.586404 0.300738 211 202 205
-0.0112972 -0.587432 0.300518 212 203 206
0.00278823 -0.586647 0.296998 212 203 206
0.00474389 -0.585671 0.29629 212 200 204
0.0108526 -0.586572 0.295114 213 201 205
0.0149632 -0.587455 0.294402 213 201 205
0.0437181 -0.589792 0.288601 211 198 207
-0.122865 -0.556522 0.319318 210 200 204
-0.112811 -0.556106 0.316407 212 203 206
-0.103867 -0.562106 0.315466 211 202 205
-0.0979449 -0.562397 0.313928 214 204 207
-0.0791109 -0.570806 0.311034 215 205 208
-0.0751006 -0.570483 0.309897 215 205 208
-0.0199157 -0.58281 0.299174 212 203 206
-0.0179145 -0.582893 0.298714 212 203 206
-0.00381301 -0.585188 0.29595 213 201 205
0.000258253 -0.586186 0.295252 212 203 206
0.0204728 -0.586804 0.290766 211 198 205
0.0225815 -0.587694 0.290517 210 200 206
0.0245995 -0.587605 0.290041 212 199 206
0.0432663 -0.590307 0.286601 209 197 205
0.059463 -0.5887 0.282713 211 198 207
0.0633333 -0.587252 0.281529 209 197 205
-0.126575 -0.553172 0.317379 210 200 204
-0.12316 -0.556067 0.317138 210 200 204
-0.119172 -0.556112 0.316035 211 202 205
-0.0927599 -0.565006 0.311029 214 204 207
-0.0875268 -0.570885 0.311103 214 204 207
-0.0775306 -0.57066 0.308405 214 204 207
-0.0659251 -0.574347 0.306312 214 204 207
-0.0639553 -0.574614 0.305871 214 204 207
-0.0580404 -0.575366 0.304546 214 204 207
-0.0443099 -0.579744 0.302183 214 204 207
-0.038319 -0.579291 0.300579 212 203 206
-0.0183783 -0.583392 0.29675 211 202 205
0.00370725 -0.58474 0.291875 210 200 204
0.0077192 -0.584703 0.290938 212 200 204
0.00972487 -0.584672 0.290468 212 199 206
0.0342309 -0.587542 0.285665 211 198 205
-0.0560212 -0.130296 0.192813 82 33 24
-0.127055 -0.553645 0.315495 210 200 204
-0.102603 -0.561591 0.310687 212 203 206
-0.0858213 -0.569809 0.308208 212 203 206
-0.0818102 -0.569533 0.30708 214 204 207
-0.0525877 -0.576532 0.301273 214 204 207
-0.0506117 -0.576743 0.300827 214 204 207
-0.0427307 -0.578475 0.299283 212 203 206
-0.00879278 -0.585148 0.292703 211 202 205
0.019296 -0.584887 0.28614 211 198 203
0.027519 -0.58646 0.28468 211 198 205
0.0295293 -0.586348 0.284204 212 199 206
0.0356759 -0.58693 0.282985 211 198 205
0.0376878 -0.586784 0.282506 209 197 205
-0.14823 -0.556007 0.319931 137 131 131
-0.138859 -0.550881 0.316033 211 198 203
-0.119948 -0.55611 0.311975 210 200 204
-0.110428 -0.558436 0.309911 211 202 205
-0.097035 -0.561366 0.306987 214 204 207
-0.0933245 -0.563089 0.306409 212 203 206
-0.0897149 -0.56574 0.306088 214 204 207
-0.0842347 -0.569669 0.305588 212 203 206
-0.0684427 -0.570214 0.301603 214 204 207
-0.0568941 -0.57463 0.299722 212 203 206
-0.0372274 -0.578472 0.295741 212 203 206
-0.0332759 -0.579729 0.295075 211 202 205
-0.0293039 -0.579982 0.294167 212 203 206
-0.0134302 -0.579702 0.290279 211 202 205
-0.00127445 -0.584747 0.288641 211 202 205
0.000622586 -0.582802 0.287726 212 200 204
0.00455345 -0.581808 0.286572 212 200 204
0.00853701 -0.581755 0.28564 212 200 204
0.0187544 -0.584398 0.28395 211 198 203
0.0435369 -0.588723 0.279491 209 197 205
0.0454172 -0.587574 0.278805 209 197 205
0.0492973 -0.586223 0.277639 209 197 205
0.0533111 -0.585808 0.276676 208 195 204
0.0553167 -0.585589 0.276193 208 195 204
-0.125733 -0.553197 0.310763 210 200 204
-0.116622 -0.557522 0.30926 210 200 204
-0.114376 -0.556092 0.308306 211 202 205
-0.11074 -0.557945 0.307748 211 202 205
-0.107083 -0.559771 0.307184 212 203 206
-0.0954548 -0.561257 0.304404 212 203 206
-0.093797 -0.56355 0.304505 212 203 206
-0.0728121 -0.57011 0.300552 212 203 206
-0.0668834 -0.569986 0.298994 212 203 206
-0.0435723 -0.576513 0.294666 212 203 206
-0.035711 -0.579089 0.293341 212 203 206
-0.00378325 -0.584238 0.286914 210 200 204
0.00801527 -0.581253 0.283463 211 198 203
0.0263063 -0.584505 0.280088 209 197 203
0.0282007 -0.58342 0.279406 209 197 203
0.0550262 -0.587035 0.274402 208 195 204
-0.0549418 -0.125744 0.190657 84 41 28
-0.148742 -0.555065 0.315551 141 132 133
-0.146383 -0.553797 0.314588 170 158 162
-0.139382 -0.549917 0.311711 211 198 203
-0.133957 -0.552499 0.310778 211 198 203
-0.130184 -0.553559 0.309967 209 199 203
-0.126404 -0.554588 0.309152 210 200 204
-0.117098 -0.557973 0.307366 211 202 205
-0.0997566 -0.560927 0.303349 212 203 206
-0.0977039 -0.560366 0.302669 212 203 206
-0.0849609 -0.568671 0.301228 212 203 206
-0.0731932 -0.569602 0.298381 212 203 206
-0.063452 -0.570962 0.296199 212 203 206
-0.0440055 -0.576001 0.292489 211 202 205
-0.0143729 -0.579659 0.286152 212 200 202
-0.00842698 -0.579785 0.284774 212 200 204
0.0014831 -0.579834 0.282468 211 198 203
0.0196699 -0.583311 0.279116 209 197 203
0.0296382 -0.582793 0.276759 209 197 203
0.0316304 -0.582664 0.276287 208 196 202
0.0401037 -0.585958 0.275187 209 197 203
-0.0550031 -0.125797 0.190433 88 45 30
-0.139641 -0.549421 0.309559 208 196 200
-0.128574 -0.553576 0.307403 210 200 204
-0.122719 -0.554137 0.305911 210 200 204
-0.120829 -0.554623 0.305501 211 202 205
-0.117046 -0.555571 0.304679 211 202 205
-0.111359 -0.556936 0.303439 211 202 205
-0.104054 -0.560557 0.302291 212 203 206
-0.0943476 -0.561573 0.29993 212 203 206
-0.0890782 -0.566503 0.299665 212 203 206
-0.0716295 -0.569372 0.29578 212 203 206
-0.0580622 -0.572131 0.292956 212 203 206
-0.0543101 -0.575483 0.292782 212 203 206
-0.0444371 -0.57548 0.290319 212 203 206
-0.0306646 -0.5765 0.287174 213 201 203
-0.0247512 -0.577792 0.28604 212 200 204
0.00902721 -0.581157 0.27887 209 197 201
0.0352846 -0.583814 0.273568 208 196 202
0.0515214 -0.584306 0.27014 208 195 204
0.053671 -0.585058 0.26985 207 194 203
0.0573461 -0.582657 0.268515 208 195 204
0.0613242 -0.582164 0.267557 207 194 203
0.0733077 -0.602337 0.269621 194 184 189
0.140024 -0.637172 0.264088 136 167 186
-0.137592 -0.547592 0.306472 208 196 200
-0.132201 -0.550142 0.305533 211 198 203
-0.122817 -0.552677 0.303502 210 200 204
-0.119051 -0.553637 0.302683 211 202 205
-0.104225 -0.559082 0.299884 212 203 206
-0.0946848 -0.561048 0.297782 212 203 206
-0.0912339 -0.564662 0.297682 212 203 206
-0.0855662 -0.566671 0.296645 212 203 206
-0.064242 -0.569912 0.291877 212 203 206
-0.0603526 -0.570399 0.291 212 203 206
-0.046867 -0.575745 0.288829 211 202 205
-0.0448671 -0.574949 0.288154 211 202 205
-0.0330833 -0.575846 0.285463 211 202 205
-0.0311177 -0.575968 0.285013 212 200 204
-0.025215 -0.57726 0.283877 212 200 204
-0.0212735 -0.577432 0.282969 212 200 204
-0.00352966 -0.577808 0.278857 209 197 201
0.016432 -0.580392 0.274845 209 197 203
0.0326105 -0.582459 0.271682 208 196 202
0.0465148 -0.581281 0.268367 208 195 204
0.0509269 -0.583786 0.267974 207 194 203
0.0607146 -0.581645 0.265399 207 194 203
0.0684548 -0.590522 0.265745 202 192 198
-0.146205 -0.548566 0.307008 179 167 171
-0.111969 -0.555889 0.299153 212 203 206
-0.104695 -0.559507 0.297991 211 201 207
-0.100738 -0.55936 0.296903 212 203 206
-0.0986929 -0.558794 0.296234 212 203 206
-0.0969276 -0.560137 0.296061 212 203 206
-0.0703678 -0.567616 0.290797 212 203 206
-0.0626935 -0.56962 0.289287 212 203 206
-0.0529767 -0.570736 0.28709 211 202 205
-0.00804013 -0.575283 0.277207 208 198 201
0.00791643 -0.57911 0.274349 209 197 203
0.0117906 -0.578032 0.273224 207 197 200
0.0360181 -0.581628 0.26858 207 195 201
0.0436761 -0.578994 0.26632 207 195 201
0.0498896 -0.580339 0.265268 206 193 200
0.0520197 -0.581094 0.264974 207 195 201
0.0579609 -0.580395 0.263547 207 195 201
-0.136027 -0.546149 0.301549 211 198 203
-0.108813 -0.558129 0.296687 211 202 205
-0.0972577 -0.559595 0.293925 212 203 206
-0.0877247 -0.5614 0.29181 210 200 204
-0.078262 -0.563978 0.289912 212 203 206
-0.0725889 -0.565823 0.288854 212 203 206
-0.0610829 -0.568338 0.286476 211 202 205
0.00339402 -0.57765 0.272927 208 196 200
0.0112664 -0.577481 0.271082 207 195 201
0.0191342 -0.577184 0.26923 205 195 201
0.0271007 -0.577736 0.26756 207 195 201
0.0371826 -0.578974 0.265592 207 194 203
0.0571951 -0.578884 0.261229 206 193 200
0.0614766 -0.58032 0.260626 206 193 200
0.156769 -0.635761 0.253292 145 176 193
0.17914 -0.637115 0.249396 151 182 199
-0.134216 -0.5452 0.298773 211 198 203
-0.132365 -0.545724 0.298372 209 197 201
-0.129064 -0.548641 0.298075 212 200 204
-0.118039 -0.552497 0.29588 211 202 205
-0.116162 -0.552956 0.295468 211 202 205
-0.107069 -0.557048 0.293889 211 202 205
-0.0881897 -0.561809 0.289916 212 203 206
-0.0767084 -0.56372 0.287351 212 203 206
-0.0729626 -0.565264 0.286719 212 203 206
-0.0672691 -0.567041 0.285647 212 203 206
-0.0615448 -0.56875 0.284564 211 202 205
-0.0480186 -0.571173 0.281704 210 200 204
-0.0285532 -0.573553 0.277456 212 200 204
-0.0246369 -0.575695 0.276971 211 198 203
-0.00502111 -0.576151 0.272425 208 196 200
0.00877903 -0.576975 0.269408 208 196 202
0.0147531 -0.577767 0.268213 207 195 201
0.0285153 -0.577051 0.264962 207 195 201
0.0426548 -0.578869 0.262226 206 193 200
0.0631861 -0.581449 0.258347 206 193 200
0.149401 -0.637167 0.252563 138 164 183
-0.125804 -0.550036 0.295396 211 198 203
-0.109267 -0.556069 0.29218 211 202 205
0.0160191 -0.575162 0.265249 205 196 199
0.0179751 -0.575076 0.264788 206 194 198
0.021886 -0.574881 0.263865 207 195 201
0.0318844 -0.576208 0.261906 206 193 200
0.0437695 -0.576164 0.259282 206 193 202
0.0561533 -0.578747 0.257136 206 193 200
0.143943 -0.636942 0.251148 141 168 186
0.151118 -0.637025 0.249778 152 183 200
0.160827 -0.637304 0.247978 135 162 178
-0.142537 -0.543811 0.296662 208 196 200
-0.127737 -0.548033 0.293444 210 200 204
-0.118793 -0.552332 0.291889 210 200 204
-0.115218 -0.554195 0.291305 211 202 205
-0.0887539 -0.559706 0.28544 212 203 206
-0.0810396 -0.560036 0.283513 212 203 206
-0.0792417 -0.56131 0.283311 211 202 205
-0.0623309 -0.567604 0.280303 211 202 205
-0.0430694 -0.571503 0.276322 211 198 203
-0.015807 -0.573891 0.270244 208 196 200
-0.0119043 -0.573966 0.269339 207 197 200
-0.00409875 -0.57402 0.267522 207 197 200
0.00382713 -0.575909 0.266071 207 195 201
0.00572099 -0.574891 0.265427 207 195 201
0.0271996 -0.573949 0.260366 206 193 200
0.0392778 -0.575962 0.258099 206 193 200
0.0451476 -0.575392 0.256699 206 193 202
0.0471027 -0.575186 0.256231 205 192 199
0.0553931 -0.577205 0.254849 205 192 199
0.0573549 -0.576958 0.254377 204 194 200
-0.146925 -0.543998 0.295854 184 172 176
-0.113632 -0.554065 0.288776 211 201 207
-0.0835109 -0.561075 0.282276 212 203 206
-0.0684938 -0.566283 0.279487 211 202 205
-0.0569418 -0.567681 0.27687 210 200 204
-0.0454704 -0.571733 0.274846 209 199 203
-0.00848888 -0.573418 0.266315 207 195 199
0.0426152 -0.575007 0.255057 206 193 202
0.0505718 -0.575144 0.253352 203 193 199
0.0526798 -0.57589 0.253044 203 193 199
0.0697984 -0.59251 0.25268 172 168 178
0.156431 -0.635102 0.243541 129 158 176
-0.146917 -0.542491 0.293502 187 175 179
-0.110173 -0.554342 0.285838 211 202 205
-0.0913228 -0.558189 0.281646 211 202 205
-0.0838595 -0.560482 0.280168 211 202 205
-0.0799524 -0.560129 0.279097 210 200 204
-0.0726197 -0.564187 0.278025 211 202 205
-0.0573407 -0.567084 0.274756 210 200 204
-0.0536975 -0.571396 0.274698 210 200 204
-0.0264758 -0.571395 0.268069 209 197 201
-0.00512908 -0.571847 0.263115 207 195 199
0.00852388 -0.572621 0.260113 205 193 197
0.0241612 -0.572889 0.256621 206 193 200
0.0380112 -0.573806 0.25372 205 192 199
0.0459376 -0.574012 0.252023 205 192 199
0.0480318 -0.574775 0.251716 203 193 199
0.0520863 -0.5753 0.250939 203 193 199
0.158138 -0.634897 0.240761 149 178 195
-0.149219 -0.542279 0.292047 164 152 154
-0.135682 -0.543311 0.288527 209 197 201
-0.128323 -0.545346 0.286915 210 200 204
-0.116087 -0.552448 0.284979 210 200 204
-0.108595 -0.554167 0.28332 211 202 205
-0.100638 -0.552872 0.280984 212 203 206
-0.0559859 -0.569615 0.272816 209 199 203
-0.0269284 -0.571767 0.266151 207 197 200
-0.0172643 -0.570126 0.263537 208 196 200
-0.00952967 -0.570243 0.261739 206 194 198
0.00600327 -0.571082 0.258298 206 194 198
0.00994921 -0.57195 0.25756 205 193 197
0.023519 -0.5713 0.254361 205 192 199
0.0374442 -0.573202 0.251625 203 193 199
0.0411967 -0.571855 0.250542 203 193 199
0.0514939 -0.574701 0.248839 204 191 198
-0.145065 -0.54001 0.288442 209 199 203
-0.132045 -0.542799 0.285408 209 199 203
-0.13042 -0.544252 0.285237 209 199 203
-0.128785 -0.5457 0.285064 210 200 204
-0.125094 -0.546673 0.284251 210 200 204
-0.121586 -0.548571 0.283664 210 200 204
-0.110599 -0.552185 0.281418 210 200 206
-0.102815 -0.551879 0.279316 210 200 204
-0.0990807 -0.552641 0.278484 210 200 204
-0.0805491 -0.557939 0.274699 211 202 205
-0.0658734 -0.565941 0.272491 210 200 204
-0.0619668 -0.565428 0.271419 212 200 204
-0.0563875 -0.569001 0.270703 210 200 204
-0.0157791 -0.57053 0.261175 207 195 199
0.00179898 -0.573497 0.25763 205 193 197
0.00943258 -0.571332 0.25547 203 193 197
0.0211405 -0.571782 0.252897 202 192 198
0.0251185 -0.572523 0.252141 202 192 198
0.0329954 -0.572926 0.250459 202 192 198
0.0526924 -0.57288 0.246133 202 190 196
0.0543135 -0.570684 0.245373 204 191 198
0.143437 -0.637611 0.239315 123 153 168
0.150306 -0.636727 0.237804 135 163 183
-0.134122 -0.541684 0.283737 209 197 201
-0.0975269 -0.552391 0.275989 210 200 204
-0.0904315 -0.5567 0.274943 210 200 204
-0.0866642 -0.557358 0.274097 210 200 204
-0.0775264 -0.561793 0.272581 211 202 205
-0.0682497 -0.566051 0.271024 210 200 204
-0.0662544 -0.565318 0.27039 212 200 204
-0.0471483 -0.569288 0.266394 209 197 201
-0.0336062 -0.568268 0.26292 205 196 199
-0.0239714 -0.569691 0.260876 207 195 199
-0.0123586 -0.570945 0.258361 206 194 198
0.00123901 -0.571886 0.255368 205 193 197
0.0361888 -0.570986 0.247303 202 192 198
0.0441982 -0.572179 0.245758 201 191 196
0.061954 -0.571939 0.241868 201 190 198
0.190662 -0.635429 0.227419 151 182 199
-0.145752 -0.53975 0.284525 207 197 200
-0.134581 -0.54202 0.281896 211 198 203
-0.123778 -0.545923 0.279691 210 200 204
-0.114548 -0.548178 0.277645 211 201 207
-0.103422 -0.550636 0.275167 210 200 206
-0.0926397 -0.555731 0.273284 210 200 204
-0.0832359 -0.557355 0.271169 210 200 204
-0.0263553 -0.567997 0.259059 207 195 199
-0.00897293 -0.570335 0.255375 203 193 197
-0.0012486 -0.570295 0.253571 202 192 196
0.0101838 -0.568031 0.250537 202 192 198
0.0121054 -0.567954 0.250085 202 192 198
0.0240322 -0.571264 0.247979 201 191 196
0.0414141 -0.569793 0.243853 201 191 196
0.0436206 -0.57155 0.243682 201 191 196
0.0529677 -0.568459 0.241094 201 190 198
0.155286 -0.63374 0.2315 152 181 199
-0.145493 -0.537247 0.282003 207 197 200
-0.127511 -0.54339 0.278218 209 199 203
-0.118703 -0.547628 0.276614 210 200 204
-0.100157 -0.551726 0.272477 210 200 204
-0.0688354 -0.562824 0.266449 212 200 204
-0.0536896 -0.566508 0.263341 209 197 201
-0.0344653 -0.566001 0.258579 205 196 199
-0.0152624 -0.56865 0.254477 206 194 198
0.00775098 -0.567452 0.248925 202 192 196
0.0155085 -0.568116 0.247273 201 191 196
0.0196284 -0.570861 0.24682 200 190 195
0.0407081 -0.568172 0.241649 201 190 198
0.0563787 -0.568292 0.238252 201 188 197
0.0582996 -0.568027 0.237792 201 188 197
0.0607374 -0.570682 0.237727 200 189 197
-0.0785908 -0.559874 0.266331 210 200 204
-0.0406558 -0.565974 0.258005 204 195 198
0.00334887 -0.565923 0.247613 202 192 196
0.0149003 -0.566476 0.245066 200 190 195
0.0229509 -0.569969 0.243843 200 189 197
0.0401388 -0.567522 0.239597 200 189 197
0.0597869 -0.568086 0.23541 200 188 194
0.145003 -0.635149 0.228993 141 172 192
0.15432 -0.634521 0.22704 140 172 188
0.173009 -0.632785 0.223099 158 188 203
-0.144122 -0.536539 0.277504 207 197 200
-0.133479 -0.540637 0.27532 209 199 203
-0.128014 -0.542113 0.27411 209 199 203
-0.122922 -0.545439 0.27331 212 200 204
-0.119245 -0.546346 0.272491 210 200 204
-0.117221 -0.545826 0.271875 210 200 204
-0.115203 -0.545298 0.271259 210 200 204
-0.113367 -0.545723 0.27085 210 200 204
-0.0956113 -0.554419 0.267696 210 200 204
-0.0824927 -0.556684 0.264734 209 199 203
-0.076854 -0.557541 0.263456 209 199 203
-0.0748763 -0.556834 0.262842 209 199 203
-0.0712063 -0.55833 0.262173 208 198 201
-0.0601502 -0.563626 0.260313 205 196 199
-0.0372177 -0.563584 0.254718 205 193 197
-0.0353144 -0.563694 0.254278 205 193 197
0.000939701 -0.565302 0.246011 201 189 193
0.0143785 -0.565812 0.243019 202 190 196
0.0298758 -0.566768 0.239688 200 190 195
0.0472214 -0.566012 0.235728 200 188 194
0.166318 -0.636246 0.222562 145 176 193
0.190192 -0.634366 0.217641 157 186 201
-0.147935 -0.53479 0.276255 204 195 198
-0.142065 -0.534541 0.274636 208 196 200
-0.140501 -0.536022 0.274452 209 197 201
-0.126441 -0.541938 0.27166 211 198 203
-0.109973 -0.545891 0.267984 210 200 204
-0.0751328 -0.555186 0.260607 209 199 203
-0.0660004 -0.559359 0.25901 207 197 200
-0.0565568 -0.560406 0.256852 207 197 200
-0.0433405 -0.562534 0.253978 204 195 198
-0.0243261 -0.56549 0.249904 204 192 196
-0.00341518 -0.563705 0.244711 201 189 193
0.0426843 -0.564804 0.234474 200 187 196
0.0504545 -0.564874 0.232783 200 187 196
0.0565001 -0.566065 0.23166 199 186 195
0.193337 -0.637652 0.215131 155 184 201
-0.135542 -0.537873 0.271431 209 197 201
-0.126894 -0.542235 0.269824 209 197 201
-0.119778 -0.545028 0.268394 210 200 204
-0.0717466 -0.555021 0.257714 207 197 200
-0.0589592 -0.561497 0.255578 207 197 200
-0.0570648 -0.561692 0.255144 205 196 199
-0.0400145 -0.564082 0.25138 203 193 197
-0.0362247 -0.565296 0.250662 205 193 197
-0.032408 -0.565493 0.24978 204 192 196
-0.0247763 -0.564807 0.247855 204 192 196
-0.0152696 -0.564021 0.245488 201 189 193
-0.0114644 -0.564048 0.244601 204 192 196
0.00572126 -0.564774 0.240736 201 189 195
0.0173245 -0.566224 0.23832 201 189 195
0.0379129 -0.561585 0.232975 200 187 196
0.03994 -0.562369 0.23265 197 187 195
0.0667731 -0.581846 0.229859 179 175 185
-0.152945 -0.536126 0.273822 117 105 109
-0.130566 -0.539651 0.268398 211 198 203
-0.128545 -0.539175 0.267794 209 199 203
-0.125523 -0.542993 0.26758 209 199 203
-0.121677 -0.542947 0.266568 209 199 203
-0.103514 -0.548042 0.262645 210 200 204
-0.10167 -0.548415 0.26223 210 200 204
-0.0721024 -0.554333 0.25568 208 196 200
-0.0594086 -0.561792 0.253695 207 197 200
-0.0556187 -0.562173 0.252826 204 195 198
-0.0536696 -0.561368 0.252226 206 194 198
-0.049838 -0.560717 0.251193 207 195 199
-0.0460573 -0.56102 0.250322 205 193 197
-0.0385577 -0.564496 0.249051 202 192 196
-0.0366534 -0.564606 0.248611 204 192 196
-0.0157347 -0.563328 0.243452 201 189 193
0.00515183 -0.563093 0.238568 201 189 195
0.0090201 -0.563938 0.237812 198 188 194
0.0242154 -0.563057 0.23423 200 188 194
0.0353359 -0.560103 0.231289 196 186 194
0.0475337 -0.564736 0.229307 199 186 195
0.0492838 -0.563516 0.228736 199 186 195
0.142477 -0.634692 0.21991 145 176 195
0.185066 -0.638907 0.212068 150 184 200
-0.116099 -0.541651 0.262932 210 200 204
-0.103963 -0.548325 0.260799 209 199 203
-0.0818672 -0.553278 0.255944 208 198 201
-0.0670269 -0.556312 0.252709 207 195 199
-0.0616138 -0.55991 0.251916 206 194 198
-0.0540633 -0.56067 0.250184 205 193 197
-0.0502842 -0.561003 0.249315 205 193 197
-0.0465028 -0.561307 0.248444 205 193 197
-0.0370607 -0.562918 0.246413 204 192 196
-0.00482459 -0.562614 0.238767 200 188 192
0.0521698 -0.560362 0.225597 198 185 192
0.159044 -0.636219 0.214415 145 176 193
0.184224 -0.638319 0.209727 152 183 200
-0.151039 -0.533472 0.26895 181 169 173
-0.148999 -0.533086 0.268351 205 196 199
-0.145666 -0.535134 0.267757 207 197 200
-0.122189 -0.541578 0.262516 209 199 203
-0.120371 -0.542022 0.262108 209 199 203
-0.114728 -0.542345 0.260695 209 199 203
-0.0951796 -0.550388 0.256864 209 199 203
-0.0637999 -0.558012 0.250148 207 195 199
-0.0601085 -0.559405 0.249447 204 195 198
-0.0298973 -0.560592 0.242332 201 189 193
-0.0204445 -0.561859 0.240281 201 189 193
-0.00912851 -0.560948 0.237498 201 189 193
0.00213908 -0.559762 0.234715 198 188 194
0.00785984 -0.56055 0.233517 197 187 193
0.0115532 -0.559389 0.232504 197 187 193
0.0191721 -0.55994 0.230854 196 186 192
0.0285854 -0.559221 0.228629 199 186 195
0.0599766 -0.563471 0.222321 195 185 193
-0.13106 -0.536637 0.262149 211 198 203
-0.124055 -0.539468 0.26072 209 199 203
-0.118623 -0.540795 0.2595 210 200 206
-0.113354 -0.543023 0.258455 209 199 203
-0.111532 -0.54343 0.258045 208 198 201
-0.108049 -0.545191 0.2574 209 199 203
-0.102554 -0.546324 0.256158 209 199 203
-0.0933701 -0.548063 0.254077 208 198 201
-0.0769688 -0.552686 0.250626 207 197 200
-0.065967 -0.556098 0.248391 206 194 198
-0.0492414 -0.560722 0.244969 204 192 196
-0.0359824 -0.559615 0.241624 201 189 193
-0.0115513 -0.558253 0.235662 198 189 192
0.0186464 -0.559222 0.228857 196 186 192
0.0453534 -0.559682 0.222953 195 183 191
-0.147863 -0.533211 0.264126 205 196 199
-0.140941 -0.5363 0.262719 208 196 200
-0.135544 -0.537828 0.261512 208 196 202
-0.0829812 -0.552124 0.250044 208 198 201
-0.0680316 -0.553184 0.246489 207 195 199
-0.0571118 -0.558345 0.244529 204 192 196
-0.0419517 -0.555594 0.240485 202 190 194
-0.034511 -0.557991 0.239036 200 188 192
-0.0232597 -0.557399 0.236287 199 186 193
-0.0157418 -0.558503 0.234672 196 186 192
-0.0138643 -0.558513 0.234234 197 187 193
0.00302983 -0.558254 0.230281 198 186 190
0.0104555 -0.556951 0.2284 196 186 192
0.033121 -0.557258 0.223323 195 185 193
0.0482272 -0.556517 0.219872 195 185 193
0.0539959 -0.556724 0.218634 197 184 193
0.0560343 -0.557431 0.218285 197 184 193
-0.128144 -0.53713 0.257524 209 199 203
-0.114246 -0.543531 0.254792 209 199 203
-0.0813494 -0.550696 0.247451 205 196 199
-0.0702437 -0.552223 0.24491 203 193 197
-0.0218339 -0.5567 0.233858 198 185 192
-0.00878111 -0.555774 0.23068 198 186 190
0.00621207 -0.556385 0.227299 197 184 191
0.041905 -0.555506 0.219134 195 185 193
0.0573091 -0.556424 0.215866 194 183 191
-0.144698 -0.532878 0.259326 207 195 199
-0.128588 -0.53737 0.255708 209 199 203
-0.106733 -0.541467 0.250639 207 197 200
-0.0999209 -0.545844 0.24948 207 197 200
-0.085487 -0.55037 0.246449 207 197 200
-0.072446 -0.551247 0.243336 203 193 197
-0.06512 -0.55313 0.241783 202 192 196
-0.0464841 -0.553859 0.237359 200 188 194
-0.014865 -0.554052 0.229886 198 186 190
-0.00738836 -0.555006 0.228268 198 186 190
0.00564535 -0.554648 0.225213 197 184 191
0.0340113 -0.556583 0.219038 194 183 191
0.0507938 -0.554544 0.215053 194 183 191
-0.153241 -0.52752 0.258952 150 138 142
-0.150225 -0.530533 0.258529 207 197 200
-0.148452 -0.531082 0.258131 205 196 199
-0.0909379 -0.54578 0.245247 207 197 200
-0.0893652 -0.548048 0.245138 207 197 200
-0.0821227 -0.550194 0.243607 204 195 198
-0.045026 -0.553235 0.234945 199 186 193
-0.0394572 -0.553579 0.233656 199 187 191
-0.0376213 -0.55467 0.233355 199 187 191
-0.0338986 -0.554848 0.232491 198 186 190
-0.0283144 -0.556049 0.231318 198 186 190
-0.0190499 -0.552277 0.228662 197 185 189
-0.0153467 -0.552303 0.227798 197 185 189
-0.0134664 -0.553297 0.227484 197 185 189
-0.00223204 -0.555134 0.225106 197 184 191
0.00700631 -0.553811 0.222813 197 184 191
0.0242306 -0.557688 0.219381 194 184 189
0.0369236 -0.553461 0.216003 194 184 189
0.0579784 -0.55466 0.211499 194 184 189
-0.153683 -0.527744 0.257155 155 143 147
-0.150413 -0.529808 0.256543 204 195 198
-0.143564 -0.53291 0.255126 207 197 200
-0.113048 -0.540761 0.24823 209 199 203
-0.111238 -0.541157 0.247819 208 198 201
-0.103986 -0.542667 0.24617 208 198 201
-0.102015 -0.542051 0.2456 207 197 200
-0.0948918 -0.54439 0.244097 208 198 201
-0.0858886 -0.54691 0.242161 205 196 199
-0.0823372 -0.548457 0.241469 203 193 197
-0.0786606 -0.548993 0.240626 203 193 197
-0.0585048 -0.553385 0.236232 200 188 192
-0.0566487 -0.55356 0.235804 198 188 194
-0.0305966 -0.553239 0.229529 197 185 189
-0.025036 -0.552409 0.228114 197 185 189
-0.010257 -0.55152 0.224545 195 183 187
-0.00836983 -0.552493 0.224225 197 185 189
-0.00276463 -0.553378 0.223033 195 183 189
0.0179017 -0.555376 0.218539 194 184 189
0.0362363 -0.551715 0.213966 193 183 188
0.0380844 -0.551506 0.213528 193 183 188
0.0526726 -0.548579 0.209943 193 183 188
-0.154125 -0.52796 0.255357 143 131 135
-0.150599 -0.529075 0.254565 206 194 198
-0.143281 -0.530264 0.2528 208 196 200
-0.116545 -0.537257 0.246752 208 198 201
-0.106078 -0.541545 0.244606 207 197 200
-0.0933711 -0.543952 0.241706 205 196 199
-0.0881591 -0.546836 0.240748 205 196 199
-0.0789932 -0.548229 0.238646 203 193 197
-0.0718266 -0.551182 0.237234 202 192 196
-0.0607308 -0.552435 0.234678 198 189 192
-0.0533195 -0.55312 0.232966 198 185 192
-0.0421859 -0.553921 0.230389 198 185 192
-0.0181367 -0.548768 0.224096 195 183 187
-0.0125649 -0.55076 0.223028 197 185 189
0.00230953 -0.55243 0.219778 194 184 189
0.0265587 -0.55287 0.214304 194 184 189
0.0302623 -0.552519 0.213429 194 184 189
0.0375269 -0.55074 0.211593 193 183 188
0.0485769 -0.549329 0.208972 193 181 187
0.0584618 -0.551874 0.207089 193 182 190
-0.131291 -0.533939 0.248189 209 197 203
-0.116609 -0.535527 0.244631 207 197 200
-0.106353 -0.540781 0.242634 205 196 199
-0.0756578 -0.547961 0.235831 202 190 194
-0.0702409 -0.549649 0.234697 200 188 194
-0.0665587 -0.550079 0.233849 198 189 192
-0.0628733 -0.55048 0.232999 197 187 193
-0.0277522 -0.552795 0.224859 197 185 189
-0.0259032 -0.551848 0.224316 195 183 187
-0.0240616 -0.550894 0.223774 195 183 187
-0.0204013 -0.548962 0.222695 194 182 186
-0.00197973 -0.549787 0.218501 193 183 186
0.00544678 -0.550503 0.216871 194 184 189
0.0185269 -0.551712 0.21402 194 184 189
0.044327 -0.549056 0.207921 193 181 187
-0.152458 -0.526082 0.250855 197 185 189
-0.138145 -0.529326 0.24751 208 196 200
-0.13638 -0.529818 0.247111 207 197 200
-0.131512 -0.533178 0.246225 207 197 200
-0.121008 -0.53683 0.243948 209 197 203
-0.101054 -0.540103 0.239288 205 196 199
-0.0990997 -0.539467 0.238732 207 197 200
-0.0906051 -0.544989 0.237222 203 193 197
-0.0796526 -0.546676 0.234707 200 190 193
-0.0778237 -0.546931 0.234287 201 191 194
-0.072425 -0.54864 0.233153 200 188 194
-0.0503412 -0.550861 0.228052 197 185 189
-0.0466921 -0.552119 0.227315 197 185 189
-0.044843 -0.552241 0.226886 197 185 189
-0.0318697 -0.550897 0.223655 195 183 187
-0.0263366 -0.551059 0.222367 195 183 187
0.00127423 -0.549867 0.215804 193 183 186
0.00679256 -0.549626 0.214508 194 184 187
0.0290602 -0.549969 0.209481 191 181 187
0.0309002 -0.549784 0.209047 191 181 187
0.0436105 -0.547289 0.20593 191 181 187
0.0505977 -0.544296 0.204055 190 180 186
-0.150883 -0.525874 0.248504 207 195 199
-0.149131 -0.526416 0.248108 206 194 198
-0.128178 -0.53333 0.24346 208 198 201
-0.09091 -0.544203 0.23526 203 193 197
-0.074599 -0.547616 0.231614 198 189 192
-0.0415483 -0.551667 0.224073 195 183 187
-0.0396758 -0.550772 0.223533 194 182 186
-0.0322803 -0.549105 0.221604 194 182 186
-0.015769 -0.548395 0.21765 194 182 186
-0.0139633 -0.547394 0.217123 194 182 186
-0.00115667 -0.547146 0.214125 194 182 186
0.0138066 -0.550389 0.21103 191 181 187
0.0191346 -0.548007 0.209566 191 181 187
0.0227979 -0.547705 0.208703 190 180 186
0.0285206 -0.549176 0.207563 189 179 185
0.0323164 -0.549788 0.206771 190 180 186
0.0465408 -0.545017 0.20309 190 180 186
0.0563253 -0.547581 0.201188 189 179 185
-0.135031 -0.528759 0.242817 207 197 200
-0.131947 -0.531632 0.242317 208 198 201
-0.121488 -0.535274 0.240035 207 195 199
-0.112725 -0.538281 0.238135 205 196 199
-0.110929 -0.538666 0.237724 207 197 200
-0.109131 -0.539045 0.237313 205 196 199
-0.0839446 -0.544559 0.231634 200 190 193
-0.0821249 -0.544828 0.231215 200 190 193
-0.0730122 -0.546063 0.229114 198 186 190
-0.0674502 -0.545725 0.22773 195 185 189
-0.0493196 -0.550392 0.223835 195 183 187
-0.0455983 -0.549649 0.222871 194 182 186
-0.0419209 -0.549869 0.222017 194 182 186
-0.0400816 -0.549968 0.221589 193 181 185
-0.0308731 -0.549355 0.219347 193 181 185
-0.0125278 -0.548564 0.214965 193 181 185
0.00384027 -0.546123 0.210929 193 181 185
0.011297 -0.547716 0.209379 191 181 187
0.0240992 -0.54674 0.206365 190 180 186
-0.132382 -0.53181 0.240521 207 197 200
-0.13061 -0.532274 0.240117 208 198 201
-0.123505 -0.534056 0.238496 207 197 200
-0.0931866 -0.54132 0.231645 201 191 194
-0.0806271 -0.544284 0.22885 198 189 192
-0.0789168 -0.545525 0.228552 199 187 191
-0.0678826 -0.545906 0.225908 195 185 189
-0.0478686 -0.54971 0.221465 193 181 185
-0.0459914 -0.548837 0.220932 193 181 185
-0.0184754 -0.547767 0.214331 193 181 185
-0.016645 -0.547768 0.213903 192 180 184
-0.0112219 -0.545738 0.212442 193 181 185
-0.00943709 -0.544715 0.211928 193 181 185
0.00699426 -0.545127 0.208173 191 181 187
0.0178126 -0.543413 0.205533 190 180 186
0.0309813 -0.546199 0.202815 190 180 186
0.0526462 -0.542339 0.197594 188 176 184
0.0547984 -0.544019 0.197277 188 178 186
-0.15634 -0.520942 0.243708 127 113 118
-0.154878 -0.522452 0.24347 171 159 163
-0.153408 -0.523956 0.243229 208 198 201
-0.139414 -0.528135 0.240043 207 195 201
-0.136126 -0.53007 0.239386 207 197 200
-0.123736 -0.533258 0.236556 207 197 200
-0.10099 -0.54118 0.231619 204 195 198
-0.0826452 -0.542224 0.22721 197 188 191
-0.0445515 -0.54813 0.218575 192 180 184
-0.0390555 -0.548425 0.217297 193 181 185
-0.0189195 -0.546944 0.212418 192 180 184
0.00824274 -0.543209 0.205778 190 180 186
0.0154889 -0.54273 0.204075 190 180 186
0.0172992 -0.542592 0.203649 189 179 185
0.0360314 -0.545753 0.199697 188 178 184
0.0500931 -0.540821 0.196093 187 177 182
-0.157319 -0.523004 0.242239 117 103 105
-0.141361 -0.526841 0.238512 207 197 200
-0.136559 -0.530234 0.237594 207 197 200
-0.116865 -0.534113 0.232996 206 194 198
-0.109741 -0.535657 0.23136 205 193 197
-0.0975164 -0.540045 0.228727 202 190 194
-0.072299 -0.544829 0.222995 194 184 187
-0.0702991 -0.543066 0.222356 193 183 186
-0.0596187 -0.547182 0.220147 191 182 185
-0.0486439 -0.548062 0.217599 192 180 184
-0.0412884 -0.547505 0.215801 192 180 184
-0.0339439 -0.545833 0.213914 191 179 183
-0.157752 -0.523159 0.240458 135 116 120
-0.133237 -0.530372 0.234856 205 196 199
-0.127938 -0.531736 0.233641 207 195 199
-0.124397 -0.532609 0.232829 206 194 198
-0.11888 -0.532892 0.231478 206 194 198
-0.115331 -0.533692 0.230663 205 193 197
-0.103345 -0.539202 0.22816 201 191 194
-0.101547 -0.539543 0.227746 200 190 193
-0.0978002 -0.53922 0.226798 199 187 191
-0.088802 -0.540737 0.224722 198 185 192
-0.081584 -0.54182 0.223055 195 183 187
-0.0798874 -0.54306 0.222747 195 183 187
-0.0779691 -0.542317 0.222219 194 182 186
-0.056333 -0.54667 0.217374 190 181 184
-0.0398621 -0.546759 0.21346 192 180 184
-0.0288993 -0.545154 0.210737 191 179 183
-0.0216343 -0.544268 0.208956 192 180 184
-0.00363156 -0.54104 0.204492 191 178 185
0.00718276 -0.540545 0.201955 189 179 185
0.036609 -0.542888 0.195453 186 176 181
0.0385576 -0.54365 0.195077 186 175 183
-0.143727 -0.525682 0.235208 207 195 199
-0.0962883 -0.538705 0.224463 198 185 192
-0.0675328 -0.543783 0.21789 189 179 185
-0.0639045 -0.544162 0.217049 190 180 186
-0.0602734 -0.544513 0.216206 189 180 183
-0.051185 -0.54526 0.214094 188 178 182
-0.03658 -0.54408 0.210534 191 179 183
-0.0131001 -0.540402 0.20473 189 180 183
-0.00953759 -0.539343 0.203816 188 178 184
-0.00409994 -0.540192 0.202623 191 178 185
-0.000501255 -0.540057 0.20178 191 178 185
0.00489466 -0.539799 0.200514 189 179 185
0.00669259 -0.539698 0.200092 188 178 184
0.0211631 -0.539625 0.196773 188 178 184
0.0248678 -0.540277 0.195981 187 177 182
0.0468837 -0.540578 0.191032 183 173 179
-0.156056 -0.521155 0.236078 183 169 173
-0.148868 -0.52236 0.234354 205 193 197
-0.147389 -0.523839 0.234092 206 194 198
-0.143661 -0.523904 0.23316 206 194 198
-0.124846 -0.530959 0.228991 195 180 185
-0.115815 -0.532033 0.226835 204 192 196
-0.103724 -0.536554 0.2242 196 186 190
-0.0587525 -0.542833 0.213785 190 178 182
-0.046074 -0.543772 0.210836 187 177 180
-0.0315152 -0.53942 0.207062 190 178 182
-0.00999259 -0.538487 0.201956 188 178 184
0.0098707 -0.539617 0.197452 188 178 184
0.0316472 -0.539649 0.192485 184 174 180
0.0445131 -0.539996 0.189605 185 172 179
0.0477902 -0.53749 0.188678 185 172 179
0.102557 -0.628759 0.18338 98 96 97
0.104467 -0.627293 0.18285 92 92 92
-0.153943 -0.51898 0.233504 205 193 197
-0.147561 -0.523015 0.232184 205 193 197
-0.145826 -0.523529 0.231786 205 193 197
-0.121742 -0.531934 0.226389 194 175 182
-0.114288 -0.531578 0.224524 201 189 193
-0.10205 -0.535064 0.22177 194 182 186
-0.0947786 -0.535356 0.220017 194 182 186
-0.0898287 -0.539193 0.219088 193 181 185
-0.0808403 -0.540522 0.217006 189 180 183
-0.0790398 -0.540766 0.216588 188 178 182
-0.0735347 -0.540464 0.215239 188 178 182
-0.0698431 -0.539894 0.21431 187 177 180
-0.0664116 -0.54227 0.213658 187 175 179
-0.0646045 -0.542455 0.213238 186 176 179
-0.0518848 -0.542553 0.210208 187 175 181
-0.0482238 -0.541803 0.209283 186 174 180
-0.0410299 -0.543203 0.20768 188 176 180
-0.0391942 -0.542289 0.207179 188 176 180
-0.0373658 -0.541367 0.206681 188 176 180
-0.0140813 -0.53569 0.200809 190 177 184
-0.0122674 -0.53666 0.200457 190 177 184
-0.00503203 -0.538473 0.198907 190 177 184
-0.00323987 -0.538409 0.198488 188 178 184
0.00213509 -0.538175 0.197228 188 178 184
0.0274007 -0.538199 0.191439 184 174 182
0.034825 -0.539355 0.189836 183 173 179
-0.17081 -0.535587 0.236963 73 31 25
-0.167576 -0.531458 0.235877 93 40 29
-0.107638 -0.533179 0.221104 195 183 187
-0.102476 -0.535191 0.219979 193 181 185
-0.0722558 -0.541797 0.213109 187 175 179
-0.0521511 -0.539694 0.20816 187 175 181
-0.0413944 -0.541336 0.205722 187 175 179
-0.0341225 -0.537632 0.203753 188 176 180
-0.0287468 -0.534775 0.202293 187 177 180
-0.00375791 -0.536541 0.196585 188 176 182
0.00331211 -0.535218 0.19486 187 177 182
0.0175349 -0.534221 0.191522 184 174 180
0.0268698 -0.537333 0.189602 183 173 181
0.0427795 -0.53433 0.185788 184 171 178
0.0497131 -0.532262 0.184086 183 170 179
-0.128108 -0.531878 0.224146 164 139 139
-0.111605 -0.532575 0.220137 195 183 187
-0.102742 -0.534329 0.218084 188 178 182
-0.100809 -0.533675 0.217572 187 177 180
-0.0579609 -0.539393 0.20762 184 175 178
-0.0489333 -0.539062 0.205453 184 175 178
-0.0417245 -0.538465 0.203708 184 175 178
-0.0345101 -0.535756 0.201832 186 176 179
-0.032729 -0.535808 0.201416 186 176 179
-0.0309399 -0.534855 0.200934 187 177 180
-0.0202724 -0.534974 0.198442 190 178 182
-0.0132214 -0.532913 0.196664 187 175 179
0.00808277 -0.533025 0.191737 184 174 180
0.00993388 -0.5339 0.191367 186 176 181
0.0117079 -0.533772 0.190951 186 176 181
0.0168355 -0.531355 0.189619 185 172 179
0.0261105 -0.534474 0.187698 184 171 178
0.100841 -0.628245 0.176841 100 93 93
-0.167286 -0.527902 0.231726 127 61 49
-0.158931 -0.519184 0.229133 168 135 139
-0.151773 -0.520408 0.227421 201 189 193
-0.148581 -0.522412 0.226744 202 190 194
-0.113983 -0.533292 0.218863 192 173 177
-0.0834442 -0.536676 0.211656 186 174 178
-0.0656402 -0.539835 0.207576 185 173 177
-0.0602483 -0.540344 0.20632 185 173 177
-0.0439358 -0.538488 0.202337 185 173 177
-0.0313642 -0.535964 0.199222 184 175 178
-0.022497 -0.532088 0.196909 187 175 179
-0.0154302 -0.532051 0.195257 187 175 179
-0.004735 -0.533778 0.192874 186 174 180
-0.00118876 -0.53363 0.192043 186 174 180
0.00759551 -0.532139 0.189924 183 173 179
0.0164258 -0.531465 0.187853 184 171 178
0.0237005 -0.532784 0.186265 184 171 178
0.036483 -0.534305 0.183442 181 169 173
0.0431234 -0.530348 0.181699 183 170 179
0.044728 -0.529096 0.181261 183 170 179
0.0519157 -0.528954 0.179629 181 169 175
0.0540208 -0.530622 0.179254 183 170 177
0.0979831 -0.627889 0.175166 113 106 106
-0.174486 -0.530917 0.231766 92 34 24
-0.156524 -0.516031 0.226487 189 172 178
-0.153648 -0.519023 0.225935 201 189 195
-0.142311 -0.525491 0.223481 201 189 195
-0.0821998 -0.538019 0.209534 184 172 176
-0.0228998 -0.533189 0.1952 186 174 178
-0.00342622 -0.532813 0.190643 186 174 180
0.0230708 -0.530901 0.18443 183 170 177
0.102665 -0.630937 0.172 110 101 102
0.135698 -0.596014 0.162788 68 61 59
0.147172 -0.583795 0.15962 199 187 180
-0.179694 -0.533528 0.231258 61 23 18
-0.162922 -0.517302 0.226276 135 65 59
-0.159214 -0.51748 0.225365 172 142 145
-0.145457 -0.521711 0.222178 198 185 192
-0.122511 -0.534854 0.217221 166 113 115
-0.0841696 -0.535888 0.207995 181 169 175
-0.0809484 -0.539349 0.207401 181 169 173
-0.0774652 -0.540805 0.206642 181 169 173
-0.064532 -0.538226 0.20342 184 171 178
-0.0375418 -0.536007 0.196914 186 174 178
-0.0321765 -0.534167 0.195556 186 174 178
-0.0128158 -0.529193 0.190768 185 172 179
-0.00223315 -0.529838 0.188343 185 172 179
0.0170794 -0.528523 0.183817 183 171 175
0.0295825 -0.529222 0.180987 180 170 175
0.0332242 -0.52978 0.180185 180 170 175
0.0436034 -0.527319 0.177694 183 170 177
0.05093 -0.528168 0.176077 181 169 175
0.10716 -0.632957 0.168796 86 77 75
0.138915 -0.580218 0.159105 199 187 180
0.146708 -0.583907 0.157579 200 188 181
-0.166231 -0.52061 0.225377 143 65 57
-0.163053 -0.516442 0.224398 138 68 62
-0.146832 -0.518415 0.220489 197 183 187
-0.142667 -0.523751 0.219715 178 164 169
-0.1342 -0.52707 0.217797 106 66 59
-0.123894 -0.530637 0.21545 155 91 92
-0.117411 -0.535159 0.214087 182 141 144
-0.111355 -0.532364 0.212486 190 174 179
-0.107476 -0.531109 0.211487 184 170 175
-0.0826924 -0.535236 0.205716 180 168 172
-0.0811437 -0.537458 0.205452 181 169 173
-0.0557531 -0.535104 0.19929 184 172 176
-0.0361584 -0.535157 0.194666 186 174 178
0.00599688 -0.527442 0.184467 183 170 177
0.0128989 -0.525927 0.182801 183 170 177
0.0254299 -0.527729 0.180007 180 170 175
0.0378028 -0.527185 0.177152 180 168 174
0.0522741 -0.527957 0.173898 180 168 174
-0.17725 -0.529626 0.226592 112 46 34
-0.172216 -0.526135 0.225202 133 57 51
-0.152114 -0.515994 0.219823 198 184 189
-0.150409 -0.516515 0.219426 192 180 184
-0.143089 -0.523833 0.217945 161 145 148
-0.127194 -0.526965 0.214202 129 64 58
-0.122557 -0.531128 0.213255 154 90 91
-0.100839 -0.532514 0.208064 177 165 169
-0.0990714 -0.532826 0.207652 177 165 169
-0.0864128 -0.532837 0.204614 179 167 171
-0.0795562 -0.535793 0.203103 180 168 172
-0.0578159 -0.533055 0.197809 183 171 175
-0.0294482 -0.532407 0.191093 185 173 177
-0.0276797 -0.530432 0.190591 185 173 177
-0.020642 -0.530454 0.188946 185 173 177
-0.011879 -0.529321 0.186851 185 172 179
0.00558975 -0.527522 0.182718 183 171 175
0.00900635 -0.526281 0.181874 183 171 175
0.0107501 -0.526148 0.181465 183 171 175
0.0357842 -0.528497 0.175817 180 168 174
0.0389988 -0.526028 0.174975 180 168 174
0.040742 -0.525774 0.174566 181 169 175
0.0442255 -0.525243 0.173749 181 169 175
0.0513516 -0.525083 0.17212 179 167 173
0.0534418 -0.526747 0.171718 180 170 175
-0.189522 -0.529553 0.227689 47 21 16
-0.169702 -0.523025 0.222554 142 64 56
-0.132215 -0.531033 0.213702 108 50 42
-0.121018 -0.530628 0.210972 160 94 94
-0.0958068 -0.532519 0.204972 174 162 166
-0.0280875 -0.528508 0.188754 185 173 177
-0.00203938 -0.524008 0.1825 184 171 178
0.022426 -0.524099 0.17685 181 169 177
0.0241614 -0.52391 0.176444 181 169 177
0.0296129 -0.525284 0.175246 180 167 176
0.0450826 -0.522079 0.17158 180 168 174
0.050434 -0.5222 0.170365 179 169 174
0.127662 -0.605611 0.156202 72 62 54
0.132336 -0.60629 0.155184 66 56 48
0.136294 -0.576698 0.153171 203 190 185
-0.180355 -0.524739 0.223332 114 47 38
-0.150706 -0.51474 0.215732 172 155 161
-0.145411 -0.522522 0.214712 128 112 112
-0.105045 -0.531026 0.205253 175 160 165
-0.08347 -0.531499 0.200106 178 166 170
-0.0674859 -0.532397 0.196335 183 171 175
-0.0531124 -0.529601 0.192832 183 171 175
-0.0249932 -0.528599 0.186185 185 173 177
-0.00930633 -0.526361 0.182443 184 171 178
-0.00586691 -0.525231 0.181603 183 170 177
0.0078815 -0.522433 0.178313 181 169 173
0.0254918 -0.523779 0.174297 181 169 175
0.0377566 -0.523199 0.171461 180 168 174
0.132422 -0.608286 0.153009 64 54 46
0.134498 -0.579321 0.151551 206 194 187
0.136141 -0.577726 0.151129 203 190 185
-0.177147 -0.519777 0.220488 130 54 47
-0.17463 -0.523842 0.219995 136 57 52
-0.105465 -0.531087 0.203477 171 154 159
-0.0982596 -0.531364 0.20176 170 156 161
-0.0890364 -0.529811 0.199508 174 162 166
-0.0872802 -0.530071 0.199098 176 164 168
-0.0482103 -0.528988 0.189802 184 171 178
-0.0411957 -0.529322 0.188161 184 171 178
-0.0236746 -0.525661 0.183936 184 172 176
-0.014945 -0.526563 0.181925 184 172 176
-0.011422 -0.527474 0.181133 183 171 175
0.0142053 -0.519931 0.174945 180 168 172
0.0267021 -0.522643 0.172148 180 168 174
0.0441179 -0.521217 0.168103 178 167 173
0.0508372 -0.519068 0.166498 175 165 173
0.0670068 -0.537345 0.163382 82 55 53
0.0901902 -0.547399 0.158432 62 33 29
0.131088 -0.590833 0.150545 72 62 54
0.134034 -0.57939 0.149536 210 195 189
-0.178087 -0.510111 0.218578 122 53 42
-0.175986 -0.515116 0.218197 131 55 47
-0.170372 -0.521313 0.216993 143 65 57
-0.158313 -0.512736 0.213835 182 159 164
-0.155203 -0.514764 0.213135 161 139 147
-0.140998 -0.531325 0.210142 88 39 28
-0.133037 -0.529274 0.208167 111 50 43
-0.0805457 -0.5301 0.195631 178 166 170
-0.0752717 -0.530749 0.194397 179 167 171
-0.0171414 -0.52465 0.180546 183 171 175
0.00699877 -0.521546 0.174843 180 168 172
0.0137126 -0.518987 0.173217 180 168 172
0.0170433 -0.517667 0.17241 179 167 173
0.0366647 -0.521331 0.167987 176 166 172
0.0497486 -0.51518 0.164816 175 165 173
0.0618834 -0.523054 0.162256 82 49 44
0.0634173 -0.52172 0.161869 87 51 48
0.0709568 -0.523166 0.160189 91 53 48
0.0785639 -0.524479 0.158494 78 41 35
0.0862367 -0.525658 0.156783 75 35 28
0.0945129 -0.535876 0.155181 71 40 35
0.12125 -0.581234 0.150346 59 42 34
0.125164 -0.580037 0.149431 71 54 46
0.139105 -0.576544 0.146201 202 187 181
-0.174387 -0.51483 0.215937 136 57 52
-0.170188 -0.519463 0.215022 143 65 57
-0.167571 -0.517201 0.214337 140 64 56
-0.116074 -0.525162 0.202118 185 159 164
-0.107716 -0.528887 0.200207 168 152 155
-0.0789781 -0.528384 0.193356 178 166 170
-0.0700314 -0.527402 0.191214 179 167 171
-0.0367115 -0.527597 0.183366 184 171 178
-0.00386764 -0.520235 0.175516 179 167 171
0.00122667 -0.518949 0.174301 180 168 172
0.00300924 -0.519837 0.173908 179 167 171
0.00472752 -0.51972 0.173506 179 167 171
0.0712017 -0.517941 0.15816 93 46 39
0.0785767 -0.511044 0.156319 82 38 30
0.0897821 -0.51949 0.153963 76 40 34
0.129257 -0.560788 0.145956 191 174 168
0.15064 -0.579774 0.141559 203 190 183
-0.175227 -0.510487 0.214198 135 59 50
-0.148292 -0.520299 0.207886 80 35 28
-0.143126 -0.521764 0.206672 83 34 28
-0.129273 -0.525361 0.203419 134 67 58
-0.118029 -0.523849 0.200701 190 159 165
-0.116296 -0.524222 0.200294 182 154 159
-0.0649517 -0.524969 0.188118 180 168 172
-0.0632936 -0.526122 0.18775 181 169 173
-0.0596671 -0.524422 0.186861 181 169 173
-0.0422956 -0.525461 0.182793 183 170 177
-0.0388677 -0.527583 0.18203 183 171 175
-0.0231908 -0.521791 0.178242 181 169 173
-0.0110787 -0.522558 0.175429 179 167 171
0.00432634 -0.519758 0.171787 173 163 168
0.0142523 -0.514927 0.169388 171 160 166
0.0212648 -0.516217 0.167789 164 154 157
0.0250233 -0.518804 0.16697 165 153 159
0.0284519 -0.518382 0.166169 167 155 161
0.051643 -0.510709 0.160675 160 148 157
0.0865963 -0.508894 0.152639 78 38 29
-0.167198 -0.513474 0.210464 124 56 49
-0.148185 -0.518406 0.205972 78 36 28
-0.121698 -0.522138 0.199696 137 62 58
-0.116515 -0.523274 0.198478 179 151 155
-0.111502 -0.525327 0.197316 169 148 153
-0.102306 -0.524022 0.195109 164 150 155
-0.0705671 -0.524487 0.1876 178 166 170
-0.0531309 -0.524953 0.183498 181 169 173
-0.0443283 -0.522423 0.181389 183 171 175
-0.014995 -0.520691 0.174492 179 167 171
0.00385524 -0.51879 0.170069 171 160 166
0.02065 -0.514259 0.166099 155 142 149
0.029637 -0.517199 0.164063 158 147 155
0.0680365 -0.507272 0.15506 74 22 19
0.0752157 -0.500424 0.15331 86 37 31
0.0766246 -0.49904 0.152967 85 36 30
0.0782652 -0.49862 0.152585 82 36 29
0.0873662 -0.506535 0.150621 75 30 25
0.124874 -0.531477 0.142437 171 149 143
-0.190622 -0.49854 0.214085 88 36 24
-0.169609 -0.51387 0.209199 130 60 54
-0.145852 -0.51507 0.203526 85 36 28
-0.127062 -0.51999 0.1991 148 75 65
-0.104448 -0.523732 0.193769 163 149 152
-0.100661 -0.522382 0.192856 167 152 157
-0.0989344 -0.52268 0.19245 168 153 158
-0.0904217 -0.525057 0.190461 174 162 166
-0.0852073 -0.525806 0.189237 177 165 169
-0.0672385 -0.521873 0.18495 180 168 172
-0.063707 -0.521196 0.18411 180 168 172
-0.0602616 -0.521486 0.183302 181 169 173
-0.0586075 -0.522618 0.182926 181 169 173
-0.0464172 -0.521369 0.180045 183 171 175
-0.04304 -0.523517 0.179277 181 169 173
-0.0343641 -0.522772 0.177234 180 168 172
-0.0326235 -0.521802 0.176815 180 168 172
-0.017164 -0.518755 0.173162 178 166 170
-0.0102722 -0.519552 0.171562 174 162 166
0.0150615 -0.513821 0.165597 147 138 141
0.0202528 -0.514282 0.164397 141 132 135
0.0221719 -0.516078 0.163972 145 135 141
0.0289841 -0.515238 0.162382 151 140 148
0.042725 -0.514215 0.15919 163 150 159
0.0750563 -0.494209 0.151513 86 32 28
0.130071 -0.530577 0.139315 174 150 142
-0.189954 -0.495769 0.212096 91 36 25
-0.187972 -0.495499 0.211619 92 37 26
-0.185756 -0.499598 0.211115 100 43 30
-0.1848 -0.502111 0.210903 103 46 33
-0.183148 -0.50275 0.210511 115 52 44
-0.155008 -0.513533 0.203861 76 40 36
-0.118668 -0.520987 0.195273 178 147 153
-0.115224 -0.521719 0.194462 170 146 150
-0.100908 -0.521413 0.19107 168 153 158
-0.0836298 -0.524076 0.187007 178 166 170
-0.0817767 -0.523311 0.186564 178 166 170
-0.0570853 -0.51977 0.180722 181 169 173
-0.0467771 -0.520387 0.178305 181 169 173
-0.0261311 -0.519867 0.173462 179 167 171
-0.0244134 -0.519862 0.17306 179 167 171
-0.0158765 -0.517732 0.171048 177 165 169
-0.000617228 -0.515064 0.167466 166 156 159
0.00617941 -0.514588 0.165879 158 146 150
0.0378047 -0.518996 0.158563 153 143 151
0.0634879 -0.506104 0.152526 89 32 29
0.0649463 -0.504758 0.152179 68 18 14
0.0680529 -0.503026 0.15145 65 17 15
0.0826505 -0.498329 0.148052 66 19 16
0.0853035 -0.501746 0.147465 67 22 19
-0.189996 -0.49485 0.210305 92 39 27
-0.188017 -0.494578 0.209832 93 40 29
-0.186394 -0.495229 0.209446 97 42 31
-0.179243 -0.506519 0.207772 125 58 49
-0.159907 -0.51004 0.20318 72 43 41
-0.157108 -0.513019 0.202523 72 38 34
-0.140321 -0.51169 0.198533 121 62 48
-0.133801 -0.514444 0.196995 139 73 59
-0.120389 -0.518665 0.193832 180 147 153
-0.11372 -0.521104 0.192263 168 145 148
-0.106477 -0.520487 0.190549 163 146 149
-0.10099 -0.519451 0.189249 166 154 158
-0.0958407 -0.520319 0.188037 171 159 163
-0.094122 -0.520595 0.187632 172 160 164
-0.0590617 -0.517658 0.179367 180 168 172
-0.0555802 -0.516906 0.178547 181 169 173
0.000558614 -0.512969 0.165392 161 152 155
0.00225035 -0.512854 0.164997 159 149 152
0.0229645 -0.514911 0.160179 127 115 117
0.0335592 -0.516543 0.157721 141 128 135
0.0405301 -0.516493 0.156101 141 127 132
0.0708104 -0.494071 0.149011 72 23 17
-0.192759 -0.481993 0.209183 70 28 19
-0.185609 -0.502125 0.207459 108 51 36
-0.177655 -0.506195 0.205566 126 59 50
-0.172333 -0.507048 0.204303 111 48 42
-0.167623 -0.509731 0.203183 79 24 25
-0.140725 -0.511693 0.196812 130 68 53
-0.133971 -0.513476 0.195213 148 77 64
-0.0960939 -0.519334 0.186271 172 160 164
-0.0910871 -0.521128 0.185091 174 162 166
-0.0839433 -0.520121 0.18341 179 167 171
-0.0662911 -0.517085 0.179262 180 168 172
-0.0541527 -0.515025 0.176413 180 168 172
-0.0456969 -0.516481 0.174428 180 170 173
-0.032087 -0.519853 0.171237 179 167 171
-0.0303559 -0.517869 0.170833 179 167 171
-0.02524 -0.514874 0.169637 177 165 169
0.0103069 -0.512178 0.161333 136 126 127
0.0350033 -0.517286 0.155576 128 111 116
0.0419889 -0.517206 0.15395 133 119 121
0.0489675 -0.506856 0.152335 133 119 123
0.0658213 -0.504395 0.148422 45 5 0
0.0670533 -0.502063 0.148138 52 6 6
0.069246 -0.496415 0.147634 61 14 12
0.070425 -0.494074 0.147363 66 19 16
0.0769025 -0.492433 0.145862 63 15 13
0.0811249 -0.495441 0.144881 46 8 5
0.0954668 -0.478734 0.141577 85 36 30
-0.190596 -0.489545 0.206885 89 38 28
-0.186484 -0.493364 0.205893 95 43 31
-0.184975 -0.499316 0.205506 108 50 42
-0.179061 -0.503696 0.204086 122 60 49
-0.171695 -0.509523 0.202316 89 31 26
-0.16437 -0.5099 0.200584 67 27 24
-0.151206 -0.508809 0.197481 94 41 32
-0.128169 -0.509871 0.192044 161 91 88
-0.117578 -0.518428 0.189509 169 143 147
-0.0701977 -0.517747 0.178373 178 166 172
-0.0666028 -0.516085 0.177537 179 167 171
-0.0631972 -0.516386 0.176736 180 168 172
-0.0597162 -0.515662 0.175923 181 169 173
-0.0171677 -0.513741 0.165964 172 162 165
-0.0154733 -0.513694 0.165568 173 161 165
-0.00209821 -0.510081 0.162457 165 153 157
0.0200365 -0.511134 0.157283 116 106 109
0.0250903 -0.510521 0.156107 118 109 112
0.0267734 -0.510303 0.155715 122 110 114
0.0730487 -0.492292 0.145022 60 13 11
0.0883201 -0.484989 0.141509 75 25 21
0.0951959 -0.473459 0.139969 89 38 32
-0.193445 -0.486349 0.205812 81 36 22
-0.189531 -0.485823 0.204895 88 39 28
-0.179132 -0.502745 0.202295 120 58 47
-0.176473 -0.505844 0.201641 106 46 39
-0.175773 -0.509276 0.201446 93 34 29
-0.164476 -0.508937 0.19879 71 30 26
-0.151607 -0.508798 0.195764 100 46 32
-0.144637 -0.509781 0.194116 123 64 50
-0.120988 -0.51572 0.188505 171 142 147
-0.0652139 -0.515231 0.17542 179 167 171
-0.0395918 -0.513708 0.169429 179 167 171
-0.0142051 -0.51263 0.163495 172 160 164
-0.000871521 -0.508964 0.160408 162 153 156
0.00750674 -0.508326 0.158454 145 134 135
0.0212157 -0.509932 0.155235 112 103 106
0.0316889 -0.511578 0.152774 109 79 80
0.0839372 -0.489256 0.140777 61 16 15
0.0850188 -0.486872 0.140546 60 15 12
0.0945325 -0.472496 0.138455 86 38 29
-0.193462 -0.485407 0.204066 82 37 23
-0.163978 -0.506063 0.196887 76 34 25
-0.154788 -0.50585 0.194735 95 43 31
-0.153124 -0.506359 0.194338 99 47 32
-0.145038 -0.509763 0.192399 129 70 58
-0.137824 -0.50966 0.19071 155 87 74
-0.123927 -0.511032 0.187435 176 143 150
-0.11969 -0.516074 0.186378 168 142 146
-0.103642 -0.515176 0.182629 166 154 158
-0.0987015 -0.517045 0.181447 171 159 163
-0.0794144 -0.515778 0.176945 178 166 172
-0.0708032 -0.515727 0.174928 179 167 173
-0.0568419 -0.511886 0.171707 180 168 172
-0.0551554 -0.511998 0.171311 180 168 172
-0.0535278 -0.5131 0.170915 180 168 172
-0.0264413 -0.509841 0.164614 178 166 170
-0.0214035 -0.509784 0.163435 174 162 166
-0.0113666 -0.508489 0.161102 172 160 164
0.00188646 -0.505719 0.158035 158 146 150
0.00695648 -0.506316 0.15684 144 132 136
0.0103757 -0.50701 0.156031 136 124 128
0.0238304 -0.506523 0.152889 110 100 104
0.0343856 -0.509083 0.150386 103 56 54
0.0646087 -0.512554 0.143271 85 56 50
0.0768771 -0.490039 0.140688 27 0 0
0.0798402 -0.488204 0.140018 62 17 16
0.0951136 -0.470073 0.136677 88 37 29
0.0987769 -0.470956 0.135809 91 41 31
0.102462 -0.471804 0.134937 95 45 32
0.106169 -0.472617 0.13406 97 48 30
-0.18763 -0.483647 0.200974 91 43 32
-0.165541 -0.49828 0.195571 78 30 19
-0.157927 -0.502878 0.193715 90 40 29
-0.151582 -0.505876 0.192183 109 52 39
-0.147717 -0.504932 0.191295 120 66 50
-0.139649 -0.508222 0.189355 152 86 69
-0.102177 -0.514466 0.180491 170 158 162
-0.0989432 -0.516033 0.179708 172 160 164
-0.0847822 -0.514113 0.176428 178 166 170
-0.0833381 -0.51632 0.176053 178 166 170
-0.0638938 -0.510352 0.171604 179 167 171
-0.0554858 -0.510975 0.169625 180 168 172
-0.0504352 -0.511267 0.168438 180 168 172
-0.0353018 -0.513773 0.164854 178 166 170
-0.0251596 -0.508804 0.162562 174 162 166
-0.0117942 -0.507465 0.159454 172 160 164
-0.00171577 -0.507924 0.157086 162 153 156
0.00815039 -0.505148 0.15482 143 131 135
0.0150873 -0.507476 0.153156 122 112 113
0.0262778 -0.502095 0.150623 102 48 46
0.0298421 -0.503614 0.149762 108 49 48
0.0337116 -0.50708 0.148797 100 46 42
0.06331 -0.516815 0.141694 86 56 48
0.0665199 -0.515076 0.14097 97 73 63
0.0708782 -0.502772 0.140154 77 41 37
0.0767329 -0.490983 0.138977 22 0 0
0.0874093 -0.479667 0.136661 66 19 14
0.0884288 -0.477274 0.136461 70 23 16
0.100547 -0.47231 0.1337 90 40 29
0.107018 -0.4711 0.132201 101 50 31
0.110741 -0.471864 0.131315 105 56 36
-0.191618 -0.478879 0.200254 82 38 26
-0.160548 -0.49268 0.192743 92 39 29
-0.155808 -0.500496 0.191478 103 46 35
-0.14977 -0.504416 0.189992 117 60 47
-0.111037 -0.512866 0.180787 163 144 148
-0.0940855 -0.515831 0.176769 174 162 168
-0.0923842 -0.51609 0.176367 176 163 170
-0.0799745 -0.513736 0.173517 178 166 172
-0.069516 -0.511856 0.171112 179 167 173
-0.0642027 -0.509324 0.169923 179 167 173
-0.0373462 -0.511713 0.16359 178 166 170
-0.0289057 -0.50979 0.161654 177 165 169
-0.0205253 -0.508696 0.159713 174 162 166
-0.0122549 -0.505436 0.157843 171 159 163
-0.00722051 -0.506196 0.156647 170 158 162
0.00594325 -0.503271 0.153621 152 140 144
0.00933772 -0.503967 0.152811 141 129 133
0.0209305 -0.502705 0.150116 110 98 102
0.0416606 -0.505693 0.145186 76 39 31
0.0428435 -0.502446 0.144976 86 53 44
0.0611142 -0.507983 0.140567 95 64 58
0.0648763 -0.509188 0.139657 106 78 69
0.0812511 -0.483402 0.136337 48 10 5
0.0964936 -0.471418 0.132994 82 33 26
0.105055 -0.466353 0.131081 102 50 34
0.106253 -0.464861 0.13083 107 55 36
0.107766 -0.464307 0.130484 109 55 34
0.11477 -0.47444 0.128625 128 81 65
-0.183115 -0.48891 0.196311 114 57 42
-0.17381 -0.493472 0.194044 68 21 17
-0.168005 -0.487063 0.192855 86 33 24
-0.157824 -0.488406 0.190461 99 45 31
-0.145449 -0.506775 0.187138 141 80 66
-0.138276 -0.50666 0.185475 165 106 103
-0.12658 -0.509573 0.182684 169 141 148
-0.120895 -0.515978 0.181204 164 140 146
-0.0715959 -0.511652 0.169821 179 167 173
-0.0611636 -0.508558 0.167461 179 167 171
-0.0495382 -0.51128 0.164676 178 168 171
-0.0462547 -0.513425 0.163855 179 169 172
-0.0343354 -0.509726 0.161157 176 167 170
-0.00107051 -0.503751 0.153508 163 151 155
0.00869682 -0.500943 0.151285 144 132 136
0.0424048 -0.482134 0.143823 79 39 32
0.0881291 -0.472901 0.133263 67 21 14
0.0906456 -0.470023 0.132738 71 24 17
-0.184669 -0.477664 0.195226 110 55 42
-0.183828 -0.480152 0.194963 114 57 42
-0.166132 -0.4804 0.190873 96 41 30
-0.156016 -0.48697 0.188349 110 53 40
-0.152459 -0.498549 0.187197 120 62 50
-0.119187 -0.51434 0.179035 161 140 145
-0.109772 -0.511143 0.176941 166 149 155
-0.0978069 -0.512246 0.174127 173 161 167
-0.0769292 -0.510073 0.169328 179 167 173
-0.0685249 -0.510936 0.167343 179 167 173
-0.0581361 -0.507757 0.16501 180 168 174
-0.0531812 -0.509065 0.163815 179 169 172
-0.043192 -0.511501 0.161409 179 167 171
-0.0147259 -0.50442 0.154946 173 161 165
-0.00643205 -0.504025 0.153011 170 158 162
0.00658382 -0.500055 0.150067 153 141 146
0.00995621 -0.50074 0.149254 142 130 134
0.0182854 -0.500838 0.147292 117 106 107
0.0262609 -0.497793 0.145501 108 48 50
0.0275099 -0.494591 0.145299 99 43 41
0.0307549 -0.494111 0.144548 80 33 30
0.0456854 -0.475297 0.141567 82 38 28
0.0626304 -0.494092 0.137023 93 63 55
0.0732263 -0.502804 0.134267 45 16 12
0.0939826 -0.465635 0.130408 73 28 21
-0.193552 -0.467543 0.19587 67 32 24
-0.188582 -0.472924 0.194558 93 46 30
-0.149295 -0.504765 0.184495 138 77 61
-0.147368 -0.50428 0.184067 142 78 65
-0.133586 -0.50591 0.180831 171 140 148
-0.128592 -0.507132 0.179636 166 137 145
-0.125694 -0.509864 0.178877 164 138 145
-0.122548 -0.511598 0.178092 163 139 145
-0.121072 -0.512945 0.177706 161 140 145
-0.0720773 -0.50857 0.166471 179 167 173
-0.0584547 -0.506708 0.163356 179 167 173
-0.040185 -0.510542 0.15896 178 166 170
0.00948321 -0.499694 0.14766 147 134 139
0.0145048 -0.500172 0.146462 130 118 122
0.0256265 -0.495761 0.143984 106 51 51
0.0382972 -0.471504 0.141786 81 35 26
0.0444305 -0.470342 0.140373 85 39 27
0.0724166 -0.493605 0.132979 45 12 7
0.0939408 -0.456032 0.129079 77 33 25
-0.149688 -0.504706 0.182796 140 79 63
-0.148029 -0.505184 0.182397 143 79 66
-0.144707 -0.506119 0.181598 149 84 76
-0.13208 -0.505293 0.17872 166 138 143
-0.111863 -0.508743 0.173925 165 148 154
-0.0947642 -0.509704 0.16993 174 162 168
-0.0912625 -0.509218 0.169135 176 163 170
-0.087772 -0.508703 0.168344 177 165 169
-0.0841633 -0.507167 0.167563 177 165 169
-0.0674451 -0.508986 0.163607 179 167 173
-0.0657695 -0.50913 0.163212 179 167 171
-0.0622562 -0.507406 0.162457 178 167 173
-0.0354561 -0.506573 0.156227 175 166 169
-0.0155577 -0.502314 0.15172 171 160 166
-0.0105652 -0.503096 0.150518 171 159 163
0.000681744 -0.497373 0.148084 164 154 159
0.00394729 -0.497105 0.147324 161 152 155
0.00557938 -0.496961 0.146945 157 147 152
0.00721094 -0.49681 0.146566 155 145 151
0.0219843 -0.496146 0.143105 115 79 80
0.0249955 -0.493724 0.142482 106 61 60
0.0371266 -0.46653 0.140612 85 36 28
0.0559727 -0.473869 0.13587 75 33 22
0.0667854 -0.485629 0.132868 59 24 18
0.0699658 -0.484824 0.13214 50 15 8
0.0730445 -0.476804 0.1317 62 20 13
0.087716 -0.469408 0.128469 67 22 17
-0.0507864 -0.50507 0.158115 179 169 172
-0.0425125 -0.50638 0.156128 178 166 170
-0.0391795 -0.506458 0.155346 179 167 171
-0.0308116 -0.502536 0.153548 178 166 170
-0.0275076 -0.502519 0.152774 175 166 169
-0.0242035 -0.502476 0.152001 174 164 168
-0.012642 -0.502112 0.149301 171 161 164
0.0150758 -0.496886 0.142981 133 120 125
0.027202 -0.48825 0.140465 95 45 43
0.0310083 -0.480601 0.139876 89 43 36
0.0361249 -0.462535 0.139399 91 41 31
0.0422974 -0.462379 0.137938 93 42 30
0.0646382 -0.477798 0.131989 59 25 14
0.0755833 -0.468708 0.129742 74 25 16
0.0835378 -0.473638 0.127638 79 31 22
0.085811 -0.469825 0.127248 77 29 18
0.0870666 -0.468392 0.127004 72 25 18
0.0883131 -0.466955 0.126763 68 24 16
0.10878 -0.457688 0.122217 129 73 51
