ply
format ascii 1.0
comment Created by Open3D
element vertex 2000
property double x
property double y
property double z
property uchar red
property uchar green
property uchar blue
end_header
0.0941122 -0.628547 0.417237 209 198 199
0.0967998 -0.630094 0.417455 209 198 199
0.0287241 -0.629077 0.428997 206 194 196
0.0331257 -0.627294 0.427086 209 195 197
0.0379129 -0.62909 0.426836 206 192 195
0.0401015 -0.628166 0.425879 206 192 195
0.0425056 -0.62904 0.425748 207 193 196
0.0519389 -0.630635 0.424378 205 193 195
0.0542403 -0.630558 0.423826 202 191 192
0.0936375 -0.629607 0.415058 201 190 191
-0.0384421 -0.628231 0.443209 200 186 189
-0.0315456 -0.629974 0.442134 202 188 190
-0.0223206 -0.630069 0.439662 207 193 196
-0.00853628 -0.62947 0.43571 202 188 190
0.000669969 -0.630085 0.433626 200 186 189
0.014486 -0.630726 0.430461 200 186 189
0.0189451 -0.629053 0.428559 200 186 189
0.0281267 -0.629216 0.42642 200 188 190
0.0464796 -0.629092 0.422084 203 188 193
0.0559127 -0.630615 0.420696 203 188 193
0.0649521 -0.629271 0.418074 201 190 191
0.0824766 -0.630911 0.409627 206 194 198
0.0920149 -0.631829 0.408118 205 193 197
0.0816436 -0.630116 0.40668 206 194 198
0.0911559 -0.631039 0.405171 206 194 196
0.0554255 -0.629146 0.409095 206 194 198
0.0577053 -0.629042 0.408545 205 193 197
0.0809871 -0.630214 0.404122 207 195 199
0.0617732 -0.629797 0.405275 208 197 198
0.0738113 -0.632688 0.40401 208 197 198
0.0801942 -0.633109 0.400135 208 197 198
0.0783938 -0.634186 0.392838 212 200 202
0.0866745 -0.632414 0.387677 213 201 205
-0.128198 -0.571747 0.403185 190 180 186
-0.125976 -0.569574 0.399158 208 198 203
-0.11768 -0.570987 0.397094 208 198 203
-0.0963267 -0.584825 0.396019 210 200 204
-0.0715248 -0.593596 0.392229 210 200 204
-0.0694082 -0.593968 0.391772 210 200 204
-0.0592082 -0.60215 0.392158 210 200 204
-0.05069 -0.605243 0.391033 209 198 199
-0.0485296 -0.605533 0.390556 209 198 199
-0.130377 -0.568263 0.397609 211 203 208
-0.12817 -0.567974 0.396792 212 202 208
-0.122099 -0.569739 0.395557 212 204 209
-0.118043 -0.570874 0.394727 215 205 210
-0.111944 -0.572515 0.393471 212 204 209
-0.106259 -0.576798 0.3934 215 205 210
-0.102425 -0.579621 0.393338 212 203 206
-0.0899083 -0.581541 0.390338 212 203 206
-0.0880598 -0.58381 0.390683 212 203 206
-0.0818234 -0.585089 0.389356 214 204 207
-0.0754872 -0.585374 0.38763 212 203 206
-0.0734056 -0.585757 0.387182 214 204 207
-0.0613858 -0.595258 0.38752 212 203 206
-0.0592086 -0.594664 0.386677 212 203 206
-0.0529499 -0.597445 0.38604 211 202 205
-0.044565 -0.602278 0.385658 211 202 205
-0.0402254 -0.600937 0.383958 210 200 204
-0.0338323 -0.603499 0.383265 210 200 204
-0.0316931 -0.604646 0.383153 213 201 205
-0.0273923 -0.607846 0.383287 211 198 203
0.0328461 -0.625831 0.375579 206 194 198
0.0373086 -0.625728 0.374516 206 194 198
0.0441173 -0.626439 0.373253 200 188 190
0.0462281 -0.625414 0.372377 197 185 187
-0.112158 -0.571484 0.390711 214 207 212
-0.110432 -0.573824 0.391084 215 205 210
-0.104591 -0.577182 0.390599 215 205 210
-0.102539 -0.57768 0.39017 213 206 210
-0.0901987 -0.580498 0.387571 216 206 212
-0.077991 -0.584851 0.385695 216 206 210
-0.0758248 -0.584323 0.384866 216 206 210
-0.0737498 -0.584705 0.384419 216 206 210
-0.0615264 -0.590515 0.383223 215 205 208
-0.0573852 -0.592082 0.38268 215 205 208
-0.0405841 -0.596169 0.379694 214 204 207
-0.021462 -0.602688 0.377211 211 202 205
-0.0149576 -0.606888 0.377185 212 200 204
0.000288695 -0.610484 0.374771 213 201 205
0.00250886 -0.611497 0.37462 212 200 204
0.00473665 -0.612501 0.374467 212 200 204
0.006972 -0.613497 0.374311 213 201 205
0.0272433 -0.620191 0.372097 209 197 201
0.029355 -0.619228 0.371232 211 198 203
0.0338627 -0.62008 0.370524 209 197 201
0.0429181 -0.621674 0.369086 205 193 197
0.0775806 -0.627727 0.363927 143 132 131
-0.108916 -0.575116 0.38869 215 205 210
-0.101009 -0.578945 0.387759 215 205 208
-0.0947151 -0.579453 0.386072 214 207 210
-0.0865899 -0.582145 0.384709 216 206 212
-0.0640679 -0.59004 0.381293 217 207 213
-0.0452905 -0.595521 0.37824 216 206 210
-0.030491 -0.598077 0.375288 216 206 210
0.0304778 -0.614393 0.366567 211 201 207
0.0394247 -0.616028 0.365152 209 197 203
0.0439179 -0.616792 0.364433 209 197 201
0.0482961 -0.616584 0.363378 206 194 198
0.0728333 -0.617598 0.358475 186 174 178
0.0762345 -0.623903 0.360168 158 146 150
-0.138641 -0.571388 0.394145 155 143 147
-0.135821 -0.568439 0.39214 189 180 183
-0.119119 -0.57047 0.387651 214 204 209
-0.0928164 -0.577926 0.382507 216 206 212
-0.0888331 -0.579727 0.382017 216 206 212
-0.0866701 -0.579238 0.381199 216 206 210
-0.0583496 -0.592716 0.378274 217 207 211
-0.0415143 -0.594943 0.374546 217 207 211
-0.0351567 -0.593771 0.37241 218 209 212
-0.0225133 -0.597727 0.370622 217 207 213
-0.0118486 -0.601264 0.369256 216 206 212
-0.00542145 -0.602536 0.368133 215 205 210
0.00102999 -0.603731 0.366996 216 206 212
0.0119902 -0.607738 0.365865 215 205 208
0.0207673 -0.609661 0.364514 215 205 210
0.0293101 -0.608631 0.362132 214 204 209
0.0450066 -0.612815 0.360158 212 202 208
0.0473048 -0.613644 0.359961 213 200 207
0.0513833 -0.611529 0.35826 211 198 205
0.0685204 -0.609276 0.353718 205 196 199
0.0814458 -0.630784 0.359118 122 116 114
-0.115272 -0.570502 0.384077 214 204 209
-0.111386 -0.572472 0.383623 215 205 210
-0.0951288 -0.576391 0.380206 215 205 210
-0.0869633 -0.578151 0.378468 216 206 210
-0.0668943 -0.58753 0.376252 217 207 211
-0.064884 -0.588797 0.376165 217 207 211
-0.0440943 -0.594529 0.372633 218 209 212
-0.0356559 -0.594536 0.370392 218 209 212
-0.0208922 -0.59866 0.368108 218 209 212
-0.00808159 -0.60227 0.366231 216 206 212
-0.00385867 -0.601529 0.364903 216 206 212
0.000444369 -0.60263 0.364258 216 206 212
0.013515 -0.606667 0.362617 216 206 212
0.0464456 -0.611622 0.356893 215 205 210
-0.139107 -0.570201 0.389011 159 147 151
-0.127506 -0.566055 0.383837 212 202 208
-0.111907 -0.573212 0.38166 214 204 209
-0.10582 -0.574744 0.380385 215 205 210
-0.0976819 -0.576671 0.378668 216 206 212
-0.0955176 -0.576214 0.37786 215 205 210
-0.085322 -0.578391 0.375685 216 206 210
-0.0813339 -0.580127 0.375177 216 206 210
-0.0674037 -0.588281 0.37425 217 207 211
-0.0632421 -0.588952 0.37334 217 207 211
-0.0507777 -0.591694 0.370939 217 207 211
-0.0340514 -0.595506 0.367897 218 209 212
-0.0319465 -0.595711 0.367422 217 207 211
-0.00438842 -0.601354 0.362518 217 207 213
0.00432785 -0.605405 0.361888 217 207 213
0.0107489 -0.605532 0.360387 216 206 212
0.0301041 -0.606384 0.356161 215 205 210
0.032349 -0.607271 0.355975 215 205 210
0.0368601 -0.609017 0.355594 215 205 210
0.0563521 -0.608918 0.351234 215 205 210
0.0623337 -0.605601 0.348724 214 204 209
-0.136018 -0.564372 0.383524 195 185 191
-0.129272 -0.562579 0.380757 212 202 208
-0.123844 -0.567031 0.38068 212 202 208
-0.120009 -0.56906 0.380233 211 203 208
-0.115987 -0.57015 0.379397 212 202 208
-0.106194 -0.574562 0.37804 215 205 210
-0.104164 -0.575055 0.377612 213 206 210
-0.095778 -0.575107 0.375146 215 205 210
-0.0777414 -0.581642 0.372313 217 207 211
-0.0756885 -0.582019 0.371868 216 206 212
-0.0717435 -0.584606 0.371701 217 207 211
-0.063683 -0.588764 0.370975 217 207 213
-0.0345212 -0.59438 0.365177 217 207 211
-0.0219088 -0.597356 0.363007 217 207 211
-0.0176758 -0.598594 0.362384 217 207 211
-0.0113356 -0.598978 0.360929 217 207 211
0.00805925 -0.605317 0.358496 216 206 212
0.0207992 -0.604447 0.355153 216 206 212
0.0408028 -0.610554 0.352799 215 205 210
0.0470114 -0.608353 0.350611 215 205 210
0.0535885 -0.608895 0.349362 215 205 210
0.0640045 -0.606179 0.346127 214 204 209
0.0717692 -0.61307 0.346988 207 197 200
0.0822377 -0.632968 0.352023 100 97 89
-0.124186 -0.566841 0.378351 212 202 208
-0.122186 -0.567405 0.377937 214 204 209
-0.118182 -0.568507 0.377105 211 203 208
-0.10859 -0.573867 0.376125 213 206 210
-0.0863424 -0.579848 0.371737 216 206 210
-0.00340715 -0.59917 0.356607 216 206 212
0.00745128 -0.604181 0.355782 216 206 212
0.0399742 -0.608486 0.349772 214 204 209
0.0551218 -0.608561 0.346449 215 205 210
0.0574128 -0.609342 0.346233 214 203 211
-0.131908 -0.561594 0.376532 210 200 206
-0.128325 -0.564584 0.376473 210 202 207
-0.114687 -0.570287 0.374316 212 203 206
-0.104911 -0.574656 0.372936 212 204 209
-0.0867429 -0.579638 0.369397 216 206 212
-0.0784726 -0.580299 0.367272 216 206 212
-0.0686274 -0.586757 0.366813 216 206 210
-0.0520118 -0.588285 0.362808 217 207 211
-0.0459007 -0.591882 0.362457 217 207 211
-0.0166188 -0.596436 0.356496 217 207 213
-0.0145187 -0.596563 0.356013 216 206 212
-0.00182575 -0.599035 0.353753 216 206 212
0.0282746 -0.604866 0.348692 216 206 212
0.0304043 -0.604813 0.348184 216 206 212
0.0478171 -0.606903 0.345011 215 205 210
0.0498192 -0.605828 0.344188 215 205 210
0.0627567 -0.605796 0.341372 214 203 211
0.0701555 -0.61083 0.341586 215 205 210
0.077265 -0.625404 0.345251 168 159 160
-0.13959 -0.565878 0.378082 173 163 168
-0.114878 -0.569157 0.371623 214 204 207
-0.0627935 -0.586587 0.362754 217 207 211
-0.0565437 -0.586559 0.361039 216 206 212
-0.0129313 -0.596457 0.353176 216 206 212
-0.0108614 -0.595622 0.352366 216 206 212
-0.00656676 -0.598652 0.352372 216 206 212
0.00842305 -0.602847 0.350211 216 206 212
0.0191087 -0.603831 0.348027 215 205 210
0.0363156 -0.605332 0.344594 215 205 210
0.0642621 -0.605395 0.338481 214 204 209
-0.126816 -0.563817 0.371064 211 201 207
-0.0548754 -0.585669 0.357905 217 207 213
-0.0488647 -0.590233 0.357883 216 206 212
-0.0405615 -0.591194 0.356019 217 207 211
-0.0301677 -0.592206 0.353668 217 207 213
-0.00708897 -0.598418 0.350017 216 206 212
-0.00502437 -0.597556 0.349209 216 206 212
0.0057014 -0.601638 0.348026 216 206 212
0.0206685 -0.603585 0.345159 216 206 212
0.0379691 -0.605966 0.342019 215 205 210
0.0660872 -0.606861 0.336176 214 204 209
0.0754344 -0.622212 0.3395 173 161 165
-0.115084 -0.565941 0.36591 212 203 206
-0.109431 -0.569308 0.365371 211 204 206
-0.099831 -0.574472 0.36431 214 204 207
-0.0777572 -0.580902 0.360197 216 206 210
-0.0717194 -0.582913 0.359202 216 206 210
-0.055426 -0.587299 0.356254 216 206 212
-0.043074 -0.589777 0.353815 217 207 213
-0.0368808 -0.591377 0.352743 217 207 213
-0.0347896 -0.590634 0.351944 216 206 212
-0.0306517 -0.591957 0.351331 217 207 213
-0.0285743 -0.592134 0.350858 217 207 213
-0.00970974 -0.598081 0.348154 217 207 213
0.00951116 -0.603352 0.345299 215 205 210
0.0138206 -0.604324 0.34461 215 205 210
0.0350348 -0.603925 0.339563 215 205 210
0.0440062 -0.607311 0.338709 215 205 210
0.0499945 -0.604077 0.33628 215 205 210
-0.125314 -0.562989 0.365688 211 201 207
-0.103797 -0.570512 0.361795 212 205 207
-0.0859679 -0.576304 0.358607 215 205 210
-0.083948 -0.576701 0.358169 216 206 212
-0.0762214 -0.581948 0.357774 216 206 210
-0.0558169 -0.586101 0.353591 216 206 212
-0.0497349 -0.588789 0.352876 217 207 213
-0.0414707 -0.589745 0.351019 216 206 212
-0.0228274 -0.593301 0.347424 216 206 212
-0.0207575 -0.592496 0.346627 217 207 213
0.00896344 -0.603103 0.34294 216 206 212
0.0278082 -0.60104 0.337832 215 205 210
0.0321252 -0.601858 0.337122 215 205 210
0.0534792 -0.60258 0.33261 215 205 210
0.0699233 -0.61069 0.331813 211 201 207
-0.102163 -0.570717 0.35907 214 204 207
-0.0981658 -0.571629 0.358214 215 205 208
-0.0726403 -0.583328 0.354897 216 206 210
-0.0666523 -0.586208 0.354214 216 206 212
-0.0501882 -0.588521 0.350549 217 207 213
-0.0357226 -0.589158 0.346969 216 206 212
-0.0336866 -0.591244 0.347143 216 206 212
-0.0274744 -0.592721 0.346045 216 206 212
-0.015032 -0.592603 0.34287 216 206 212
-0.0107703 -0.596611 0.343156 216 206 212
0.00402647 -0.599933 0.340663 216 206 212
0.0127128 -0.603817 0.339892 215 205 210
0.0210938 -0.602811 0.33759 215 205 210
0.0231173 -0.601825 0.336791 215 205 210
0.0528706 -0.602324 0.330268 215 205 210
0.0659981 -0.604045 0.328014 215 204 212
-0.143355 -0.565001 0.367255 150 138 142
-0.120059 -0.564103 0.35987 211 204 206
-0.0846287 -0.575219 0.353226 215 205 208
0.0035432 -0.60061 0.338625 215 205 210
0.0246571 -0.601509 0.333949 215 205 210
0.0288662 -0.601395 0.332945 215 205 210
0.0308674 -0.600374 0.332151 215 205 210
0.0331804 -0.602199 0.332226 215 205 210
0.0376221 -0.603918 0.331788 215 205 210
-0.107019 -0.570141 0.355683 212 203 206
-0.105027 -0.570617 0.355257 214 204 207
-0.0733851 -0.581825 0.349938 216 206 210
-0.0713509 -0.582165 0.349489 216 206 210
-0.0489929 -0.587257 0.345129 216 206 212
-0.0448524 -0.586784 0.343886 216 206 210
-0.0366654 -0.588582 0.342343 216 206 212
-0.0243023 -0.593411 0.34076 216 206 212
-0.018077 -0.593814 0.339328 216 206 212
-0.00123841 -0.599281 0.33697 216 206 212
0.00300652 -0.600326 0.336287 215 205 210
0.0326006 -0.601917 0.32989 215 205 210
0.0563012 -0.604291 0.3254 215 203 209
-0.138546 -0.559326 0.359357 212 202 208
-0.118756 -0.56406 0.354896 212 203 206
-0.116788 -0.56458 0.354479 212 203 206
-0.109362 -0.569365 0.353821 214 204 207
-0.101122 -0.569387 0.351439 215 205 208
-0.0972794 -0.57121 0.350918 214 204 207
-0.08351 -0.575951 0.34854 215 205 208
-0.0795872 -0.577639 0.347987 215 205 208
-0.0756447 -0.579297 0.347428 216 206 210
-0.0678537 -0.584407 0.346933 216 206 210
-0.0432924 -0.587654 0.341433 216 206 212
-0.0101675 -0.597746 0.33629 216 206 210
0.00037415 -0.599989 0.334445 215 205 210
0.0130963 -0.60202 0.332065 215 205 210
0.029718 -0.599796 0.327498 215 205 210
0.0363357 -0.602397 0.32683 215 203 209
0.0509108 -0.600537 0.322998 214 204 209
0.0532917 -0.602277 0.323033 215 203 209
0.0555404 -0.603055 0.322792 215 202 211
0.0767702 -0.625065 0.325269 155 147 145
-0.143832 -0.562364 0.359643 159 147 153
-0.14101 -0.559337 0.357838 193 180 189
-0.138848 -0.559034 0.357083 210 200 206
-0.120696 -0.561384 0.352358 212 203 206
-0.115323 -0.565715 0.352128 212 203 206
-0.103609 -0.569553 0.349925 212 203 206
-0.101342 -0.568146 0.34883 212 203 206
-0.0973807 -0.569033 0.347975 212 203 206
-0.0681982 -0.583155 0.344308 216 206 210
-0.0518921 -0.585445 0.340665 216 206 210
-0.0437189 -0.586391 0.338821 216 206 212
-0.0416739 -0.586607 0.338358 216 206 212
-0.0396281 -0.586814 0.337894 216 206 210
-0.0294136 -0.591538 0.336774 216 206 212
-0.0273514 -0.59265 0.336604 216 206 212
0.00606559 -0.598827 0.330354 215 205 210
0.00815556 -0.598843 0.329861 215 205 210
0.026957 -0.598605 0.325399 214 204 209
0.054782 -0.601806 0.320196 215 202 211
0.0567312 -0.600673 0.319417 214 203 211
-0.136993 -0.558415 0.354063 209 199 205
-0.134844 -0.558089 0.353312 210 200 206
-0.124735 -0.559074 0.350585 211 201 207
-0.122607 -0.55869 0.349834 210 200 206
-0.107773 -0.567369 0.348171 212 203 206
-0.105798 -0.56784 0.347746 212 203 206
-0.101558 -0.566893 0.346234 212 205 207
-0.0900568 -0.572263 0.344636 214 204 207
-0.0861822 -0.573994 0.344089 215 205 208
-0.0237012 -0.593575 0.333644 216 206 212
0.0327481 -0.599011 0.321864 214 204 209
0.056118 -0.600363 0.317103 214 203 211
-0.121344 -0.560745 0.347844 211 201 207
-0.117615 -0.562712 0.347346 211 202 205
-0.100083 -0.567943 0.343875 212 203 206
-0.0825732 -0.574422 0.340942 216 206 210
-0.0806765 -0.575733 0.340819 215 205 208
-0.0710628 -0.582182 0.340169 215 205 208
-0.064905 -0.582177 0.338504 215 205 208
-0.062878 -0.582475 0.338052 215 205 208
-0.0547082 -0.582631 0.335926 216 206 210
-0.0344444 -0.587678 0.332217 215 205 210
-0.00139855 -0.595209 0.326338 215 205 208
0.0406253 -0.599213 0.317816 215 202 211
0.066437 -0.601871 0.313003 214 201 210
-0.137801 -0.558693 0.349883 210 200 206
-0.133508 -0.558025 0.348395 210 200 206
-0.0908088 -0.571589 0.340105 214 204 207
-0.0713919 -0.580895 0.337573 215 205 208
-0.059252 -0.5827 0.334862 215 205 208
-0.0551442 -0.582284 0.333649 216 206 210
-0.0267427 -0.58989 0.32864 215 205 210
0.00428595 -0.594966 0.322582 212 202 208
0.0190173 -0.597777 0.319969 214 204 209
0.0271382 -0.595636 0.317449 212 202 208
0.044201 -0.598612 0.314506 214 201 210
0.0484986 -0.59927 0.313756 214 201 210
0.0568288 -0.598568 0.311726 214 201 210
-0.0496816 -0.125114 0.194001 119 64 53
-0.120041 -0.560588 0.342936 211 202 205
-0.110457 -0.564014 0.341169 212 203 206
-0.0947556 -0.567596 0.337765 212 203 206
-0.0929122 -0.568949 0.33765 214 204 207
-0.0676114 -0.579278 0.333787 215 205 208
-0.0596189 -0.581394 0.332285 215 205 208
-0.0555786 -0.581928 0.331376 215 205 208
-0.0393865 -0.583736 0.327707 216 206 210
-0.0272252 -0.589535 0.326355 215 205 210
-0.0231272 -0.589809 0.32541 215 205 210
-0.0190277 -0.590049 0.324462 214 204 209
0.00582022 -0.594629 0.319804 212 202 208
0.0434799 -0.597309 0.311954 214 201 210
0.0562161 -0.598225 0.309432 214 201 210
0.0624461 -0.597611 0.307907 214 201 210
0.0650155 -0.600253 0.30814 213 200 209
-0.0503919 -0.124841 0.193904 87 31 20
-0.118769 -0.562607 0.340925 210 200 204
-0.10884 -0.56413 0.338504 212 203 206
-0.106731 -0.563661 0.337764 212 203 206
-0.0973513 -0.568693 0.336578 214 204 207
-0.0700325 -0.578602 0.33197 215 205 208
-0.0659411 -0.578265 0.330773 215 205 208
-0.0580289 -0.581299 0.329564 215 205 208
-0.05207 -0.583971 0.328786 215 205 208
-0.0215768 -0.588607 0.322377 214 204 207
-0.00313923 -0.590308 0.318367 214 204 207
0.00311417 -0.592328 0.317464 212 203 206
0.0491004 -0.596493 0.30816 213 200 209
0.0616651 -0.596303 0.305376 213 200 209
0.0640612 -0.597993 0.305357 213 200 209
0.0706113 -0.610894 0.307725 212 202 208
-0.140183 -0.555226 0.342888 208 198 201
-0.122616 -0.559346 0.338877 210 200 206
-0.116972 -0.561816 0.337947 211 202 205
-0.0937711 -0.569153 0.333472 212 203 206
-0.0663548 -0.577888 0.328517 215 205 208
-0.0503499 -0.580966 0.325191 215 205 208
-0.0342815 -0.586405 0.322644 214 204 207
-0.0200135 -0.589305 0.319912 214 204 207
-0.0159253 -0.589511 0.318963 212 203 206
0.00887362 -0.593899 0.314265 212 202 208
0.0336852 -0.594195 0.308625 213 200 207
0.0485001 -0.596127 0.305882 213 200 209
0.0570648 -0.597313 0.304354 213 200 209
0.0632742 -0.596676 0.302833 213 200 209
0.0661769 -0.601228 0.303522 213 200 209
-0.130448 -0.555886 0.337978 209 199 203
-0.12505 -0.559372 0.337379 210 200 206
-0.117123 -0.560506 0.335401 211 202 205
-0.115184 -0.561002 0.334983 211 202 205
-0.103662 -0.564753 0.332763 212 203 206
-0.0901964 -0.569569 0.330367 214 204 207
-0.0648392 -0.578748 0.326109 215 205 208
-0.0508342 -0.581533 0.323225 215 205 208
-0.0487777 -0.580805 0.322483 215 205 208
-0.00818882 -0.591362 0.315328 215 205 208
0.00416532 -0.592545 0.312702 212 203 206
0.0187011 -0.594348 0.309807 212 203 206
0.0229103 -0.5952 0.309078 211 201 207
0.0352795 -0.594666 0.30611 213 200 207
0.0769378 -0.627847 0.306443 215 205 210
-0.0511831 -0.125774 0.193633 92 34 24
-0.123055 -0.557654 0.334112 210 200 204
-0.115166 -0.558743 0.332141 211 202 205
-0.113403 -0.560165 0.332032 211 202 205
-0.0848785 -0.572207 0.327422 212 203 206
-0.082792 -0.571622 0.326688 214 204 207
-0.0611182 -0.577001 0.322387 214 204 207
-0.0189834 -0.586701 0.314374 212 203 206
-0.0108318 -0.588009 0.312747 212 203 206
0.0426694 -0.591827 0.301376 213 200 207
0.0618695 -0.594961 0.298058 212 199 208
-0.142945 -0.553502 0.336614 209 199 203
-0.136778 -0.55342 0.334767 209 199 203
-0.13104 -0.555112 0.333543 210 200 204
-0.119514 -0.558284 0.331069 210 200 204
-0.113727 -0.559765 0.329818 211 202 205
-0.102546 -0.565342 0.328189 212 203 206
-0.0949877 -0.568919 0.327068 212 203 206
-0.0910545 -0.569717 0.326201 212 203 206
-0.0752709 -0.572587 0.322698 212 203 206
-0.059606 -0.577817 0.319984 214 204 207
-0.0576088 -0.578076 0.319532 214 204 207
-0.047651 -0.580214 0.31754 214 204 207
-0.0436719 -0.58159 0.316899 214 204 207
-0.0356434 -0.583286 0.315327 214 204 207
-0.0295982 -0.584715 0.314203 212 203 206
-0.0255556 -0.584021 0.313002 212 203 206
-0.00523904 -0.58777 0.30907 212 203 206
0.0173528 -0.590656 0.304531 213 200 207
0.0340122 -0.59291 0.301344 213 200 207
0.0486243 -0.593834 0.298344 212 199 206
0.0531659 -0.596356 0.298043 212 199 208
0.0569838 -0.594036 0.296574 212 199 208
0.0612499 -0.594566 0.295798 212 199 208
-0.0497206 -0.123567 0.192057 141 68 58
-0.125588 -0.556328 0.330101 210 200 204
-0.115632 -0.556995 0.327422 210 200 204
-0.112121 -0.559832 0.327189 211 201 207
-0.104839 -0.56449 0.326395 212 203 206
-0.102744 -0.563987 0.325673 212 203 206
-0.100941 -0.565363 0.325542 212 203 206
-0.0933842 -0.568909 0.324408 212 203 206
-0.0873715 -0.569117 0.322815 212 203 206
-0.0679929 -0.576279 0.319546 214 204 207
-0.0620866 -0.578088 0.31848 214 204 207
-0.0500926 -0.579574 0.315761 214 204 207
-0.0280476 -0.583469 0.311231 214 204 207
-0.0240212 -0.582756 0.310035 212 203 206
-0.0119176 -0.584282 0.307481 212 203 206
0.00439427 -0.58747 0.304439 213 201 205
0.010411 -0.586476 0.30275 212 200 204
0.0167244 -0.589273 0.30204 213 200 207
0.0354836 -0.59238 0.2986 212 199 206
0.0461085 -0.594557 0.296822 212 199 208
0.054618 -0.595757 0.295279 212 199 208
-0.145169 -0.551177 0.332281 183 173 179
-0.139246 -0.552034 0.33076 207 197 200
-0.127803 -0.555382 0.328309 210 200 204
-0.1142 -0.557995 0.325107 211 202 205
-0.105027 -0.563125 0.323888 211 202 205
-0.0878584 -0.569642 0.320884 214 204 207
-0.0858937 -0.570012 0.320448 212 203 206
-0.076052 -0.57174 0.318255 212 202 208
-0.0664112 -0.576143 0.31687 214 204 207
-0.056576 -0.579399 0.315166 212 203 206
-0.0325544 -0.583718 0.31019 212 203 206
-0.0224682 -0.585335 0.308115 211 202 205
-0.00835311 -0.584937 0.304562 211 202 205
-0.00225353 -0.586025 0.303389 213 201 205
0.0058339 -0.586071 0.30148 212 199 206
0.0118264 -0.585052 0.2998 210 200 206
-0.0512584 -0.125056 0.192428 127 54 44
-0.149934 -0.552303 0.331808 101 96 98
-0.141641 -0.551957 0.329271 207 197 200
-0.13974 -0.552543 0.328866 207 197 200
-0.1073 -0.562248 0.322106 211 202 205
-0.105364 -0.562694 0.321682 211 202 205
-0.0996866 -0.564932 0.320691 211 202 205
-0.0881086 -0.568255 0.318387 212 203 206
-0.0704467 -0.571284 0.31444 212 203 206
-0.060992 -0.57845 0.313841 214 204 207
-0.0529055 -0.577515 0.311494 212 203 206
-0.043008 -0.580494 0.309744 212 203 206
-0.0409785 -0.579716 0.309023 214 204 207
-0.0330196 -0.583278 0.307958 212 203 206
-0.0269829 -0.583693 0.306563 210 200 204
-0.0209227 -0.585969 0.305667 212 203 206
-0.0129368 -0.582438 0.302782 211 202 205
-0.00281177 -0.584616 0.300918 211 202 205
0.0032888 -0.585631 0.299734 210 200 204
0.00530739 -0.58563 0.299257 210 200 204
0.00719917 -0.583684 0.298297 211 201 207
0.00927697 -0.584635 0.298061 210 200 204
0.0196046 -0.58733 0.29637 212 199 206
0.0364862 -0.592365 0.293853 211 198 207
0.040572 -0.592089 0.292865 211 198 207
0.0758116 -0.625732 0.294008 221 211 214
-0.143582 -0.550014 0.327178 208 198 201
-0.14169 -0.550605 0.326774 207 197 200
-0.122665 -0.556089 0.322679 210 200 204
-0.118839 -0.557093 0.321848 210 200 204
-0.115005 -0.558065 0.321013 210 200 204
-0.113086 -0.55854 0.320594 210 200 204
-0.109563 -0.561354 0.320329 211 202 205
-0.101828 -0.563119 0.318631 211 202 205
-0.0964136 -0.56721 0.318194 211 202 205
-0.0614754 -0.578964 0.311884 212 203 206
-0.0594797 -0.579224 0.311431 212 203 206
-0.0534362 -0.578991 0.309806 212 203 206
-0.0394564 -0.580408 0.306606 212 203 206
-0.0274563 -0.583242 0.304338 212 203 206
-0.0234201 -0.586382 0.304156 211 202 205
-0.0193892 -0.585617 0.302967 211 202 205
-0.0134307 -0.581985 0.300569 212 203 206
-0.0113986 -0.583018 0.300345 211 202 205
-0.00327999 -0.585133 0.298942 211 202 205
0.0313926 -0.588295 0.291696 211 198 205
0.0418982 -0.59053 0.289916 212 199 208
0.0581516 -0.58903 0.28596 209 197 205
-0.143391 -0.547724 0.324393 207 197 200
-0.125065 -0.556068 0.321196 209 199 203
-0.123154 -0.556582 0.320781 210 200 204
-0.111816 -0.560444 0.318557 211 202 205
-0.0851601 -0.569991 0.313657 212 203 206
-0.0713216 -0.571332 0.310306 212 203 206
-0.0538643 -0.578532 0.307588 212 203 206
-0.0459299 -0.580355 0.306022 212 203 206
-0.0399072 -0.579947 0.304391 212 203 206
-0.0339456 -0.582368 0.303513 212 203 206
-0.0139469 -0.580551 0.29812 211 202 205
0.00437371 -0.586659 0.295295 210 200 204
0.00633184 -0.585679 0.294583 210 200 204
0.0288005 -0.587947 0.289965 211 198 205
0.0392795 -0.590228 0.288184 209 197 205
0.0495735 -0.590362 0.285935 209 197 205
0.0594045 -0.587391 0.283039 209 197 205
-0.129173 -0.554565 0.319836 210 200 204
-0.123643 -0.557067 0.318881 209 199 203
-0.121729 -0.557572 0.318464 210 200 204
-0.117897 -0.558561 0.317629 210 200 204
-0.113719 -0.55763 0.316225 210 200 204
-0.110213 -0.560445 0.315946 210 200 204
-0.0930925 -0.566132 0.312652 212 203 206
-0.0697522 -0.571158 0.307667 212 203 206
-0.0659016 -0.572688 0.30704 212 203 206
-0.0582049 -0.576622 0.306025 212 203 206
-0.0443408 -0.579113 0.303099 211 202 205
-0.0263955 -0.583402 0.299685 211 202 205
0.00183255 -0.58619 0.293558 210 200 204
0.00976165 -0.584195 0.291191 209 199 203
0.019801 -0.583946 0.288798 212 200 204
0.0260178 -0.585639 0.287797 211 198 205
0.0301502 -0.586403 0.287048 211 198 205
0.0447813 -0.589292 0.284491 209 197 205
0.0469446 -0.590085 0.28421 209 197 205
0.0507147 -0.587776 0.282804 209 197 205
-0.146018 -0.547155 0.320744 198 189 192
-0.127363 -0.553693 0.316959 209 199 203
-0.0915042 -0.56604 0.31003 212 203 206
-0.081989 -0.569747 0.308383 211 202 205
-0.0740624 -0.57008 0.306361 212 203 206
-0.0585605 -0.575179 0.303568 212 203 206
-0.0368439 -0.580295 0.299306 211 202 205
-0.0328667 -0.581564 0.298627 210 200 204
-0.0288676 -0.58183 0.2977 210 200 204
-0.0188782 -0.581383 0.295134 210 200 204
0.00722523 -0.58374 0.289468 209 199 203
0.0400165 -0.588174 0.283051 208 195 204
0.0521326 -0.587106 0.280109 209 197 205
0.0561647 -0.586684 0.279125 209 197 205
-0.13312 -0.550684 0.315738 208 198 201
-0.131234 -0.551224 0.315329 208 198 201
-0.127455 -0.55228 0.314508 209 199 203
-0.122332 -0.556634 0.314102 209 199 203
-0.0725831 -0.570857 0.30399 211 202 205
-0.0685824 -0.570476 0.302849 211 202 205
-0.0531055 -0.576354 0.30027 211 202 205
-0.0392636 -0.578673 0.297324 211 202 205
0.00863422 -0.58225 0.286579 211 198 203
0.0207086 -0.582901 0.283936 211 198 205
0.0289157 -0.584467 0.282439 211 198 205
0.0309216 -0.584352 0.281957 209 197 203
0.0393101 -0.586721 0.280641 209 197 205
0.041197 -0.585594 0.279948 208 195 204
0.0473628 -0.586044 0.278689 209 197 205
-0.144424 -0.545879 0.315729 205 196 199
-0.114827 -0.55714 0.309984 210 200 204
-0.0993758 -0.559678 0.306334 211 202 205
-0.0862822 -0.565197 0.304108 211 202 205
-0.0824075 -0.565885 0.303238 211 202 205
-0.0768798 -0.569746 0.30269 211 202 205
-0.06129 -0.572975 0.299388 212 203 206
-0.0455855 -0.575702 0.296024 211 202 205
-0.0297812 -0.577923 0.292602 210 200 204
-0.0278019 -0.579015 0.292374 210 200 204
-0.00991632 -0.579735 0.288191 212 200 204
0.00228338 -0.584722 0.286473 209 199 203
0.0302484 -0.582882 0.279564 209 197 203
0.0426204 -0.584935 0.277274 208 195 204
0.0689371 -0.606747 0.276673 222 212 217
-0.052548 -0.124982 0.191031 124 58 43
-0.150745 -0.545456 0.315345 133 124 127
-0.148879 -0.546064 0.314943 160 150 154
-0.137642 -0.54955 0.312513 207 197 200
-0.128024 -0.551303 0.31019 208 198 201
-0.121025 -0.556152 0.309345 210 200 204
-0.109254 -0.557057 0.306293 209 199 203
-0.0864079 -0.562771 0.301431 212 203 206
-0.0826648 -0.564417 0.300818 211 202 205
-0.0498696 -0.572859 0.294274 211 202 205
-0.0401047 -0.575718 0.29248 210 200 204
-0.0322102 -0.576309 0.290652 210 200 204
-0.0243093 -0.576772 0.288813 210 200 204
-0.00846131 -0.578286 0.285328 211 198 203
0.00165722 -0.582263 0.283851 209 199 203
0.0155455 -0.581056 0.280321 209 197 203
0.0397804 -0.582651 0.27518 208 195 204
0.0541917 -0.584243 0.272365 208 195 204
-0.137689 -0.548116 0.310086 207 197 200
-0.132272 -0.55069 0.309132 208 198 201
-0.119604 -0.557082 0.307031 209 199 203
-0.115442 -0.556136 0.305663 210 200 204
-0.100043 -0.55866 0.302023 211 202 205
-0.0963588 -0.560408 0.301426 210 200 204
-0.0945759 -0.561751 0.301252 211 202 205
-0.088564 -0.56094 0.299455 211 202 205
-0.0775382 -0.567759 0.298094 211 202 205
-0.0602753 -0.574131 0.295067 211 202 205
-0.0543184 -0.573856 0.293479 211 202 205
-0.0483778 -0.573507 0.29189 210 200 204
-0.0326541 -0.574812 0.288255 210 200 204
-0.0267502 -0.57517 0.286882 210 200 204
-0.0188596 -0.57651 0.285262 211 198 203
-0.0129131 -0.577676 0.284092 211 198 203
-0.00697997 -0.577794 0.282695 211 198 203
0.00296482 -0.578806 0.280568 209 197 201
0.0109602 -0.579666 0.278893 209 197 201
0.0169948 -0.58047 0.277677 209 197 203
0.0190687 -0.581371 0.277406 209 197 201
0.026926 -0.580021 0.275298 208 196 202
0.0350966 -0.581464 0.273779 207 194 203
0.0599052 -0.584982 0.269098 207 194 203
-0.132754 -0.551121 0.30725 208 198 201
-0.128786 -0.551232 0.30616 209 199 203
-0.122943 -0.551805 0.304656 209 199 203
-0.109884 -0.556028 0.301992 210 200 204
-0.0928699 -0.560645 0.298418 212 203 206
-0.0719126 -0.566202 0.29413 211 202 205
-0.0331077 -0.574279 0.286095 210 200 204
-0.0311435 -0.574406 0.285638 210 200 204
-0.0153969 -0.576111 0.282179 211 198 203
-0.00145924 -0.57926 0.279555 209 197 201
0.006405 -0.578232 0.27747 208 196 200
0.0323131 -0.579126 0.27171 207 195 201
0.0465763 -0.580908 0.26892 207 194 203
0.0485626 -0.580713 0.268437 208 195 204
0.0546711 -0.581049 0.26717 207 194 203
0.0703093 -0.611789 0.270637 162 152 160
-0.151959 -0.545819 0.309444 126 117 120
-0.133027 -0.550603 0.305104 208 198 201
-0.129064 -0.550711 0.304017 208 198 201
-0.125109 -0.550784 0.302931 209 199 203
-0.104658 -0.557741 0.298835 211 202 205
-0.102904 -0.559111 0.298661 210 200 204
-0.0990842 -0.559918 0.297807 211 202 205
-0.0801176 -0.565416 0.293973 211 202 205
-0.0647101 -0.568687 0.290686 211 201 207
-0.0472736 -0.572626 0.287117 210 200 204
-0.0414287 -0.574123 0.285982 210 200 204
-0.0237516 -0.57429 0.281654 211 198 203
-0.0217802 -0.575354 0.281409 209 197 201
-0.0178468 -0.575504 0.280488 208 198 201
-0.0119454 -0.57567 0.279102 209 197 201
0.00785852 -0.577657 0.274848 207 197 202
0.0199654 -0.580221 0.272608 207 197 200
0.027793 -0.578839 0.270513 207 195 201
0.0537607 -0.578573 0.264658 206 193 200
-0.136825 -0.548056 0.303523 207 197 200
-0.087945 -0.561607 0.293086 210 200 204
-0.0688993 -0.566641 0.289192 210 200 204
-0.0612928 -0.569607 0.287878 210 200 204
-0.0535595 -0.571481 0.286315 212 200 204
-0.0496544 -0.571885 0.285415 212 200 204
-0.028133 -0.572562 0.280211 211 198 203
-0.0124334 -0.575116 0.276956 209 197 201
0.0153782 -0.57885 0.27121 208 196 202
0.051335 -0.579222 0.263175 206 193 202
-0.122114 -0.551642 0.298094 209 199 203
-0.112701 -0.55397 0.296004 210 200 204
-0.0959344 -0.5596 0.292672 210 200 204
-0.090207 -0.560701 0.291382 210 200 206
-0.0826639 -0.563027 0.289886 210 200 204
-0.0749769 -0.564266 0.288141 211 202 205
-0.0712153 -0.565807 0.287493 211 202 205
-0.0693695 -0.567052 0.28728 210 200 204
-0.0442592 -0.572846 0.282133 211 198 203
-0.0168043 -0.576409 0.276147 209 197 201
0.0226409 -0.576972 0.266991 207 195 201
0.0246094 -0.576867 0.266518 206 193 200
0.0463654 -0.576159 0.261473 206 193 202
-0.150321 -0.542978 0.302106 179 169 172
-0.1224 -0.55109 0.295969 209 199 203
-0.116767 -0.552507 0.294718 209 199 203
-0.110951 -0.5529 0.293217 209 199 203
-0.0980307 -0.557695 0.290733 211 202 205
-0.0830234 -0.562462 0.287754 210 200 204
-0.0790848 -0.562128 0.286655 209 199 203
-0.0658907 -0.567012 0.284259 210 200 204
-0.0562751 -0.569166 0.282256 210 200 204
-0.0523924 -0.569583 0.281362 210 200 204
-0.0407855 -0.572601 0.279085 209 199 203
-0.031014 -0.573272 0.276811 209 197 201
-0.0290532 -0.572404 0.276149 209 197 201
-0.019263 -0.574796 0.274265 209 197 201
0.0200377 -0.575521 0.265149 206 193 200
0.0220935 -0.576403 0.26486 207 195 201
0.0318019 -0.574822 0.262322 206 193 200
0.0499939 -0.577133 0.258735 206 193 202
0.065178 -0.595142 0.25913 218 208 216
-0.150307 -0.541497 0.299731 183 171 175
-0.142932 -0.543818 0.298117 207 197 200
-0.139906 -0.547758 0.298058 208 196 200
-0.129744 -0.546642 0.295011 209 199 203
-0.128088 -0.548098 0.294846 211 198 203
-0.126225 -0.548599 0.294434 209 197 201
-0.118936 -0.551479 0.293017 209 199 203
-0.11706 -0.551943 0.292599 209 199 203
-0.105772 -0.554567 0.290077 210 200 206
-0.102147 -0.55634 0.289465 210 200 204
-0.0872043 -0.561225 0.286495 210 200 204
-0.0813589 -0.56124 0.284968 210 200 204
-0.077739 -0.563795 0.284546 210 200 204
-0.0333916 -0.570615 0.274727 209 197 201
-0.0275605 -0.571925 0.273565 208 196 200
-0.0256129 -0.571039 0.27291 208 196 200
-0.0236572 -0.573086 0.272852 208 196 200
-0.0177635 -0.575258 0.271869 207 197 200
-0.011963 -0.572458 0.269903 205 196 199
-0.0100128 -0.572488 0.269443 205 196 199
0.00773626 -0.575352 0.265836 205 196 199
0.0213615 -0.573865 0.26238 205 192 199
0.0233159 -0.573761 0.261911 205 192 199
0.0333115 -0.575077 0.259907 206 193 202
0.0493995 -0.576561 0.256613 206 193 202
0.0513634 -0.576343 0.256135 206 193 202
0.0577338 -0.578564 0.255186 203 193 201
0.0603658 -0.582205 0.255347 207 196 204
-0.154714 -0.541603 0.298931 101 94 97
-0.148699 -0.541531 0.297219 207 197 200
-0.140158 -0.547197 0.295937 207 197 200
-0.128562 -0.548478 0.292979 208 198 201
-0.113776 -0.55323 0.289885 209 199 203
-0.104046 -0.553438 0.28731 210 200 206
-0.0966535 -0.555961 0.285843 210 200 204
-0.0930042 -0.557661 0.285216 210 200 204
-0.0837368 -0.561305 0.283508 209 199 203
-0.0743656 -0.564768 0.281766 208 198 201
-0.055155 -0.568211 0.277552 211 198 203
-0.0474942 -0.570936 0.276174 209 197 201
-0.0416874 -0.572411 0.275023 209 197 201
-0.0260733 -0.570447 0.270792 208 196 200
-0.00858875 -0.570938 0.266679 207 195 199
-0.000716258 -0.572914 0.265208 204 195 198
0.0109839 -0.572696 0.262425 205 193 197
0.016746 -0.571499 0.260852 206 193 200
0.0599143 -0.582605 0.253366 204 194 202
0.0634128 -0.591104 0.254285 200 189 197
-0.146852 -0.540607 0.294465 206 194 198
-0.119325 -0.549372 0.288563 209 199 203
-0.104203 -0.551889 0.284981 209 199 203
-0.0840907 -0.560712 0.281394 209 199 203
-0.0708989 -0.564729 0.278768 210 200 204
-0.0594888 -0.568159 0.276531 208 198 201
-0.0499048 -0.571136 0.274702 209 197 201
-0.0420909 -0.570834 0.272697 209 197 201
-0.0382039 -0.571125 0.271792 207 197 200
-0.0362597 -0.571259 0.271339 207 197 200
-0.03237 -0.571502 0.270431 207 197 200
-0.0090779 -0.570336 0.264574 207 195 199
0.00663148 -0.573182 0.261425 206 194 198
0.0124813 -0.573013 0.26003 205 193 197
0.0563572 -0.576424 0.250791 202 192 198
0.058972 -0.580072 0.250925 203 193 201
-0.117929 -0.550197 0.286279 209 199 203
-0.0919131 -0.557793 0.280796 210 200 204
-0.0599552 -0.56853 0.274617 209 197 201
0.0255676 -0.571734 0.254667 205 192 199
0.0430316 -0.570304 0.250452 203 193 199
-0.155116 -0.538955 0.292374 118 109 112
-0.153036 -0.538622 0.29173 159 149 152
-0.147069 -0.538503 0.290044 205 193 197
-0.131004 -0.545264 0.286856 208 196 200
-0.129362 -0.546719 0.286676 209 197 201
-0.123601 -0.547238 0.285205 211 198 203
-0.0679055 -0.565009 0.273872 209 199 203
-0.0582342 -0.565202 0.271459 209 197 201
-0.0544488 -0.566594 0.270768 209 197 201
-0.0468244 -0.569289 0.269369 208 196 200
-0.0409876 -0.568778 0.267827 207 197 200
-0.0352394 -0.572122 0.267039 207 197 200
-0.0100518 -0.569103 0.260383 205 193 197
0.00559829 -0.571954 0.257223 203 193 197
0.00948505 -0.57185 0.256297 204 192 196
0.0170836 -0.569582 0.254112 205 193 197
0.019107 -0.570469 0.253812 205 192 199
0.0574241 -0.576923 0.246398 202 192 198
0.0605436 -0.583494 0.246933 213 200 209
-0.151431 -0.538623 0.289243 197 188 191
-0.143651 -0.539037 0.28716 207 195 199
-0.127571 -0.54566 0.283946 209 197 201
-0.110877 -0.549789 0.280202 210 200 204
-0.10715 -0.550624 0.279361 209 199 203
-0.104967 -0.549103 0.278506 209 199 203
-0.0905659 -0.555943 0.275964 209 199 203
-0.0849069 -0.556937 0.274674 209 199 203
-0.0586967 -0.565555 0.269556 209 197 201
-0.0433816 -0.568984 0.266364 205 196 199
-0.0414486 -0.569133 0.265914 207 195 199
-0.0337411 -0.571614 0.264475 207 195 199
-0.0298482 -0.570843 0.263383 206 194 198
-0.0279055 -0.569953 0.262747 204 195 198
-0.0124114 -0.57042 0.2591 206 194 198
-0.00461969 -0.571449 0.257437 205 193 197
-0.000687558 -0.572408 0.256684 205 193 197
0.00131115 -0.573368 0.25639 204 192 196
0.0108301 -0.570175 0.253581 202 192 196
0.0167201 -0.57092 0.252354 204 192 196
0.0186583 -0.570825 0.251889 204 191 198
0.0322118 -0.569937 0.248632 202 192 200
0.0399432 -0.569256 0.246765 201 188 197
0.0519768 -0.570932 0.244389 201 191 196
0.0566544 -0.575331 0.244155 202 192 198
0.0632558 -0.590422 0.245443 189 179 187
-0.153211 -0.536491 0.287331 152 142 146
-0.145941 -0.538812 0.285722 206 194 198
-0.138413 -0.540066 0.283873 208 196 200
-0.131519 -0.544047 0.282691 209 197 201
-0.12763 -0.544092 0.281644 209 197 203
-0.120255 -0.545995 0.279991 209 199 205
-0.107451 -0.55 0.277284 208 198 201
-0.0943858 -0.552678 0.274321 209 199 203
-0.0907706 -0.554344 0.273675 210 200 204
-0.0759141 -0.558782 0.270631 209 199 203
-0.0685838 -0.562778 0.269475 209 197 201
-0.039895 -0.566672 0.263 207 197 200
-0.0341715 -0.569996 0.262192 205 196 199
-0.032236 -0.570105 0.261738 206 194 198
-0.0167607 -0.569713 0.257925 205 193 197
0.000802974 -0.572732 0.254296 202 192 196
-0.145924 -0.537254 0.283425 206 194 198
-0.135443 -0.542399 0.281438 207 197 200
-0.127479 -0.54156 0.279136 209 197 203
-0.125851 -0.542999 0.278944 209 197 203
-0.123817 -0.542521 0.278315 209 197 203
-0.117204 -0.548191 0.277521 209 197 203
-0.111463 -0.548536 0.276052 209 199 203
-0.105731 -0.548807 0.274582 209 199 203
-0.100306 -0.55094 0.273525 209 199 203
-0.0964345 -0.550712 0.272472 209 199 203
-0.0929751 -0.553361 0.27203 209 199 203
-0.0818296 -0.556289 0.269655 209 199 203
-0.0724927 -0.558687 0.267684 209 197 201
-0.0706888 -0.559926 0.267441 211 198 203
-0.0326577 -0.567491 0.259296 205 193 197
-0.0172521 -0.56808 0.255674 203 193 197
-0.0153474 -0.567133 0.255052 204 192 196
-0.013399 -0.568149 0.254764 205 193 197
-0.00758206 -0.56918 0.25356 203 193 197
0.0116399 -0.567835 0.248815 201 191 196
0.0329024 -0.567519 0.243884 201 190 198
0.0527164 -0.569429 0.239778 201 188 197
-0.0987563 -0.550669 0.271037 209 199 203
-0.0709696 -0.558297 0.265178 208 196 200
-0.0673528 -0.560754 0.264681 208 196 200
-0.0597504 -0.561665 0.262923 207 197 200
-0.052033 -0.560488 0.260795 207 197 200
-0.050231 -0.56263 0.260713 207 195 199
-0.0483252 -0.5628 0.260269 205 196 199
-0.0426371 -0.564247 0.259111 206 194 198
-0.0387882 -0.563534 0.258044 206 194 198
-0.0350222 -0.566727 0.257667 205 193 197
-0.0100629 -0.566544 0.251622 204 192 196
-0.00810731 -0.567538 0.251327 204 192 196
-0.00421722 -0.568515 0.250573 202 192 196
-0.00224274 -0.569485 0.250273 202 192 196
0.0171376 -0.569875 0.245819 201 191 196
0.0229305 -0.569543 0.24443 201 191 196
0.0305346 -0.568007 0.242433 201 190 198
0.0324584 -0.567849 0.24197 201 190 198
0.0342614 -0.566701 0.241367 200 189 197
0.0363041 -0.567511 0.241042 200 189 197
0.0380981 -0.566348 0.24044 200 189 197
0.0542037 -0.569516 0.237381 201 188 197
0.0649054 -0.597071 0.239676 190 180 188
-0.142984 -0.538051 0.278722 206 194 198
-0.141168 -0.538595 0.278317 206 194 198
-0.120878 -0.543126 0.273595 211 198 205
-0.111868 -0.546283 0.271723 209 199 203
-0.109853 -0.545736 0.271101 209 197 203
-0.0900196 -0.55371 0.267243 208 198 201
-0.0788741 -0.556546 0.264851 208 198 201
-0.0751077 -0.557106 0.263984 209 199 203
-0.0696244 -0.559847 0.263048 207 197 200
-0.0467926 -0.561314 0.257586 206 194 198
-0.0239647 -0.563637 0.252402 205 193 197
-0.0220485 -0.564685 0.252115 204 192 196
-0.0106082 -0.563903 0.249248 201 191 194
0.00662854 -0.564675 0.245317 201 191 196
0.0125145 -0.566435 0.24424 201 191 196
0.0165189 -0.568227 0.243611 200 190 193
0.0375289 -0.565687 0.238395 201 189 195
0.0510624 -0.565187 0.235282 201 189 195
0.0687171 -0.609827 0.23874 162 156 162
-0.130482 -0.541051 0.273815 207 197 200
-0.119504 -0.543884 0.271339 209 197 203
-0.11014 -0.545076 0.269056 209 197 203
-0.108468 -0.54645 0.268837 209 197 203
-0.0903495 -0.553045 0.265186 208 198 201
-0.0774496 -0.557139 0.262543 207 197 200
-0.0642421 -0.558912 0.259492 207 197 200
-0.0623519 -0.559134 0.259054 205 196 199
-0.0567378 -0.560739 0.257912 205 196 199
-0.0529433 -0.561116 0.257029 206 194 198
-0.0339373 -0.562539 0.252588 205 193 197
-0.0282236 -0.561828 0.251086 202 192 196
-0.0206109 -0.563075 0.249453 202 192 196
-0.0167826 -0.564147 0.24871 201 191 194
-0.00333057 -0.566172 0.245844 201 189 193
0.0197368 -0.566356 0.2405 200 190 195
0.0445982 -0.564219 0.234509 200 188 194
0.0506227 -0.565501 0.233371 200 188 194
0.0672092 -0.604302 0.235936 168 160 167
-0.155776 -0.53182 0.277227 127 117 123
-0.125259 -0.54184 0.270537 209 197 201
-0.117941 -0.543666 0.26888 209 197 203
-0.114093 -0.54357 0.26785 209 197 203
-0.103387 -0.547929 0.265728 208 198 201
-0.094129 -0.549749 0.263612 207 197 200
-0.0571318 -0.560058 0.255857 206 194 198
-0.0381711 -0.561632 0.251431 205 193 197
-0.034357 -0.560868 0.25038 205 193 197
-0.0229788 -0.561349 0.247704 201 191 194
-0.0153896 -0.561516 0.245912 201 191 194
-0.00962994 -0.563537 0.244861 201 189 193
-0.00577851 -0.564516 0.244104 201 189 195
0.00179959 -0.563417 0.242146 201 189 195
0.0289785 -0.56698 0.236423 201 189 195
0.0326953 -0.565674 0.235372 200 188 194
0.049727 -0.562863 0.231098 200 188 194
0.0519393 -0.564583 0.230875 200 188 194
0.0543252 -0.567273 0.230766 200 187 196
0.0653695 -0.596805 0.232945 161 152 162
-0.143654 -0.536096 0.272588 207 195 199
-0.112364 -0.542351 0.265209 208 196 200
-0.108708 -0.543169 0.264376 211 198 203
-0.103529 -0.54628 0.2635 208 198 201
-0.079924 -0.554516 0.258693 207 197 200
-0.0539093 -0.562698 0.253424 203 193 197
-0.0329114 -0.561261 0.248054 202 190 194
-0.0196457 -0.560753 0.244777 201 189 193
-0.00245614 -0.563783 0.24116 201 189 195
-0.000602719 -0.562763 0.240567 200 188 194
0.0243919 -0.564609 0.23505 198 188 194
0.0301132 -0.564164 0.233675 198 188 196
0.0492886 -0.56316 0.229195 199 186 195
0.0640526 -0.592227 0.230349 165 157 167
-0.153856 -0.52921 0.272347 176 167 170
-0.150295 -0.530362 0.271549 202 192 196
-0.148512 -0.530927 0.271149 203 193 197
-0.140965 -0.539352 0.27035 206 194 198
-0.125769 -0.540491 0.266468 209 197 201
-0.123749 -0.539996 0.26586 208 196 200
-0.121736 -0.539493 0.265254 209 197 203
-0.1055 -0.544239 0.261706 207 197 200
-0.103667 -0.544622 0.261287 207 197 200
-0.0803796 -0.5548 0.256828 207 197 200
-0.0673354 -0.557599 0.253957 206 194 198
-0.0654527 -0.557828 0.25352 207 195 199
-0.0466684 -0.561676 0.24944 205 193 197
-0.0447337 -0.560835 0.248839 205 193 197
-0.0408563 -0.558141 0.247485 204 192 196
-0.0181986 -0.561077 0.242449 201 189 193
-0.0105576 -0.56313 0.240937 200 188 192
0.00263756 -0.560985 0.237504 198 188 194
0.0121793 -0.561624 0.235375 197 187 193
0.0141564 -0.562519 0.235051 197 187 193
0.02204 -0.56503 0.233607 199 186 193
0.0351408 -0.561968 0.230159 197 187 195
0.0370373 -0.561782 0.229702 197 187 195
0.0466542 -0.561717 0.227526 199 186 195
0.0553599 -0.567604 0.226457 197 187 195
0.0629128 -0.588615 0.227898 171 163 173
-0.144089 -0.534749 0.26853 206 194 198
-0.135523 -0.539278 0.266887 207 197 200
-0.12986 -0.539809 0.265459 209 197 201
-0.126021 -0.539803 0.264443 208 196 202
-0.105953 -0.544511 0.259869 208 198 201
-0.102285 -0.545271 0.259029 207 197 200
-0.0880644 -0.551918 0.25634 207 197 200
-0.0622113 -0.559526 0.250931 206 194 198
-0.0509161 -0.56164 0.248442 205 193 197
-0.045186 -0.561113 0.246957 204 192 196
-0.0394212 -0.558539 0.245173 204 192 196
-0.0318814 -0.55895 0.243401 201 189 193
-0.0243329 -0.560228 0.241767 201 189 193
-0.0129345 -0.562412 0.23936 199 187 191
0.00598145 -0.561146 0.234719 197 187 193
0.00787466 -0.561076 0.234267 197 187 193
0.0617793 -0.58499 0.225476 175 166 176
-0.146096 -0.533518 0.266915 204 195 198
-0.140946 -0.536083 0.265893 206 194 198
-0.115552 -0.542747 0.260123 207 197 200
-0.107902 -0.542447 0.258092 207 197 200
-0.0972255 -0.54662 0.255924 207 197 200
-0.0698616 -0.55496 0.250163 204 195 198
-0.0550465 -0.559593 0.247134 205 193 197
-0.03987 -0.558809 0.2433 202 190 194
-0.0341988 -0.558139 0.241827 201 189 193
-0.0323169 -0.55823 0.241385 201 189 193
-0.0285567 -0.559379 0.240639 201 189 193
-0.0191367 -0.558654 0.238275 200 188 192
-0.0172348 -0.559674 0.237965 200 188 192
0.00340254 -0.557518 0.232783 198 185 192
0.0208665 -0.562619 0.22945 197 187 195
0.0246618 -0.562347 0.228539 196 186 194
0.0472286 -0.559086 0.222959 196 186 194
0.0536756 -0.563255 0.222101 196 186 194
-0.144272 -0.532417 0.264305 205 196 199
-0.132371 -0.538886 0.262018 205 196 199
-0.119271 -0.540212 0.25876 207 197 200
-0.10438 -0.541532 0.255077 207 197 200
-0.101046 -0.544217 0.254584 205 196 199
-0.0941342 -0.548539 0.253404 207 197 200
-0.0535007 -0.558057 0.244516 204 192 196
-0.030872 -0.557584 0.238932 200 188 192
-0.00639456 -0.558964 0.233277 198 185 192
0.0294571 -0.558195 0.224843 195 185 193
0.0369729 -0.557473 0.223033 196 186 194
0.0504049 -0.55788 0.220061 195 185 193
-0.128568 -0.53722 0.258818 207 197 200
-0.108635 -0.541982 0.254259 207 197 200
-0.0890429 -0.549764 0.250276 205 196 199
-0.0797814 -0.551237 0.248131 204 195 198
-0.0538395 -0.556335 0.242353 201 191 194
-0.0463804 -0.557947 0.240738 201 189 193
-0.0200521 -0.557186 0.234272 198 186 190
-0.0144469 -0.55626 0.232813 198 186 190
-0.00882887 -0.556259 0.23148 198 185 192
0.0119928 -0.558637 0.226915 197 185 189
0.0344113 -0.555945 0.221403 195 185 193
-0.155329 -0.527651 0.262717 178 168 171
-0.146963 -0.532362 0.261081 205 193 197
-0.136219 -0.535509 0.258638 205 196 199
-0.133061 -0.538418 0.258177 207 197 200
-0.131252 -0.538904 0.257765 205 196 199
-0.121202 -0.536401 0.254823 207 197 200
-0.114903 -0.54295 0.254024 207 197 200
-0.0819724 -0.550219 0.246555 204 195 198
-0.0746621 -0.552274 0.244985 203 193 197
-0.069259 -0.55497 0.243984 202 192 196
-0.0673904 -0.555198 0.243549 202 192 196
-0.0467461 -0.556213 0.238592 201 189 193
-0.0205313 -0.554454 0.23203 198 186 190
-0.00937427 -0.553527 0.229257 197 184 191
3.94531e-05 -0.555356 0.227275 197 185 189
0.00190769 -0.555302 0.226829 197 184 191
0.00764956 -0.557078 0.225716 197 184 191
0.0154003 -0.559666 0.224249 195 185 191
0.0246109 -0.557033 0.221784 195 185 193
0.0417313 -0.557351 0.217921 195 185 193
0.0454812 -0.556898 0.217016 195 185 193
0.0510991 -0.556161 0.215657 195 185 193
-0.141813 -0.533247 0.257866 207 195 199
-0.136443 -0.534785 0.256642 205 196 199
-0.133294 -0.537692 0.256173 207 197 200
-0.121451 -0.535668 0.252839 207 197 200
-0.107209 -0.539929 0.249691 207 197 200
-0.0998017 -0.540426 0.247858 207 197 200
-0.048973 -0.554327 0.236898 200 188 192
-0.0452041 -0.553616 0.235889 199 187 191
-0.0303058 -0.55542 0.232505 198 186 190
-0.00613101 -0.55273 0.226406 197 185 189
-0.000505504 -0.553608 0.225191 197 185 189
0.00135538 -0.553554 0.224748 197 184 191
0.0127545 -0.556048 0.222399 195 185 191
0.0165818 -0.556817 0.221608 195 185 191
0.0183635 -0.555704 0.221057 195 185 193
0.0332966 -0.554452 0.217472 195 185 193
0.0483357 -0.553699 0.213969 195 185 193
-0.150918 -0.529814 0.257901 206 194 198
-0.138453 -0.533547 0.25506 207 197 200
-0.136664 -0.534052 0.254651 207 197 200
-0.120297 -0.537295 0.250781 207 197 200
-0.115072 -0.539534 0.2497 207 197 200
-0.111451 -0.540345 0.248867 207 197 200
-0.0917071 -0.546238 0.244546 203 193 197
-0.0901348 -0.548512 0.244422 205 196 199
-0.080572 -0.547031 0.24184 203 193 197
-0.0475538 -0.554699 0.234603 199 186 193
-0.0437863 -0.553972 0.233598 199 186 193
-0.0363128 -0.553417 0.231718 197 185 189
-0.0103174 -0.552004 0.225327 195 183 189
-0.0065682 -0.552958 0.224556 197 184 191
-0.000994962 -0.552843 0.22323 197 184 191
0.00277943 -0.553721 0.222451 197 184 191
0.0103707 -0.555385 0.220879 194 184 189
0.0271565 -0.554218 0.216858 194 183 191
0.0385845 -0.555074 0.21435 194 183 191
0.0517832 -0.554402 0.211285 194 184 189
-0.159934 -0.526204 0.257926 96 92 93
-0.152878 -0.52852 0.25632 204 195 198
-0.151108 -0.529082 0.255917 205 193 197
-0.120548 -0.536545 0.248803 205 196 199
-0.100537 -0.539891 0.244069 205 196 199
-0.0920189 -0.545477 0.242561 203 193 197
-0.084689 -0.546689 0.240858 203 193 197
-0.070251 -0.551714 0.237843 201 191 194
-0.0571295 -0.551159 0.23454 199 187 191
-0.0255895 -0.553071 0.227113 197 185 189
-0.0237314 -0.553116 0.226674 197 185 189
-0.0107867 -0.55123 0.223373 197 184 191
0.00222451 -0.551956 0.220392 197 184 191
0.0470183 -0.551195 0.209994 194 184 189
-0.158347 -0.526057 0.255547 143 133 136
-0.146237 -0.530931 0.252896 205 196 199
-0.135318 -0.533056 0.250282 205 196 199
-0.114157 -0.540371 0.245638 207 197 200
-0.108206 -0.538634 0.243925 205 196 199
-0.106235 -0.538038 0.243357 205 196 199
-0.0973591 -0.54079 0.241413 205 196 199
-0.0831817 -0.546202 0.238455 203 193 197
-0.075948 -0.548247 0.236881 202 192 196
-0.0685819 -0.549191 0.235161 200 190 193
-0.0629729 -0.548832 0.233736 198 188 194
-0.0556612 -0.550554 0.232134 197 187 193
-0.0316255 -0.555091 0.226811 195 183 187
-0.0241758 -0.552334 0.224713 197 185 189
-0.000173327 -0.550241 0.218788 194 182 186
0.00543017 -0.55103 0.217564 194 184 189
0.0260707 -0.552672 0.212962 194 184 189
0.0371918 -0.551558 0.210289 194 184 189
-0.144415 -0.529755 0.25035 203 193 197
-0.142643 -0.530278 0.249943 204 195 198
-0.138624 -0.529385 0.248803 205 196 199
-0.135537 -0.532297 0.248312 207 197 200
-0.133756 -0.532784 0.247903 205 196 199
-0.12819 -0.533237 0.246513 207 197 200
-0.126406 -0.533693 0.246102 205 196 199
-0.121241 -0.535988 0.245021 205 196 199
-0.112255 -0.538059 0.242945 205 196 199
-0.104711 -0.537633 0.240981 204 195 198
-0.0976532 -0.540013 0.239452 204 195 198
-0.081449 -0.543729 0.23579 202 192 196
-0.0524061 -0.551081 0.229422 198 185 192
-0.0376172 -0.553062 0.226047 195 183 187
-0.0264695 -0.5515 0.223197 195 183 187
-0.00991113 -0.548647 0.218946 195 183 187
0.0161745 -0.551614 0.213157 194 184 189
0.0218245 -0.552197 0.211913 193 183 188
0.0255298 -0.551887 0.211024 193 183 188
0.0292326 -0.551546 0.210136 194 184 189
0.0383436 -0.549575 0.207837 193 183 188
0.0421695 -0.550117 0.207024 193 183 188
-0.123276 -0.534779 0.243472 207 197 200
-0.112698 -0.538253 0.24113 204 195 198
-0.110896 -0.538646 0.240713 207 197 200
-0.109093 -0.539031 0.240295 205 196 199
-0.0944763 -0.540866 0.236796 203 193 197
-0.0929421 -0.543146 0.236647 203 193 197
-0.091257 -0.54444 0.236359 203 193 197
-0.083712 -0.543649 0.234392 201 191 194
-0.0783528 -0.545436 0.233245 201 191 194
-0.0766289 -0.546676 0.232946 200 190 193
-0.0562971 -0.546991 0.227973 198 186 190
-0.03986 -0.551175 0.224414 195 183 187
-0.0380106 -0.551272 0.223978 195 183 187
-0.0195453 -0.548845 0.219297 194 182 186
0.00811699 -0.549269 0.212818 193 183 188
0.0118785 -0.550059 0.212024 194 184 189
0.0285724 -0.549762 0.20813 193 183 188
-0.161164 -0.525104 0.250385 113 106 108
-0.159133 -0.524745 0.249818 151 144 147
-0.147075 -0.529604 0.247151 203 193 197
-0.144561 -0.527267 0.246271 204 195 198
-0.120139 -0.535828 0.240836 205 196 199
-0.116742 -0.537634 0.24015 205 196 199
-0.109363 -0.538243 0.238338 205 196 199
-0.0986875 -0.541374 0.235957 203 193 197
-0.0879219 -0.544248 0.233548 202 192 196
-0.0802835 -0.542407 0.231464 200 190 193
-0.0784675 -0.542666 0.231039 201 189 193
-0.0734047 -0.547349 0.230255 198 189 192
-0.0458467 -0.551028 0.22388 194 184 187
-0.0328729 -0.549718 0.220617 194 182 186
-0.0218208 -0.549011 0.2179 194 182 186
-0.00904779 -0.546022 0.214567 193 181 185
-0.00721929 -0.545991 0.214132 194 182 186
0.00754291 -0.54747 0.210814 193 183 188
0.0408889 -0.54754 0.203122 191 181 187
-0.149031 -0.528292 0.2456 203 193 197
-0.141238 -0.527519 0.243513 204 195 198
-0.135949 -0.52901 0.242293 205 196 199
-0.109457 -0.536472 0.236251 205 196 199
-0.104072 -0.537576 0.234999 203 193 197
-0.0770896 -0.543097 0.228796 198 189 192
-0.0462464 -0.550216 0.221932 194 184 187
-0.0444017 -0.550335 0.221497 194 184 187
-0.038839 -0.549654 0.220087 194 182 186
-0.0296033 -0.547039 0.217615 193 181 185
-0.0149661 -0.546247 0.214048 194 182 186
0.0199416 -0.546811 0.205917 191 181 187
0.0270376 -0.544185 0.204024 191 181 187
0.0474839 -0.544772 0.199399 191 182 185
0.0497795 -0.547468 0.199135 193 183 186
-0.152998 -0.527369 0.244613 203 193 197
-0.139917 -0.528194 0.241315 204 195 198
-0.0957999 -0.541404 0.231344 202 192 196
-0.0921758 -0.542034 0.230497 202 192 196
-0.0884171 -0.54165 0.229526 201 191 194
-0.0827403 -0.540521 0.228014 200 188 194
-0.0667755 -0.546603 0.224638 195 185 189
-0.0503749 -0.550128 0.220962 194 184 187
-0.0282058 -0.547263 0.215355 193 181 185
0.00264287 -0.542025 0.207563 193 181 185
0.0174964 -0.545139 0.204384 190 180 186
0.0193204 -0.544998 0.203947 191 181 187
0.0431172 -0.54347 0.19833 190 180 186
-0.149659 -0.527672 0.241852 203 193 197
-0.124428 -0.532573 0.235828 204 195 198
-0.117497 -0.535232 0.234305 204 195 198
-0.115709 -0.535637 0.233889 204 195 198
-0.104786 -0.536933 0.231256 203 193 197
-0.0688675 -0.54458 0.223021 197 184 191
-0.0488302 -0.547447 0.21839 193 183 186
-0.0451635 -0.547692 0.217525 193 183 186
-0.0414634 -0.546912 0.216563 193 181 185
-0.0249721 -0.548505 0.212747 192 180 184
0.0295894 -0.542174 0.199385 190 180 186
0.0369665 -0.542349 0.197703 190 180 186
-0.159219 -0.519726 0.241741 152 140 144
-0.156303 -0.522764 0.241236 202 192 196
-0.15335 -0.525783 0.240722 202 192 196
-0.129755 -0.529455 0.234997 204 195 198
-0.11596 -0.53482 0.231955 203 193 197
-0.104892 -0.535132 0.229205 203 193 197
-0.0999923 -0.539106 0.228312 203 193 197
-0.0927782 -0.540389 0.226624 201 189 193
-0.0891642 -0.540986 0.225777 200 188 192
-0.0872276 -0.540289 0.22524 198 189 192
-0.0852976 -0.539583 0.224703 198 189 192
-0.0815738 -0.539133 0.223746 198 186 190
-0.0797725 -0.539389 0.223323 198 186 190
-0.0763774 -0.541858 0.222694 198 186 190
-0.0546458 -0.545195 0.217663 193 183 186
-0.0473464 -0.545742 0.21594 193 183 186
-0.0381372 -0.543271 0.213511 193 181 185
-0.0145089 -0.543743 0.207908 193 181 185
-0.00731794 -0.541645 0.20603 193 181 185
0.00161058 -0.539356 0.203736 190 181 184
0.00527939 -0.540182 0.202945 191 182 185
0.014555 -0.542612 0.200982 190 180 186
0.0326634 -0.540947 0.196646 190 180 186
0.0379464 -0.539315 0.195295 189 179 185
0.0419776 -0.541816 0.194579 191 178 185
0.0458997 -0.543294 0.193805 192 179 186
-0.15379 -0.525932 0.23893 202 192 196
-0.148011 -0.525643 0.237429 203 193 197
-0.144257 -0.525727 0.236477 204 195 198
-0.140752 -0.526739 0.235663 205 196 199
-0.128426 -0.530055 0.232796 204 195 198
-0.11799 -0.533591 0.230444 204 195 198
-0.0893371 -0.539166 0.223741 200 188 194
-0.0820089 -0.539281 0.221941 196 186 190
-0.0785151 -0.540776 0.2212 195 185 189
-0.0604075 -0.542872 0.216938 193 183 186
-0.0550217 -0.544351 0.215748 193 181 185
-0.0532578 -0.545493 0.215411 191 182 185
-0.0514857 -0.546627 0.215073 190 181 184
-0.0186082 -0.541907 0.206807 192 180 184
-0.014987 -0.541898 0.205947 192 180 184
0.0209772 -0.53821 0.197211 189 179 185
0.0304306 -0.541296 0.195268 189 179 185
0.0450226 -0.54048 0.191847 188 178 184
0.0517273 -0.54757 0.190875 189 179 185
-0.159525 -0.518116 0.237907 162 148 152
-0.156627 -0.52115 0.237388 201 191 194
-0.142696 -0.525417 0.234151 203 193 197
-0.127095 -0.530641 0.230592 204 195 198
-0.125326 -0.531079 0.23018 204 195 198
-0.116646 -0.534135 0.228229 203 193 197
-0.109334 -0.534697 0.226443 202 192 196
-0.103978 -0.535773 0.225189 203 193 199
-0.100401 -0.536454 0.224351 200 190 193
-0.096967 -0.538088 0.223622 201 189 193
-0.0842444 -0.539158 0.220559 196 186 190
-0.0806424 -0.539679 0.219713 194 184 187
-0.0715258 -0.539863 0.217491 194 184 187
-0.0678311 -0.539289 0.216545 191 182 185
-0.0591651 -0.545169 0.214881 191 182 185
-0.0499441 -0.543918 0.212552 190 181 184
-0.0426341 -0.543378 0.210747 189 180 183
-0.0408181 -0.543474 0.210317 189 180 183
-0.0299078 -0.542894 0.207657 189 180 183
-0.0244651 -0.543002 0.206366 191 178 185
-0.0136856 -0.539032 0.203502 189 179 185
-0.00294273 -0.537791 0.200869 191 178 185
0.0116446 -0.540043 0.197618 189 179 185
0.0261642 -0.539829 0.194223 189 179 185
0.0368317 -0.537624 0.191591 188 178 184
0.0539515 -0.552357 0.188773 188 176 182
-0.159958 -0.518248 0.236139 164 152 156
-0.14837 -0.524003 0.233588 203 193 197
-0.13939 -0.525583 0.231423 204 195 198
-0.134363 -0.527985 0.230323 205 196 199
-0.116892 -0.533295 0.226312 203 193 197
-0.111373 -0.53348 0.224948 203 193 197
-0.109594 -0.533852 0.224531 203 193 197
-0.098892 -0.535935 0.222022 198 188 194
-0.0899403 -0.53747 0.219919 196 186 190
-0.0809616 -0.538825 0.217808 194 184 187
-0.0700634 -0.539218 0.215169 193 181 185
-0.0682634 -0.539422 0.214744 193 181 185
-0.0648236 -0.541795 0.214077 191 182 185
-0.05583 -0.543633 0.212025 192 180 184
-0.0321278 -0.540982 0.206128 189 180 183
-0.00695619 -0.538034 0.199932 191 178 185
0.00580756 -0.540508 0.197106 189 179 185
0.00941592 -0.540294 0.196245 189 179 185
0.018049 -0.535655 0.193896 189 179 185
0.0217226 -0.536335 0.19309 188 178 184
0.0292258 -0.538595 0.191511 188 178 184
0.0477833 -0.540231 0.18735 188 178 186
-0.156942 -0.519505 0.233568 201 191 194
-0.1315 -0.530003 0.227833 206 194 198
-0.113585 -0.533227 0.22357 202 192 196
-0.110028 -0.533979 0.222736 201 191 194
-0.100797 -0.533768 0.220433 200 190 195
-0.0902388 -0.536611 0.218019 196 186 190
-0.0866579 -0.537173 0.217176 194 184 189
-0.0633692 -0.541112 0.211753 189 180 183
-0.0470869 -0.54243 0.207904 188 178 182
-0.039752 -0.539835 0.205964 189 180 183
-0.0379503 -0.539915 0.205537 188 178 182
-0.00746149 -0.536164 0.198024 191 178 185
-0.000257413 -0.536912 0.196376 189 179 185
0.019316 -0.534632 0.191638 189 179 185
0.0210975 -0.534472 0.191212 189 179 185
0.0286854 -0.537728 0.189669 188 178 184
0.0323962 -0.538317 0.188848 187 176 184
0.0376449 -0.536666 0.187524 187 177 182
-0.157374 -0.519623 0.231797 201 191 194
-0.155922 -0.521132 0.231522 202 192 198
-0.15019 -0.520848 0.230055 203 193 197
-0.129731 -0.528636 0.225396 206 194 198
-0.0996049 -0.535197 0.218324 199 186 193
-0.0745258 -0.539031 0.212416 191 182 185
-0.0565707 -0.54189 0.208237 188 178 182
-0.051141 -0.542308 0.206953 188 178 182
-0.045666 -0.541663 0.205592 188 178 182
-0.0329579 -0.539232 0.202389 187 177 180
-0.0203749 -0.538434 0.199338 188 178 182
-0.0168036 -0.537427 0.198425 188 178 182
-0.0150359 -0.536414 0.197941 189 180 183
-0.0132759 -0.535394 0.197459 190 177 184
-0.00614012 -0.535232 0.195761 190 177 184
-0.00252223 -0.536106 0.194963 188 178 184
-0.000735376 -0.536033 0.194537 189 179 185
0.00110998 -0.536949 0.194161 188 178 184
0.00482267 -0.53876 0.193403 188 178 184
0.0245645 -0.537227 0.18869 188 178 186
0.0373581 -0.537774 0.185757 187 177 182
0.0425892 -0.536059 0.184441 186 176 181
0.0463162 -0.536527 0.183611 188 178 184
-0.157248 -0.51783 0.229775 201 191 194
-0.143934 -0.523982 0.226779 203 193 197
-0.131475 -0.526361 0.223798 203 193 197
-0.120945 -0.528945 0.221326 201 191 194
-0.0942466 -0.533294 0.214985 194 184 189
-0.0693765 -0.537794 0.209176 188 178 182
-0.065873 -0.539173 0.208408 188 178 182
-0.0586058 -0.538864 0.206629 190 177 184
-0.0315638 -0.537397 0.200042 188 178 182
0.00420154 -0.53588 0.191475 188 178 184
0.0311803 -0.535571 0.185153 187 176 184
0.0403793 -0.536419 0.183071 186 176 181
-0.151317 -0.522018 0.226632 202 192 196
-0.147587 -0.522107 0.225701 203 193 197
-0.140879 -0.525077 0.224183 203 193 197
-0.126221 -0.525846 0.220572 201 191 194
-0.124473 -0.526271 0.220161 202 190 194
-0.117853 -0.529853 0.218716 201 191 194
-0.116281 -0.531221 0.218401 202 190 194
-0.114325 -0.530629 0.217885 200 190 193
-0.100156 -0.533445 0.214548 194 184 189
-0.0927578 -0.532709 0.212691 194 184 187
-0.0841242 -0.536063 0.210765 190 181 184
-0.0645862 -0.540453 0.206258 188 178 182
-0.0609058 -0.539802 0.205331 188 178 182
-0.0590355 -0.538968 0.204833 187 175 179
-0.0536414 -0.539404 0.203555 187 175 179
-0.0446023 -0.53899 0.201357 188 176 182
-0.0427698 -0.538087 0.200867 187 175 179
-0.0355722 -0.537392 0.199104 187 175 179
-0.0319773 -0.536502 0.198195 187 177 180
-0.0284059 -0.537579 0.197403 187 175 179
-0.0124268 -0.532582 0.193326 188 178 184
0.00720621 -0.533778 0.188761 187 177 182
0.00898365 -0.533662 0.188338 186 176 181
0.0142257 -0.532274 0.187032 188 178 184
0.026958 -0.534089 0.184159 186 175 183
0.0287368 -0.533893 0.183734 184 174 182
0.0306368 -0.534682 0.183335 184 174 182
0.0435324 -0.536017 0.180418 185 172 181
-0.153481 -0.521579 0.225264 202 192 196
-0.146027 -0.521755 0.223409 203 193 199
-0.142806 -0.523719 0.222704 203 193 199
-0.105909 -0.532539 0.214015 193 183 186
-0.1022 -0.532232 0.213088 193 183 188
-0.0930435 -0.531819 0.210823 192 180 184
-0.0827678 -0.536414 0.20855 188 178 184
-0.080864 -0.535671 0.208048 188 178 182
-0.0774024 -0.537134 0.207282 190 178 182
-0.0720292 -0.53779 0.20601 188 176 182
-0.070143 -0.537001 0.205512 187 175 181
-0.0685326 -0.539184 0.205234 187 175 181
-0.0613363 -0.539899 0.20353 188 176 182
-0.0594651 -0.539064 0.203036 188 176 182
-0.0576676 -0.539217 0.20261 187 175 179
-0.0540118 -0.538505 0.201692 186 174 180
-0.0522165 -0.538636 0.201266 186 174 180
-0.0485292 -0.536881 0.200289 188 176 182
-0.00930112 -0.532597 0.190712 186 176 181
-0.00752848 -0.532546 0.19029 187 177 182
0.0137201 -0.531374 0.185227 184 174 182
0.0389736 -0.532659 0.179403 185 172 181
0.0428145 -0.534136 0.178588 184 171 180
0.0463714 -0.533604 0.177737 184 171 180
-0.159394 -0.514702 0.224541 202 190 196
-0.156814 -0.51867 0.224077 202 190 194
-0.155367 -0.520171 0.223785 201 189 193
-0.151911 -0.521245 0.222971 202 192 196
-0.125329 -0.526455 0.216614 197 185 189
-0.106169 -0.531647 0.21214 193 181 185
-0.10054 -0.53068 0.210715 191 178 185
-0.0669918 -0.537475 0.202873 186 174 180
-0.0435131 -0.535278 0.197115 185 172 179
-0.0238958 -0.534831 0.192408 187 175 179
-0.018553 -0.534829 0.191138 187 175 179
-0.0114939 -0.532728 0.189363 187 177 182
-0.00617578 -0.532575 0.188098 187 177 182
0.00438731 -0.531078 0.185535 186 176 181
0.00799438 -0.531852 0.184723 186 176 181
0.0221369 -0.530667 0.18135 185 172 179
0.0239021 -0.530487 0.180929 183 173 181
-0.170758 -0.519457 0.225714 74 36 28
-0.167829 -0.516272 0.224849 89 45 37
-0.163226 -0.513648 0.22359 158 133 133
-0.159819 -0.514782 0.222787 198 188 194
-0.150608 -0.521853 0.220791 201 191 196
-0.146626 -0.520964 0.219765 201 191 196
-0.143165 -0.521963 0.218948 201 191 196
-0.135988 -0.52291 0.217211 196 181 186
-0.123798 -0.525981 0.214333 191 177 182
-0.104662 -0.531087 0.209854 187 175 181
-0.0955185 -0.530707 0.207604 190 177 184
-0.0918461 -0.530304 0.206692 187 177 182
-0.052902 -0.535816 0.197506 183 173 179
-0.0349836 -0.533721 0.193121 186 174 178
-0.0332072 -0.533771 0.192699 186 174 178
-0.0278735 -0.532879 0.191388 187 175 179
-0.0207924 -0.53192 0.189661 187 175 179
-0.0136872 -0.532845 0.188015 186 176 181
-0.00836829 -0.532714 0.186749 184 174 180
-0.00482322 -0.532591 0.185905 186 176 181
0.00735538 -0.528941 0.182874 184 174 180
0.0145629 -0.530402 0.181243 185 172 179
0.0197528 -0.528931 0.179962 183 173 179
0.041534 -0.531338 0.174982 184 171 180
0.049405 -0.535187 0.173319 185 172 179
0.0516825 -0.537853 0.172905 160 150 154
0.0563434 -0.554308 0.172531 139 131 134
-0.177551 -0.533087 0.22603 72 30 22
-0.153951 -0.518955 0.219627 201 189 195
-0.141612 -0.521562 0.216673 201 189 195
-0.123805 -0.524108 0.212384 188 165 170
-0.11703 -0.526677 0.21082 195 183 187
-0.106683 -0.529839 0.208411 187 175 181
-0.101233 -0.529851 0.207081 188 176 180
-0.0991574 -0.528199 0.206511 188 176 180
-0.0871078 -0.532187 0.203735 183 173 179
-0.0674948 -0.533654 0.199045 184 171 178
-0.0495569 -0.532138 0.19467 183 174 177
-0.0389035 -0.531676 0.1921 186 174 178
-0.0300515 -0.530925 0.189957 186 174 178
-0.00356985 -0.530595 0.183657 185 172 179
0.00153945 -0.527342 0.182322 185 172 179
0.00869724 -0.528892 0.180696 185 172 179
0.0173863 -0.527179 0.178586 183 173 179
0.0244989 -0.527472 0.17693 184 171 180
0.0298769 -0.527863 0.175687 184 171 180
0.0316311 -0.527648 0.175269 184 171 180
0.0441919 -0.527919 0.17235 184 171 178
-0.18059 -0.529053 0.224701 41 16 13
-0.176444 -0.528434 0.22365 96 45 35
-0.114143 -0.528478 0.208301 190 177 184
-0.0925532 -0.529457 0.203077 184 172 176
-0.0732431 -0.533137 0.198531 184 171 178
-0.0696016 -0.532539 0.197631 184 172 176
-0.0605151 -0.530414 0.195368 184 171 178
-0.0588222 -0.531561 0.195001 185 172 179
-0.0552863 -0.53184 0.194161 185 172 179
-0.0375557 -0.531806 0.189913 184 175 178
-0.0357666 -0.530864 0.189453 184 175 178
-0.0198906 -0.530053 0.185642 184 175 178
-0.0128431 -0.529951 0.183965 185 173 177
-0.0110814 -0.529907 0.183546 184 175 178
-0.00227603 -0.529583 0.18145 185 173 177
-0.000571895 -0.528498 0.181009 185 173 177
0.00112419 -0.527407 0.18057 185 173 177
0.0115471 -0.525703 0.178053 183 170 177
0.0133795 -0.526556 0.177652 183 170 177
0.0240834 -0.527538 0.175172 183 170 179
0.0259498 -0.528338 0.174763 183 170 179
0.0506675 -0.537009 0.169293 175 165 171
-0.182468 -0.527528 0.223187 46 15 9
-0.157393 -0.515134 0.216618 198 185 192
-0.145407 -0.518781 0.213777 198 185 192
-0.143687 -0.519274 0.213369 198 184 189
-0.119629 -0.526415 0.207695 189 169 176
-0.101759 -0.528009 0.203392 183 171 175
-0.0928332 -0.528528 0.201242 183 171 175
-0.0894564 -0.530069 0.200471 183 171 175
-0.0841679 -0.530844 0.199216 183 171 175
-0.0308606 -0.528052 0.18633 183 174 177
-0.0273501 -0.527101 0.185463 185 173 177
-0.0150474 -0.529046 0.182599 184 175 178
-0.00977377 -0.528916 0.181345 186 174 178
0.00414574 -0.52626 0.177969 184 172 176
0.0235586 -0.526602 0.173409 183 170 177
0.0394155 -0.5256 0.169662 183 170 177
0.0454221 -0.529746 0.168387 180 170 175
0.0499173 -0.535096 0.167503 182 172 178
-0.182583 -0.526642 0.221264 69 25 17
-0.180512 -0.526343 0.220745 89 34 23
-0.164621 -0.512949 0.216481 166 133 135
-0.152146 -0.514875 0.213465 198 185 192
-0.137928 -0.52413 0.210225 122 91 90
-0.13293 -0.526462 0.209065 140 95 94
-0.11268 -0.526018 0.204118 185 171 176
-0.102182 -0.528061 0.201624 181 169 173
-0.100109 -0.526406 0.201077 181 169 173
-0.0863552 -0.530645 0.197863 180 168 172
-0.080825 -0.529395 0.196495 180 168 172
-0.0774166 -0.530838 0.195712 181 169 173
-0.0665555 -0.529037 0.193048 183 171 175
-0.0524782 -0.530206 0.189701 184 171 178
-0.0453442 -0.528622 0.18795 185 172 179
-0.0401053 -0.529854 0.186732 185 173 177
-0.0207636 -0.527164 0.18205 185 173 177
-0.015512 -0.527099 0.1808 185 173 177
-0.00847226 -0.527911 0.179152 184 172 176
-0.00162261 -0.524614 0.17744 184 172 176
6.01773e-05 -0.523524 0.177013 184 172 176
0.0193418 -0.524034 0.172478 181 169 175
0.0248925 -0.526461 0.171238 181 169 175
0.0318818 -0.525618 0.169574 183 170 177
0.0467645 -0.529516 0.166193 182 172 178
-0.154269 -0.514394 0.212123 195 183 189
-0.133813 -0.528449 0.207442 134 74 76
-0.112915 -0.525082 0.202286 182 167 172
-0.102276 -0.526137 0.199732 179 167 171
-0.0983115 -0.523801 0.198719 179 167 171
-0.0933869 -0.526649 0.197594 179 167 171
-0.088273 -0.528452 0.196401 179 167 171
-0.0687322 -0.528903 0.191706 181 169 173
-0.0669753 -0.529081 0.191289 181 169 173
-0.054598 -0.529132 0.188321 184 171 178
-0.0492731 -0.528475 0.187031 184 171 178
-0.0334482 -0.528112 0.183243 185 173 177
-0.0264304 -0.524211 0.181481 185 173 177
0.00652065 -0.52213 0.173618 181 169 173
0.00825213 -0.522003 0.173206 181 169 173
0.0134437 -0.521579 0.17197 180 168 172
0.0187298 -0.522087 0.170735 180 168 172
0.0224063 -0.523715 0.169907 181 169 175
0.024366 -0.525511 0.169487 181 169 175
0.0439719 -0.52589 0.164891 181 171 179
-0.186288 -0.523544 0.218271 71 23 14
-0.154688 -0.514432 0.210376 195 183 187
-0.11141 -0.524496 0.200047 178 164 169
-0.106359 -0.526507 0.198863 176 164 168
-0.0973002 -0.526109 0.196668 177 165 169
-0.0816679 -0.529477 0.192965 179 167 171
-0.0711019 -0.530744 0.190449 180 168 172
-0.0513362 -0.52641 0.18563 184 171 178
-0.0461367 -0.527705 0.184412 183 171 175
-0.044345 -0.526791 0.183966 184 172 176
-0.0408473 -0.526939 0.183134 185 173 177
-0.0338486 -0.52715 0.181468 184 172 176
-0.0285826 -0.524234 0.180158 184 172 176
-0.0129309 -0.524102 0.176434 183 171 175
-0.0111923 -0.524052 0.17602 183 171 175
-0.00260693 -0.521699 0.173939 181 169 173
0.00264504 -0.522401 0.172709 181 169 173
0.00933384 -0.518915 0.17106 180 168 172
0.011053 -0.518775 0.170651 181 169 173
0.0218869 -0.522758 0.16817 180 168 174
0.0380283 -0.524743 0.164407 181 169 177
-0.185723 -0.520761 0.216181 85 32 22
-0.169577 -0.51285 0.21213 138 68 62
-0.151428 -0.514547 0.207736 180 165 170
-0.149992 -0.516018 0.207408 171 157 162
-0.142924 -0.524267 0.205811 101 56 51
-0.132686 -0.527989 0.203383 136 68 66
-0.13071 -0.527451 0.202897 139 70 71
-0.119376 -0.525991 0.200133 187 169 173
-0.0659706 -0.528324 0.187314 181 169 173
-0.0499531 -0.525547 0.18344 183 170 177
-0.0289958 -0.524263 0.178421 184 172 176
-0.0255176 -0.524284 0.177593 184 172 176
-0.0237841 -0.523283 0.177165 184 172 176
0.00555626 -0.520202 0.170156 181 169 173
0.0229903 -0.520608 0.16604 180 168 172
0.0249419 -0.522398 0.165607 183 170 177
0.0355982 -0.523042 0.163104 181 169 177
0.0389248 -0.521548 0.162298 181 169 177
0.0464725 -0.524405 0.160565 180 170 175
0.0521135 -0.536628 0.15942 155 142 149
-0.191307 -0.524141 0.215673 68 24 16
-0.182041 -0.520198 0.213379 120 48 40
-0.179992 -0.519889 0.212877 125 51 42
-0.177948 -0.519571 0.212377 134 55 48
-0.164493 -0.507386 0.208984 168 140 145
-0.153271 -0.513095 0.206321 171 157 162
-0.145086 -0.523808 0.204451 93 51 47
-0.130911 -0.526501 0.201053 135 67 65
-0.127198 -0.526371 0.200155 156 90 89
-0.119597 -0.525037 0.198307 193 174 178
-0.11051 -0.5249 0.196115 171 157 162
-0.103537 -0.526228 0.194451 171 159 165
-0.0946464 -0.52674 0.192318 173 161 167
-0.089262 -0.526564 0.191023 174 164 170
-0.0733995 -0.527622 0.187229 179 167 171
-0.0680517 -0.527181 0.185943 180 168 172
-0.0574069 -0.526102 0.183385 181 169 173
-0.0433533 -0.524923 0.180015 184 171 178
-0.0311587 -0.525265 0.177111 184 171 178
-0.0224695 -0.522298 0.17501 183 171 175
-0.00358106 -0.518755 0.170484 180 168 172
0.00335588 -0.519346 0.168845 180 168 172
0.00507648 -0.519227 0.168436 179 167 171
0.0117839 -0.516687 0.16682 179 167 171
0.0135835 -0.517529 0.166403 179 167 173
0.0243052 -0.520433 0.163899 179 167 173
0.0278744 -0.52101 0.163062 180 168 174
0.0298488 -0.522776 0.162615 180 168 174
0.0333166 -0.522315 0.161791 181 169 175
-0.195914 -0.524659 0.214875 53 20 15
-0.191057 -0.522287 0.213683 78 29 21
-0.188308 -0.520145 0.213003 91 36 27
-0.177734 -0.517701 0.210426 133 57 49
-0.168869 -0.508153 0.20822 134 68 65
-0.164906 -0.507402 0.207257 163 133 136
-0.157074 -0.512057 0.205393 179 162 168
-0.153686 -0.513111 0.204581 156 139 142
-0.144773 -0.52817 0.202527 96 46 42
-0.142772 -0.527684 0.202042 88 34 30
-0.134361 -0.523704 0.199988 128 63 57
-0.129367 -0.52597 0.198799 146 71 71
-0.119816 -0.524075 0.196488 185 164 171
-0.114217 -0.523229 0.195135 172 155 161
-0.112482 -0.523585 0.19472 172 155 161
-0.10727 -0.52461 0.193475 169 155 159
-0.0894051 -0.524601 0.189187 174 162 168
-0.0875314 -0.523866 0.188733 174 162 168
-0.0773183 -0.527232 0.186309 179 167 171
-0.0558812 -0.523252 0.181155 183 171 175
-0.0506756 -0.523589 0.179914 183 171 175
-0.0472031 -0.523778 0.179087 183 170 177
-0.0437291 -0.523939 0.178259 183 170 177
-0.0367543 -0.523177 0.17659 183 170 177
-0.0228962 -0.520314 0.17327 181 169 173
-0.0143043 -0.519172 0.171219 179 167 171
-0.00393966 -0.519769 0.168761 174 162 166
0.00780066 -0.514994 0.165942 165 153 159
0.0147974 -0.516388 0.164294 162 149 156
0.0274624 -0.521026 0.161328 180 168 174
0.0309167 -0.520581 0.160508 179 167 173
0.0327728 -0.521339 0.160074 180 168 174
0.0393922 -0.518357 0.15849 180 167 176
0.0412591 -0.519078 0.158053 180 167 176
0.0451692 -0.521483 0.157146 180 169 177
-0.192527 -0.519752 0.212122 78 30 19
-0.190802 -0.520426 0.211708 91 36 25
-0.188058 -0.518281 0.21104 108 44 33
-0.182567 -0.519284 0.209717 127 54 44
-0.171901 -0.510416 0.207123 140 66 57
-0.163343 -0.507023 0.205052 189 169 176
-0.152404 -0.513636 0.202433 119 100 102
-0.150069 -0.518495 0.201883 75 43 42
-0.13455 -0.522743 0.198162 124 61 55
-0.131307 -0.524582 0.197388 141 69 63
-0.109427 -0.524285 0.192135 168 153 158
-0.0989772 -0.526187 0.189635 170 158 162
-0.0809939 -0.524823 0.185326 178 166 170
-0.0793693 -0.526035 0.184941 179 167 171
-0.0775121 -0.525254 0.184495 179 167 171
-0.0633092 -0.52371 0.181096 180 168 172
-0.0579584 -0.522137 0.179814 181 169 173
-0.0164989 -0.516223 0.169917 176 164 168
-0.0147648 -0.517181 0.169508 176 164 168
-0.0130528 -0.517132 0.1691 176 164 168
-0.004496 -0.516782 0.167066 166 156 159
0.0301282 -0.517614 0.158855 176 166 172
0.0496846 -0.529775 0.154261 179 166 175
-0.185756 -0.516123 0.2086 126 54 46
-0.178581 -0.517713 0.206873 137 59 51
-0.153093 -0.514598 0.200756 94 73 73
-0.151932 -0.51703 0.200474 76 49 47
-0.150755 -0.519459 0.200188 76 40 36
-0.147379 -0.527695 0.199367 85 36 30
-0.145374 -0.527216 0.198887 83 34 26
-0.114859 -0.52226 0.191582 170 151 155
-0.111397 -0.522963 0.190752 166 149 155
-0.107929 -0.523638 0.189922 164 152 156
-0.106193 -0.523965 0.189506 165 153 157
-0.0993956 -0.526189 0.187877 170 158 162
-0.0634757 -0.520722 0.179303 180 168 172
-0.0478855 -0.520792 0.175584 183 171 175
-0.0409499 -0.520084 0.173932 181 169 173
-0.0358023 -0.521229 0.172704 181 169 173
-0.0288814 -0.519325 0.171058 178 168 171
-0.0271614 -0.519332 0.170648 178 168 171
-0.0100364 -0.517014 0.166576 170 158 162
0.0277615 -0.515856 0.157599 172 161 169
0.0398457 -0.515135 0.154734 178 167 175
-0.193345 -0.514406 0.208548 91 38 26
-0.189247 -0.513874 0.207569 113 48 38
-0.179649 -0.519595 0.20524 138 62 54
-0.163562 -0.505118 0.201468 165 148 152
-0.160227 -0.506214 0.200664 139 122 128
-0.156341 -0.511637 0.199705 85 65 65
-0.126493 -0.523877 0.192503 149 74 74
-0.118934 -0.522502 0.190704 172 151 153
-0.115276 -0.522254 0.189832 168 149 153
-0.0902322 -0.521637 0.183856 174 162 168
-0.083314 -0.522609 0.1822 177 165 169
-0.0708777 -0.521055 0.179241 179 167 171
-0.0482958 -0.520786 0.17386 181 169 173
-0.0292703 -0.51632 0.169351 178 168 171
-0.0275647 -0.517326 0.16894 176 167 170
-0.0105147 -0.51501 0.164893 169 157 161
-0.00205336 -0.513594 0.162887 154 145 148
0.0116083 -0.513565 0.159639 127 118 121
0.0269936 -0.512874 0.155985 164 152 158
-0.185248 -0.512353 0.204757 132 56 50
-0.181138 -0.517074 0.203733 135 61 54
-0.141488 -0.52331 0.19422 103 46 35
-0.136278 -0.524669 0.192966 125 63 54
-0.130605 -0.524016 0.191619 145 74 66
-0.128426 -0.522483 0.191114 150 71 68
-0.124962 -0.52329 0.190281 201 166 171
-0.120669 -0.520157 0.189287 173 149 155
-0.11742 -0.52188 0.188497 168 147 152
-0.103047 -0.521624 0.185074 166 154 158
-0.0999109 -0.524198 0.184302 169 157 161
-0.094396 -0.523073 0.182999 172 160 166
-0.0606173 -0.517999 0.174998 180 168 174
-0.0589029 -0.518131 0.174589 180 168 174
-0.0211692 -0.513271 0.165647 173 161 165
-0.0177755 -0.513208 0.16484 174 162 166
0.0213862 -0.512493 0.155524 141 132 135
0.0301064 -0.513402 0.15344 162 150 154
0.031805 -0.513166 0.153038 164 154 159
-0.20377 -0.503933 0.207406 57 24 14
-0.178872 -0.514846 0.201347 140 66 57
-0.17093 -0.508129 0.199549 114 53 49
-0.166346 -0.505479 0.198495 129 104 106
-0.154001 -0.519875 0.195371 76 32 26
-0.143892 -0.523791 0.192916 107 48 36
-0.130798 -0.523023 0.189814 152 76 68
-0.0837591 -0.519602 0.178672 177 164 171
-0.0748252 -0.517669 0.176572 178 166 170
-0.0471569 -0.515844 0.17001 181 169 173
-0.00808416 -0.510837 0.160772 162 153 156
-0.00302136 -0.510568 0.159569 153 143 147
0.00893868 -0.511694 0.156704 120 111 112
0.0172922 -0.509871 0.154738 129 119 122
0.0279997 -0.513612 0.152136 151 139 143
0.0295736 -0.512392 0.151777 153 143 149
0.0496728 -0.518281 0.146906 146 125 130
0.0550026 -0.51829 0.145635 89 32 29
0.056721 -0.517951 0.14523 104 45 45
0.059584 -0.514311 0.144595 100 41 36
0.0654955 -0.517127 0.143148 87 31 22
-0.186241 -0.497274 0.201526 120 56 43
-0.183362 -0.504802 0.200716 132 58 51
-0.182705 -0.508248 0.200502 136 59 55
-0.181359 -0.509814 0.200157 137 62 58
-0.180662 -0.51326 0.199933 136 65 55
-0.150439 -0.518934 0.192679 87 36 28
-0.128593 -0.519514 0.18749 125 60 59
-0.125151 -0.520315 0.18666 178 148 151
-0.119978 -0.521465 0.185413 167 146 150
-0.116326 -0.521216 0.184551 161 145 148
-0.114599 -0.52157 0.184135 161 144 150
-0.108869 -0.519642 0.182809 162 148 152
-0.107149 -0.519966 0.182395 163 151 155
-0.0966472 -0.520776 0.179888 172 160 166
-0.0858884 -0.519344 0.177357 174 162 168
-0.0770579 -0.518442 0.175274 178 166 170
-0.0544467 -0.516444 0.169933 181 169 173
-0.0424066 -0.515024 0.167092 178 168 171
-0.0321837 -0.515249 0.164654 178 166 170
-0.0168648 -0.51412 0.161025 171 161 164
-0.0151895 -0.513072 0.160644 171 161 164
0.00163641 -0.510212 0.156682 143 133 136
0.00500762 -0.509957 0.155882 127 118 121
0.00997831 -0.508528 0.154721 116 107 107
0.0255407 -0.510832 0.150967 138 127 128
0.0304766 -0.509158 0.149817 147 132 141
0.0619874 -0.510627 0.142262 100 45 38
0.0682995 -0.515354 0.140671 74 24 18
0.0777314 -0.517195 0.138383 91 40 35
-0.193534 -0.495545 0.201477 95 40 26
-0.159094 -0.509106 0.193072 71 37 32
-0.15686 -0.513985 0.192442 71 30 26
-0.151213 -0.513594 0.191117 90 36 27
-0.149516 -0.514088 0.190706 95 43 31
-0.139537 -0.517878 0.188268 132 65 54
-0.13027 -0.517123 0.186093 148 74 69
-0.119779 -0.518496 0.183581 165 143 148
-0.114433 -0.518594 0.182314 160 143 149
-0.0947275 -0.517064 0.177677 173 161 167
-0.0931649 -0.518317 0.17728 173 161 167
-0.0841922 -0.516567 0.175189 176 163 170
-0.077239 -0.516422 0.173542 178 166 170
-0.0755308 -0.516616 0.173133 178 166 170
-0.0737159 -0.515809 0.172719 179 167 171
-0.0529639 -0.51352 0.167837 180 168 172
-0.0410415 -0.513047 0.165011 176 167 170
-0.0376753 -0.514135 0.164187 179 167 171
-0.0240869 -0.511215 0.161013 174 164 168
-0.0190031 -0.51213 0.159782 173 161 165
-0.0156176 -0.51204 0.158977 171 161 164
-0.0139532 -0.510985 0.158603 168 159 162
0.0215386 -0.509235 0.150166 126 114 118
0.0755069 -0.509391 0.137236 88 35 28
0.0815071 -0.511967 0.135741 82 31 25
0.0836843 -0.513451 0.135187 83 33 30
-0.2009 -0.489305 0.201554 66 32 21
-0.196817 -0.493225 0.2005 89 39 24
-0.171525 -0.506135 0.194244 80 33 28
-0.164531 -0.507445 0.192568 67 40 36
-0.158395 -0.511507 0.191023 73 35 29
-0.154174 -0.509666 0.190076 88 35 28
-0.137508 -0.515376 0.186007 145 74 64
-0.0758266 -0.515582 0.171419 179 167 171
-0.0602282 -0.514024 0.167757 179 167 171
-0.0380794 -0.514095 0.162489 178 166 170
-0.0312673 -0.51319 0.16089 179 167 171
-0.00254101 -0.510367 0.154111 154 145 148
0.00566821 -0.506758 0.152241 122 116 116
0.0106856 -0.506308 0.151053 111 104 104
0.019244 -0.507408 0.148977 116 107 107
0.035826 -0.504129 0.145087 124 77 75
0.0400497 -0.509512 0.143938 130 105 107
0.06582 -0.507475 0.1378 65 18 11
0.0735213 -0.502553 0.136072 86 33 26
0.0832647 -0.506187 0.133635 72 20 15
-0.191978 -0.494268 0.197544 97 44 30
-0.180583 -0.504049 0.194601 129 62 55
-0.179584 -0.506544 0.194295 121 56 48
-0.164937 -0.507398 0.190842 67 36 30
-0.161882 -0.50944 0.190067 67 32 26
-0.152344 -0.508204 0.187866 99 44 33
-0.148719 -0.508227 0.187015 111 54 42
-0.144199 -0.51158 0.185856 131 69 58
-0.125303 -0.515314 0.181304 171 142 147
-0.105428 -0.513271 0.176679 167 155 159
-0.0690225 -0.51226 0.168098 179 167 171
-0.0656372 -0.512569 0.167286 178 166 170
-0.0604773 -0.511984 0.16608 179 167 171
0.00671293 -0.503581 0.150314 120 111 112
0.0151075 -0.503762 0.148298 111 104 104
0.0167694 -0.503579 0.147905 111 104 104
0.0490506 -0.503733 0.140148 111 70 71
0.056974 -0.500102 0.138347 84 33 28
0.0627246 -0.502927 0.136879 51 9 3
0.0645904 -0.503526 0.136411 60 15 10
0.0664625 -0.504116 0.135943 66 19 14
0.0717719 -0.49668 0.134879 80 26 22
0.0792671 -0.498855 0.133006 65 16 10
0.083789 -0.502786 0.131799 70 23 16
-0.192012 -0.493286 0.195788 95 45 30
-0.182932 -0.499001 0.19349 122 60 49
-0.181968 -0.501499 0.193184 123 61 50
-0.173361 -0.503561 0.191111 62 17 14
-0.171701 -0.504141 0.190705 54 11 7
-0.161696 -0.507477 0.18826 73 33 26
-0.142149 -0.50909 0.183635 141 75 61
-0.137593 -0.512366 0.182459 150 79 69
-0.131042 -0.515034 0.180834 197 160 163
-0.124007 -0.515646 0.179162 163 142 145
-0.120596 -0.516397 0.178336 159 141 145
-0.107346 -0.511922 0.175368 165 153 157
-0.0885469 -0.51398 0.170866 174 162 168
-0.0744972 -0.511692 0.167622 178 166 170
-0.071015 -0.511047 0.166819 179 167 171
-0.0624057 -0.509807 0.164821 179 167 171
-0.0439854 -0.513852 0.160312 178 168 171
-0.0405547 -0.512955 0.159526 178 166 170
-0.0337368 -0.511078 0.157967 178 166 170
-0.0286543 -0.508099 0.156856 175 166 169
-0.0119484 -0.505722 0.152949 166 156 159
-0.0102428 -0.506645 0.152511 166 156 159
-0.00350277 -0.507274 0.150878 157 147 150
0.0163709 -0.503527 0.146241 108 102 102
0.0313153 -0.489462 0.143121 116 57 54
0.0623199 -0.502874 0.135197 65 23 17
0.0823987 -0.498872 0.130469 66 19 12
0.0910569 -0.504684 0.128178 69 25 17
0.102741 -0.507342 0.125253 85 45 36
-0.1764 -0.505747 0.189923 63 14 10
-0.172104 -0.50408 0.188986 56 12 6
-0.159253 -0.504127 0.185995 89 38 28
-0.146779 -0.504741 0.183065 132 70 57
-0.141783 -0.506131 0.181847 146 80 66
-0.14062 -0.508515 0.181487 146 79 68
-0.125899 -0.514223 0.177832 167 141 145
-0.124199 -0.514608 0.17742 163 139 145
-0.122498 -0.514986 0.177007 161 140 145
-0.118887 -0.514743 0.176169 159 141 145
-0.113199 -0.512848 0.174905 161 144 150
-0.0833373 -0.510637 0.167959 178 166 170
-0.0815263 -0.509858 0.167561 178 166 170
-0.0798431 -0.510063 0.167155 178 166 170
-0.0375151 -0.510971 0.157087 178 166 170
-0.0307507 -0.510038 0.155511 174 164 168
-0.0273759 -0.508032 0.154782 175 166 169
-0.0256985 -0.508018 0.154383 173 163 166
-0.00228295 -0.506108 0.148858 154 145 148
0.0176335 -0.503278 0.144185 107 100 100
0.0286611 -0.484704 0.142228 117 53 52
0.0850328 -0.496926 0.12812 61 16 13
0.0907354 -0.498372 0.126679 70 23 16
0.100296 -0.494353 0.124497 86 38 29
0.0297328 -0.483412 0.140331 103 46 47
0.034038 -0.490808 0.138984 91 43 39
0.0499328 -0.496039 0.13492 72 28 17
0.0596522 -0.502141 0.13231 83 45 42
0.0683562 -0.486796 0.130826 60 13 9
0.0782599 -0.492438 0.128181 57 15 9
0.0868716 -0.492069 0.126095 63 18 15
0.0948902 -0.483368 0.12449 83 34 26
0.0989294 -0.485191 0.123427 90 41 33
