ply
format ascii 1.0
comment Created by Open3D
element vertex 2000
property double x
property double y
property double z
property uchar red
property uchar green
property uchar blue
end_header
0.0165513 -0.436562 0.420994 145 132 125
0.0226153 -0.44016 0.422128 145 132 125
0.0268313 -0.439714 0.420436 143 133 125
0.0310262 -0.439213 0.418737 142 131 126
0.0401566 -0.442689 0.419033 143 133 127
0.0571412 -0.441262 0.413266 143 133 125
0.0587575 -0.442007 0.413487 143 133 125
0.0659472 -0.441773 0.411533 145 133 123
0.0735563 -0.442932 0.410743 145 133 123
0.0798172 -0.439311 0.406349 145 133 123
0.100783 -0.441893 0.402228 143 131 122
0.107385 -0.445122 0.401545 143 131 122
0.122726 -0.444762 0.398821 143 131 124
0.124833 -0.445984 0.399484 142 132 124
0.117301 -0.448482 0.400454 142 132 124
0.126329 -0.44749 0.398311 141 131 123
0.136067 -0.444398 0.394569 141 130 125
0.129624 -0.449429 0.397215 142 131 126
0.138317 -0.447362 0.394453 140 132 126
0.144458 -0.446615 0.393127 140 132 126
0.133693 -0.44947 0.394549 142 131 126
0.143114 -0.448809 0.392836 140 132 126
0.133352 -0.453922 0.395869 142 131 126
0.137746 -0.452868 0.394473 142 131 126
0.138844 -0.451741 0.393473 140 132 126
0.161753 -0.447798 0.387921 137 132 125
0.168786 -0.44813 0.387517 137 131 127
0.123399 -0.458754 0.398867 142 132 124
0.129328 -0.457507 0.397024 142 132 124
0.145508 -0.453558 0.391873 140 132 126
0.138246 -0.457261 0.39344 140 132 126
0.139721 -0.456894 0.392969 140 132 126
0.191579 -0.450645 0.383347 135 131 123
0.152023 -0.459782 0.391427 140 132 126
0.128282 -0.464063 0.395642 143 133 127
0.136455 -0.463929 0.394348 143 133 127
0.144365 -0.464664 0.391656 141 133 129
0.0571447 -0.557862 0.401351 160 154 149
0.0588063 -0.556951 0.400395 132 126 119
0.0790176 -0.557733 0.39592 143 139 134
0.0990699 -0.556738 0.39081 195 188 186
0.101567 -0.559113 0.391643 196 189 187
0.11447 -0.558255 0.388441 202 195 191
0.118079 -0.557695 0.387388 205 199 194
0.133341 -0.557718 0.38443 203 195 191
0.143893 -0.560126 0.383853 202 195 191
0.151129 -0.558502 0.381653 203 195 189
0.152274 -0.556386 0.38026 204 196 190
0.173429 -0.559267 0.37839 191 183 177
0.0534907 -0.561506 0.402077 219 218 214
0.074973 -0.558944 0.395258 205 204 200
0.097301 -0.559647 0.390554 205 200 199
0.111194 -0.56235 0.389132 215 209 207
0.125436 -0.559181 0.384458 219 213 210
0.143496 -0.561119 0.382152 220 214 209
0.147756 -0.562022 0.381893 218 212 207
0.161118 -0.56067 0.37883 217 211 206
0.179964 -0.562044 0.376567 212 206 201
0.191833 -0.556431 0.371731 213 207 202
0.193626 -0.555837 0.371152 206 200 195
0.196796 -0.553802 0.369601 212 204 200
0.201608 -0.555028 0.369606 206 200 195
0.213126 -0.556671 0.368974 198 190 186
0.215359 -0.556805 0.368761 200 194 190
0.0126498 -0.557697 0.408798 170 164 159
0.0162726 -0.557962 0.407892 169 163 156
0.0251714 -0.55675 0.404639 199 195 190
0.0270602 -0.557706 0.40466 202 198 195
0.0344914 -0.559715 0.403759 222 218 213
0.0433334 -0.55813 0.400453 219 215 209
0.0582229 -0.560622 0.398021 196 192 189
0.0732598 -0.562631 0.395464 215 211 208
0.0910186 -0.559456 0.389523 212 208 204
0.115718 -0.560792 0.384993 221 217 214
0.149817 -0.564302 0.380459 226 220 215
0.189036 -0.561091 0.372337 221 215 210
0.198061 -0.558103 0.369427 224 217 215
0.204705 -0.558686 0.368826 220 214 211
0.222164 -0.558975 0.366718 214 208 203
0.227129 -0.559959 0.366631 211 204 202
0.228479 -0.558412 0.365653 214 208 206
0.00679032 -0.559066 0.408986 186 180 176
0.0176857 -0.559908 0.40627 167 163 160
0.0304032 -0.560552 0.403037 202 199 193
0.0428859 -0.55908 0.398802 213 209 206
0.120735 -0.560883 0.38172 223 219 216
0.130044 -0.560133 0.37948 226 220 217
0.151566 -0.565719 0.378594 226 220 217
0.182828 -0.562953 0.371937 226 220 215
0.191479 -0.559253 0.368658 227 221 218
0.22135 -0.559176 0.364578 225 218 216
0.238045 -0.557233 0.361569 224 217 215
0.266049 -0.557466 0.358739 200 191 187
-0.0245718 -0.559638 0.416757 168 162 155
-0.0227327 -0.559059 0.415829 178 173 165
-0.00457122 -0.558902 0.41 206 202 197
-0.00273397 -0.559977 0.410048 189 183 178
0.00454112 -0.560718 0.408266 200 196 193
0.00631915 -0.560011 0.407331 199 195 190
0.00990308 -0.559448 0.405947 198 194 188
0.017157 -0.559978 0.404133 168 164 161
0.0349966 -0.558155 0.398092 215 213 209
0.0539777 -0.564358 0.396582 206 205 201
0.0669126 -0.564833 0.393602 218 216 212
0.074213 -0.564438 0.39161 221 217 214
0.101709 -0.562756 0.384413 224 220 217
0.123389 -0.559492 0.378126 225 218 216
0.125187 -0.559172 0.377596 225 218 216
0.142295 -0.564054 0.377027 226 220 217
0.152992 -0.56627 0.376309 227 221 218
0.166081 -0.563895 0.372784 226 220 217
0.183202 -0.56562 0.370973 226 220 217
0.188663 -0.563915 0.369235 228 222 219
0.202567 -0.562151 0.36629 228 222 219
0.204376 -0.561509 0.365701 228 222 219
0.21693 -0.560774 0.363637 228 222 219
0.222784 -0.559463 0.362208 227 221 218
0.261277 -0.562743 0.359511 222 216 214
0.2737 -0.559675 0.356739 216 207 203
0.287742 -0.558569 0.354915 201 192 188
-0.0378498 -0.559227 0.418556 177 171 166
-0.0195717 -0.559683 0.412814 213 209 203
-0.014116 -0.561323 0.412005 222 218 213
-0.0122965 -0.560694 0.411078 170 166 160
-0.0086777 -0.55941 0.409223 209 205 202
-0.00504905 -0.55984 0.408344 209 205 202
-0.00323399 -0.560043 0.407903 203 200 194
0.0308449 -0.558107 0.396904 210 206 203
0.05842 -0.561662 0.391625 218 216 212
0.0737774 -0.565385 0.389928 216 214 210
0.0756019 -0.565267 0.389427 217 213 210
0.0847133 -0.564567 0.386905 221 217 214
0.0981064 -0.565889 0.384626 222 218 215
0.104678 -0.562364 0.381261 207 203 200
0.127428 -0.562384 0.376627 225 218 216
0.129235 -0.562046 0.376092 226 220 217
0.15376 -0.565096 0.373217 226 220 215
0.169319 -0.563877 0.369922 226 220 215
0.173307 -0.5637 0.36918 226 220 217
0.179861 -0.564632 0.368635 225 218 216
0.188279 -0.5649 0.367482 227 221 218
0.209415 -0.560528 0.362173 228 222 219
0.220167 -0.56036 0.360672 228 222 219
0.226924 -0.560629 0.359959 229 223 221
0.233251 -0.559992 0.358863 231 224 222
-0.0309572 -0.558877 0.413714 189 183 178
-0.0164127 -0.559393 0.409308 216 212 209
0.0143533 -0.560845 0.400798 215 211 208
0.0197902 -0.561187 0.399427 216 212 209
0.0216757 -0.562166 0.399437 217 213 210
0.0396177 -0.56099 0.39384 216 212 209
0.0749867 -0.565328 0.387301 217 213 210
0.100638 -0.563772 0.380611 222 218 215
0.107633 -0.561933 0.378112 222 218 215
0.146068 -0.567755 0.373706 225 219 214
0.153032 -0.565201 0.371091 226 220 217
0.156661 -0.564308 0.36998 226 220 217
0.158812 -0.564704 0.369819 226 220 217
0.1675 -0.561447 0.366628 226 220 217
0.190103 -0.566132 0.365526 228 222 219
0.236955 -0.560248 0.356216 231 224 222
0.259549 -0.563209 0.355166 228 222 219
0.271173 -0.562666 0.353703 228 222 219
0.28053 -0.562028 0.352484 227 221 218
-0.0658504 -0.553392 0.420322 187 178 174
-0.0350795 -0.559164 0.412896 217 210 208
-0.0296365 -0.560112 0.411629 205 199 194
-0.0060395 -0.55994 0.404063 212 208 202
0.0102118 -0.560621 0.399573 215 211 206
0.0138875 -0.561766 0.399138 215 211 208
0.0429018 -0.56282 0.391686 217 213 210
0.0487204 -0.565454 0.39161 216 212 209
0.0523652 -0.565407 0.390642 217 213 210
0.138355 -0.564719 0.371211 225 219 214
0.152305 -0.565295 0.368969 226 220 215
0.160229 -0.565191 0.367531 226 220 217
0.162387 -0.565571 0.367362 227 221 218
0.16455 -0.565941 0.367189 226 220 217
0.188934 -0.565424 0.363013 228 222 219
0.195171 -0.565302 0.362017 228 222 219
0.232515 -0.561977 0.355289 228 222 219
0.248968 -0.56284 0.353782 231 224 222
0.259686 -0.565017 0.353677 228 222 219
0.336541 -0.568218 0.348435 193 184 180
-0.0739039 -0.554996 0.421756 174 164 160
-0.0537449 -0.557303 0.415861 214 208 206
-0.0502008 -0.558956 0.415544 191 183 179
-0.0465725 -0.559717 0.41472 205 199 196
-0.0337618 -0.560406 0.410811 209 202 200
-0.0155734 -0.563234 0.406514 216 213 207
-0.00287201 -0.562132 0.401995 212 208 202
0.000758853 -0.562502 0.401104 213 209 203
0.0061664 -0.562119 0.399286 213 209 203
0.0116596 -0.563433 0.398397 215 211 208
0.0170496 -0.562916 0.39656 215 211 208
0.0208208 -0.564889 0.396567 216 212 209
0.0446226 -0.566391 0.390894 217 213 210
0.0482709 -0.566375 0.389931 219 215 211
0.0607232 -0.564312 0.385639 217 213 210
0.0755751 -0.565294 0.382558 220 216 212
0.129824 -0.564516 0.370451 225 218 216
0.138252 -0.566521 0.369896 225 219 214
0.140373 -0.567 0.36975 225 219 214
0.164503 -0.567745 0.365836 226 220 217
0.16888 -0.56369 0.362997 226 220 217
0.193984 -0.564588 0.359517 227 221 218
0.207011 -0.560959 0.355798 228 222 219
0.23944 -0.563864 0.353058 231 224 222
0.244014 -0.563871 0.352518 229 223 221
-0.0925439 -0.551529 0.424436 202 193 192
-0.0688953 -0.556478 0.418405 203 197 192
-0.0542522 -0.558214 0.414197 214 208 206
-0.0523666 -0.557747 0.413295 215 209 207
-0.0506339 -0.559004 0.41338 205 199 194
-0.0450731 -0.558395 0.41116 210 204 199
-0.0323681 -0.559887 0.407748 211 205 200
-0.00518306 -0.561962 0.4003 213 209 203
0.00203465 -0.561818 0.39805 214 210 205
0.00937221 -0.564205 0.397182 214 210 207
0.0130094 -0.564471 0.396271 214 210 207
0.020356 -0.565799 0.394893 215 211 208
0.0221052 -0.565006 0.39397 216 212 209
0.0292058 -0.563528 0.391196 216 212 209
0.0680341 -0.567545 0.3833 219 215 211
0.07496 -0.565322 0.380443 219 215 211
0.0934852 -0.565432 0.376239 221 217 214
0.102295 -0.563442 0.373253 221 217 214
0.103858 -0.56232 0.372323 222 218 215
0.112056 -0.564776 0.371892 222 218 215
0.121622 -0.565032 0.370071 225 218 216
0.133325 -0.565595 0.368067 225 218 216
0.145733 -0.56759 0.366776 225 218 216
0.17246 -0.564447 0.360514 226 220 217
0.1808 -0.564828 0.359366 227 221 218
0.224985 -0.563733 0.352471 227 221 218
0.262589 -0.565251 0.348748 228 222 219
0.274762 -0.565417 0.347549 228 222 219
0.283079 -0.563142 0.345639 227 221 218
-0.106125 -0.550847 0.426908 198 190 186
-0.0640885 -0.559602 0.416037 210 204 199
-0.0602736 -0.558743 0.41424 210 204 199
-0.0509908 -0.558172 0.41073 210 204 199
-0.0364352 -0.559276 0.406442 214 208 203
-0.0346715 -0.560472 0.406505 214 208 203
-0.0165424 -0.564172 0.40269 214 210 205
-0.0092651 -0.564212 0.400459 213 209 203
0.00712577 -0.565848 0.396427 215 211 206
0.0125409 -0.565373 0.394598 215 211 208
0.0179356 -0.564829 0.392763 215 211 208
0.0339893 -0.562793 0.387223 216 212 209
0.0507567 -0.566371 0.384714 219 215 211
0.0692489 -0.567464 0.380681 219 215 211
0.0730638 -0.568124 0.380113 219 215 211
0.076707 -0.567867 0.379111 220 216 212
0.0987216 -0.566576 0.373421 220 216 212
0.103679 -0.564103 0.371049 221 217 214
0.107036 -0.562714 0.369605 222 218 215
0.109331 -0.564205 0.369902 221 217 214
0.113705 -0.56628 0.370075 222 218 215
0.115515 -0.565989 0.369549 222 218 215
0.150777 -0.567238 0.363395 225 218 216
0.174977 -0.567407 0.359325 226 220 217
0.194218 -0.564189 0.354692 226 220 217
0.198637 -0.564619 0.354252 228 222 219
0.204878 -0.564354 0.353214 227 220 220
0.220547 -0.565331 0.351532 228 222 219
0.240983 -0.565828 0.349168 228 222 219
0.287959 -0.56451 0.343441 224 217 215
-0.0862726 -0.55467 0.419076 204 196 192
-0.0718504 -0.558677 0.415957 211 203 199
-0.0625942 -0.559212 0.412971 211 205 200
-0.0608788 -0.560507 0.413059 211 205 200
-0.040593 -0.560376 0.406098 213 207 202
0.00843069 -0.566001 0.393834 215 211 206
0.0211057 -0.565914 0.390165 215 211 208
0.0300135 -0.564483 0.386939 217 213 210
0.033536 -0.56368 0.385556 216 212 209
0.0465468 -0.566422 0.383559 217 213 210
0.0648451 -0.566781 0.379126 219 215 211
0.110466 -0.56395 0.367283 221 217 214
0.120526 -0.565975 0.366261 222 218 215
0.145789 -0.566416 0.361613 224 218 213
0.185825 -0.565831 0.354515 226 220 217
0.191231 -0.564047 0.352794 226 220 217
0.263162 -0.565526 0.344117 227 221 218
0.274276 -0.564089 0.342249 227 221 218
0.294129 -0.564022 0.340255 224 217 215
0.335238 -0.558716 0.334419 224 217 215
-0.123918 -0.541978 0.424587 122 113 109
-0.116948 -0.552817 0.427426 211 200 194
-0.11155 -0.554758 0.426329 210 202 196
-0.10541 -0.55326 0.42319 211 203 199
-0.0887439 -0.555881 0.418287 211 203 199
-0.0792032 -0.555051 0.414366 208 199 195
-0.0703331 -0.558313 0.412897 210 202 198
-0.0612969 -0.560533 0.410892 211 205 200
-0.0594857 -0.560955 0.410486 211 205 200
-0.0465771 -0.561079 0.406158 214 208 203
-0.0448294 -0.562314 0.406224 212 206 201
-0.041091 -0.561262 0.404428 213 207 202
-0.0338499 -0.562568 0.402743 214 208 203
0.0188233 -0.566708 0.38895 215 211 208
0.0405335 -0.56643 0.382876 216 212 209
0.0756527 -0.568771 0.3753 219 215 211
0.091992 -0.567246 0.370744 222 218 215
0.095835 -0.56771 0.370129 220 216 212
0.116495 -0.567493 0.36561 221 217 214
0.118305 -0.567186 0.365082 223 219 216
0.127617 -0.566417 0.362821 222 216 214
0.131225 -0.565705 0.361752 225 218 216
0.181818 -0.567905 0.353902 227 221 218
0.193046 -0.565204 0.350817 227 221 218
0.259467 -0.564988 0.34194 227 221 218
0.26744 -0.566277 0.341657 229 220 218
0.269769 -0.566149 0.341344 229 220 218
0.271059 -0.564422 0.3404 227 221 218
0.279856 -0.562978 0.338812 226 220 217
0.283266 -0.564357 0.339104 226 220 217
0.298629 -0.561118 0.33614 224 217 215
0.31752 -0.561902 0.334838 222 216 212
-0.142915 -0.538934 0.428409 41 33 29
-0.13064 -0.544081 0.426026 126 118 114
-0.120452 -0.549879 0.424935 159 149 143
-0.110102 -0.555444 0.423763 209 201 194
-0.0708494 -0.559196 0.411222 211 205 200
-0.0488883 -0.561591 0.404899 213 207 204
-0.047079 -0.561959 0.404485 212 206 203
-0.0379205 -0.561929 0.401442 212 206 201
-0.0325311 -0.563755 0.400643 212 206 201
-0.00169746 -0.564303 0.391367 213 209 203
0.000112304 -0.564476 0.39092 213 209 203
0.00554367 -0.564951 0.389571 214 210 205
0.0182253 -0.565801 0.386378 214 210 207
0.0470876 -0.565487 0.378419 217 213 210
0.0652927 -0.565779 0.373993 215 211 208
0.0820996 -0.567272 0.370765 216 212 209
0.109384 -0.564841 0.363496 215 209 207
0.123037 -0.566233 0.361395 217 210 208
0.138628 -0.566828 0.358653 215 209 207
0.144981 -0.568222 0.358158 213 207 204
0.153196 -0.569082 0.357086 218 211 209
0.160434 -0.567209 0.354871 219 213 210
0.178859 -0.567676 0.351995 221 215 212
0.181045 -0.567968 0.351784 222 216 216
0.182853 -0.567397 0.351214 220 214 211
0.205534 -0.566488 0.34731 227 221 218
0.218523 -0.5665 0.345477 227 221 218
0.225737 -0.567611 0.345029 231 224 222
0.250699 -0.563719 0.340045 228 222 219
0.260396 -0.564253 0.339168 228 222 219
0.288141 -0.565695 0.336874 225 218 216
0.31362 -0.561743 0.332719 224 218 213
-0.156014 -0.547255 0.435657 35 27 21
-0.142229 -0.542206 0.427441 129 121 114
-0.129884 -0.547324 0.42503 174 161 156
-0.118452 -0.556279 0.425056 211 200 194
-0.106486 -0.555033 0.419826 209 201 194
-0.0861944 -0.558711 0.414156 210 202 198
-0.0803752 -0.557666 0.411516 211 203 199
-0.0604149 -0.561844 0.406644 212 206 201
-0.0548153 -0.561315 0.40446 211 205 200
-0.0438974 -0.562667 0.4015 211 205 200
-0.0402771 -0.56335 0.400661 211 204 202
-0.0239216 -0.565173 0.39635 212 206 201
-0.0130198 -0.566642 0.393726 213 207 200
-0.00398227 -0.564989 0.390141 213 209 203
0.00869721 -0.566099 0.38699 214 210 207
0.0159482 -0.56657 0.385161 214 210 207
0.0250946 -0.567888 0.383286 213 209 206
0.0431421 -0.567281 0.378127 212 208 204
0.0558158 -0.567041 0.374754 208 204 199
0.0816681 -0.568146 0.369071 205 199 194
0.107907 -0.568646 0.363499 206 200 197
0.117473 -0.568959 0.361658 206 200 197
0.126229 -0.566434 0.358625 206 200 195
0.142451 -0.568657 0.356598 205 197 193
0.150325 -0.568688 0.355156 206 200 195
0.153607 -0.566917 0.353689 210 204 199
0.163995 -0.567986 0.352382 210 203 201
0.168677 -0.569555 0.352347 212 206 203
0.178089 -0.567726 0.349883 211 204 202
0.188267 -0.567396 0.348091 210 203 201
0.209183 -0.566893 0.3447 219 213 210
0.217259 -0.565759 0.343018 218 211 209
0.225345 -0.56448 0.34131 222 216 214
0.238441 -0.563923 0.339345 225 218 216
0.257218 -0.56448 0.337326 229 223 221
0.269285 -0.564753 0.336085 227 221 218
0.299146 -0.561247 0.331451 221 215 212
-0.151939 -0.546511 0.431222 132 124 120
-0.144796 -0.543137 0.42662 150 140 134
-0.139762 -0.546226 0.426107 161 153 147
-0.111379 -0.558057 0.420875 208 200 193
-0.0952356 -0.554302 0.412917 211 203 197
-0.0662468 -0.560555 0.405698 212 206 201
-0.0352491 -0.563416 0.39678 212 206 201
-0.0262017 -0.564879 0.394641 212 206 201
-0.0243898 -0.565149 0.394209 212 206 201
0.000976739 -0.56637 0.387122 213 209 203
0.0681973 -0.568195 0.370052 200 191 189
0.0777971 -0.570222 0.368787 195 187 183
0.098412 -0.570783 0.364383 196 188 184
0.153205 -0.567801 0.351955 197 189 185
0.15792 -0.564658 0.349582 196 188 184
0.160748 -0.566773 0.350113 200 191 187
0.182719 -0.56606 0.346077 203 194 193
0.185291 -0.567184 0.346204 201 192 190
0.198665 -0.564564 0.342881 203 194 193
0.201288 -0.565603 0.342981 207 198 196
0.283977 -0.566271 0.332866 226 220 217
0.300014 -0.560376 0.328645 222 216 212
0.319468 -0.561844 0.32752 222 216 212
0.327201 -0.55451 0.323697 201 192 188
-0.175599 -0.55344 0.442121 95 86 84
-0.161286 -0.548997 0.433942 136 127 123
-0.140815 -0.548746 0.425437 187 179 172
-0.137744 -0.551885 0.42575 189 181 175
-0.135478 -0.550958 0.424389 199 188 183
-0.129663 -0.551436 0.422321 208 200 193
-0.119136 -0.556356 0.420654 209 201 194
-0.113533 -0.557453 0.41905 209 201 194
-0.109358 -0.556163 0.416823 209 201 194
-0.105219 -0.55483 0.414597 209 201 194
-0.0995034 -0.554883 0.412488 210 202 198
-0.0612457 -0.561823 0.402328 211 205 200
-0.0575467 -0.561763 0.401039 210 204 199
-0.0521321 -0.562933 0.399806 211 205 200
-0.0502517 -0.562427 0.398923 211 205 200
-0.0484471 -0.562794 0.398509 212 206 201
-0.0158043 -0.567246 0.390345 209 202 198
0.0349826 -0.56897 0.376661 191 183 179
0.0535289 -0.57151 0.373115 186 177 173
0.0553514 -0.571453 0.372627 188 180 176
0.0571733 -0.571389 0.372137 188 180 176
0.0657841 -0.568262 0.368445 184 176 174
0.0907014 -0.572526 0.364728 183 172 167
0.102087 -0.572947 0.362414 183 172 169
0.10391 -0.572693 0.361893 180 169 166
0.119721 -0.568297 0.356406 175 167 163
0.121524 -0.567969 0.355879 184 173 170
0.144386 -0.572628 0.353687 180 170 164
0.157522 -0.56553 0.347854 184 176 172
0.17549 -0.570064 0.346932 185 179 176
0.187092 -0.568335 0.344215 190 181 180
0.196077 -0.56525 0.341354 190 181 180
0.203537 -0.567528 0.341298 193 184 182
0.206182 -0.568545 0.341381 197 188 187
0.297863 -0.562393 0.327407 223 214 212
0.327469 -0.559675 0.323539 204 198 193
0.330458 -0.55999 0.323424 193 184 180
-0.193702 -0.549052 0.445365 39 36 30
-0.191572 -0.549238 0.444528 23 19 14
-0.190763 -0.552571 0.445761 28 24 18
-0.153884 -0.550714 0.429346 184 173 168
-0.122418 -0.552524 0.417701 208 200 193
-0.120635 -0.553189 0.417339 208 200 193
-0.103783 -0.555427 0.412049 209 201 194
-0.100205 -0.556593 0.411296 210 202 196
-0.057964 -0.561734 0.398891 210 204 199
0.0308949 -0.56976 0.375918 178 167 162
0.0451723 -0.568012 0.371274 172 162 156
0.0635356 -0.56921 0.367245 171 158 156
0.0923067 -0.574072 0.36289 171 158 154
0.0982324 -0.575188 0.362119 168 155 152
0.100063 -0.574949 0.361599 165 154 151
0.103483 -0.573555 0.36017 166 152 150
0.137296 -0.571213 0.352113 158 149 145
0.160638 -0.570261 0.347339 167 157 153
0.177649 -0.572115 0.345293 167 161 156
0.188108 -0.567763 0.341539 172 163 161
0.196507 -0.567832 0.340255 174 165 164
0.204406 -0.570957 0.340507 178 169 167
0.32413 -0.560309 0.32174 204 196 192
-0.221149 -0.485603 0.426049 11 7 6
-0.130994 -0.553993 0.419429 209 201 194
-0.10091 -0.558299 0.410093 210 202 196
-0.0780725 -0.556857 0.401149 209 200 197
-0.0511802 -0.563233 0.395101 206 200 195
-0.0438423 -0.562882 0.392514 202 195 191
-0.0365474 -0.562402 0.389919 195 188 184
-0.0167678 -0.568041 0.386525 186 181 174
-0.00592263 -0.566592 0.382541 179 171 164
-0.00409532 -0.56767 0.382534 176 170 163
0.00830601 -0.563326 0.376774 169 163 158
0.0138514 -0.566367 0.376706 168 160 156
0.0215691 -0.57303 0.377849 165 155 149
0.0346621 -0.576073 0.375796 165 155 149
0.0452072 -0.572458 0.371241 161 148 143
0.0599246 -0.572936 0.367748 157 142 135
0.0746101 -0.582071 0.368656 158 142 141
0.0861839 -0.574631 0.362316 159 146 141
0.101926 -0.577347 0.360114 155 142 137
0.186695 -0.570953 0.341013 155 147 143
0.188896 -0.571206 0.340776 154 145 144
0.200956 -0.569965 0.338313 158 149 145
0.210299 -0.57149 0.337607 159 150 146
0.222466 -0.565597 0.333173 172 163 161
0.275723 -0.562138 0.324989 191 183 179
-0.219576 -0.482731 0.421848 77 72 71
-0.210582 -0.54095 0.444142 54 47 45
-0.207066 -0.54794 0.445806 90 84 79
-0.194906 -0.550834 0.441855 124 117 113
-0.169249 -0.551496 0.431309 190 182 176
-0.165376 -0.552399 0.430131 200 192 185
-0.137141 -0.553534 0.419292 207 199 192
-0.123071 -0.552531 0.413342 208 200 193
-0.115952 -0.555138 0.411881 209 201 194
-0.0696507 -0.559995 0.397496 207 201 197
-0.0533238 -0.561921 0.392914 197 191 186
-0.0495875 -0.560887 0.391172 191 183 179
-0.0460721 -0.56248 0.390799 190 182 176
-0.0351982 -0.562642 0.387372 180 172 165
-0.0334045 -0.562939 0.386948 180 172 165
-0.0316457 -0.564122 0.386971 180 172 165
-0.0172395 -0.56708 0.383953 170 164 157
0.0116379 -0.567989 0.375912 153 145 139
0.0135013 -0.568998 0.375881 152 143 139
0.0344925 -0.579628 0.375328 147 134 129
0.0436283 -0.578739 0.372487 144 129 125
0.0454742 -0.57872 0.371998 144 129 125
0.054698 -0.578508 0.369539 141 124 118
0.0568262 -0.58025 0.369852 146 131 127
0.0619152 -0.577299 0.367151 143 128 121
0.142247 -0.578291 0.350054 123 114 110
0.149021 -0.580522 0.349818 124 115 112
0.150865 -0.580074 0.349262 123 114 110
0.168128 -0.572565 0.342639 123 114 110
0.181667 -0.580208 0.343869 131 122 119
0.191499 -0.574036 0.339413 138 129 128
0.207539 -0.576294 0.337943 143 134 130
0.212903 -0.578292 0.338043 144 138 136
0.247789 -0.564303 0.326977 162 154 150
0.251852 -0.563391 0.326067 160 154 149
0.267898 -0.562712 0.323845 175 167 163
0.278207 -0.563667 0.323087 179 170 166
0.280531 -0.563475 0.322747 178 169 165
0.291637 -0.561559 0.320735 184 173 170
0.311596 -0.557258 0.316934 193 185 178
-0.15032 -0.356256 0.331686 149 145 141
-0.209465 -0.547789 0.444352 106 100 95
-0.171012 -0.549867 0.428908 202 193 190
-0.164159 -0.554105 0.428061 205 197 193
-0.162364 -0.554943 0.427719 204 196 192
-0.145332 -0.553071 0.419983 207 198 194
-0.141012 -0.552075 0.417803 207 199 192
-0.123176 -0.551673 0.410682 208 200 193
-0.117859 -0.553632 0.40959 208 200 193
-0.0965753 -0.561675 0.405553 210 202 196
-0.0946112 -0.561361 0.404692 210 202 196
-0.0776998 -0.56161 0.398809 204 196 190
-0.0554493 -0.560592 0.390735 186 177 173
-0.0374808 -0.563155 0.386123 169 163 156
-0.0285335 -0.565501 0.384436 160 152 146
-0.0177147 -0.567004 0.38183 155 147 141
-0.00318999 -0.571301 0.379576 147 139 133
0.00401842 -0.570117 0.376904 145 136 132
0.0195429 -0.584577 0.379528 135 124 121
0.040013 -0.584125 0.373781 132 117 115
0.0475983 -0.584967 0.372215 131 111 108
0.0495933 -0.585838 0.372122 130 109 107
0.0605193 -0.583655 0.368315 129 107 103
0.0904226 -0.582221 0.36052 134 115 110
0.149806 -0.579176 0.346784 123 114 110
0.155973 -0.579547 0.345811 123 114 110
0.162165 -0.579837 0.344819 123 114 110
0.163743 -0.573585 0.341649 125 116 115
0.165556 -0.573072 0.341092 126 118 114
0.193319 -0.575139 0.337369 125 117 113
0.219012 -0.566419 0.329549 124 117 113
0.287944 -0.557756 0.317226 161 155 148
-0.230752 -0.513519 0.436175 4 2 0
-0.207178 -0.519516 0.428223 113 107 102
-0.210025 -0.543735 0.440342 134 126 124
-0.189833 -0.548159 0.433645 183 175 171
-0.169808 -0.551584 0.426846 202 193 190
-0.162653 -0.554976 0.425487 203 195 191
-0.150779 -0.556523 0.421429 205 197 193
-0.141315 -0.552074 0.415611 207 199 192
-0.125484 -0.551828 0.409358 209 201 194
-0.121297 -0.550609 0.407189 208 200 193
-0.118187 -0.553604 0.407423 207 199 192
-0.0848164 -0.556977 0.396835 193 185 178
-0.0722239 -0.559428 0.393616 184 173 170
-0.0705548 -0.560754 0.393676 184 173 170
-0.00912885 -0.571575 0.379228 130 121 117
0.00189478 -0.575312 0.377792 124 114 108
0.0113713 -0.5814 0.378006 120 108 108
0.0191297 -0.586325 0.378198 120 109 104
0.0418553 -0.588592 0.373163 116 99 96
0.0620761 -0.585313 0.366457 129 105 102
0.0661245 -0.586925 0.366229 130 106 103
0.0736068 -0.58643 0.364184 133 108 105
0.0814543 -0.58762 0.362891 134 115 110
0.0848069 -0.585457 0.361087 135 116 111
0.0920446 -0.583753 0.358625 133 115 110
0.094544 -0.586237 0.359233 133 115 110
0.122943 -0.583791 0.351966 122 111 108
0.12665 -0.583094 0.350882 122 113 109
0.136477 -0.582991 0.348866 120 112 108
0.162777 -0.583324 0.34405 125 116 115
0.163937 -0.581066 0.342808 124 115 112
0.180113 -0.585129 0.341821 124 117 113
0.218487 -0.579598 0.33322 125 119 114
0.220862 -0.571484 0.329285 126 120 115
0.245877 -0.571882 0.326004 126 120 115
-0.235545 -0.517688 0.437864 71 66 66
-0.211003 -0.531397 0.432889 137 131 127
-0.166223 -0.552502 0.423449 202 193 190
-0.134272 -0.554114 0.411517 207 199 192
-0.130019 -0.552978 0.409353 207 199 192
-0.0924278 -0.55572 0.396706 190 179 174
-0.0761709 -0.55844 0.392275 174 166 160
-0.0707154 -0.558915 0.390626 167 159 155
-0.0418773 -0.561453 0.382285 137 128 124
-0.0312748 -0.565945 0.381064 131 122 119
-0.0241977 -0.572408 0.381943 126 118 114
-0.0205238 -0.571096 0.380196 124 115 112
0.00524148 -0.58004 0.376838 111 103 99
0.0128032 -0.583245 0.376216 113 102 99
0.026716 -0.593797 0.377378 115 99 98
0.0751995 -0.588032 0.362292 130 106 103
0.0876822 -0.584101 0.357532 133 115 110
0.0994723 -0.585469 0.355511 119 104 100
0.110613 -0.583848 0.35233 113 103 95
0.112215 -0.582653 0.351434 112 101 96
0.132345 -0.584614 0.348181 119 111 107
0.13449 -0.58512 0.347985 118 110 106
0.185674 -0.590039 0.340792 125 117 113
0.199397 -0.58245 0.335145 125 119 114
0.212818 -0.587597 0.335313 125 118 116
0.251363 -0.586842 0.329428 127 121 114
-0.224883 -0.51473 0.429448 107 103 100
-0.221975 -0.517651 0.429409 112 105 103
-0.211666 -0.519099 0.425465 141 135 130
-0.212352 -0.533779 0.432191 157 151 146
-0.204108 -0.544596 0.433385 186 177 173
-0.196682 -0.547766 0.431621 194 185 181
-0.132333 -0.553097 0.408018 205 197 191
-0.111163 -0.553433 0.400207 194 185 181
-0.105862 -0.555219 0.399087 193 184 180
-0.0982527 -0.554894 0.396177 183 176 167
-0.0836392 -0.556449 0.391715 164 155 149
-0.0762959 -0.556594 0.389234 159 150 146
-0.0652415 -0.555681 0.385043 146 138 134
-0.0319428 -0.571242 0.381553 115 106 102
0.0164714 -0.590632 0.376399 117 104 99
0.0242526 -0.593669 0.375681 119 101 100
0.0998102 -0.597386 0.358681 117 102 98
0.101045 -0.594428 0.357042 113 102 97
0.107193 -0.595441 0.356154 107 94 92
0.132489 -0.587238 0.347095 118 110 106
0.156465 -0.592279 0.344719 120 112 108
0.167729 -0.589271 0.341296 121 115 110
0.169248 -0.587866 0.340394 121 115 110
0.204735 -0.586272 0.333694 126 120 115
0.209703 -0.587467 0.333433 125 119 114
0.225229 -0.591611 0.33286 126 118 114
0.250054 -0.594446 0.330511 127 121 114
0.251949 -0.593584 0.329882 127 121 114
-0.242712 -0.529804 0.441607 118 111 111
-0.21716 -0.534058 0.432072 166 157 153
-0.211359 -0.54057 0.432376 181 172 171
-0.164411 -0.551709 0.417698 201 193 186
-0.152367 -0.552402 0.413211 204 196 192
-0.122902 -0.553022 0.402143 194 186 177
-0.119159 -0.553457 0.400941 188 178 170
-0.100186 -0.55339 0.393956 171 162 156
-0.0711364 -0.556072 0.385028 132 126 121
-0.0656317 -0.555572 0.382938 131 122 119
-0.0272108 -0.580984 0.382395 110 104 99
0.00633489 -0.58635 0.374968 108 97 94
0.0102691 -0.590237 0.375662 109 98 95
0.0575275 -0.591613 0.363736 125 89 85
0.0591215 -0.589708 0.362459 127 91 85
0.0955385 -0.598705 0.357944 136 119 113
0.100233 -0.601851 0.358324 121 105 101
0.106686 -0.603785 0.357773 110 96 94
0.114151 -0.60173 0.355213 96 86 82
0.115077 -0.597818 0.353239 98 87 84
0.128103 -0.594564 0.349034 116 107 103
0.165091 -0.589761 0.339713 120 114 109
0.167653 -0.591 0.339796 120 114 109
0.191168 -0.586722 0.333818 124 115 114
0.198731 -0.589129 0.333617 126 118 114
0.218891 -0.589737 0.330688 125 119 114
0.25009 -0.600375 0.33065 127 121 116
0.306054 -0.570928 0.311541 125 119 114
0.455362 -0.746095 0.366048 149 143 136
-0.240686 -0.517862 0.433307 162 157 156
-0.241604 -0.53181 0.439576 134 125 126
-0.229672 -0.531447 0.43411 146 138 134
-0.224506 -0.534745 0.433237 164 155 151
-0.21233 -0.54218 0.431132 187 178 174
-0.174121 -0.549086 0.418148 195 187 183
-0.152379 -0.551539 0.41054 203 195 189
-0.0918646 -0.546717 0.385746 145 136 132
-0.0879427 -0.545106 0.383629 137 128 124
-0.0712797 -0.554184 0.382027 118 112 107
-0.0677746 -0.555037 0.381236 113 109 103
-0.0640552 -0.554081 0.379552 113 107 102
-0.0314185 -0.581244 0.381547 113 107 102
-0.0239992 -0.582305 0.379759 112 106 101
0.00233494 -0.593267 0.377027 105 97 93
0.0596478 -0.584957 0.357901 134 94 87
0.0727896 -0.585038 0.35474 133 96 88
0.103696 -0.610599 0.359186 132 119 116
0.120082 -0.596793 0.349419 96 86 82
0.131724 -0.595553 0.346452 116 107 103
0.159457 -0.598805 0.342462 117 110 106
0.1738 -0.597807 0.339384 120 114 109
0.189698 -0.594891 0.335329 124 115 114
0.201906 -0.597761 0.334523 126 117 116
0.205704 -0.596416 0.333323 126 118 114
0.210964 -0.59348 0.331218 125 119 114
0.225123 -0.599226 0.33146 125 119 114
0.263572 -0.600114 0.32629 127 121 114
-0.245226 -0.533723 0.439615 139 135 132
-0.242643 -0.533393 0.438325 147 140 138
-0.234464 -0.535718 0.435668 163 152 149
-0.216807 -0.541694 0.430493 182 173 172
-0.179169 -0.550579 0.418541 194 185 181
-0.176769 -0.549833 0.41724 194 185 181
-0.166123 -0.54919 0.412669 197 189 185
-0.158503 -0.550801 0.410345 200 192 185
-0.156178 -0.549932 0.409047 195 187 183
-0.121118 -0.550951 0.396078 160 152 146
-0.119153 -0.550728 0.39525 159 151 144
-0.0961607 -0.548174 0.385764 129 124 116
-0.0864163 -0.544594 0.380721 116 112 107
-0.0838609 -0.550852 0.382656 114 110 105
-0.0736525 -0.555396 0.381211 111 107 104
-0.0440196 -0.567279 0.376878 110 103 101
-0.013314 -0.599943 0.38233 111 105 100
-0.0094834 -0.598529 0.380556 111 104 102
0.00984988 -0.602833 0.376957 98 85 82
0.0446273 -0.603674 0.367946 119 81 78
0.0587493 -0.583012 0.355019 134 90 82
0.0679644 -0.58246 0.352515 142 94 85
0.0699748 -0.58324 0.352381 139 93 84
0.134027 -0.598692 0.345087 115 106 102
0.152031 -0.597528 0.341014 116 107 103
0.193468 -0.600345 0.33472 122 116 114
0.250193 -0.603843 0.327311 128 122 117
0.252589 -0.603814 0.326957 127 121 114
0.258347 -0.60539 0.326796 127 121 114
0.281825 -0.594872 0.319356 127 121 114
0.287784 -0.588401 0.315997 127 121 116
0.289159 -0.56436 0.306215 127 121 116
-0.244536 -0.53648 0.438064 156 150 147
-0.241949 -0.536137 0.436777 157 151 148
-0.235899 -0.538064 0.434907 165 159 155
-0.217021 -0.541728 0.428249 181 174 172
-0.170502 -0.549123 0.412107 196 188 184
-0.166385 -0.549154 0.410476 194 185 181
-0.123395 -0.551075 0.394765 151 143 136
-0.12099 -0.549138 0.393019 143 138 130
-0.0917181 -0.542075 0.379322 115 109 105
-0.0560085 -0.554828 0.372938 114 108 105
-0.0441386 -0.562631 0.372632 112 105 103
-0.0378404 -0.579242 0.378126 112 106 101
-0.00992442 -0.606645 0.382024 111 104 102
0.0403848 -0.605446 0.367529 110 65 62
0.056021 -0.581137 0.352651 147 91 83
0.0631986 -0.579828 0.350295 147 93 84
0.0734402 -0.575358 0.345837 129 87 79
0.12063 -0.618101 0.354097 71 58 54
0.123696 -0.607139 0.348634 113 105 101
0.129224 -0.605161 0.346612 113 105 99
0.130599 -0.602986 0.345376 115 106 102
0.136919 -0.603615 0.344359 112 106 99
0.14863 -0.607764 0.343824 113 107 102
0.198417 -0.603396 0.332846 121 115 112
0.204054 -0.596398 0.328951 124 117 115
0.217694 -0.60149 0.328879 125 119 114
0.224086 -0.605144 0.329396 125 119 112
0.232051 -0.607097 0.328972 125 119 114
0.242235 -0.599692 0.324378 126 120 115
0.26639 -0.591578 0.317672 128 122 117
0.269124 -0.588048 0.315883 128 122 117
-0.22992 -0.544134 0.432439 172 166 162
-0.227363 -0.543689 0.431152 174 167 165
-0.221495 -0.541194 0.427599 178 169 167
-0.170143 -0.547433 0.408963 186 177 173
-0.150366 -0.548791 0.401774 162 154 150
-0.120196 -0.544724 0.388606 129 120 116
-0.108461 -0.542285 0.383256 117 110 106
-0.106366 -0.541119 0.381988 115 109 105
-0.104474 -0.540812 0.381173 113 107 102
-0.0850885 -0.543022 0.375316 115 111 106
-0.0803982 -0.547091 0.375501 117 110 108
-0.0709392 -0.543072 0.370518 117 110 108
-0.0575706 -0.532382 0.361346 117 110 108
-0.0334853 -0.597245 0.382558 122 116 112
-0.0202007 -0.608199 0.383408 117 108 107
0.0264907 -0.607965 0.370021 104 61 57
0.0672297 -0.574729 0.344884 134 81 71
0.1307 -0.605614 0.344192 113 105 101
0.147743 -0.613529 0.344147 111 105 98
0.149396 -0.612185 0.343242 112 106 101
0.170754 -0.606727 0.336825 117 110 106
0.188996 -0.614163 0.33667 120 114 109
0.218694 -0.609964 0.329888 124 117 113
0.22751 -0.613725 0.330035 124 118 111
0.259886 -0.611352 0.324194 128 123 115
0.260879 -0.608774 0.32301 127 121 114
-0.24664 -0.535427 0.433816 158 154 151
-0.239748 -0.53588 0.430977 164 158 153
-0.2217 -0.541214 0.425356 175 167 163
-0.18245 -0.546269 0.411143 182 174 170
-0.143295 -0.544182 0.394863 140 132 128
-0.113657 -0.539515 0.381804 114 108 103
-0.106087 -0.538358 0.378567 115 109 105
-0.104208 -0.538045 0.377758 115 109 105
-0.0989664 -0.538805 0.376223 115 109 107
-0.0974578 -0.540214 0.376302 115 109 107
-0.0679692 -0.51878 0.3568 118 111 109
-0.0507335 -0.509786 0.347187 125 118 118
-0.0266301 -0.610086 0.383814 122 116 112
-0.00894467 -0.613971 0.380277 112 105 103
0.0476357 -0.582033 0.350776 122 64 56
0.050772 -0.578233 0.348318 132 67 62
0.0651441 -0.576535 0.344024 139 84 73
0.120154 -0.629201 0.354241 91 81 73
0.125634 -0.618761 0.34858 107 101 96
0.153468 -0.613893 0.340822 110 104 99
0.179628 -0.614745 0.33623 117 110 108
0.213225 -0.614724 0.33037 122 116 112
0.223147 -0.616116 0.329317 124 117 113
0.233597 -0.618177 0.328493 122 118 113
0.237321 -0.620798 0.328977 122 118 113
0.26774 -0.60939 0.31988 127 121 114
0.275089 -0.613298 0.320412 128 123 115
0.275551 -0.609846 0.31898 128 123 115
-0.243671 -0.521828 0.424758 170 165 164
-0.244214 -0.53933 0.431952 163 157 154
-0.239046 -0.538585 0.429409 164 158 155
-0.235156 -0.540083 0.428328 168 161 159
-0.195531 -0.546375 0.414227 183 172 169
-0.185825 -0.543605 0.409132 169 163 158
-0.170024 -0.54566 0.403663 152 143 139
-0.160998 -0.543116 0.39905 146 137 136
-0.154399 -0.541284 0.395714 140 132 128
-0.151841 -0.539528 0.393987 139 130 129
-0.133669 -0.536667 0.385857 114 108 105
-0.078522 -0.510303 0.354745 118 111 109
-0.07652 -0.508067 0.353095 118 111 109
-0.0173916 -0.619446 0.382773 112 106 101
-0.0134057 -0.618051 0.380991 108 102 100
-0.00144791 -0.620088 0.378413 95 86 84
0.0329211 -0.606017 0.362815 77 33 27
0.0345681 -0.603262 0.361183 78 31 26
0.0468034 -0.580027 0.347936 126 63 57
0.056418 -0.571289 0.341744 147 87 75
0.0674738 -0.57242 0.339535 127 72 59
0.0784314 -0.563923 0.333291 172 108 93
0.080187 -0.56373 0.332802 178 114 101
0.0821446 -0.564447 0.332658 181 120 104
0.101988 -0.609022 0.347234 177 158 151
0.157161 -0.620524 0.340534 107 98 94
0.167302 -0.630651 0.342803 107 101 96
0.172665 -0.633159 0.342824 108 104 99
0.181295 -0.6209 0.336114 110 103 101
0.206872 -0.622729 0.33233 115 109 107
0.21765 -0.625999 0.331841 120 114 109
0.227741 -0.627335 0.330719 122 116 112
0.235477 -0.628428 0.329915 121 115 110
0.253326 -0.625148 0.325827 125 119 112
0.263301 -0.62067 0.322566 127 121 114
0.269755 -0.614434 0.319174 128 123 115
0.283915 -0.608422 0.314867 127 121 114
0.294097 -0.604091 0.311845 128 122 117
-0.242062 -0.518832 0.420598 130 126 125
-0.229718 -0.542659 0.424686 169 162 160
-0.217849 -0.541758 0.419307 178 169 165
-0.153746 -0.532858 0.389777 122 118 115
-0.151498 -0.531934 0.388525 115 111 108
-0.115083 -0.514283 0.367442 115 109 107
-0.106175 -0.506139 0.360766 117 110 108
-0.0400024 -0.585046 0.372396 131 122 123
-0.0159399 -0.624158 0.381985 114 108 105
-0.0139298 -0.623456 0.381093 114 108 105
0.0215098 -0.615804 0.367786 101 42 39
0.0360983 -0.587422 0.3517 95 37 31
0.0425795 -0.579942 0.346813 116 53 47
0.045976 -0.578005 0.345114 125 61 53
0.0595523 -0.571816 0.339075 132 75 65
0.0650773 -0.572373 0.337967 127 72 59
0.163732 -0.63522 0.342965 106 100 95
0.18752 -0.638599 0.33984 107 103 100
0.262015 -0.643011 0.329103 124 118 111
0.268399 -0.635951 0.325364 127 121 116
0.277664 -0.625192 0.319813 128 122 117
0.280535 -0.608651 0.313001 127 121 116
-0.244558 -0.530977 0.42414 158 154 151
-0.236845 -0.538217 0.423643 167 161 156
-0.195936 -0.541298 0.407785 155 147 143
-0.190042 -0.537493 0.403863 147 141 136
-0.186953 -0.535154 0.401672 143 134 130
-0.173816 -0.533032 0.395558 131 122 121
-0.160338 -0.528804 0.388535 113 109 105
-0.130803 -0.507038 0.368271 110 106 103
-0.120813 -0.49671 0.360259 113 109 105
-0.115545 -0.495903 0.357976 115 109 107
-0.0185085 -0.627504 0.381763 134 126 122
0.0211378 -0.61845 0.366672 97 36 33
0.0269189 -0.616756 0.364391 84 29 27
0.0401869 -0.57979 0.345204 109 46 42
0.043707 -0.578789 0.343876 119 53 48
0.0522277 -0.574774 0.340022 135 68 61
0.0573221 -0.572649 0.337859 128 73 62
0.0764176 -0.559844 0.327887 183 110 96
0.0822345 -0.562008 0.327449 190 119 106
0.151736 -0.655241 0.351167 105 99 94
0.161089 -0.656068 0.34961 104 101 95
0.231689 -0.659959 0.338148 114 108 103
0.239741 -0.661062 0.337236 115 111 106
0.24614 -0.653449 0.33317 116 113 105
0.249113 -0.654329 0.333037 116 113 105
0.286725 -0.624586 0.315828 126 120 113
-0.240701 -0.519962 0.415944 110 106 105
-0.222614 -0.536986 0.414834 167 159 155
-0.216291 -0.53776 0.412496 162 154 152
-0.209616 -0.537637 0.409683 150 144 141
-0.203947 -0.534827 0.406242 148 140 138
-0.145576 -0.497517 0.368046 107 103 100
-0.138973 -0.493706 0.363964 108 104 101
0.0145259 -0.616237 0.365202 107 51 49
0.0164363 -0.615395 0.364324 100 39 37
0.0553777 -0.575319 0.337341 116 60 49
0.07178 -0.557215 0.325831 177 104 90
0.081201 -0.559953 0.324774 194 124 107
0.293717 -0.660608 0.326038 125 119 112
0.310252 -0.646835 0.318484 125 119 114
0.492502 -0.866036 0.376226 126 120 115
-0.242751 -0.531364 0.418915 132 128 125
-0.193889 -0.517255 0.393054 129 120 118
-0.184315 -0.509478 0.386125 117 110 106
-0.172868 -0.496609 0.37646 104 97 95
-0.166357 -0.490063 0.371278 105 98 98
-0.141809 -0.481512 0.358254 104 100 97
-0.0403179 -0.567136 0.35837 143 137 134
-0.0399666 -0.593084 0.369055 158 152 152
-0.0276984 -0.629047 0.380309 142 136 133
0.0139103 -0.615163 0.362595 123 58 55
0.0158149 -0.614319 0.361722 110 46 45
0.0199913 -0.618172 0.362185 75 16 16
0.0595524 -0.571081 0.332445 119 64 53
0.0744224 -0.555701 0.322558 189 114 101
0.0823084 -0.559514 0.322295 195 125 108
0.128783 -0.675508 0.35924 115 111 108
0.169536 -0.701373 0.361084 109 105 102
0.297043 -0.698119 0.337124 133 127 120
0.315406 -0.694847 0.333135 125 119 112
-0.212492 -0.512299 0.396681 133 124 123
-0.176168 -0.482573 0.370362 96 92 91
-0.165276 -0.474451 0.362832 100 96 93
-0.159956 -0.470276 0.359085 99 95 91
-0.0305622 -0.638786 0.382762 141 135 132
0.0173293 -0.616091 0.359725 98 35 33
0.0373045 -0.584772 0.341557 98 44 39
0.0404087 -0.580065 0.338827 88 31 28
0.0514243 -0.580634 0.336265 89 27 25
0.0599469 -0.566097 0.328225 124 69 58
0.0740046 -0.55638 0.320913 191 115 102
0.07572 -0.556192 0.320436 192 120 103
0.137493 -0.702622 0.365651 109 105 102
0.143092 -0.705502 0.365589 107 101 98
0.179839 -0.720289 0.36379 106 102 98
0.182209 -0.719737 0.363091 106 102 96
0.188175 -0.722218 0.362878 106 102 98
0.50692 -0.885402 0.37388 124 117 113
-0.217055 -0.496799 0.390651 107 103 100
-0.213393 -0.493932 0.388043 113 107 104
-0.196336 -0.480754 0.375992 106 100 97
0.0475905 -0.583351 0.336196 83 25 20
0.0565937 -0.57073 0.328853 112 59 49
0.0663625 -0.555877 0.320503 180 106 95
0.0694207 -0.553699 0.318901 184 111 97
0.0789331 -0.557391 0.318157 196 123 107
0.0851429 -0.561357 0.318319 190 120 102
0.145032 -0.715589 0.36645 110 106 103
0.290148 -0.750726 0.352395 115 111 106
0.304912 -0.756179 0.352017 116 112 107
0.0242493 -0.618762 0.354315 72 13 10
0.0409339 -0.593587 0.339846 116 69 65
0.0441902 -0.589766 0.337485 71 17 12
0.053589 -0.578136 0.330473 92 39 27
0.0557093 -0.568622 0.326153 113 60 50
0.0609618 -0.557903 0.320601 154 87 78
0.0638872 -0.554832 0.318674 173 102 92
0.0707074 -0.554186 0.316795 188 115 99
0.142607 -0.718752 0.365459 111 107 104
0.182489 -0.741822 0.366019 108 104 101
0.226709 -0.766977 0.366959 108 104 101
0.256613 -0.776901 0.365147 109 105 102
0.300615 -0.774346 0.356464 114 110 105
0.464846 -0.930478 0.38819 125 119 112
-0.0311132 -0.672001 0.388792 128 124 121
0.0415615 -0.603633 0.341476 96 49 45
0.075399 -0.554279 0.31374 194 121 105
0.160433 -0.731743 0.36387 115 111 108
0.164189 -0.735847 0.364657 114 110 107
0.212013 -0.77576 0.370161 109 105 102
0.244547 -0.778532 0.36492 111 104 102
0.266069 -0.780671 0.361756 112 105 103
0.273295 -0.770004 0.356471 112 105 103
0.298702 -0.779024 0.355413 111 108 102
0.340348 -0.817334 0.362581 115 111 106
0.49411 -0.960125 0.390549 122 119 111
0.527615 -0.929243 0.374967 121 117 112
-0.0164617 -0.700662 0.393177 100 96 93
-0.000853729 -0.68155 0.381225 89 86 80
0.00719095 -0.613136 0.352139 138 63 61
0.0332688 -0.622218 0.348676 93 33 26
0.0510535 -0.593695 0.332965 75 19 15
0.0880014 -0.56566 0.313249 176 112 97
0.174808 -0.756855 0.367577 113 109 105
0.22664 -0.779617 0.365685 111 107 104
0.245572 -0.791098 0.366346 110 106 103
0.288916 -0.814357 0.366997 112 105 103
0.419305 -0.942298 0.391585 129 125 120
0.0208305 -0.621874 0.34954 74 20 18
0.0267541 -0.621982 0.347999 73 16 14
0.0403615 -0.620077 0.343699 89 38 32
0.0511378 -0.572692 0.322689 96 45 35
0.0527948 -0.560334 0.317522 126 73 61
0.0796726 -0.55494 0.309035 192 117 101
0.148873 -0.732623 0.361064 113 112 108
0.179506 -0.757654 0.363954 114 110 107
0.201692 -0.792806 0.372546 113 109 105
0.207044 -0.800384 0.374287 113 109 105
0.251278 -0.808285 0.368485 111 107 104
0.283612 -0.811954 0.363821 111 107 104
-0.0286883 -0.682451 0.384362 84 83 77
-0.0244281 -0.693229 0.387246 85 84 78
0.0159649 -0.615925 0.346275 122 62 55
0.0222289 -0.621706 0.346801 65 13 10
0.0455316 -0.618791 0.339597 75 35 30
0.0473706 -0.617793 0.338748 77 33 27
0.0715001 -0.551725 0.307748 189 112 94
0.075264 -0.553199 0.307423 192 115 98
0.0769554 -0.552993 0.306952 194 119 103
0.151276 -0.74461 0.362214 113 112 108
0.230152 -0.819131 0.373395 113 109 105
0.232404 -0.800603 0.366139 111 107 104
0.265984 -0.824739 0.368491 110 106 103
0.294276 -0.831559 0.365728 111 107 104
0.313777 -0.824361 0.359672 113 109 103
-0.0367266 -0.567136 0.340519 88 86 82
0.00393673 -0.6208 0.34914 106 57 49
0.0134586 -0.615627 0.344575 126 63 59
0.0196853 -0.62144 0.345091 81 27 23
0.0431892 -0.620496 0.338567 98 54 48
0.0482106 -0.572208 0.319122 98 47 40
0.0601202 -0.548666 0.307359 179 108 96
0.20012 -0.802739 0.370315 113 109 105
0.21295 -0.824342 0.375564 113 109 105
0.26827 -0.841036 0.370652 111 107 104
0.279577 -0.837418 0.367216 111 107 104
0.285208 -0.835538 0.365494 111 107 104
0.414601 -0.972669 0.391208 133 126 124
0.463696 -0.978214 0.385116 121 115 112
-0.009556 -0.721763 0.388356 94 92 86
0.0329628 -0.622285 0.339608 78 19 16
0.0367043 -0.620371 0.33792 83 25 22
0.280129 -0.849262 0.367983 111 107 104
0.321134 -0.859505 0.364058 111 108 102
-0.0351747 -0.636372 0.361477 90 89 82
-0.0195739 -0.711407 0.384629 94 92 86
0.00644814 -0.613005 0.341007 110 51 49
0.0144546 -0.618027 0.34068 113 52 48
0.0362061 -0.621068 0.336039 81 23 17
0.0457043 -0.602889 0.326923 77 33 27
0.0457591 -0.562184 0.311973 106 58 47
0.0538059 -0.547453 0.304583 160 98 87
0.0551578 -0.545447 0.303519 168 99 89
0.0587989 -0.547052 0.303221 183 110 96
0.0728562 -0.549426 0.30074 190 113 96
0.083085 -0.564444 0.303823 180 110 93
0.141232 -0.72545 0.348977 116 112 109
0.220823 -0.83601 0.371646 114 110 107
0.244145 -0.849816 0.371819 113 109 105
0.265863 -0.848533 0.367091 111 107 104
0.306847 -0.860423 0.363525 113 109 103
-0.0305011 -0.666903 0.368862 92 91 85
-0.0131907 -0.717594 0.382358 99 95 91
0.0160187 -0.620658 0.33896 103 42 35
0.0395278 -0.620749 0.332803 77 21 17
0.0441903 -0.580857 0.317144 53 3 0
0.0444798 -0.56947 0.312944 95 43 38
0.0547454 -0.546032 0.30192 166 99 89
0.0598829 -0.546553 0.300861 184 111 97
0.0661514 -0.544021 0.298448 188 108 94
0.158949 -0.786274 0.363981 116 112 109
0.16921 -0.803877 0.367986 115 111 108
0.1724 -0.805224 0.367766 116 112 109
0.201256 -0.844382 0.375431 116 112 109
0.209184 -0.840637 0.37243 116 112 109
0.250853 -0.853803 0.36853 115 111 108
0.276269 -0.861325 0.366169 115 109 107
0.308001 -0.881412 0.367097 114 110 107
-0.0349354 -0.655864 0.363686 94 92 86
-0.0333603 -0.671133 0.368717 94 92 86
-0.0229261 -0.698699 0.375612 97 96 89
-0.020811 -0.713035 0.380163 95 93 87
0.0215993 -0.624302 0.336516 77 26 23
0.0353028 -0.623383 0.332585 79 20 17
0.0407774 -0.619496 0.329779 76 20 16
0.0435431 -0.609942 0.325649 78 36 30
0.0439928 -0.556787 0.306514 111 62 53
0.0555154 -0.543652 0.298976 172 103 90
0.206503 -0.854921 0.374705 116 112 109
0.281375 -0.868667 0.364293 114 110 107
0.297208 -0.882864 0.366113 115 111 108
0.30883 -0.886078 0.365015 115 111 108
0.315993 -0.886643 0.363871 116 112 107
-0.0298467 -0.680863 0.368638 97 96 89
-0.0213371 -0.706305 0.375225 99 98 92
0.0435652 -0.557371 0.304875 111 60 52
0.0503068 -0.54554 0.299024 158 96 85
0.0833361 -0.56509 0.29801 168 109 92
0.227871 -0.866596 0.370891 116 112 109
0.245641 -0.87197 0.369075 94 90 87
0.262064 -0.890498 0.372076 113 109 105
-0.00274139 -0.750246 0.382734 95 92 86
0.0286396 -0.627605 0.331283 56 9 4
0.0424181 -0.5656 0.306081 105 54 47
0.0589645 -0.540571 0.293292 187 114 98
0.0640331 -0.54102 0.292233 194 121 105
0.0799517 -0.560288 0.295151 183 113 93
0.236503 -0.89615 0.375718 116 112 109
0.042834 -0.559468 0.301885 113 59 52
0.0463063 -0.547822 0.297013 147 87 77
0.0672644 -0.543093 0.290303 199 124 106
0.19841 -0.879906 0.374894 114 110 107
0.232038 -0.906063 0.376464 115 111 108
0.246428 -0.899476 0.371254 151 147 144
0.00496455 -0.808307 0.394749 205 199 196
0.019117 -0.620313 0.326779 83 27 21
0.0310657 -0.623208 0.324621 69 18 12
0.0346986 -0.62031 0.322692 74 20 16
0.0381829 -0.616432 0.320474 74 20 16
0.0421545 -0.558136 0.299654 114 60 53
0.0527889 -0.539257 0.290617 180 112 96
0.0610693 -0.539451 0.288678 195 125 110
0.0626922 -0.539281 0.288231 198 128 110
0.0690632 -0.546277 0.289076 202 128 110
0.0762041 -0.556015 0.290676 193 117 97
0.0785016 -0.558613 0.291013 185 114 92
0.191871 -0.871255 0.370034 116 112 109
0.20572 -0.897975 0.375894 116 112 109
0.267278 -0.923806 0.371439 110 109 102
-0.00899004 -0.840523 0.406373 193 189 184
0.0112058 -0.628363 0.329378 90 39 31
0.0166061 -0.619962 0.325103 87 30 26
0.0394891 -0.598893 0.312052 76 22 17
0.0427875 -0.553856 0.296124 129 69 60
0.0479367 -0.543006 0.291211 164 99 89
0.0523832 -0.53979 0.289043 181 113 97
0.0393159 -0.586106 0.305749 72 20 15
0.0488723 -0.541519 0.288626 171 105 91
0.0518241 -0.539367 0.287191 183 112 99
-0.0161572 -0.852323 0.405786 184 180 172
0.0364104 -0.615444 0.314015 73 22 14
0.0384927 -0.568511 0.298164 97 47 36
0.0390473 -0.558912 0.294892 109 56 47
0.0525721 -0.536898 0.284363 188 118 101
0.0756399 -0.552713 0.28397 187 115 92
-0.014047 -0.853464 0.402293 192 186 181
-0.0111709 -0.855595 0.402181 191 185 180
-0.0082791 -0.857716 0.402063 184 178 173
0.0116466 -0.630314 0.323132 81 35 28
0.0152685 -0.624684 0.320346 88 35 28
0.0283943 -0.618084 0.314758 79 27 22
0.0147063 -0.624336 0.318162 90 36 31
0.0258104 -0.616784 0.312829 84 33 26
0.0449201 -0.547105 0.28583 166 99 87
0.0738196 -0.54903 0.279447 191 120 98
0.0762992 -0.544781 0.277532 160 117 100
0.0216052 -0.619288 0.312538 88 34 30
0.0234646 -0.618334 0.31175 87 33 29
0.0350608 -0.599966 0.302987 74 23 15
0.053129 -0.539215 0.279482 193 125 107
0.0656903 -0.544685 0.278151 202 133 111
0.250624 -0.990447 0.373538 118 116 112
0.0132094 -0.616904 0.311835 89 40 31
0.0396275 -0.552232 0.285011 141 77 64
0.0221129 -0.614696 0.30664 88 34 30
0.0314873 -0.61268 0.303588 77 28 20
0.0340327 -0.582808 0.293845 77 26 21
0.0765068 -0.552929 0.27438 163 116 98
-0.0181398 -0.919061 0.406913 117 115 111
0.0291825 -0.614235 0.302507 80 28 23
0.0360109 -0.558181 0.283954 115 57 49
0.0403253 -0.552169 0.281066 147 80 69
0.0683012 -0.548613 0.273161 195 127 102
0.0744283 -0.55366 0.273207 179 112 89
0.036923 -0.55571 0.281099 130 67 59
0.053279 -0.541945 0.272978 191 128 108
0.060438 -0.545103 0.272165 194 127 106
0.0144914 -0.609588 0.300709 91 42 34
0.0201533 -0.609622 0.299229 90 39 31
0.0299155 -0.593125 0.291888 82 33 24
0.0316745 -0.574742 0.286087 88 37 27
0.0326002 -0.566987 0.283595 94 41 32
0.0410194 -0.552069 0.27713 148 87 73
0.0671081 -0.547659 0.269467 190 119 95
-0.188337 -0.43687 0.313287 165 159 168
0.0266348 -0.603347 0.293625 84 33 26
0.0279742 -0.597533 0.291611 83 35 24
0.0489265 -0.541242 0.270212 184 124 105
0.0777369 -0.560343 0.268701 117 87 74
0.0278172 -0.581608 0.285099 89 38 28
0.0644659 -0.547833 0.26647 180 111 89
0.0683032 -0.550285 0.266237 184 115 92
0.0322763 -0.561599 0.276418 117 54 48
0.0354391 -0.559517 0.275036 127 67 58
0.0409099 -0.549495 0.270878 146 86 72
0.042164 -0.546493 0.269733 153 93 79
0.0452914 -0.545289 0.268621 167 108 91
0.0188569 -0.594299 0.286936 90 42 31
0.0388462 -0.550044 0.26971 140 80 68
0.0463668 -0.544636 0.266358 175 116 99
0.0703872 -0.548824 0.261657 184 115 88
0.0752691 -0.556004 0.26244 149 104 85
0.0209751 -0.581206 0.280828 90 40 29
0.0266885 -0.566552 0.275405 115 55 46
0.0545466 -0.547208 0.263221 168 108 87
0.0641476 -0.545121 0.260333 174 108 82
0.0108854 -0.600071 0.286503 85 45 36
0.0202221 -0.577793 0.278151 91 41 31
0.035274 -0.555938 0.268504 125 71 55
0.0635595 -0.544588 0.258523 171 104 81
0.0752924 -0.552808 0.257873 117 79 62
-0.172691 -0.449235 0.30136 180 176 184
0.0206752 -0.567555 0.273416 96 45 35
0.0330734 -0.555485 0.267091 129 72 59
0.0374695 -0.550369 0.26465 138 83 72
0.0422684 -0.549069 0.263108 145 93 79
0.0440404 -0.549912 0.262884 156 102 86
0.0613546 -0.544249 0.257164 171 106 85
-0.200613 -0.431929 0.305586 154 151 159
0.0110776 -0.588412 0.279369 82 43 31
0.0144196 -0.584544 0.2775 87 41 29
0.0325414 -0.554937 0.26524 130 75 61
0.0385728 -0.549713 0.26238 135 85 70
0.0451283 -0.54923 0.260616 159 105 86
0.0482581 -0.547981 0.259521 165 109 89
0.0526862 -0.544612 0.257571 160 102 80
0.054305 -0.544442 0.25713 161 103 81
0.0620309 -0.541569 0.25452 171 109 84
0.0716287 -0.548146 0.253883 170 108 83
-0.161627 -0.452292 0.295155 188 184 192
-0.159436 -0.45453 0.294943 188 184 192
0.00906244 -0.593697 0.279244 76 40 34
0.0210317 -0.562555 0.268267 112 57 46
0.0381546 -0.550123 0.26077 135 85 70
0.0413063 -0.548926 0.259678 135 85 68
0.0430736 -0.54977 0.259448 148 96 79
0.0748887 -0.549979 0.251747 136 89 71
-0.175188 -0.446265 0.296836 179 173 182
0.0626478 -0.541196 0.250712 176 111 90
-0.199636 -0.43221 0.300667 155 152 160
-0.169685 -0.44786 0.293767 182 179 184
0.0354456 -0.549083 0.257572 132 87 73
0.0384683 -0.546927 0.256287 126 81 62
0.0398411 -0.544868 0.255443 127 82 63
0.0714367 -0.546224 0.248031 165 105 80
-0.173877 -0.445991 0.293232 180 174 183
-0.172616 -0.446728 0.292967 180 176 184
-0.170933 -0.446614 0.29237 181 177 185
-0.168404 -0.448059 0.291835 183 180 186
-0.123164 -0.466624 0.281201 210 207 212
0.033613 -0.551513 0.25681 120 73 57
0.0429293 -0.546943 0.253377 142 92 75
0.0473673 -0.543603 0.251478 158 100 79
0.0672145 -0.544199 0.246769 170 108 83
0.0720478 -0.543472 0.245438 159 99 74
-0.193846 -0.43624 0.296441 160 156 166
-0.161157 -0.452587 0.288867 189 185 193
0.0220102 -0.55629 0.259082 129 76 65
0.0253318 -0.556181 0.258202 140 90 77
0.059654 -0.541585 0.246209 167 109 85
0.0612553 -0.541378 0.245771 171 108 86
-0.202775 -0.430663 0.296847 153 149 157
-0.194995 -0.43492 0.295029 161 157 168
-0.189618 -0.437365 0.293688 163 161 171
0.00814168 -0.588054 0.268182 69 32 31
0.0152668 -0.561685 0.26024 95 42 33
0.0167371 -0.558733 0.259178 105 50 39
0.0247261 -0.55461 0.256167 139 91 77
0.0496203 -0.543062 0.247242 165 108 84
0.0510733 -0.541923 0.246622 167 109 85
0.0526754 -0.541748 0.246187 164 107 83
0.0558773 -0.54138 0.245316 167 107 84
0.0704412 -0.540363 0.241553 159 99 74
0.078097 -0.545084 0.240799 132 88 67
-0.203176 -0.430973 0.295527 152 148 156
-0.191245 -0.436868 0.292618 163 159 170
-0.185077 -0.440846 0.291337 169 168 175
-0.183384 -0.440796 0.290751 169 167 177
-0.178405 -0.443855 0.289705 173 172 179
-0.17672 -0.443766 0.289117 175 171 179
0.00916096 -0.582604 0.264717 67 32 26
0.0195688 -0.558064 0.256456 116 65 55
0.0320282 -0.549716 0.25138 108 68 52
0.0348334 -0.545617 0.249744 122 82 66
0.0457126 -0.541796 0.246156 156 100 80
0.0490626 -0.542452 0.245472 165 107 86
0.0590137 -0.543286 0.243212 167 107 86
0.0604444 -0.542109 0.242599 167 107 84
-0.191643 -0.437171 0.291293 162 161 168
-0.189183 -0.438778 0.290782 165 161 171
-0.18795 -0.439574 0.290525 168 164 175
-0.181296 -0.442639 0.288901 171 170 177
-0.169576 -0.448457 0.286181 183 180 186
-0.163625 -0.452831 0.285123 188 185 190
0.0126537 -0.561473 0.257175 76 32 24
0.0142677 -0.560478 0.256534 91 40 33
0.0206457 -0.556432 0.253985 124 76 62
0.032912 -0.547052 0.248771 114 75 59
0.0359185 -0.544889 0.247532 120 82 63
0.0438389 -0.543272 0.245187 140 88 69
0.0566652 -0.541903 0.241713 162 104 82
0.0614619 -0.541282 0.240404 165 105 82
-0.194488 -0.43584 0.290477 159 158 168
-0.180002 -0.442861 0.28699 173 172 179
-0.175006 -0.44585 0.285927 179 175 183
-0.17375 -0.446584 0.285658 182 179 184
0.0495482 -0.541042 0.24152 164 106 85
0.051144 -0.540869 0.241088 163 105 84
0.0748452 -0.544512 0.236106 163 106 80
-0.178709 -0.443067 0.285083 175 171 179
-0.168683 -0.448904 0.28293 186 182 188
-0.16783 -0.450468 0.282962 185 184 189
-0.160175 -0.454604 0.281293 193 189 197
-0.153359 -0.457026 0.279576 197 194 202
0.0262386 -0.554943 0.248593 122 81 68
0.0437945 -0.537964 0.240545 143 92 73
0.0536057 -0.538897 0.23831 161 101 80
0.0580176 -0.536358 0.236689 160 100 79
0.0700257 -0.539585 0.234454 156 96 73
0.0722213 -0.542226 0.234482 162 105 78
0.0785089 -0.548159 0.234223 150 93 67
0.0807823 -0.550761 0.234228 128 79 57
-0.200144 -0.433098 0.288838 156 154 164
-0.17661 -0.444843 0.283222 179 175 183
-0.16273 -0.452668 0.280212 190 187 195
0.0143808 -0.557601 0.250397 88 37 27
0.0240744 -0.554378 0.247222 120 79 65
0.0328419 -0.544072 0.242835 113 77 60
0.0562067 -0.537866 0.235714 159 99 76
0.0740307 -0.545197 0.232899 162 105 76
0.0203535 -0.554836 0.246469 119 73 61
0.0282956 -0.551544 0.243759 106 70 53
0.0309279 -0.545482 0.24185 104 68 49
0.0339226 -0.543314 0.240648 118 82 63
0.0523195 -0.536633 0.234686 156 98 75
0.0537325 -0.535468 0.2341 157 100 76
0.0567039 -0.534094 0.23309 159 99 76
0.0774757 -0.547871 0.23084 150 93 67
-0.199226 -0.43368 0.285624 158 157 166
-0.196314 -0.43452 0.284804 159 158 168
-0.179883 -0.443906 0.281099 177 173 184
-0.169856 -0.449746 0.278923 187 183 191
-0.162234 -0.453904 0.277249 193 189 195
0.021494 -0.554128 0.244231 116 75 62
0.0264266 -0.553916 0.242924 111 75 58
0.0391526 -0.537267 0.236367 121 81 61
0.0503403 -0.537135 0.233549 161 101 80
0.0517592 -0.535975 0.232966 156 98 75
-0.200827 -0.433113 0.284554 155 153 163
-0.198407 -0.43478 0.284046 160 156 166
-0.186457 -0.440355 0.281099 170 168 178
-0.171507 -0.449304 0.277862 186 182 188
0.0177048 -0.553576 0.243304 99 52 43
0.0193465 -0.553526 0.24287 107 61 49
0.049784 -0.536469 0.231831 159 99 76
0.0529306 -0.536095 0.230979 158 98 75
0.0680219 -0.538943 0.227835 147 90 61
-0.175235 -0.446549 0.277057 182 178 186
-0.126825 -0.468033 0.265768 212 209 215
0.0490766 -0.534819 0.229971 159 99 76
0.0551703 -0.533072 0.228129 158 98 73
0.0600251 -0.533401 0.226998 155 98 71
0.0617683 -0.534146 0.226713 151 94 68
0.0815946 -0.5428 0.223555 103 66 44
-0.188931 -0.440928 0.279005 170 168 178
-0.183854 -0.440741 0.277323 174 170 180
-0.178558 -0.446188 0.27656 180 176 184
-0.165137 -0.451596 0.273218 190 187 195
0.0248824 -0.551916 0.237567 102 66 48
0.0276556 -0.546831 0.235904 102 69 51
0.030139 -0.53976 0.233946 107 73 57
0.0627478 -0.533234 0.224592 148 91 64
0.08052 -0.540205 0.221579 110 67 41
-0.184239 -0.440991 0.275999 174 170 180
-0.183009 -0.441752 0.275731 174 170 180
-0.176819 -0.445475 0.274379 179 178 185
-0.165522 -0.451848 0.271881 190 187 193
-0.158272 -0.45674 0.270447 195 191 199
0.0315346 -0.54191 0.232257 117 81 65
0.0506176 -0.530144 0.225314 158 98 75
0.0538761 -0.530727 0.224613 159 99 76
0.0658517 -0.534981 0.222445 137 84 56
0.06918 -0.535436 0.221717 138 83 56
-0.203777 -0.430828 0.279172 155 153 163
-0.20018 -0.433339 0.278406 157 156 165
-0.197767 -0.434987 0.27789 159 158 168
-0.168849 -0.451581 0.271383 188 185 190
-0.162098 -0.454124 0.26969 196 192 200
-0.126041 -0.467483 0.260888 211 208 214
0.0209331 -0.554626 0.235512 90 54 39
0.0280361 -0.543389 0.231678 102 69 51
0.0438831 -0.530156 0.225308 144 90 67
0.0631367 -0.531618 0.220801 140 88 60
0.064879 -0.532345 0.220503 135 83 55
0.0833403 -0.542092 0.217755 100 61 45
-0.189153 -0.439999 0.274435 170 166 177
-0.177147 -0.445107 0.271437 179 178 185
0.0190188 -0.556949 0.234627 76 44 30
0.0403907 -0.530746 0.224603 132 85 64
0.0476671 -0.526967 0.222123 155 97 73
0.0493564 -0.527761 0.22184 156 98 75
0.0759892 -0.533623 0.216321 123 75 46
-0.204547 -0.431302 0.276533 154 152 160
-0.191981 -0.438661 0.27364 169 165 176
-0.19076 -0.43945 0.273374 168 166 174
-0.180006 -0.443871 0.270656 179 175 183
-0.165406 -0.453253 0.267577 193 189 195
0.0213104 -0.550198 0.23109 80 46 31
0.0325821 -0.534647 0.225556 111 73 56
0.0340276 -0.533538 0.225001 116 78 61
0.0397277 -0.529049 0.222796 133 86 66
0.0469708 -0.525272 0.220338 154 96 72
0.0488072 -0.527046 0.220182 155 97 73
0.055274 -0.528196 0.218772 156 99 73
0.0666028 -0.529457 0.216198 127 74 49
-0.202535 -0.43321 0.274697 157 156 165
-0.181622 -0.443356 0.269601 176 173 181
-0.16538 -0.452609 0.26597 190 187 193
-0.162846 -0.453954 0.265398 194 190 196
-0.143207 -0.462465 0.260734 204 201 209
-0.141907 -0.463048 0.260434 205 202 210
0.0267012 -0.543227 0.226786 105 69 52
0.0579536 -0.528013 0.216404 144 89 64
0.0823375 -0.536792 0.211895 118 72 44
0.0871311 -0.542891 0.211741 90 58 46
-0.205313 -0.431753 0.27389 152 151 161
-0.204626 -0.433409 0.273915 155 153 163
-0.186154 -0.442162 0.269362 170 168 178
-0.15557 -0.458087 0.262311 197 194 202
-0.154664 -0.45961 0.26227 199 196 204
0.0183991 -0.566663 0.230997 61 35 26
0.0204704 -0.550736 0.227873 76 46 33
0.0313299 -0.531225 0.221927 113 74 58
0.0399388 -0.525474 0.218817 134 88 65
0.0509252 -0.526187 0.216181 154 99 75
0.053812 -0.524793 0.215239 154 96 72
0.0652292 -0.527049 0.212783 123 75 46
0.0885557 -0.543775 0.209794 89 57 45
-0.205695 -0.431971 0.272568 154 152 162
-0.202098 -0.434483 0.271786 161 159 169
-0.197982 -0.436125 0.27072 162 158 169
-0.176546 -0.445022 0.265308 182 179 184
-0.175309 -0.445741 0.265031 182 179 184
-0.174068 -0.446454 0.264752 186 182 188
-0.165731 -0.452176 0.263033 190 187 193
-0.153756 -0.460459 0.260622 201 197 205
-0.143614 -0.462004 0.257791 205 202 208
-0.142666 -0.463492 0.257732 205 202 210
0.0215063 -0.548944 0.225563 85 50 39
0.0255904 -0.540783 0.223224 102 69 51
0.0310411 -0.532458 0.220517 111 73 56
0.0530862 -0.523079 0.213493 151 96 71
0.0576294 -0.522416 0.212262 136 86 59
0.0612124 -0.524872 0.211762 129 79 50
0.0794873 -0.528585 0.207872 122 77 47
-0.195941 -0.43795 0.268861 163 161 171
-0.192288 -0.440333 0.268055 166 165 173
-0.169883 -0.450337 0.262552 188 184 192
-0.168627 -0.451026 0.262267 187 183 189
-0.164438 -0.452185 0.261154 191 188 194
-0.15044 -0.459227 0.257939 202 198 206
-0.136822 -0.463249 0.254454 208 204 210
0.0235047 -0.540136 0.221942 100 64 49
0.0249919 -0.539055 0.221395 104 70 50
0.0276358 -0.533915 0.219927 111 75 58
0.039153 -0.525957 0.21578 135 88 70
0.0617769 -0.521933 0.209517 127 76 50
0.0632869 -0.521681 0.209106 122 74 45
0.0697322 -0.522556 0.207656 126 78 53
-0.184674 -0.441018 0.26431 174 170 178
-0.178535 -0.444715 0.262932 181 177 185
-0.154138 -0.459988 0.257672 199 196 204
0.021685 -0.542439 0.221044 90 55 42
0.0358284 -0.527474 0.215194 134 92 72
0.0372323 -0.526342 0.214669 132 90 70
0.0387595 -0.526188 0.21426 134 89 68
0.0457839 -0.521398 0.211776 146 93 70
0.0581847 -0.521671 0.208724 133 80 55
0.0837782 -0.530015 0.203684 118 72 46
-0.197911 -0.437554 0.26647 162 160 170
-0.185049 -0.441218 0.262986 172 171 180
-0.183516 -0.444415 0.262948 177 174 182
-0.180143 -0.444186 0.261882 180 176 184
-0.175198 -0.447071 0.260763 182 179 184
-0.17271 -0.448483 0.260198 185 184 189
-0.166863 -0.452797 0.259015 191 188 194
-0.163929 -0.453259 0.258191 194 190 196
-0.159735 -0.454341 0.257076 196 192 200
-0.155419 -0.45867 0.256379 199 196 204
-0.14439 -0.461721 0.253512 204 201 207
-0.129434 -0.465969 0.249693 212 209 215
0.0200072 -0.546711 0.22038 80 48 36
0.0512588 -0.519848 0.208546 146 93 68
0.0561112 -0.521149 0.207525 135 83 57
0.060065 -0.5175 0.206015 126 75 51
0.0728389 -0.519224 0.203118 127 76 50
0.0867051 -0.530521 0.201362 99 60 44
-0.186643 -0.440657 0.261937 171 170 179
-0.182203 -0.4445 0.261084 177 174 182
-0.17805 -0.445833 0.259995 180 180 184
0.0221887 -0.539846 0.217111 93 59 43
0.0307692 -0.531288 0.213705 110 74 56
0.0457541 -0.516733 0.207858 143 92 68
0.053874 -0.519632 0.206234 137 86 63
0.0696795 -0.513895 0.201514 126 78 51
-0.201081 -0.436314 0.264347 158 157 164
-0.19575 -0.438709 0.263011 166 162 172
-0.191141 -0.43939 0.261686 168 166 174
-0.188234 -0.440085 0.260887 170 168 178
-0.17887 -0.446883 0.25891 179 178 185
-0.176744 -0.445879 0.258137 183 180 186
-0.174704 -0.448163 0.257815 184 181 187
-0.172212 -0.449564 0.257245 185 184 191
-0.165528 -0.452097 0.255565 191 188 194
-0.155402 -0.45727 0.253219 199 196 204
-0.122314 -0.469389 0.24512 213 210 216
0.0180954 -0.554171 0.218432 63 37 30
0.0370634 -0.522901 0.209285 134 89 70
0.0438804 -0.517128 0.206771 140 88 67
0.057259 -0.51523 0.203163 126 75 51
0.0648598 -0.514939 0.201237 125 79 53
0.0678203 -0.514388 0.200431 128 79 55
0.0707765 -0.513813 0.199625 128 78 49
0.0756549 -0.514847 0.198567 128 77 53
-0.204034 -0.432385 0.263306 155 154 161
-0.200251 -0.437314 0.262747 161 159 169
-0.17632 -0.447638 0.256766 183 180 186
-0.151942 -0.459308 0.250979 199 196 204
-0.147725 -0.46021 0.249853 204 201 207
-0.141281 -0.463106 0.248334 205 202 208
-0.131532 -0.465092 0.245747 211 208 214
-0.127936 -0.467572 0.245025 212 209 215
-0.126626 -0.468081 0.244712 213 210 216
-0.121368 -0.470061 0.243451 216 213 218
-0.109714 -0.469988 0.240099 219 216 222
-0.104187 -0.470742 0.238622 220 217 223
0.0197093 -0.539376 0.21428 82 50 38
0.0321316 -0.523543 0.208989 122 82 64
0.0492898 -0.515565 0.203592 141 90 66
0.0539093 -0.515897 0.202479 135 84 60
0.061321 -0.51469 0.200473 123 74 50
0.0628004 -0.51443 0.200071 122 77 49
0.0699675 -0.512068 0.197987 128 78 49
-0.196008 -0.438237 0.260101 166 162 172
-0.191887 -0.439751 0.259033 166 165 173
-0.190193 -0.43968 0.258512 169 165 176
-0.174205 -0.449228 0.25486 184 183 188
-0.171709 -0.45062 0.254284 187 183 189
-0.160359 -0.456622 0.25165 193 192 199
-0.153215 -0.457976 0.249712 201 197 203
-0.146812 -0.460978 0.248205 203 200 205
-0.12246 -0.467888 0.242008 215 211 217
0.0662345 -0.510883 0.19716 129 80 56
0.0862251 -0.522928 0.193778 112 72 51
-0.180776 -0.445832 0.254951 180 176 184
-0.172081 -0.450793 0.252945 185 184 189
-0.160731 -0.456795 0.250304 193 192 199
-0.124136 -0.467571 0.240976 215 211 217
0.0227966 -0.530585 0.20899 101 70 51
0.0310054 -0.520967 0.205687 116 78 61
0.0322728 -0.518852 0.205099 126 86 65
0.0552189 -0.510913 0.198318 128 77 55
0.0581461 -0.510431 0.197526 124 76 51
0.0666953 -0.507863 0.195081 129 80 56
0.0681474 -0.507578 0.194686 128 77 53
-0.205149 -0.432901 0.259341 155 154 161
-0.197245 -0.439413 0.257684 163 161 171
-0.179011 -0.444998 0.25287 178 177 184
-0.139117 -0.462915 0.243258 209 206 211
-0.13199 -0.463763 0.241306 212 209 215
0.0333811 -0.518892 0.20321 127 87 66
0.0501095 -0.509808 0.197881 135 84 62
0.0601143 -0.507169 0.195059 126 78 55
0.0697986 -0.503275 0.192185 126 78 51
0.0839745 -0.517505 0.190387 127 81 56
-0.202623 -0.433884 0.257237 159 155 163
-0.200738 -0.436337 0.256935 158 157 164
-0.19833 -0.437943 0.256388 162 160 170
-0.173203 -0.448684 0.25011 185 184 189
-0.167385 -0.452961 0.248875 191 188 194
-0.136563 -0.463251 0.241094 209 206 211
-0.132356 -0.463924 0.239965 213 210 216
0.023259 -0.52788 0.205238 102 69 51
0.0357287 -0.516787 0.200756 129 86 66
0.0427138 -0.512961 0.198537 134 83 61
0.04681 -0.510403 0.197204 136 87 63
0.0537554 -0.507343 0.195101 126 78 53
0.0806575 -0.51222 0.188972 122 74 47
0.0895814 -0.522392 0.187947 90 60 45
-0.200602 -0.435663 0.255371 161 159 167
-0.199905 -0.437299 0.255333 161 159 167
-0.183885 -0.443995 0.251292 177 173 184
-0.178067 -0.445164 0.249706 182 178 186
-0.176838 -0.445873 0.24942 182 180 188
-0.171512 -0.45109 0.248415 187 187 191
-0.167335 -0.452234 0.247318 193 189 195
-0.155968 -0.458018 0.24464 199 196 204
-0.137267 -0.464327 0.239948 211 208 214
-0.128834 -0.465624 0.237687 213 210 216
-0.127222 -0.465199 0.237183 215 211 217
-0.12432 -0.465256 0.236366 213 212 217
-0.121724 -0.466223 0.235736 217 214 219
-0.119121 -0.467168 0.235104 218 215 221
-0.117817 -0.467632 0.234787 219 216 222
0.033734 -0.516124 0.199588 126 86 65
0.0381818 -0.515641 0.198401 129 85 63
0.0548299 -0.507275 0.193255 125 79 53
0.0600362 -0.503335 0.191509 129 80 58
0.0639227 -0.500572 0.19023 128 80 53
0.0750187 -0.503349 0.187781 124 76 49
0.0854283 -0.514239 0.18642 111 71 48
-0.198569 -0.437415 0.253496 162 161 168
-0.190345 -0.440404 0.251372 170 168 178
-0.186697 -0.442664 0.250529 172 171 180
-0.178883 -0.446179 0.248599 182 178 186
-0.173938 -0.448989 0.247444 185 184 189
-0.170204 -0.451042 0.246569 187 187 191
-0.16141 -0.45565 0.244497 196 192 200
-0.138928 -0.463932 0.238912 209 206 211
0.0303808 -0.51658 0.198897 118 80 63
0.0619286 -0.500028 0.189127 129 78 55
-0.176337 -0.446869 0.246476 183 182 189
-0.160512 -0.456433 0.242855 197 196 203
0.0233159 -0.525301 0.200022 100 67 48
0.0299957 -0.516739 0.197415 116 76 60
0.0396784 -0.510672 0.194311 128 83 62
0.0423059 -0.508327 0.193399 131 84 63
0.0488951 -0.503361 0.191214 131 81 57
0.064193 -0.498652 0.186878 127 76 50
0.0672365 -0.499053 0.186159 126 78 51
0.0702905 -0.499428 0.185435 128 80 53
-0.206468 -0.43283 0.252488 154 152 160
-0.202897 -0.435288 0.251667 160 156 164
-0.180388 -0.444883 0.246012 179 178 185
-0.172992 -0.449086 0.244274 186 185 192
-0.165925 -0.453991 0.242709 194 193 200
-0.147377 -0.460837 0.238075 206 203 209
-0.14224 -0.463112 0.23684 210 207 212
-0.135106 -0.463986 0.23491 215 211 217
0.0284496 -0.520003 0.196542 114 76 57
0.0352923 -0.514305 0.19422 126 84 64
0.0538908 -0.500625 0.188131 128 79 57
0.0622065 -0.498099 0.185788 128 77 53
0.0666544 -0.498225 0.184685 126 78 51
-0.200868 -0.437034 0.249787 158 157 166
-0.189487 -0.443185 0.247038 169 167 177
-0.181975 -0.444297 0.244971 179 178 185
-0.179524 -0.445729 0.244396 183 182 189
-0.178295 -0.446437 0.244106 183 182 189
-0.177064 -0.447141 0.243816 184 183 190
-0.173355 -0.449219 0.242941 187 186 193
-0.171682 -0.449024 0.242444 189 187 195
-0.170442 -0.449699 0.242151 190 189 196
-0.15918 -0.455546 0.239473 198 197 202
-0.142252 -0.462328 0.235308 210 207 212
-0.131588 -0.465682 0.232625 216 213 218
0.0238539 -0.523506 0.196451 101 68 49
0.0362545 -0.513294 0.19229 126 84 64
0.047987 -0.502666 0.188285 131 81 57
0.0492488 -0.501461 0.187849 128 79 55
0.0693323 -0.498743 0.182531 126 78 53
-0.204139 -0.436379 0.249232 157 156 163
-0.18034 -0.446724 0.243271 182 180 188
-0.162468 -0.455304 0.23893 198 197 204
-0.157016 -0.456917 0.237529 203 200 205
-0.143899 -0.461897 0.234274 211 208 214
-0.142615 -0.462456 0.233964 211 208 214
-0.140042 -0.463559 0.23334 212 209 215
-0.131626 -0.46488 0.231105 216 213 218
-0.130332 -0.465389 0.23079 216 213 218
0.0193454 -0.528942 0.196493 81 53 42
0.0233667 -0.522655 0.194877 100 67 48
0.0247745 -0.521542 0.194412 105 70 50
0.0275657 -0.5193 0.193488 113 74 58
0.0302105 -0.516044 0.192509 116 77 56
0.0487116 -0.500612 0.186371 128 79 55
0.0699322 -0.496622 0.180652 124 78 52
0.07485 -0.498583 0.179599 124 78 52
0.0814937 -0.501092 0.178167 128 80 53
-0.19869 -0.438039 0.246355 165 161 171
-0.190951 -0.441829 0.244448 173 169 179
-0.151025 -0.460053 0.234658 208 204 210
-0.133608 -0.465417 0.230249 215 211 219
0.0242864 -0.520684 0.19285 102 69 49
0.0416621 -0.504744 0.186995 127 82 61
0.0446902 -0.505329 0.186275 130 81 59
0.0470815 -0.501946 0.185369 130 79 58
0.0520727 -0.497098 0.183677 128 79 57
0.0545176 -0.494646 0.182843 125 77 52
0.0679395 -0.496082 0.179581 126 80 55
0.0787186 -0.497699 0.177016 131 83 56
-0.203155 -0.436598 0.246078 159 158 168
-0.198549 -0.437317 0.244818 167 163 173
-0.196643 -0.439724 0.244461 168 166 174
-0.17938 -0.446804 0.240114 185 184 191
-0.17157 -0.453385 0.238431 196 194 202
-0.163193 -0.455544 0.236247 200 199 204
-0.142983 -0.461777 0.2311 211 210 215
-0.13073 -0.464696 0.227937 217 213 221
-0.125244 -0.465736 0.226505 218 215 221
0.0197391 -0.525131 0.192789 88 58 43
0.0395658 -0.503083 0.185845 127 82 61
0.0501249 -0.496471 0.1826 128 79 57
-0.207615 -0.435094 0.245794 158 154 164
-0.206942 -0.436744 0.245724 160 156 166
-0.189498 -0.441103 0.241099 177 173 184
-0.186328 -0.444181 0.240434 180 179 186
-0.178059 -0.446746 0.238296 187 186 193
-0.170679 -0.454168 0.236786 198 197 204
-0.162293 -0.456292 0.234601 204 201 207
-0.158102 -0.457267 0.233506 204 203 208
-0.151749 -0.460282 0.231968 209 206 211
-0.144623 -0.461331 0.23007 211 210 215
-0.128187 -0.464871 0.225802 215 215 219
0.0342207 -0.509851 0.186216 122 82 62
0.0383122 -0.507344 0.184967 128 83 62
0.0434832 -0.502611 0.183268 128 81 63
0.0461788 -0.501202 0.182467 129 80 58
0.0511641 -0.496353 0.180812 125 78 57
0.055001 -0.493651 0.179621 126 78 55
0.0679496 -0.493091 0.176298 122 76 51
0.0817002 -0.49494 0.172981 126 80 53
0.0882765 -0.502505 0.171927 106 68 47
-0.199956 -0.435907 0.242245 168 164 173
-0.198763 -0.436694 0.241964 168 164 173
-0.192269 -0.439704 0.240346 176 173 181
-0.191064 -0.440459 0.24006 179 175 185
-0.174359 -0.451366 0.236156 194 193 200
-0.173547 -0.452927 0.236041 194 193 200
-0.172295 -0.453603 0.235741 197 196 203
-0.159726 -0.456755 0.232469 203 202 207
-0.158066 -0.456472 0.231988 204 203 208
-0.143345 -0.461076 0.228249 212 209 215
-0.129834 -0.464481 0.224781 216 213 218
-0.128226 -0.464042 0.224307 214 213 218
-0.11988 -0.465009 0.222092 219 216 222
0.0442288 -0.50054 0.181384 129 80 60
0.0560314 -0.493505 0.177844 128 79 55
0.0576176 -0.494224 0.177494 129 83 60
0.0615977 -0.492423 0.176348 122 76 53
0.0629867 -0.492138 0.175975 122 76 53
0.0770586 -0.489949 0.172253 125 79 51
-0.204911 -0.435277 0.242166 162 160 170
-0.20269 -0.434417 0.241485 166 162 172
-0.197924 -0.437576 0.240357 172 168 176
-0.193829 -0.439044 0.239308 175 171 179
-0.181685 -0.446412 0.236411 187 186 193
-0.178774 -0.446952 0.235636 191 189 199
-0.154128 -0.460804 0.229754 209 206 211
-0.150817 -0.460165 0.228797 210 207 212
-0.141145 -0.462272 0.226283 211 210 215
-0.136006 -0.464403 0.225022 213 212 217
-0.124713 -0.465592 0.222016 217 214 219
0.0211374 -0.520289 0.187211 94 62 46
0.0222582 -0.516192 0.186627 100 67 48
0.0249137 -0.512957 0.185709 109 73 55
0.0275215 -0.509701 0.184803 111 73 54
0.0385877 -0.504409 0.181578 125 83 63
0.0514819 -0.49436 0.177561 122 76 53
0.0556676 -0.493609 0.17644 126 78 55
0.0572529 -0.494328 0.176087 127 81 58
0.0815983 -0.491892 0.169743 125 79 53
-0.206457 -0.43456 0.24112 163 161 171
-0.205268 -0.435372 0.240838 164 163 172
-0.203045 -0.434511 0.240163 167 163 171
-0.198969 -0.436048 0.239122 173 169 179
-0.197777 -0.436829 0.238839 173 169 179
-0.190085 -0.440548 0.236932 181 177 185
-0.187668 -0.442028 0.236354 183 182 189
-0.170081 -0.454249 0.232266 198 197 204
-0.167568 -0.455561 0.231657 201 197 205
-0.151175 -0.46026 0.227453 208 204 210
-0.149526 -0.459927 0.226979 209 206 211
-0.137651 -0.463972 0.223995 213 210 216
-0.132162 -0.465107 0.222572 215 211 217
0.0287096 -0.51065 0.183001 115 75 55
0.0300525 -0.509505 0.182578 118 78 57
0.0382138 -0.50451 0.18014 126 81 60
0.0417677 -0.498976 0.178854 126 79 59
0.0444369 -0.497571 0.178075 125 78 57
0.0525136 -0.494214 0.175782 122 76 53
0.0630189 -0.489118 0.17276 122 73 51
0.0701155 -0.488566 0.17092 121 76 48
0.0756035 -0.487242 0.169439 125 79 53
0.0859217 -0.492798 0.1672 117 73 50
-0.191644 -0.439889 0.235897 181 177 185
-0.189713 -0.442237 0.235503 184 183 190
-0.1885 -0.442976 0.235212 184 183 190
-0.182399 -0.446596 0.233744 189 187 195
-0.169184 -0.454997 0.230616 199 198 205
-0.140227 -0.462072 0.223132 212 209 215
-0.133808 -0.464689 0.221548 215 211 217
0.0297883 -0.510594 0.181156 118 77 61
0.040419 -0.502238 0.177888 124 80 59
0.0549389 -0.4938 0.173631 124 77 56
0.0681557 -0.488001 0.169892 119 73 48
0.0692996 -0.486711 0.16952 120 74 49
0.086677 -0.491542 0.165412 121 77 51
-0.184733 -0.444382 0.232824 186 185 192
-0.181068 -0.446518 0.231939 190 188 198
-0.179841 -0.447219 0.231642 190 188 198
-0.157836 -0.456548 0.226159 204 203 210
-0.156575 -0.457153 0.22585 205 202 208
-0.150239 -0.4601 0.224296 209 206 211
0.0306315 -0.508541 0.179254 117 79 60
0.0618814 -0.487339 0.169969 118 72 46
-0.195946 -0.437777 0.234116 179 175 183
-0.191145 -0.440798 0.232959 180 179 186
-0.17235 -0.450514 0.228342 194 193 200
-0.171542 -0.452065 0.228205 197 196 203
-0.167799 -0.45403 0.227291 199 198 205
-0.148047 -0.46132 0.222325 210 207 212
-0.141859 -0.460771 0.220623 210 209 214
-0.128712 -0.464973 0.217305 216 213 218
0.0231896 -0.511342 0.179779 104 70 52
0.0262149 -0.512061 0.179036 110 72 55
0.0288028 -0.508782 0.178185 114 75 59
0.0329048 -0.506308 0.176989 118 80 61
0.0393886 -0.50043 0.174991 123 79 57
0.0453407 -0.492459 0.173017 121 76 55
0.0495023 -0.491765 0.171909 121 75 52
0.0508877 -0.491522 0.171539 121 75 52
0.0951361 -0.497362 0.160553 80 53 39
-0.185439 -0.444533 0.230166 185 184 191
-0.174732 -0.448363 0.227448 193 192 199
-0.166902 -0.454748 0.225643 201 197 205
-0.160206 -0.456991 0.223945 203 201 209
-0.153875 -0.459999 0.222386 206 205 210
-0.132921 -0.463563 0.216927 213 212 217
0.0325286 -0.506385 0.175545 118 80 61
0.0426584 -0.495933 0.172393 121 76 55
0.0517299 -0.490365 0.169772 122 76 53
0.0586196 -0.489042 0.167933 118 72 46
0.0760096 -0.477811 0.162904 121 76 48
-0.191847 -0.440938 0.230308 180 179 186
-0.175083 -0.44843 0.226119 193 192 199
-0.171382 -0.450431 0.225213 196 194 204
-0.170574 -0.451977 0.225065 196 194 204
-0.166002 -0.455455 0.223993 202 198 206
-0.155111 -0.458566 0.221208 208 204 210
-0.152575 -0.459739 0.220581 208 204 210
-0.151304 -0.460318 0.220267 208 204 210
-0.144197 -0.46129 0.218406 210 209 214
-0.140014 -0.46198 0.217318 211 210 215
-0.134891 -0.464057 0.216043 213 212 217
0.0294966 -0.508774 0.174898 115 77 60
0.0408897 -0.496213 0.171358 118 76 54
0.0432249 -0.492824 0.170595 121 75 52
0.0700799 -0.478265 0.162996 120 76 50
0.0901867 -0.488337 0.158315 112 73 47
-0.198693 -0.438056 0.23061 170 168 178
-0.196298 -0.439592 0.230028 180 176 184
-0.195592 -0.441204 0.229904 179 175 183
-0.188571 -0.443212 0.228098 183 182 189
-0.179112 -0.446444 0.225692 191 190 197
-0.170926 -0.452039 0.223729 194 193 202
-0.156728 -0.458033 0.22018 205 204 209
-0.154197 -0.459217 0.219553 206 205 210
-0.152545 -0.458888 0.219097 208 204 210
-0.144187 -0.460429 0.216931 211 208 214
-0.141286 -0.460584 0.216164 210 209 214
-0.139088 -0.462569 0.215662 211 210 215
-0.132011 -0.463255 0.213805 213 212 217
0.0274479 -0.50701 0.173799 113 75 56
0.041471 -0.493101 0.169567 117 75 51
0.0586712 -0.485953 0.164817 117 71 43
0.0732355 -0.47538 0.160613 121 75 52
0.0748069 -0.476004 0.160235 122 76 51
0.079298 -0.476864 0.159118 125 79 53
0.08089 -0.477458 0.158735 124 78 52
0.0889868 -0.485521 0.157001 122 78 54
-0.201939 -0.437399 0.230033 173 169 179
-0.196647 -0.439648 0.2287 181 177 185
-0.172519 -0.451436 0.222698 196 194 202
-0.167117 -0.453145 0.221323 198 197 204
-0.131079 -0.463804 0.21215 214 213 220
-0.129472 -0.463353 0.211707 214 213 220
-0.128191 -0.463834 0.211385 214 213 220
0.0269623 -0.506076 0.172344 111 74 52
0.0336433 -0.501269 0.170422 117 79 60
0.0489163 -0.488833 0.16598 116 75 48
0.067352 -0.475789 0.160708 120 74 51
0.0684433 -0.474494 0.160376 117 74 48
0.0963979 -0.491554 0.153838 81 51 38
-0.209275 -0.435123 0.230488 167 163 173
-0.188055 -0.444047 0.225142 185 184 191
-0.186839 -0.444769 0.224843 184 183 190
-0.176232 -0.451922 0.222269 194 193 202
-0.164971 -0.454463 0.219368 200 199 206
-0.15198 -0.459572 0.216102 206 205 210
-0.145252 -0.461458 0.214386 210 209 214
-0.141985 -0.46069 0.213496 210 209 214
-0.140713 -0.461221 0.213178 211 210 215
-0.124375 -0.464352 0.208969 215 215 219
-0.122784 -0.463866 0.208533 217 216 221
0.0249384 -0.504291 0.171266 107 72 54
0.0331449 -0.50033 0.168995 117 80 58
0.0405932 -0.492223 0.166778 117 75 53
0.0483835 -0.4879 0.164606 117 74 48
0.0499292 -0.488638 0.164231 117 74 48
0.0612012 -0.48128 0.161054 119 73 50
-0.208964 -0.436815 0.229032 165 164 171
-0.195433 -0.442114 0.22561 180 176 184
-0.192523 -0.442754 0.22486 181 177 185
-0.160746 -0.454564 0.216826 203 201 209
-0.159496 -0.45517 0.216514 204 201 209
-0.136891 -0.461896 0.210764 212 211 216
0.021602 -0.503624 0.17058 96 64 50
0.0230319 -0.503487 0.170204 104 70 52
0.0339326 -0.498211 0.167205 117 80 58
0.0664238 -0.474911 0.158049 118 71 48
0.0696671 -0.471018 0.157087 119 73 50
0.0772109 -0.473154 0.155199 125 79 53
-0.206925 -0.438469 0.22711 169 167 177
-0.187058 -0.443988 0.222031 184 183 190
-0.15482 -0.457586 0.213926 206 203 209
-0.145585 -0.46062 0.211584 209 206 211
0.0438646 -0.490664 0.162907 117 75 53
0.0523979 -0.483039 0.160481 118 71 48
0.069083 -0.470086 0.155795 118 72 46
0.08744 -0.475311 0.151168 117 73 50
-0.206749 -0.437666 0.225616 168 166 176
-0.191518 -0.442707 0.221748 182 178 186
-0.190308 -0.44344 0.221449 184 181 189
-0.167265 -0.453952 0.215666 198 197 204
-0.162688 -0.454025 0.214472 202 198 206
-0.137585 -0.461969 0.208096 211 210 217
0.0279994 -0.502956 0.165839 112 77 57
0.0421205 -0.490923 0.161883 117 75 55
0.0581801 -0.478756 0.15742 118 71 50
0.0780888 -0.468634 0.152002 122 77 49
0.0827955 -0.470383 0.150816 122 76 51
-0.196472 -0.442218 0.221607 179 175 183
-0.181653 -0.447576 0.217857 190 189 196
-0.170532 -0.453596 0.21508 197 196 203
-0.163034 -0.454054 0.213139 202 198 206
-0.161786 -0.454666 0.212826 201 201 205
-0.153865 -0.457316 0.210817 205 204 209
-0.152991 -0.458805 0.210618 206 203 209
-0.136656 -0.462506 0.20644 211 210 217
0.023041 -0.500466 0.165558 106 71 51
0.0349729 -0.492981 0.162303 115 76 53
0.0600774 -0.476243 0.155434 117 71 45
-0.180771 -0.448289 0.216217 190 189 196
-0.178632 -0.447212 0.215647 190 189 196
-0.173366 -0.452318 0.214363 197 194 202
-0.171688 -0.45208 0.213926 196 194 202
-0.158821 -0.454084 0.210627 201 201 205
0.0227691 -0.501485 0.164128 102 69 49
0.026811 -0.499035 0.163036 113 74 58
0.032079 -0.495365 0.161605 118 78 57
0.0334771 -0.495179 0.161237 116 77 54
0.0394193 -0.48724 0.159566 115 72 52
0.0433586 -0.485587 0.158512 116 74 52
0.0544132 -0.477411 0.155499 117 70 47
0.0621602 -0.474686 0.153431 118 71 48
0.0722494 -0.464934 0.150644 122 76 51
0.0737849 -0.465549 0.150251 124 78 50
0.0969177 -0.471972 0.144286 68 47 38
-0.149507 -0.459622 0.206873 209 206 211
-0.146601 -0.459801 0.206126 211 208 214
-0.139894 -0.461525 0.204416 211 210 215
0.0263319 -0.498059 0.161639 113 74 58
0.0341117 -0.492032 0.159539 114 74 54
0.0376918 -0.487469 0.158553 113 73 50
0.0402759 -0.486053 0.157861 116 73 54
0.0426833 -0.483631 0.157204 116 73 54
0.0563202 -0.474909 0.153536 117 70 47
0.0711619 -0.46205 0.149501 121 75 50
0.0742152 -0.463278 0.148713 122 76 51
0.0273712 -0.497907 0.159858 114 75 61
0.0284313 -0.494758 0.15956 115 75 59
0.032489 -0.493226 0.158486 115 75 55
0.0359633 -0.487686 0.157538 113 73 52
0.086869 -0.460401 0.143965 119 75 49
0.0255938 -0.498078 0.158817 111 73 56
0.0308559 -0.49441 0.157428 114 74 54
