ply
format ascii 1.0
comment Created by Open3D
element vertex 2000
property double x
property double y
property double z
property uchar red
property uchar green
property uchar blue
end_header
0.147472 -0.626249 0.412363 65 48 11
0.0873264 -0.62847 0.421662 137 130 135
0.121324 -0.632311 0.41714 121 94 37
0.140318 -0.627618 0.411489 148 125 69
0.155632 -0.625703 0.408127 106 83 27
0.158058 -0.626139 0.407989 101 81 24
-0.00819823 -0.629045 0.442799 115 103 105
0.197653 -0.62788 0.400892 90 66 15
0.207677 -0.628801 0.400193 87 66 23
-0.0346194 -0.626466 0.446579 110 102 109
-0.015226 -0.629328 0.442217 113 103 109
-0.00658772 -0.629479 0.439795 137 127 130
0.00207444 -0.631261 0.43828 216 206 212
0.00643422 -0.632544 0.437744 222 215 220
0.0387065 -0.630775 0.428411 222 215 220
0.0430282 -0.63086 0.427398 220 213 217
0.0820532 -0.630902 0.418584 217 212 218
0.154766 -0.627883 0.40396 227 204 132
0.1652 -0.624744 0.400866 176 148 85
0.220205 -0.625867 0.394705 92 70 23
-0.0504143 -0.627435 0.449296 96 88 93
-0.0092941 -0.62852 0.437317 228 220 228
0.0210076 -0.63292 0.431278 218 210 215
0.0317797 -0.632535 0.428315 218 210 215
0.0990264 -0.631541 0.412761 219 213 217
0.101561 -0.633116 0.413065 197 185 189
0.122503 -0.627897 0.406556 221 199 122
0.215132 -0.627503 0.393317 115 94 40
-0.0249687 -0.630267 0.440059 215 210 214
-0.0206322 -0.629988 0.438626 214 209 213
0.00954175 -0.630561 0.430378 218 210 215
0.135644 -0.629645 0.402499 219 188 121
0.197206 -0.627108 0.392471 214 188 122
0.214362 -0.62774 0.390814 121 98 45
-0.0512887 -0.62602 0.443311 215 207 215
-0.0361777 -0.626974 0.43904 214 207 212
-0.031963 -0.629445 0.438998 214 207 212
0.0761302 -0.633412 0.413004 220 212 219
0.119229 -0.629405 0.402544 222 201 121
0.150494 -0.628867 0.397062 190 166 90
0.167604 -0.62522 0.392764 158 130 60
0.170036 -0.625599 0.392605 171 145 79
0.175226 -0.627197 0.392657 189 162 91
-0.0606759 -0.627942 0.444557 211 203 210
-0.056222 -0.627078 0.442676 211 203 210
-0.0432236 -0.627782 0.43889 213 208 212
0.025766 -0.633699 0.422266 220 213 217
0.0344915 -0.634915 0.420677 221 213 221
0.0365792 -0.634072 0.419741 221 213 221
0.0619191 -0.629549 0.41152 222 215 220
0.0664663 -0.631219 0.411334 221 214 219
0.0754992 -0.633549 0.41052 221 213 221
0.0947354 -0.631298 0.405437 219 211 218
0.102693 -0.637849 0.407097 157 145 149
0.142321 -0.626702 0.394651 239 217 143
-0.117152 -0.606487 0.451076 94 85 81
-0.0329287 -0.627946 0.433071 215 210 214
-0.0157768 -0.631261 0.429637 219 211 216
-0.00289446 -0.629115 0.424923 220 213 217
-0.0485837 -0.628147 0.435284 214 209 213
-0.00985819 -0.63214 0.425667 220 213 217
0.000859935 -0.63053 0.421893 222 215 220
0.0696564 -0.632184 0.405777 225 217 222
0.117426 -0.630696 0.39554 227 203 125
0.165734 -0.626564 0.385756 233 211 139
0.218071 -0.627346 0.379536 104 80 31
-0.0688679 -0.62959 0.439789 211 203 210
-0.0535078 -0.629219 0.434637 215 210 214
-0.0404694 -0.628905 0.430413 217 209 214
0.00682747 -0.633879 0.419218 222 215 220
0.045593 -0.634554 0.409744 225 217 222
0.0578295 -0.629006 0.404229 225 217 222
0.0600834 -0.62986 0.404131 225 217 222
0.113977 -0.628397 0.392445 229 205 129
0.131954 -0.629456 0.389779 167 140 69
0.164716 -0.625812 0.382935 230 210 137
0.169867 -0.627459 0.382959 235 213 136
-0.0849472 -0.630485 0.44286 204 196 201
-0.0517936 -0.628852 0.4312 216 211 215
-0.0237682 -0.628942 0.422732 221 214 219
-0.0195272 -0.631308 0.422635 221 214 219
0.0342233 -0.634494 0.409798 225 217 222
0.0553158 -0.630938 0.403095 225 217 222
0.0682787 -0.63146 0.400445 225 217 222
0.181554 -0.623492 0.376933 232 210 136
0.211877 -0.628216 0.375326 124 100 51
-0.114547 -0.629616 0.450095 191 179 181
-0.110079 -0.630082 0.4487 194 184 189
-0.0924009 -0.63242 0.443569 207 200 205
-0.0808832 -0.629926 0.438467 205 197 202
-0.0157599 -0.631019 0.418738 222 215 220
-0.00933052 -0.634459 0.418556 224 216 221
0.00353741 -0.632969 0.414315 224 216 221
0.0547107 -0.631007 0.400638 225 217 222
0.0569622 -0.631873 0.400534 225 217 222
0.0632553 -0.630787 0.398609 225 217 222
0.130579 -0.629648 0.384876 233 212 135
0.194821 -0.623573 0.372671 186 160 98
-0.112169 -0.626939 0.445218 191 182 185
-0.0616604 -0.630884 0.429879 218 210 215
-0.0291712 -0.631191 0.420034 221 214 219
0.037433 -0.635628 0.404247 226 218 223
0.111756 -0.618428 0.380474 231 210 131
0.121364 -0.631057 0.384527 233 209 131
-0.0798047 -0.631532 0.433392 210 202 207
-0.0297565 -0.633056 0.418405 221 214 219
0.0581185 -0.633751 0.395908 227 220 224
0.0601404 -0.63278 0.395006 227 220 224
0.0665551 -0.632548 0.393479 228 221 226
0.0834803 -0.630631 0.389002 225 217 222
0.0919944 -0.629915 0.386949 224 216 221
0.106927 -0.609698 0.374866 184 214 111
0.136082 -0.630497 0.379142 232 210 136
0.155762 -0.628516 0.375108 225 205 130
-0.111261 -0.629555 0.440584 213 206 210
-0.0758778 -0.631748 0.429477 215 208 213
-0.0475074 -0.632137 0.420641 221 214 219
-0.0216561 -0.632468 0.41312 225 217 222
0.0363355 -0.636634 0.399707 229 222 227
0.155328 -0.629478 0.373019 228 206 131
0.157737 -0.629906 0.37284 228 206 131
0.161697 -0.628057 0.371431 229 207 132
-0.107265 -0.630055 0.436659 216 211 217
-0.0984014 -0.630754 0.433892 215 208 213
-0.0959727 -0.62958 0.43253 212 204 209
0.00772073 -0.63273 0.402532 228 221 226
0.0378162 -0.635778 0.39634 229 222 227
0.0633146 -0.633609 0.389479 219 211 216
0.0714368 -0.630472 0.386297 209 201 206
0.148505 -0.63177 0.372515 228 206 129
-0.0854892 -0.630676 0.426776 212 204 209
0.0158376 -0.636015 0.399292 229 222 227
0.0351619 -0.636682 0.394777 231 223 228
0.093582 -0.625935 0.377161 213 211 212
0.124568 -0.628449 0.372499 236 212 138
0.213979 -0.627722 0.359235 116 90 38
-0.108156 -0.630191 0.431591 219 213 219
-0.0663105 -0.631603 0.418271 222 215 220
-0.0424835 -0.631533 0.410884 227 220 224
-0.0339136 -0.631969 0.408537 226 220 224
-0.0146883 -0.633559 0.403746 228 221 226
0.0303554 -0.63752 0.393715 232 224 229
0.110754 -0.619124 0.368391 89 167 36
0.126705 -0.63084 0.370615 231 209 135
0.15003 -0.63411 0.368136 231 209 133
0.174364 -0.631366 0.363304 242 218 142
0.194461 -0.62875 0.359481 223 201 124
0.196233 -0.627237 0.358622 216 192 118
0.198345 -0.626596 0.358088 210 183 112
0.216067 -0.628835 0.356876 115 89 36
-0.106628 -0.631752 0.429034 219 213 217
-0.0866699 -0.632538 0.422619 214 209 213
-0.0778792 -0.632828 0.419862 219 211 216
-0.0494951 -0.632252 0.410685 226 219 221
-0.0473634 -0.632628 0.410204 227 220 224
-0.000267168 -0.635003 0.39784 232 224 229
0.0167601 -0.634289 0.393086 231 223 228
0.0469501 -0.637646 0.387215 226 218 223
0.110944 -0.62275 0.367425 101 176 53
0.121779 -0.631525 0.369229 232 210 138
0.128379 -0.631402 0.368017 232 210 138
0.205701 -0.629066 0.355635 172 141 81
-0.0543178 -0.632378 0.409581 228 221 226
-0.0477934 -0.631719 0.407311 228 221 226
-0.0285459 -0.632874 0.402145 229 222 227
-0.0242365 -0.631609 0.400364 229 222 227
-0.0221334 -0.632792 0.400282 229 224 228
-0.0178887 -0.634217 0.39971 231 223 228
-0.0157448 -0.633543 0.398819 231 223 228
-0.00081149 -0.634988 0.395381 232 224 229
0.00983882 -0.634835 0.392516 233 225 230
0.0590957 -0.636434 0.381346 215 208 213
0.0756019 -0.631893 0.375811 171 160 166
0.0863665 -0.63199 0.373627 185 178 180
0.197519 -0.628454 0.353856 212 187 114
-0.0483514 -0.632613 0.40525 229 222 227
0.0731464 -0.63384 0.374622 175 166 169
0.0967324 -0.622428 0.364989 92 125 73
0.105863 -0.625079 0.364362 57 119 46
0.134592 -0.63482 0.363301 235 212 142
0.158814 -0.632736 0.358517 242 219 149
0.165481 -0.632134 0.357259 243 220 152
0.183714 -0.631298 0.354301 240 218 148
0.201686 -0.628943 0.350979 198 167 102
-0.1014 -0.632762 0.419622 220 215 219
-0.0467172 -0.632954 0.402298 229 222 227
-0.0359814 -0.632824 0.399077 231 223 228
-0.0210642 -0.633907 0.395279 232 224 229
-0.00614931 -0.635474 0.39185 233 225 230
0.0686818 -0.636817 0.374293 191 181 187
0.127265 -0.635008 0.362103 237 214 147
0.138407 -0.634923 0.360158 236 213 145
0.185743 -0.632499 0.351963 242 218 153
0.190662 -0.633061 0.35152 234 213 147
-0.10413 -0.633056 0.418002 222 217 221
-0.0774954 -0.632418 0.408976 225 217 222
-0.0579764 -0.63282 0.403041 229 222 227
0.0188214 -0.635253 0.382704 235 228 233
0.131557 -0.63698 0.359629 233 211 150
0.162195 -0.63353 0.353252 247 225 166
-0.0934773 -0.633246 0.411875 220 213 217
-0.0801979 -0.632798 0.407376 225 217 222
-0.0114774 -0.635884 0.388319 235 228 233
0.0288943 -0.63551 0.377782 235 228 233
0.0901541 -0.631202 0.362456 136 146 129
0.134881 -0.635258 0.355831 158 143 137
-0.093924 -0.633215 0.409376 220 215 219
-0.0699229 -0.634222 0.402102 229 222 227
-0.0483859 -0.635555 0.396095 232 224 229
-0.0440065 -0.634427 0.39434 234 226 231
-0.001357 -0.636755 0.383412 235 228 233
0.0457077 -0.639208 0.372784 228 221 226
0.0581853 -0.636097 0.368688 215 208 213
0.123311 -0.636146 0.355687 231 221 227
0.167698 -0.633726 0.347451 201 190 187
0.19967 -0.631633 0.342163 211 188 145
0.211705 -0.631732 0.340674 121 98 47
-0.0856045 -0.633502 0.40417 224 216 221
-0.0446184 -0.636193 0.392662 233 225 230
0.0428839 -0.638217 0.370502 232 224 229
0.0659415 -0.634689 0.363905 196 188 193
0.0681971 -0.635498 0.363745 186 179 184
0.113043 -0.632795 0.353712 229 222 227
0.142231 -0.634417 0.349235 238 226 230
0.161838 -0.632011 0.345164 249 237 241
0.191522 -0.630882 0.340443 183 167 152
-0.0949557 -0.634019 0.404795 221 216 220
-0.0643906 -0.634493 0.39532 232 224 229
-0.0215254 -0.633803 0.382569 235 228 233
-0.00455135 -0.637335 0.379398 238 230 235
-0.00242157 -0.637506 0.378904 236 229 234
0.0653272 -0.634589 0.361499 197 189 194
0.107327 -0.629614 0.351042 225 222 226
0.119596 -0.635424 0.351056 229 228 235
0.124763 -0.638409 0.351295 238 228 234
0.172885 -0.632903 0.341347 249 238 244
0.190761 -0.630844 0.338029 236 226 231
0.198481 -0.632473 0.337605 228 216 218
-0.112651 -0.631049 0.406886 228 223 227
-0.0479871 -0.639356 0.389764 233 225 230
0.041705 -0.638013 0.365657 232 224 229
0.0586084 -0.636649 0.361288 214 206 214
0.0922459 -0.62181 0.348444 113 139 101
0.102154 -0.618689 0.345315 155 186 191
0.110643 -0.627989 0.347329 150 187 197
0.126206 -0.637962 0.34836 171 194 207
0.13259 -0.636824 0.346804 170 191 202
0.143464 -0.635664 0.344516 207 208 216
0.173942 -0.631378 0.338121 247 237 243
-0.0740061 -0.634379 0.393086 232 224 229
-0.024712 -0.63519 0.378937 235 228 233
0.0220931 -0.639575 0.368442 238 230 235
0.0284265 -0.638782 0.366592 239 229 235
0.0432436 -0.63787 0.362739 231 223 228
0.0642319 -0.635289 0.357035 197 189 196
0.120807 -0.636734 0.346361 160 194 207
0.203985 -0.632138 0.331749 146 139 139
0.218856 -0.621933 0.326181 101 78 51
-0.0678087 -0.63286 0.388033 233 225 230
-0.0530804 -0.636579 0.38505 234 226 231
0.0556218 -0.639288 0.357984 218 210 215
0.13569 -0.636743 0.341261 167 197 210
0.207422 -0.630684 0.328284 115 110 112
-0.128083 -0.634075 0.405437 208 199 197
-0.122882 -0.630944 0.402492 209 200 201
-0.0927602 -0.636591 0.394687 224 216 221
-0.0535601 -0.636457 0.382599 234 226 231
-0.0257559 -0.635859 0.374445 235 228 233
-0.00879905 -0.637603 0.370529 239 229 235
-0.00454334 -0.638886 0.3699 238 230 235
0.0252817 -0.640347 0.362943 239 229 237
0.0400335 -0.638557 0.35876 232 224 229
0.0528901 -0.639225 0.356079 219 211 218
0.090517 -0.622306 0.341737 61 90 53
0.130262 -0.635584 0.339295 165 196 211
0.21084 -0.629187 0.32483 84 84 84
-0.0886823 -0.635703 0.390482 223 218 222
-0.0241978 -0.637826 0.372251 238 230 235
-0.0220542 -0.637133 0.371403 238 230 235
-0.0178277 -0.638521 0.370781 238 230 235
-0.0156929 -0.637801 0.369934 236 229 234
0.00774352 -0.641449 0.3652 239 231 236
0.00987884 -0.641558 0.364703 240 230 236
0.0119762 -0.64072 0.36386 240 230 236
0.0267138 -0.638358 0.359349 238 228 236
0.0627825 -0.637671 0.350831 199 191 198
0.185859 -0.633805 0.327368 183 206 218
-0.121782 -0.632297 0.397439 205 198 200
-0.112809 -0.632116 0.394384 228 221 226
-0.0826425 -0.63616 0.386199 231 223 228
-0.0289113 -0.636231 0.370443 236 229 234
-0.0119688 -0.637107 0.36618 238 230 235
0.0304565 -0.639185 0.356282 238 228 236
0.0369919 -0.641076 0.355444 234 226 233
0.0601773 -0.638558 0.349262 207 199 207
0.0744164 -0.633851 0.344473 144 140 137
0.151294 -0.635574 0.330813 186 211 223
-0.0188913 -0.64007 0.366632 238 230 235
-0.00188351 -0.63966 0.361997 239 231 236
0.000241264 -0.639803 0.361502 239 231 236
0.0342811 -0.64091 0.353537 234 226 233
0.0407554 -0.641809 0.352358 232 224 229
0.121856 -0.636285 0.333672 166 198 212
0.14397 -0.635913 0.329689 185 210 224
0.188548 -0.632327 0.321538 184 205 216
0.195193 -0.631277 0.320244 163 181 193
0.213528 -0.607628 0.309762 97 74 48
-0.107826 -0.636377 0.389161 227 220 224
-0.0684005 -0.636269 0.376818 234 226 231
-0.0661892 -0.63576 0.375972 234 226 231
-0.0640779 -0.636167 0.375491 234 226 231
-0.0172824 -0.640108 0.363716 238 230 235
-0.00666665 -0.638225 0.360228 239 231 236
0.00392532 -0.638941 0.357764 239 231 236
0.00607332 -0.64 0.357605 240 230 236
0.101466 -0.625647 0.331245 104 174 64
0.114621 -0.636232 0.332532 22 44 53
0.126098 -0.638165 0.33113 169 201 215
0.15041 -0.637125 0.326595 186 211 223
0.205329 -0.634705 0.317574 76 87 90
-0.128388 -0.636007 0.393238 209 200 199
-0.120513 -0.630745 0.388763 234 226 231
-0.105966 -0.6359 0.385832 226 218 223
-0.0710732 -0.636597 0.375221 234 226 231
-0.0283362 -0.636888 0.363056 238 230 235
-0.017799 -0.639919 0.361296 239 232 234
0.0561251 -0.637164 0.342288 214 206 214
0.10931 -0.634834 0.330597 131 172 172
0.129879 -0.638143 0.328003 174 206 220
0.138332 -0.636478 0.325953 182 209 223
0.158128 -0.634974 0.322152 190 213 225
0.160821 -0.63629 0.322174 191 214 227
0.16745 -0.635587 0.320893 192 215 228
0.183153 -0.634221 0.318062 184 207 220
0.209866 -0.63584 0.314881 79 84 83
-0.123586 -0.632665 0.387903 210 202 205
0.148971 -0.636794 0.32183 186 211 223
0.153471 -0.636739 0.32107 188 213 225
0.166406 -0.63451 0.31825 191 214 227
0.175758 -0.634971 0.31697 191 214 227
0.185923 -0.631006 0.31414 218 211 211
0.212647 -0.615951 0.305526 90 69 44
-0.131294 -0.635038 0.388729 208 197 196
-0.124179 -0.633409 0.385806 209 201 204
-0.105182 -0.638887 0.381524 227 220 224
-0.0720865 -0.637151 0.370701 234 226 233
-0.0525831 -0.635058 0.364256 235 228 233
-0.0378466 -0.637279 0.360867 236 229 234
-0.0145835 -0.638966 0.355157 239 231 236
-0.00189816 -0.63901 0.351878 240 232 237
0.0235615 -0.640992 0.346256 240 230 238
0.0796685 -0.632129 0.330667 155 150 149
0.0959315 -0.638982 0.329758 10 66 0
0.141921 -0.638008 0.320991 186 211 225
0.177431 -0.635124 0.314331 188 213 225
-0.0724282 -0.636018 0.367915 234 226 233
-0.0531278 -0.635778 0.362189 236 229 234
0.0124829 -0.642382 0.346982 240 232 239
0.0188106 -0.641628 0.345174 240 230 238
0.0209333 -0.641675 0.344676 240 230 238
0.0293562 -0.640829 0.342372 238 228 236
0.0482218 -0.638651 0.337272 232 224 229
0.0628599 -0.636999 0.333479 220 213 217
0.10332 -0.635764 0.324805 155 194 206
0.152305 -0.637293 0.316582 188 213 225
0.167026 -0.633599 0.312998 192 215 228
0.169431 -0.633952 0.31274 192 215 228
0.206758 -0.633631 0.307208 37 31 27
-0.137591 -0.611421 0.377888 145 133 123
-0.118673 -0.634954 0.379449 231 223 228
-0.090472 -0.637652 0.37144 228 221 226
-0.0220022 -0.640731 0.352811 239 231 236
-0.0156237 -0.639453 0.350686 239 231 236
-0.00505875 -0.639351 0.347906 238 230 235
0.0161791 -0.642285 0.343591 240 230 238
0.0370863 -0.638655 0.337389 234 226 233
0.0643523 -0.636625 0.330619 219 211 216
0.0858425 -0.637631 0.326473 0 0 0
0.16029 -0.635959 0.31242 189 215 227
0.186436 -0.625575 0.305068 99 96 104
-0.0379855 -0.158546 0.194428 154 78 70
-0.0562393 -0.635903 0.358195 236 229 234
-0.0351887 -0.63903 0.353343 239 231 236
-0.0245991 -0.639322 0.350573 239 231 236
-0.0140194 -0.638447 0.34748 239 231 236
0.00283549 -0.638673 0.343235 240 232 239
0.0449338 -0.638227 0.333033 233 225 232
0.106189 -0.634686 0.319097 168 205 218
0.186015 -0.626285 0.30297 105 102 108
0.201996 -0.6313 0.302267 23 20 23
-0.107184 -0.639942 0.372374 226 220 224
-0.0890863 -0.636782 0.365731 231 223 228
-0.069465 -0.635239 0.359352 235 227 235
-0.0546046 -0.636008 0.355308 236 229 234
-0.0103229 -0.639484 0.34443 240 232 237
-0.00820972 -0.640594 0.344253 240 232 237
0.00232307 -0.639363 0.341167 239 231 238
0.0193603 -0.642837 0.338125 238 230 237
0.0549751 -0.638502 0.328475 225 217 224
0.0590621 -0.637325 0.327193 221 213 221
0.0752404 -0.632281 0.322092 204 196 201
0.138563 -0.635293 0.311019 183 210 224
0.181785 -0.629168 0.302115 65 64 69
0.186613 -0.62972 0.301571 104 103 108
-0.0383203 -0.63919 0.349356 238 230 235
-0.0340603 -0.638782 0.348059 238 230 235
-0.0213883 -0.639237 0.34481 239 231 236
-0.0129532 -0.639999 0.342849 240 232 237
0.0459618 -0.638581 0.328108 229 221 229
0.0924956 -0.636841 0.317684 40 61 31
0.129225 -0.635833 0.310439 181 208 222
0.152076 -0.63778 0.307112 191 214 227
0.15418 -0.637271 0.306603 192 215 228
0.194841 -0.628669 0.297661 64 63 70
0.220253 -0.626895 0.293637 92 79 77
-0.0420213 -0.165013 0.197038 74 39 35
-0.0902179 -0.638155 0.361553 231 223 230
-0.0815352 -0.638184 0.358951 234 226 233
0.109212 -0.637035 0.312116 62 83 96
0.164539 -0.636206 0.302183 191 214 227
0.231353 -0.631486 0.291157 241 229 222
-0.135057 -0.638212 0.373196 208 199 197
-0.108587 -0.640166 0.365352 227 220 224
-0.0691239 -0.638612 0.352973 235 228 233
-0.0413329 -0.637409 0.344741 238 230 235
-0.00554996 -0.641008 0.336427 240 232 237
-0.00345062 -0.640188 0.335634 239 231 236
0.0696596 -0.634644 0.316913 206 198 205
0.0757604 -0.633136 0.315161 201 190 198
0.112949 -0.637022 0.309025 148 181 192
0.167986 -0.634829 0.29882 188 211 224
0.216572 -0.627266 0.289449 92 85 85
0.21864 -0.626486 0.288944 77 68 69
-0.137207 -0.626593 0.367829 234 223 218
-0.06757 -0.639669 0.350405 235 228 233
0.0730601 -0.633026 0.313334 201 190 198
0.0754442 -0.634737 0.313367 198 188 196
0.0776857 -0.635487 0.313135 194 183 191
0.217442 -0.625368 0.2864 120 113 115
-0.04019 -0.158989 0.193697 140 68 60
-0.140235 -0.610643 0.361568 134 122 112
-0.137791 -0.627246 0.36575 231 221 215
-0.0765357 -0.638682 0.350257 235 227 235
-0.0572351 -0.638393 0.344624 236 229 234
-0.0277107 -0.641448 0.337488 238 230 235
-0.0213376 -0.640177 0.335415 239 231 236
0.0146514 -0.645176 0.327896 236 228 236
0.0398753 -0.642296 0.321082 227 220 224
0.0498981 -0.63714 0.31724 222 214 222
0.0649356 -0.639129 0.314571 209 200 208
0.0793038 -0.635918 0.310573 207 196 204
0.181721 -0.631921 0.291055 230 230 233
0.206315 -0.628929 0.286579 75 72 75
0.216637 -0.625134 0.28407 161 154 156
-0.133454 -0.635391 0.364301 211 202 201
-0.087714 -0.638017 0.350907 233 225 230
-0.0492986 -0.639401 0.340294 238 230 235
-0.0344361 -0.638515 0.335972 239 231 236
-0.0155208 -0.63946 0.33128 240 232 239
0.00347435 -0.643534 0.32772 238 230 235
0.0371002 -0.641065 0.318953 228 220 228
0.0536004 -0.637565 0.314187 219 211 216
0.0662847 -0.637692 0.311479 203 195 200
0.100272 -0.636811 0.304282 156 195 209
0.133513 -0.638806 0.298676 172 201 217
0.146363 -0.636953 0.295886 173 203 216
0.276882 -0.631479 0.275975 151 145 143
-0.108102 -0.63964 0.355103 226 220 224
-0.0948556 -0.639069 0.350909 228 221 226
0.0344203 -0.640773 0.317103 228 220 228
0.0448382 -0.63953 0.314361 224 216 223
0.0896886 -0.640755 0.305185 124 127 122
0.150104 -0.636589 0.292774 167 199 213
0.202662 -0.629147 0.282421 202 197 201
0.244628 -0.625273 0.275716 72 72 74
-0.108504 -0.63934 0.352673 227 220 224
-0.104135 -0.639497 0.351386 224 219 223
-0.0501583 -0.637799 0.335234 236 228 236
-0.0333923 -0.640006 0.331341 239 231 238
-0.0186436 -0.63957 0.327339 238 230 237
0.00873828 -0.643111 0.321508 234 226 233
0.0213537 -0.642407 0.318266 231 223 228
0.0317472 -0.64046 0.315256 224 216 223
0.0502147 -0.636034 0.309771 211 201 209
0.0543817 -0.63581 0.308787 207 196 204
0.0888666 -0.639469 0.302609 139 139 137
0.126942 -0.635271 0.294109 161 195 208
0.133948 -0.636805 0.293288 168 200 216
0.149379 -0.636283 0.290447 165 200 213
0.187347 -0.633736 0.283601 167 199 213
0.278341 -0.627292 0.26984 189 187 187
-0.0443157 -0.16449 0.195566 68 30 23
-0.110999 -0.638473 0.350731 228 221 226
-0.0212402 -0.639035 0.325473 236 229 234
-0.0191621 -0.640179 0.325268 238 230 235
-0.00232688 -0.64327 0.321896 232 224 231
0.029361 -0.643977 0.314467 217 209 216
0.0333549 -0.641038 0.312688 215 207 215
0.0644505 -0.636665 0.304515 181 171 177
0.080473 -0.643923 0.303244 244 239 241
0.102545 -0.606651 0.288196 158 186 199
0.148934 -0.636901 0.288339 167 201 214
0.160843 -0.631834 0.284925 167 199 213
0.163827 -0.63406 0.285052 168 200 214
0.235927 -0.625659 0.272181 51 51 53
-0.0381097 -0.154348 0.190272 124 52 47
-0.13056 -0.634605 0.353272 210 201 202
-0.113665 -0.638518 0.349111 228 221 226
-0.0682426 -0.639096 0.335863 235 227 235
0.0014043 -0.645042 0.319096 231 223 230
0.00775392 -0.645288 0.317609 227 219 226
0.0348032 -0.639672 0.309604 210 200 208
0.0575912 -0.636752 0.303681 181 171 179
0.0637085 -0.635341 0.301961 173 163 168
0.151812 -0.633671 0.284605 153 185 199
0.160105 -0.63151 0.282621 167 199 213
0.186481 -0.634979 0.279342 163 197 211
-0.138919 -0.639689 0.354867 209 200 199
-0.0580379 -0.638631 0.330471 236 229 234
-0.0516864 -0.638647 0.328724 236 229 234
-0.0201812 -0.640409 0.320844 235 228 233
-0.00758111 -0.643262 0.318445 232 224 231
0.147209 -0.635298 0.283499 166 197 214
-0.0436651 -0.161984 0.193757 103 46 35
-0.141602 -0.621711 0.348391 95 82 75
-0.14025 -0.634091 0.351302 208 197 194
-0.0821335 -0.639728 0.335201 233 227 233
-0.0164909 -0.640372 0.31752 233 225 232
0.0587195 -0.637776 0.299059 171 160 166
0.0734551 -0.637505 0.295848 167 155 161
0.0902195 -0.604129 0.283294 114 63 53
0.126094 -0.624521 0.282022 185 210 224
0.150926 -0.634858 0.280404 106 138 153
0.182518 -0.634078 0.275008 158 194 209
0.191515 -0.633236 0.273393 158 194 209
0.222259 -0.632559 0.268714 167 199 211
0.263316 -0.624331 0.261269 57 58 64
-0.129584 -0.634242 0.345545 242 235 239
-0.0979243 -0.640822 0.337699 228 221 226
-0.0676743 -0.640279 0.328835 235 227 235
-0.0402336 -0.64247 0.321923 236 228 236
-0.00651858 -0.641652 0.312995 228 220 228
0.0602007 -0.637232 0.296265 168 158 164
0.0750683 -0.637865 0.293284 190 177 184
0.0922371 -0.569761 0.271508 118 64 46
0.145766 -0.634587 0.278895 96 127 144
0.205358 -0.634093 0.269174 161 195 210
0.233022 -0.630761 0.264405 175 203 214
-0.0872864 -0.639044 0.331699 233 225 230
-0.0490973 -0.640972 0.32152 235 227 235
-0.0428066 -0.641813 0.320055 235 227 235
-0.0279979 -0.640585 0.31582 233 225 230
0.0160886 -0.643017 0.305502 212 204 211
0.0265383 -0.642069 0.302789 203 193 201
0.0452279 -0.63963 0.297874 179 167 173
0.0597235 -0.637792 0.294199 169 156 165
0.0912104 -0.56739 0.269053 118 62 45
0.136996 -0.637105 0.278775 116 150 168
0.156565 -0.635339 0.274904 163 197 213
0.163403 -0.635518 0.273798 162 196 212
0.192727 -0.633712 0.268634 154 190 208
0.21724 -0.635362 0.265391 164 198 212
0.227233 -0.630361 0.262742 163 197 211
0.291728 -0.630682 0.254616 117 144 158
-0.135531 -0.636885 0.343229 210 201 200
-0.124294 -0.636296 0.339602 229 224 228
-0.118237 -0.638999 0.338456 226 220 224
-0.111605 -0.638817 0.336407 226 220 224
-0.0815608 -0.640918 0.328152 234 226 231
-0.0580038 -0.640288 0.32139 235 227 235
-0.0536623 -0.639009 0.319866 235 227 235
-0.0453078 -0.640178 0.317919 234 226 233
-0.0411242 -0.640711 0.316943 235 227 235
-0.0242762 -0.639605 0.312242 232 224 229
0.0405599 -0.640355 0.296786 184 171 178
0.13318 -0.633399 0.276188 144 175 192
0.146951 -0.63521 0.274203 191 223 240
0.204127 -0.634341 0.26471 153 190 205
0.220586 -0.633424 0.26207 157 193 208
-0.0477479 -0.167579 0.195374 56 27 19
-0.135889 -0.636516 0.340816 209 200 199
-0.103635 -0.640559 0.332071 224 219 223
-0.0374609 -0.641756 0.313888 233 225 232
0.0107648 -0.641144 0.301595 212 204 211
0.0378932 -0.640004 0.294973 180 167 176
0.0801901 -0.61621 0.279709 134 75 70
0.083112 -0.599096 0.274728 127 69 61
0.0844936 -0.576206 0.268594 116 59 46
0.163987 -0.634189 0.268712 159 195 210
0.166369 -0.634534 0.268399 160 197 212
0.201248 -0.634733 0.262892 162 196 212
0.24007 -0.634351 0.257194 162 196 210
0.253844 -0.631468 0.254673 169 198 211
-0.142625 -0.601033 0.331685 184 172 165
-0.0717177 -0.640211 0.320422 233 227 233
-0.0483173 -0.639059 0.313723 235 227 235
0.059613 -0.633459 0.286187 167 155 164
0.0807063 -0.610696 0.275999 120 58 49
0.0952664 -0.558961 0.260134 160 86 66
0.0972655 -0.559588 0.25991 164 89 71
0.154359 -0.634187 0.268032 161 198 213
0.179669 -0.635073 0.264022 163 197 213
0.182415 -0.636272 0.263868 162 196 212
0.198733 -0.636023 0.261241 162 196 212
0.246316 -0.633081 0.253674 154 191 206
-0.0418348 -0.160573 0.190953 136 66 58
-0.151436 -0.600643 0.332114 216 203 196
-0.0828167 -0.63969 0.321043 231 226 232
-0.055174 -0.639661 0.313373 234 226 233
-0.0488438 -0.639587 0.31165 234 226 233
-0.0278837 -0.640053 0.306263 229 221 229
-0.0237341 -0.641397 0.305537 228 220 228
-0.0216632 -0.642541 0.305296 227 219 226
-0.0195496 -0.64174 0.304557 227 219 226
-0.000641255 -0.645769 0.300863 217 209 216
0.0182963 -0.645223 0.296178 198 188 196
0.0367477 -0.639124 0.290379 171 160 166
0.0513242 -0.638435 0.286953 164 154 159
0.0571982 -0.635106 0.284838 166 153 162
0.0624648 -0.627834 0.281887 166 154 160
0.14561 -0.636843 0.267893 197 229 245
0.18682 -0.637327 0.261077 162 196 212
0.191336 -0.63687 0.260252 159 195 210
0.239216 -0.63548 0.252824 164 200 215
-0.155051 -0.596982 0.33012 204 191 184
-0.134877 -0.635987 0.333124 187 178 176
-0.115763 -0.63949 0.328192 226 220 224
-0.0515296 -0.640782 0.310321 234 226 233
-0.0263125 -0.640764 0.303703 227 219 226
-0.0200636 -0.642259 0.302481 226 218 225
-0.00116611 -0.64532 0.298536 214 206 214
0.000959415 -0.646373 0.298278 213 205 212
0.00304606 -0.645475 0.297548 211 203 210
0.0381699 -0.637624 0.287382 165 155 160
0.0656584 -0.625067 0.278274 165 153 159
0.144886 -0.636424 0.26561 197 229 245
0.146962 -0.635908 0.26512 93 127 145
0.148473 -0.633496 0.264282 118 151 167
0.165351 -0.637087 0.262221 162 196 212
0.289641 -0.633616 0.243428 113 148 166
-0.153981 -0.59198 0.326349 204 191 184
-0.143504 -0.615877 0.32864 207 197 191
-0.144121 -0.626731 0.331386 206 195 190
-0.124651 -0.637709 0.328029 227 221 226
-0.101355 -0.641808 0.322121 227 221 226
-0.0561505 -0.639729 0.308961 233 225 232
-0.047674 -0.638965 0.306506 233 225 232
0.0396722 -0.637077 0.284618 162 152 158
0.0831934 -0.552212 0.254985 136 74 49
0.0886369 -0.552295 0.25394 158 90 70
0.097419 -0.558678 0.253763 166 94 75
0.164906 -0.637609 0.260098 162 196 212
0.175943 -0.636387 0.257968 164 198 214
0.178021 -0.635742 0.257477 164 198 214
0.225073 -0.63461 0.249925 160 197 212
0.227554 -0.634667 0.249576 164 200 213
0.235023 -0.634767 0.248524 168 202 215
0.239179 -0.632983 0.247543 165 199 215
0.284552 -0.635505 0.242049 138 169 186
0.296354 -0.637107 0.240923 96 123 139
-0.150447 -0.592932 0.323211 205 193 185
-0.148282 -0.592697 0.322473 204 193 185
-0.14306 -0.596547 0.321719 206 196 188
-0.144293 -0.634402 0.330846 205 197 193
-0.137642 -0.634513 0.328827 211 202 203
-0.106091 -0.641308 0.320993 223 218 222
-0.0972573 -0.64044 0.318232 228 223 227
0.0124145 -0.642832 0.290003 195 185 193
0.0494478 -0.636069 0.279916 162 152 158
0.066051 -0.621006 0.272759 172 148 154
0.12186 -0.596135 0.255908 168 103 82
0.156134 -0.633281 0.258306 160 197 212
0.207389 -0.634411 0.25019 162 196 212
0.214756 -0.634791 0.249153 163 199 212
0.229609 -0.635241 0.247051 164 200 213
0.23709 -0.635308 0.245988 164 200 213
0.264819 -0.634639 0.242021 160 197 212
-0.129932 -0.63752 0.324791 228 223 227
-0.106647 -0.641809 0.318888 223 218 222
-0.104557 -0.642318 0.318399 223 218 222
-0.0592914 -0.640411 0.305293 233 225 232
-0.0467711 -0.642161 0.302362 231 223 230
-0.0111194 -0.645446 0.294011 217 209 214
-0.0090163 -0.645562 0.293518 213 205 212
0.011955 -0.644299 0.288144 193 183 188
0.0508161 -0.634479 0.276967 164 153 161
0.0599454 -0.624953 0.272766 165 152 161
0.0729079 -0.570314 0.257377 99 44 33
0.0762361 -0.549036 0.251793 129 71 52
0.167554 -0.635544 0.254559 164 198 214
0.172655 -0.63711 0.254045 164 198 214
0.177138 -0.636763 0.25322 164 198 214
0.181625 -0.636377 0.252393 160 193 209
0.20865 -0.633231 0.247412 163 197 211
0.263937 -0.634288 0.239685 160 197 212
-0.0466629 -0.163529 0.191887 115 56 42
-0.0746083 -0.640388 0.307126 233 225 232
-0.066067 -0.639906 0.304677 233 225 232
-0.0304658 -0.642558 0.295887 222 214 222
-0.00322449 -0.64537 0.289726 204 194 200
0.0363139 -0.640572 0.27933 160 148 155
0.0403893 -0.639427 0.278149 159 149 155
0.0711546 -0.584762 0.259023 78 24 17
0.0770114 -0.546283 0.249112 139 77 57
0.0804497 -0.545744 0.248305 149 86 66
0.0924962 -0.551639 0.247273 159 92 71
0.146965 -0.636453 0.256047 173 204 223
0.150823 -0.634433 0.254916 163 199 214
0.18085 -0.635944 0.250113 163 197 213
0.231233 -0.636307 0.242338 165 200 213
0.242467 -0.633622 0.240155 162 201 215
-0.0387186 -0.153132 0.186645 129 68 50
-0.156138 -0.593834 0.318522 201 191 183
-0.128776 -0.638161 0.319822 229 224 228
-0.107586 -0.641834 0.314411 222 217 221
0.00253189 -0.644113 0.285728 188 178 184
0.00885421 -0.64523 0.284466 177 164 171
0.104231 -0.556659 0.244222 169 99 77
0.148589 -0.636401 0.253454 163 195 212
0.239114 -0.633245 0.238212 163 199 214
0.252514 -0.634826 0.236624 163 199 214
0.258456 -0.63643 0.236117 164 200 215
-0.16189 -0.597434 0.31887 229 219 211
-0.090659 -0.641349 0.307119 229 223 230
-0.0817957 -0.6392 0.304172 230 225 231
-0.0547767 -0.64469 0.298051 227 219 226
-0.0376709 -0.640926 0.292739 221 213 221
-0.0335478 -0.642325 0.291988 221 213 221
-0.03146 -0.642526 0.291499 219 211 218
-0.0293714 -0.642719 0.291009 218 210 217
-0.0252195 -0.644052 0.290252 215 207 215
0.0124739 -0.643794 0.280979 159 149 155
0.0351757 -0.639556 0.274789 158 146 152
0.0731569 -0.54951 0.246819 128 70 51
0.122727 -0.592281 0.246468 166 99 78
0.15642 -0.634657 0.249409 122 156 174
0.237025 -0.635543 0.236635 166 203 215
0.24368 -0.633696 0.2353 161 200 214
0.277469 -0.633993 0.230675 141 181 199
-0.045686 -0.162263 0.190381 123 65 46
-0.155579 -0.596337 0.314426 204 193 185
-0.117787 -0.644445 0.313184 226 220 224
-0.115691 -0.644991 0.312691 223 218 222
-0.11323 -0.64363 0.311688 222 217 221
-0.110959 -0.643207 0.310941 222 217 221
-0.0889761 -0.641288 0.304288 230 225 231
-0.0845411 -0.640212 0.302821 230 225 229
-0.0802555 -0.640058 0.301601 230 225 231
-0.0696344 -0.639995 0.298682 229 223 230
-0.0361046 -0.6416 0.290175 219 211 218
-0.00684973 -0.646684 0.28395 194 184 189
0.0263736 -0.640248 0.274671 154 144 150
0.0303107 -0.637212 0.27311 157 145 151
0.162777 -0.635251 0.246138 112 141 158
0.170712 -0.631848 0.244072 124 149 163
0.218023 -0.633005 0.236648 164 200 213
0.2283 -0.634163 0.235317 167 201 214
-0.155843 -0.595842 0.312183 202 192 184
-0.14678 -0.601093 0.310462 206 196 188
-0.0765121 -0.640317 0.298302 229 223 230
-0.0640218 -0.642427 0.295367 226 220 226
-0.0616558 -0.639843 0.294185 224 219 225
0.0533941 -0.609818 0.259895 132 115 121
0.0661845 -0.577895 0.250432 66 20 8
0.0734504 -0.556083 0.244349 126 67 48
0.080831 -0.547962 0.241162 140 80 59
0.0855808 -0.545148 0.239634 137 77 54
0.148355 -0.641592 0.247702 142 171 186
0.168528 -0.633871 0.242579 101 125 142
0.174053 -0.630086 0.240874 97 118 131
0.199143 -0.635185 0.23774 186 217 236
0.229527 -0.632858 0.232551 167 201 214
0.295451 -0.63965 0.224562 88 112 122
-0.0475533 -0.164638 0.190885 120 61 45
-0.0814544 -0.641914 0.297664 229 223 230
-0.0789986 -0.639412 0.296472 228 222 229
-0.0688264 -0.643167 0.294489 226 220 226
-0.0245595 -0.64166 0.282656 205 197 204
-0.0141871 -0.648234 0.281451 194 183 191
0.0088146 -0.64316 0.274827 151 139 143
0.075638 -0.551088 0.240963 130 72 53
0.0815686 -0.54514 0.238554 132 77 53
0.100302 -0.548612 0.235611 160 94 68
0.111746 -0.564313 0.236623 163 94 69
0.168871 -0.629935 0.239465 132 152 166
0.212625 -0.634652 0.23318 164 200 213
0.227023 -0.634191 0.230863 168 202 215
0.240674 -0.631532 0.228314 165 200 213
-0.101163 -0.641314 0.30069 226 220 226
-0.0565539 -0.642595 0.288783 220 214 221
-0.0271516 -0.641924 0.281071 207 199 207
0.00416452 -0.644502 0.273923 156 143 150
0.0427548 -0.63202 0.262472 112 69 67
0.200333 -0.635334 0.232968 60 90 105
0.224914 -0.636417 0.229279 167 201 214
0.240666 -0.632887 0.22624 164 200 213
-0.142502 -0.637768 0.309609 211 202 203
-0.0953064 -0.642167 0.296884 227 221 228
-0.0801896 -0.641233 0.292533 227 221 228
-0.0612456 -0.642419 0.287678 221 215 222
0.00567215 -0.642019 0.270778 150 138 142
0.0140458 -0.643069 0.269012 149 137 141
0.0512641 -0.574521 0.246922 111 58 46
0.0563151 -0.571065 0.245151 111 58 44
0.0639401 -0.561275 0.2416 109 57 41
0.0699891 -0.554509 0.239008 112 60 41
0.0779464 -0.54932 0.236365 120 67 44
0.0985941 -0.545483 0.231553 155 89 64
0.159776 -0.633248 0.237171 96 125 145
0.258228 -0.633756 0.221485 160 197 212
0.265105 -0.637052 0.221078 155 193 210
-0.0449639 -0.15867 0.188059 122 71 50
-0.149008 -0.635285 0.308714 203 194 193
-0.148157 -0.640638 0.309474 204 195 194
-0.132055 -0.638463 0.30431 227 221 226
-0.108661 -0.641653 0.298197 222 217 221
-0.104499 -0.642639 0.297213 224 219 223
-0.0493209 -0.645505 0.282854 217 209 216
-0.00102389 -0.645236 0.270736 161 151 157
0.0408455 -0.623032 0.256688 112 65 58
0.0469598 -0.573238 0.245623 111 56 45
0.0706402 -0.550718 0.236242 114 62 43
0.0977444 -0.543904 0.229545 154 87 64
0.151368 -0.63693 0.237104 122 151 169
0.194229 -0.634919 0.2293 168 200 214
0.208474 -0.634938 0.226974 169 203 217
-0.15768 -0.595077 0.301569 204 193 185
-0.146645 -0.641714 0.306854 205 196 197
-0.141095 -0.637358 0.304405 183 174 175
-0.111646 -0.64347 0.297047 220 215 219
-0.0879039 -0.643755 0.29049 227 221 228
-0.0496995 -0.643961 0.280348 218 210 217
-0.0265682 -0.642348 0.274152 200 190 195
-0.00152588 -0.645642 0.268649 160 150 154
0.00884595 -0.642885 0.265651 145 135 139
0.0171332 -0.641902 0.263521 149 136 143
0.0251959 -0.637836 0.260878 151 141 146
0.0295425 -0.640665 0.260426 153 143 149
0.0399986 -0.619496 0.254017 115 68 61
0.061423 -0.551237 0.236372 116 64 48
0.140016 -0.622785 0.234317 147 99 86
0.193785 -0.635338 0.22716 168 200 214
-0.15821 -0.595454 0.299605 204 193 185
-0.092611 -0.643311 0.289375 227 221 228
-0.0819166 -0.643422 0.286477 226 220 226
-0.0291932 -0.643558 0.272757 201 190 198
-0.0104064 -0.646713 0.268713 173 163 168
-0.00413354 -0.644991 0.266871 164 154 157
0.00623591 -0.642275 0.263885 144 134 137
0.00828337 -0.641313 0.26322 144 134 137
0.0310577 -0.640004 0.257703 157 145 151
0.0377203 -0.621949 0.25282 113 66 59
0.0638997 -0.537242 0.231383 123 67 49
0.1728 -0.630104 0.22754 93 115 135
0.184024 -0.635826 0.226611 102 120 137
0.193696 -0.636677 0.225121 168 200 214
0.195409 -0.635005 0.224544 168 200 214
0.224426 -0.635458 0.219907 169 203 217
0.280726 -0.635339 0.211463 120 158 177
-0.0507881 -0.167672 0.190656 102 52 39
-0.133284 -0.637776 0.297519 228 223 225
-0.0995528 -0.643334 0.28897 227 221 228
-0.0380398 -0.643195 0.272637 205 197 204
-0.00463547 -0.645379 0.264786 165 155 160
0.0181282 -0.640692 0.258547 147 137 143
0.0242251 -0.63861 0.256758 152 140 146
0.0564345 -0.54741 0.232974 118 64 48
0.110155 -0.555071 0.223573 154 89 66
0.153567 -0.635098 0.229586 183 217 233
0.160044 -0.634274 0.228272 159 191 205
0.191175 -0.637813 0.223451 172 203 218
0.206394 -0.634334 0.220321 167 201 214
0.213735 -0.634668 0.219179 168 202 215
0.259454 -0.636253 0.212341 159 195 212
0.280288 -0.635763 0.209225 121 159 180
-0.0513761 -0.169709 0.190842 110 55 44
-0.151253 -0.636882 0.300275 203 194 193
-0.150909 -0.64413 0.301427 203 194 193
-0.148098 -0.641968 0.300227 205 196 197
-0.0552705 -0.642642 0.274673 217 209 216
-0.0239521 -0.644797 0.267119 191 181 187
-0.0197391 -0.643104 0.265775 183 173 179
0.00524443 -0.643038 0.259734 149 137 141
0.0257407 -0.637945 0.254051 152 140 146
0.0421272 -0.562962 0.23697 118 65 51
0.194875 -0.636728 0.220353 173 205 217
-0.153262 -0.595786 0.291623 207 197 189
-0.113286 -0.642154 0.287939 220 215 219
-0.0963083 -0.644024 0.28356 227 221 228
-0.0919915 -0.643919 0.282363 226 220 226
-0.0685645 -0.644145 0.276125 222 214 222
-0.0599469 -0.642449 0.27357 218 210 217
-0.00149939 -0.643292 0.259122 160 150 156
0.0402617 -0.566361 0.236053 116 61 47
0.0656956 -0.525739 0.223576 132 73 54
0.0718374 -0.522774 0.221807 137 81 61
0.0805567 -0.524269 0.220304 145 85 60
0.109331 -0.548575 0.218826 150 86 62
0.2215 -0.633002 0.213064 169 203 217
0.253073 -0.636383 0.208639 167 200 216
-0.0515381 -0.167462 0.189928 93 47 33
-0.0451766 -0.159107 0.186536 126 74 55
-0.148736 -0.640833 0.295512 203 196 196
-0.0837818 -0.642992 0.27768 224 219 225
-0.0711737 -0.644178 0.274525 220 214 221
-0.0583003 -0.642118 0.270805 217 209 216
-0.0480465 -0.645378 0.268722 211 203 210
-0.0459577 -0.645614 0.268229 210 202 209
-0.0375433 -0.645487 0.266076 204 194 200
0.066603 -0.523828 0.221303 136 78 59
0.0927314 -0.527105 0.216608 148 85 63
0.195334 -0.634877 0.215413 76 101 118
0.201513 -0.632577 0.214006 178 207 222
0.240869 -0.633444 0.207753 168 202 215
0.262288 -0.635412 0.204754 155 193 210
-0.0423809 -0.154146 0.184614 126 73 50
-0.166247 -0.594166 0.290903 233 225 219
-0.151596 -0.594321 0.286557 205 195 187
-0.151924 -0.626032 0.29172 205 197 193
-0.103629 -0.643389 0.280834 224 219 225
-0.0695072 -0.643887 0.271746 219 213 219
-0.0608941 -0.642185 0.269214 217 209 216
0.0258169 -0.631061 0.246195 149 136 143
0.0660587 -0.523128 0.219546 137 76 56
0.0838351 -0.52002 0.215437 147 89 63
0.161748 -0.632642 0.218703 168 202 217
0.168526 -0.632634 0.217481 169 203 219
0.183172 -0.635158 0.215285 174 206 220
0.211574 -0.635279 0.210462 189 221 237
-0.0322139 -0.644768 0.260075 197 187 193
-0.0258978 -0.643271 0.258266 190 180 186
-0.00299383 -0.644347 0.252884 160 150 154
0.0291895 -0.628287 0.242782 149 135 140
0.102193 -0.533515 0.212225 146 84 62
0.237492 -0.634217 0.203785 81 112 129
-0.151273 -0.59749 0.282633 204 197 188
-0.149427 -0.638111 0.288269 204 195 196
-0.098298 -0.644467 0.274937 224 219 225
0.0388042 -0.587405 0.231985 112 59 47
0.0676537 -0.518272 0.214963 141 83 62
0.118995 -0.56337 0.211748 149 86 66
0.167311 -0.632381 0.213178 143 177 193
0.207474 -0.634039 0.206402 123 157 173
-0.0436088 -0.155877 0.184497 124 73 52
-0.0751234 -0.643254 0.266273 219 213 219
-0.062449 -0.643192 0.262961 214 206 214
0.0711286 -0.51285 0.211704 146 86 65
0.0926432 -0.519741 0.208431 145 83 59
0.102359 -0.530768 0.208181 135 73 48
0.202158 -0.634128 0.205047 115 149 167
0.216035 -0.632909 0.202526 147 179 195
0.271129 -0.637115 0.19427 147 183 203
0.287455 -0.6375 0.191848 86 107 119
-0.0466112 -0.158517 0.185581 112 63 45
-0.164974 -0.591489 0.281478 205 195 187
-0.152177 -0.612568 0.28074 204 197 188
-0.151029 -0.640661 0.284454 203 194 195
-0.105266 -0.64183 0.271835 222 216 223
-0.0504093 -0.644113 0.257751 209 200 208
-0.035827 -0.645575 0.254306 197 187 195
-0.0273499 -0.642274 0.251713 191 181 187
0.0440043 -0.559641 0.222681 114 60 44
0.0450401 -0.553567 0.221549 113 59 43
0.182754 -0.633937 0.206146 169 203 219
0.19309 -0.636616 0.204696 154 185 204
0.223357 -0.634319 0.199216 82 115 133
0.256634 -0.635573 0.193987 187 221 237
-0.157677 -0.593596 0.277483 203 195 187
-0.129738 -0.642283 0.276343 222 217 221
-0.125592 -0.643389 0.275346 220 215 219
-0.0951179 -0.642409 0.266893 223 218 224
-0.0717865 -0.642593 0.260757 218 210 217
-0.057417 -0.646616 0.257636 212 204 211
0.0290994 -0.626484 0.233832 148 134 139
0.0402782 -0.597014 0.227038 78 31 22
0.0498496 -0.528323 0.214991 123 65 48
0.0783118 -0.511885 0.206701 139 79 56
0.153904 -0.638027 0.209729 137 166 184
0.198832 -0.634637 0.201157 181 217 235
0.254551 -0.637813 0.19228 80 115 135
-0.0436024 -0.156132 0.183749 123 72 51
-0.166007 -0.592064 0.277571 205 195 187
-0.147026 -0.638774 0.278407 210 201 202
-0.132135 -0.641066 0.274534 223 218 222
-0.0872052 -0.643346 0.26264 220 214 221
-0.047136 -0.643213 0.252277 205 197 204
-0.0346228 -0.643398 0.24918 197 187 195
-0.0179603 -0.642506 0.244973 181 169 175
-0.011737 -0.642773 0.24351 169 159 165
0.000640236 -0.639117 0.240043 159 149 155
0.0187656 -0.631083 0.234679 148 135 142
0.0356285 -0.614483 0.228501 143 129 136
0.0692945 -0.509653 0.206534 136 79 55
0.0831258 -0.513114 0.204203 137 76 56
0.104639 -0.524526 0.201531 134 74 53
0.15581 -0.638686 0.207215 156 188 203
0.164255 -0.62987 0.204469 182 216 231
0.174356 -0.632893 0.203024 134 167 186
0.25826 -0.636105 0.189145 134 172 191
-0.164054 -0.591174 0.274743 201 191 183
-0.130826 -0.642886 0.27211 222 217 221
-0.128542 -0.642484 0.271424 221 215 222
-0.0958646 -0.64106 0.262352 222 216 223
-0.0857911 -0.644997 0.260218 219 213 219
-0.0772136 -0.64448 0.257899 216 211 217
-0.0267529 -0.642323 0.244851 188 178 186
0.0260733 -0.626153 0.23015 145 133 137
0.0436709 -0.584262 0.220463 105 55 42
0.0485227 -0.536859 0.212927 111 55 40
0.0987369 -0.516892 0.199911 127 69 46
0.102972 -0.519947 0.199491 136 75 53
0.172176 -0.634814 0.201433 172 206 222
0.204105 -0.632875 0.195488 124 160 176
0.231078 -0.633508 0.190964 164 199 219
0.238943 -0.63434 0.189758 85 120 140
0.285167 -0.637978 0.182792 88 113 125
-0.0484047 -0.16353 0.185616 122 73 51
-0.0608743 -0.645261 0.251526 212 204 209
-0.054381 -0.643087 0.249587 209 201 206
0.00774594 -0.634763 0.233365 159 149 155
0.0116713 -0.630764 0.231917 158 148 153
0.0136557 -0.629743 0.231321 155 145 151
0.0699603 -0.50884 0.202924 129 73 51
0.0903143 -0.511846 0.199199 117 64 41
0.099721 -0.515756 0.19785 129 68 48
0.129579 -0.569733 0.198974 133 85 70
0.158431 -0.636145 0.20191 187 223 242
0.166339 -0.632649 0.199998 173 204 221
0.219885 -0.637362 0.191038 192 228 245
0.231041 -0.634718 0.188828 176 209 230
0.235165 -0.632865 0.187917 201 235 251
-0.0498693 -0.162541 0.185709 95 52 35
-0.0472118 -0.162098 0.184781 123 72 51
-0.0782566 -0.645041 0.253706 216 211 217
-0.0485241 -0.642089 0.245737 205 197 202
-0.0444463 -0.6435 0.2449 200 192 200
0.00324686 -0.638008 0.232645 162 152 158
0.0426351 -0.600739 0.218846 145 126 133
0.0478681 -0.551305 0.211344 111 56 43
0.0560771 -0.525261 0.206245 135 77 58
0.0575444 -0.524055 0.205779 132 76 57
0.0851976 -0.505969 0.197787 114 57 40
0.0874502 -0.508535 0.197658 114 60 42
0.19799 -0.632261 0.19198 93 128 148
0.227704 -0.634099 0.187034 183 216 235
-0.159952 -0.593996 0.267509 180 167 158
-0.155895 -0.639878 0.271817 196 187 186
-0.119389 -0.644048 0.262224 217 212 218
-0.0573906 -0.642391 0.245768 209 200 208
-0.0344758 -0.642699 0.240091 193 182 190
-0.0241082 -0.643397 0.237645 180 170 175
-0.0199571 -0.643618 0.236668 175 167 172
0.0145876 -0.627255 0.226455 159 149 155
0.0626216 -0.517421 0.202153 130 76 55
0.0735373 -0.506441 0.19854 124 69 46
0.1086 -0.519877 0.193178 123 68 43
0.190665 -0.632983 0.191128 156 190 206
0.195125 -0.632385 0.190259 186 217 236
0.23923 -0.633363 0.182716 163 198 218
0.253039 -0.635648 0.180663 183 221 240
-0.158576 -0.594905 0.265091 176 166 154
-0.149264 -0.63827 0.267465 210 201 202
-0.140571 -0.638804 0.265112 223 218 222
-0.113135 -0.64289 0.258111 220 214 221
-0.100196 -0.642699 0.254636 222 216 223
-0.0516852 -0.643374 0.242211 204 196 203
-0.0392288 -0.644596 0.23926 194 183 191
-0.0038986 -0.63846 0.229977 162 152 158
0.0696577 -0.513361 0.198494 121 68 47
0.155496 -0.624913 0.194488 177 213 228
0.165917 -0.636308 0.193817 186 220 236
0.195033 -0.633584 0.188164 183 216 235
0.231335 -0.633735 0.181811 131 167 183
-0.0471683 -0.158791 0.183613 112 65 45
-0.11819 -0.644099 0.25733 216 211 217
-0.0460336 -0.64526 0.238783 197 187 195
-0.0188289 -0.641242 0.23166 173 163 168
-0.010559 -0.63956 0.229483 164 154 159
0.0115822 -0.626788 0.222786 161 151 157
0.0192928 -0.620634 0.22029 159 149 155
0.0449138 -0.617133 0.214114 144 127 131
0.0521779 -0.541295 0.203721 119 67 48
0.0580553 -0.524432 0.200513 123 71 55
0.104622 -0.508748 0.189242 120 64 44
0.162471 -0.634366 0.192019 172 208 223
0.256271 -0.634155 0.175349 102 136 156
0.26521 -0.636359 0.174088 151 188 207
0.2768 -0.638193 0.172371 111 144 164
-0.111942 -0.642891 0.253242 221 215 222
-0.086162 -0.642058 0.246366 216 211 215
-0.0820267 -0.642773 0.245375 215 209 216
-0.021412 -0.642377 0.230194 173 163 168
0.0368116 -0.620948 0.214237 153 139 141
0.0597924 -0.527337 0.198735 123 73 56
0.0654317 -0.521415 0.196886 118 69 49
0.0738334 -0.505732 0.193406 123 69 46
0.0873606 -0.494671 0.189449 120 69 47
0.0906262 -0.494914 0.188824 122 71 48
0.176274 -0.636252 0.187398 167 204 219
0.178335 -0.635546 0.18694 170 206 221
0.253746 -0.635441 0.17359 70 103 124
-0.129175 -0.64005 0.255294 220 214 221
-0.114351 -0.64168 0.251484 217 212 218
-0.0887459 -0.641921 0.244772 216 211 215
-0.0239277 -0.640515 0.22838 174 164 170
0.151121 -0.602516 0.186496 211 232 245
0.175487 -0.635548 0.185234 178 207 222
0.181992 -0.634346 0.183901 167 204 219
0.250774 -0.635811 0.17182 160 198 215
-0.16685 -0.59565 0.259004 152 136 124
-0.148383 -0.636036 0.257852 145 123 128
-0.0559599 -0.646061 0.234615 206 198 205
-0.0496376 -0.645749 0.233008 200 189 197
-0.0120264 -0.638259 0.223083 164 154 159
0.0102746 -0.630444 0.21703 161 151 157
0.043052 -0.632836 0.209841 112 98 98
0.0862465 -0.486898 0.185652 121 70 48
0.0989948 -0.492928 0.183718 118 65 40
0.169942 -0.634324 0.183926 255 255 255
0.244434 -0.634448 0.170481 169 201 215
-0.143498 -0.640939 0.254719 219 213 217
-0.119727 -0.642116 0.248428 215 210 214
-0.106783 -0.642021 0.244993 219 213 217
-0.0501451 -0.645964 0.230918 179 169 174
-0.0374396 -0.643118 0.227504 165 155 158
-0.0290795 -0.641707 0.225327 146 137 138
-0.0249187 -0.640949 0.224246 148 139 142
-0.0228551 -0.641054 0.223759 151 141 142
0.0525222 -0.630135 0.205309 159 143 144
0.074422 -0.49879 0.187631 120 69 47
0.0864088 -0.482824 0.183639 122 72 46
0.117498 -0.511588 0.180254 117 70 47
0.176959 -0.636238 0.18055 255 255 255
0.217515 -0.636725 0.173136 190 215 230
0.254443 -0.635143 0.16652 167 197 212
-0.0485978 -0.160543 0.18284 105 58 40
-0.0987126 -0.641981 0.240626 203 195 200
-0.0757989 -0.644979 0.235019 96 89 89
-0.0191862 -0.639455 0.220518 120 111 112
-0.00279502 -0.633887 0.216093 145 135 139
0.0608919 -0.579066 0.196452 110 62 44
0.0669144 -0.538814 0.191343 102 57 40
0.102069 -0.483898 0.179053 115 65 37
0.157217 -0.599702 0.178815 168 155 121
0.175838 -0.634564 0.178376 209 207 203
0.177892 -0.633851 0.177925 202 198 197
0.20199 -0.635549 0.173586 252 255 255
-0.190884 -0.521618 0.253313 95 44 36
-0.139898 -0.548736 0.241078 156 107 103
-0.120185 -0.639615 0.243797 133 121 123
-0.0531623 -0.645161 0.227118 114 107 107
-0.0466554 -0.641818 0.225202 115 105 106
0.0436731 -0.633273 0.203245 68 53 49
0.0744128 -0.494873 0.184026 115 64 45
0.0966037 -0.477184 0.177966 124 71 46
0.196674 -0.635506 0.172312 97 91 73
0.206027 -0.635035 0.170546 81 80 73
-0.185372 -0.521358 0.249827 132 63 54
-0.164638 -0.576963 0.248361 130 92 84
-0.125228 -0.640737 0.242977 115 104 103
-0.065913 -0.641897 0.227774 113 106 106
-0.046883 -0.638037 0.22271 112 105 105
0.0061235 -0.624284 0.208822 41 36 26
0.037085 -0.633942 0.202611 68 55 50
0.0449284 -0.630303 0.20054 58 46 41
0.0528453 -0.611463 0.197139 35 12 1
0.073071 -0.505405 0.183596 111 64 43
0.0774886 -0.489182 0.181294 114 63 41
0.0988828 -0.475544 0.175826 121 68 45
0.282206 -0.640873 0.15523 38 37 28
-0.175969 -0.530288 0.245941 140 62 52
-0.171295 -0.528013 0.244437 147 71 63
-0.164125 -0.539489 0.243281 133 54 49
-0.157592 -0.56622 0.243525 122 93 87
-0.112627 -0.639948 0.237341 119 110 109
-0.0531246 -0.632643 0.221596 111 102 103
0.0727773 -0.57963 0.188105 93 48 29
-0.18352 -0.533749 0.246469 154 74 64
-0.155054 -0.55696 0.240148 111 78 71
-0.137667 -0.57733 0.236922 160 91 92
-0.146039 -0.62441 0.242759 163 113 114
-0.120947 -0.636277 0.236993 117 108 107
-0.0350353 -0.62845 0.214662 20 12 10
0.0121221 -0.600544 0.201276 182 174 170
0.0753251 -0.48976 0.178611 117 68 46
0.093727 -0.470835 0.17341 125 72 47
0.106002 -0.47557 0.171328 114 64 37
0.11949 -0.492253 0.169926 122 78 54
-0.181959 -0.533711 0.244132 157 79 71
-0.14703 -0.542288 0.234964 128 76 69
-0.135121 -0.552507 0.232444 168 98 95
-0.134345 -0.636244 0.238292 128 117 116
-0.117829 -0.62915 0.23342 112 103 102
-0.109028 -0.627083 0.230973 108 102 100
-0.0150984 -0.604675 0.205923 131 128 122
0.00778285 -0.598792 0.200117 63 62 54
0.0763171 -0.562954 0.182213 90 49 31
-0.188753 -0.52116 0.243392 141 69 59
-0.143165 -0.534494 0.231511 119 57 46
-0.141803 -0.536009 0.231241 130 66 56
-0.114164 -0.619068 0.229564 100 91 89
-0.111997 -0.618548 0.228963 80 71 69
-0.0786488 -0.612867 0.220016 205 193 183
-0.0504215 -0.606533 0.212533 164 159 147
-0.0371158 -0.6117 0.209659 80 83 68
-0.0135812 -0.597889 0.203028 146 145 134
-0.00403188 -0.603014 0.201151 98 107 90
0.0107157 -0.58887 0.196706 172 163 159
0.0266043 -0.629154 0.195978 30 28 24
0.0441448 -0.621832 0.191511 52 42 36
0.099877 -0.468057 0.168947 112 59 38
0.102987 -0.468157 0.168335 113 62 38
0.104396 -0.467719 0.168026 113 62 36
-0.19785 -0.498234 0.242848 62 27 16
-0.16877 -0.527139 0.236272 133 54 47
-0.166203 -0.530332 0.235749 126 50 44
-0.112293 -0.607528 0.226167 190 178 170
-0.100838 -0.599889 0.222699 184 172 161
-0.0725357 -0.60798 0.216049 196 189 178
-0.0604215 -0.604595 0.212803 155 152 139
-0.056487 -0.604059 0.211794 53 54 35
-0.0411121 -0.605567 0.208132 187 177 169
-0.021784 -0.604753 0.203425 202 201 192
0.0905481 -0.468661 0.16935 122 71 48
-0.202587 -0.499401 0.242505 61 28 21
-0.163704 -0.532694 0.233343 103 33 27
-0.161732 -0.53241 0.232783 93 27 24
-0.148971 -0.532985 0.229319 95 38 25
-0.147327 -0.533573 0.228906 106 47 33
-0.138186 -0.565845 0.228347 155 83 75
-0.145023 -0.638295 0.234519 56 45 42
-0.0648367 -0.605227 0.211879 230 227 221
-0.0569534 -0.604187 0.209863 166 170 148
-0.0548559 -0.602418 0.209234 166 172 149
-0.0452848 -0.603376 0.206952 150 165 128
-0.00497843 -0.599284 0.197063 49 70 42
0.00634241 -0.5962 0.194232 0 5 0
0.0134259 -0.586013 0.191948 159 150 146
0.0255272 -0.627437 0.191833 34 33 29
0.0743524 -0.499316 0.173052 103 63 40
0.0843273 -0.469285 0.169148 107 58 34
0.0991963 -0.463048 0.165759 111 58 35
0.111733 -0.468491 0.163584 121 71 44
-0.191641 -0.525134 0.238879 145 71 64
-0.140094 -0.544679 0.225726 138 71 61
-0.1389 -0.553403 0.225888 153 84 75
-0.141331 -0.582776 0.228172 154 82 74
-0.0957328 -0.588186 0.216587 183 171 161
-0.0753713 -0.592838 0.211708 184 172 163
-0.0707073 -0.60159 0.21106 143 140 128
-0.0633828 -0.605595 0.209479 82 102 64
-0.0245949 -0.60392 0.199956 12 41 2
-0.0187464 -0.599155 0.198279 0 20 0
0.0358933 -0.635851 0.187861 26 20 13
0.0963809 -0.46493 0.164937 113 60 37
-0.202341 -0.493478 0.238621 76 34 25
-0.194992 -0.501798 0.236898 107 49 39
-0.165923 -0.536631 0.230439 80 24 17
-0.141502 -0.574672 0.225773 149 82 73
-0.0637451 -0.604716 0.207459 44 80 27
-0.0518728 -0.602062 0.204394 0 29 0
0.0491176 -0.611609 0.181398 127 116 111
0.0847391 -0.620594 0.174122 156 150 145
0.0763875 -0.520383 0.170503 98 58 39
0.0836855 -0.46946 0.166273 105 57 34
0.101831 -0.459067 0.16204 112 64 39
0.106882 -0.460586 0.161106 119 68 42
-0.193744 -0.523656 0.23569 141 72 66
-0.193706 -0.528054 0.235866 144 69 63
-0.166364 -0.536726 0.228696 74 20 18
-0.155824 -0.533358 0.225678 24 0 0
-0.145176 -0.528781 0.222594 119 55 38
-0.111656 -0.586132 0.216542 206 194 187
-0.0907554 -0.587523 0.211274 183 171 159
-0.0816198 -0.590168 0.209106 184 172 163
-0.0732964 -0.599551 0.207504 219 212 201
-0.0422473 -0.595079 0.199655 14 51 5
0.00290379 -0.588575 0.188621 61 77 44
0.0424314 -0.628423 0.181682 112 101 96
0.0777822 -0.630948 0.17403 150 141 137
0.0783021 -0.493385 0.167056 105 60 41
0.112732 -0.460685 0.158455 121 70 46
-0.186114 -0.527515 0.231872 133 52 47
-0.15498 -0.529687 0.223454 40 0 0
-0.125905 -0.595094 0.218618 207 199 192
-0.0562453 -0.597882 0.201184 0 19 0
-0.0502328 -0.594497 0.199557 0 49 0
-0.0255532 -0.591258 0.193462 90 146 54
-0.0199185 -0.590478 0.192087 100 143 74
0.0459997 -0.628131 0.178737 170 159 154
0.0584787 -0.629732 0.176043 163 152 147
0.0675795 -0.635572 0.174316 8 0 0
0.0696267 -0.635277 0.173855 41 27 16
0.0798476 -0.633673 0.171556 158 149 145
0.0848956 -0.574798 0.16776 89 58 41
0.0801275 -0.533924 0.166909 95 57 40
0.121998 -0.470074 0.155512 121 73 46
-0.196878 -0.483886 0.231523 99 44 33
-0.142896 -0.56141 0.219644 145 78 66
-0.117345 -0.590286 0.214157 168 156 146
-0.104607 -0.585063 0.210679 182 170 160
-0.0602877 -0.595551 0.20005 86 150 53
-0.0184756 -0.589622 0.189728 93 127 70
0.0359528 -0.63512 0.179161 157 148 142
0.0401325 -0.635768 0.178249 157 147 141
0.0822684 -0.480102 0.162477 103 59 38
0.0891445 -0.471083 0.160679 99 53 30
0.0992231 -0.458761 0.158121 109 61 36
0.110165 -0.455149 0.155772 119 68 44
-0.191016 -0.486132 0.228249 117 55 44
-0.19046 -0.500819 0.228535 129 65 52
-0.194195 -0.530885 0.230492 138 64 55
-0.180261 -0.525255 0.226493 117 45 40
-0.169338 -0.536307 0.223889 56 11 8
-0.130138 -0.600572 0.215804 100 95 95
-0.104873 -0.584164 0.208716 182 170 160
-0.0568769 -0.595069 0.197184 74 135 39
-0.0247801 -0.598492 0.189595 101 128 78
-0.00959228 -0.583878 0.185434 80 130 49
0.0136619 -0.607489 0.180981 161 155 150
0.0290499 -0.631677 0.178428 96 92 89
0.0312346 -0.633527 0.178006 158 153 146
0.0666363 -0.635754 0.170197 6 0 0
0.0729315 -0.63583 0.16882 43 33 23
0.0810005 -0.525545 0.162883 100 60 40
0.103165 -0.453256 0.155651 111 60 36
0.107218 -0.451891 0.154784 115 64 41
-0.189436 -0.527908 0.227234 126 50 44
-0.178713 -0.525106 0.224234 89 28 23
-0.148275 -0.516972 0.215813 115 53 38
-0.143569 -0.554317 0.215728 141 77 60
-0.0937598 -0.594733 0.204281 183 171 161
-0.0697999 -0.603665 0.198639 48 103 16
-0.0275785 -0.611462 0.188709 154 160 140
-0.0196475 -0.604756 0.186592 144 146 134
0.0264093 -0.629894 0.176821 63 57 50
0.0804826 -0.633588 0.164927 65 53 44
0.081828 -0.523297 0.160902 100 60 42
0.0914029 -0.465198 0.156986 103 55 30
0.0947475 -0.461096 0.156164 105 57 32
0.115652 -0.455207 0.151729 121 73 46
-0.189017 -0.53054 0.225329 127 53 46
-0.179513 -0.526086 0.222644 78 22 18
-0.177165 -0.52494 0.221982 74 17 14
-0.175916 -0.526554 0.221684 77 21 17
-0.159613 -0.527792 0.217346 56 14 7
-0.143725 -0.547148 0.213666 138 77 57
-0.1285 -0.598307 0.211164 198 190 186
-0.125694 -0.59492 0.210347 211 205 200
-0.117736 -0.594847 0.208312 121 109 100
-0.0928737 -0.61026 0.202503 183 171 161
-0.0892987 -0.612918 0.201693 181 172 161
-0.059813 -0.616074 0.194535 86 135 59
-0.00663186 -0.605016 0.18151 0 9 0
-0.000710222 -0.612978 0.180383 17 24 6
0.0115212 -0.624683 0.177926 17 19 11
0.0200933 -0.634311 0.176263 22 18 13
0.090209 -0.631806 0.160601 70 58 48
0.0920543 -0.630429 0.160161 69 57 47
0.0938907 -0.629046 0.159724 68 56 46
0.0888076 -0.467965 0.15611 99 54 33
0.125675 -0.466318 0.148527 118 72 44
-0.202595 -0.467138 0.226028 86 38 27
-0.1905 -0.471553 0.222751 119 60 45
-0.188822 -0.494676 0.222714 131 67 57
-0.194733 -0.529245 0.22499 133 61 53
-0.191086 -0.529847 0.224013 124 49 45
-0.183052 -0.52911 0.221826 99 34 28
-0.180684 -0.52798 0.221165 74 20 18
-0.162662 -0.530026 0.216388 57 14 11
-0.148148 -0.514249 0.212192 121 57 42
-0.1456 -0.551964 0.212393 141 81 62
-0.159773 -0.627872 0.217884 139 84 69
-0.117378 -0.600224 0.206315 78 67 62
-0.113169 -0.599152 0.205222 193 185 178
-0.103854 -0.602191 0.202951 197 185 175
-0.0890297 -0.621201 0.19975 206 195 190
-0.0753737 -0.625319 0.19649 126 128 112
-0.0669359 -0.622395 0.194346 88 133 63
-0.0432054 -0.62773 0.188751 38 37 26
-0.0291218 -0.628563 0.185415 17 16 5
-0.0251503 -0.630726 0.184534 20 19 11
-0.0210413 -0.62786 0.183484 22 23 16
0.00314331 -0.628965 0.177863 19 20 13
0.0134971 -0.634655 0.175632 28 29 22
0.0156335 -0.636566 0.175194 32 31 24
0.0846455 -0.531827 0.157074 104 62 42
0.0954461 -0.455564 0.152925 107 61 38
0.0981668 -0.454715 0.152342 105 54 30
0.130657 -0.471802 0.146118 112 66 43
-0.194204 -0.467557 0.222075 115 56 42
-0.189479 -0.472338 0.220843 122 60 45
-0.194402 -0.523071 0.222941 133 64 56
-0.175517 -0.528261 0.217947 57 9 7
-0.10424 -0.62363 0.201459 147 136 128
-0.0944286 -0.626481 0.199079 58 52 48
-0.0516397 -0.62613 0.188606 39 38 27
-0.0256884 -0.632776 0.182567 54 53 46
0.00673863 -0.629919 0.174924 33 34 25
0.0252616 -0.634066 0.170774 39 36 30
0.0354536 -0.633304 0.168444 37 35 29
0.0949865 -0.628751 0.155184 58 50 41
0.0854817 -0.529544 0.15509 103 61 41
0.0847201 -0.478283 0.154174 100 55 36
0.0859185 -0.476936 0.153893 100 55 36
0.0904436 -0.465329 0.152703 99 54 33
0.122569 -0.455579 0.14591 117 69 42
-0.194835 -0.444701 0.220412 68 31 21
-0.20055 -0.458556 0.222109 87 41 31
-0.107814 -0.629163 0.200304 19 18 11
-0.102629 -0.635261 0.199123 26 25 18
-0.0674031 -0.636634 0.190488 130 131 126
-0.0322591 -0.632558 0.18197 46 44 40
0.0369297 -0.632175 0.165939 37 33 28
0.0452658 -0.633375 0.164085 42 39 28
0.082478 -0.496311 0.153413 104 57 38
0.101743 -0.449218 0.148598 108 59 35
0.123621 -0.455078 0.144208 115 70 42
-0.186698 -0.479811 0.216864 123 65 48
-0.187136 -0.488469 0.217045 129 67 54
-0.1922 -0.538782 0.218809 115 45 37
-0.151849 -0.511319 0.207881 115 54 36
-0.125622 -0.631539 0.202627 51 52 45
-0.0902918 -0.633508 0.193858 41 42 35
-0.0862311 -0.634157 0.192869 47 45 41
-0.0245905 -0.631926 0.177997 26 27 20
-0.00428825 -0.633179 0.173262 29 30 25
0.0058225 -0.630997 0.170885 24 26 18
0.018191 -0.634503 0.168094 31 29 25
0.114102 -0.446877 0.144585 114 64 35
0.115434 -0.446376 0.144308 121 71 44
-0.193069 -0.466627 0.216885 121 63 44
-0.189408 -0.466339 0.215893 123 65 46
-0.183746 -0.536206 0.214664 42 6 4
-0.14704 -0.533297 0.205049 145 82 63
-0.158182 -0.638511 0.208744 46 27 15
-0.147435 -0.639509 0.206016 61 53 47
-0.0682772 -0.635704 0.186335 53 51 49
-0.0595518 -0.630634 0.184171 44 45 40
0.0641169 -0.626921 0.155502 29 21 10
0.0813486 -0.619017 0.15162 36 24 15
0.0853211 -0.618271 0.150743 49 37 25
0.0873055 -0.617887 0.150306 50 39 27
0.0879642 -0.471021 0.14879 96 49 30
0.109473 -0.443176 0.144072 113 62 36
-0.20067 -0.453477 0.217351 81 37 25
-0.149856 -0.513451 0.203893 128 65 47
-0.149242 -0.516852 0.203745 131 68 49
-0.163003 -0.601677 0.207582 144 88 68
-0.149491 -0.637031 0.204287 56 48 42
-0.139267 -0.639774 0.201717 54 53 46
-0.124034 -0.639358 0.197894 70 71 66
0.0310545 -0.627619 0.160807 31 29 23
0.067738 -0.613173 0.152481 46 34 22
0.0770361 -0.608562 0.1504 34 22 14
0.0957343 -0.610971 0.146327 44 30 18
0.0855389 -0.474712 0.147807 102 57 38
0.0887981 -0.469675 0.147089 97 50 29
0.0911424 -0.461728 0.146556 98 53 32
-0.192808 -0.435316 0.21376 70 33 23
-0.199821 -0.464479 0.215475 110 55 42
-0.185991 -0.468545 0.211746 123 65 46
-0.188294 -0.535716 0.212119 77 23 18
-0.152281 -0.504207 0.202786 113 52 36
-0.150136 -0.534655 0.202207 142 79 61
-0.150002 -0.637042 0.202188 54 46 40
-0.0916178 -0.632578 0.187658 41 42 35
-0.0814723 -0.634136 0.185185 23 24 17
-0.0608044 -0.633648 0.180184 12 10 6
-0.00376765 -0.626216 0.166679 12 13 6
0.00810611 -0.620931 0.163914 16 17 10
0.0275432 -0.613827 0.159439 28 27 21
0.0742243 -0.594782 0.14893 52 37 29
0.0884723 -0.469684 0.145646 98 51 33
0.0966421 -0.446357 0.143908 104 57 34
0.0986886 -0.443582 0.143478 105 59 36
0.104938 -0.440373 0.142171 109 59 33
-0.203317 -0.456975 0.214868 84 40 30
-0.202954 -0.462918 0.214712 100 50 35
-0.184113 -0.46747 0.209643 125 66 47
-0.158083 -0.499976 0.202599 96 36 22
-0.15654 -0.558959 0.201912 143 82 62
-0.146674 -0.639134 0.199116 51 45 41
-0.133901 -0.64036 0.195913 88 86 82
-0.127519 -0.640852 0.194322 94 92 88
-0.125254 -0.640347 0.19376 91 90 86
-0.0343363 -0.62566 0.171725 18 16 12
0.0148557 -0.605601 0.160279 2 0 0
0.030052 -0.601554 0.156812 60 53 49
0.0830382 -0.581823 0.145013 175 158 148
0.0907734 -0.462701 0.143665 96 52 31
0.126276 -0.44592 0.136298 114 69 39
-0.18501 -0.464964 0.208303 125 66 47
-0.1817 -0.468874 0.207384 126 67 50
-0.181142 -0.471373 0.207207 126 67 50
-0.183332 -0.49572 0.207507 125 64 48
-0.184623 -0.502806 0.207767 123 60 45
-0.154538 -0.494026 0.200043 111 50 34
-0.152227 -0.49706 0.19942 119 55 38
-0.16994 -0.612479 0.202957 145 89 69
-0.148728 -0.636638 0.197416 2 0 0
-0.144891 -0.638709 0.19644 2 0 0
-0.141031 -0.640752 0.195461 26 25 18
-0.121843 -0.632008 0.190747 0 0 0
-0.0898204 -0.627961 0.182906 19 17 13
-0.0774907 -0.627757 0.179914 14 15 8
0.00256223 -0.596065 0.161124 147 139 133
0.0211701 -0.590163 0.156875 160 148 138
0.0501911 -0.580201 0.150357 123 114 103
0.0714866 -0.572782 0.145657 149 135 121
0.102709 -0.439891 0.139824 105 57 30
0.119108 -0.44011 0.13639 115 66 42
0.134872 -0.456214 0.132967 115 71 45
-0.184513 -0.463164 0.206604 124 68 48
-0.157609 -0.553603 0.198399 141 81 62
-0.144909 -0.636758 0.194237 92 86 81
-0.13738 -0.632521 0.192408 93 89 84
-0.111944 -0.611754 0.18633 35 36 29
-0.0786581 -0.617559 0.178151 9 5 0
-0.0713559 -0.623555 0.176332 3 2 0
-0.0452959 -0.625048 0.170086 59 57 44
0.0293539 -0.580448 0.153125 139 125 116
0.0851179 -0.567925 0.140786 171 157 145
0.0890582 -0.520878 0.140419 95 52 35
0.0885186 -0.473531 0.141053 99 54 35
-0.182445 -0.468849 0.204365 125 69 50
-0.176987 -0.50876 0.202207 68 22 15
-0.150147 -0.493849 0.195586 128 65 47
-0.165127 -0.621661 0.197305 81 67 56
-0.0562104 -0.60712 0.1708 44 41 29
0.0140224 -0.577501 0.154734 147 135 123
0.0230681 -0.575898 0.152683 144 130 119
0.0287654 -0.578436 0.151351 139 125 116
0.0807296 -0.566709 0.139867 165 149 136
0.0943733 -0.447718 0.138662 99 55 31
0.0954143 -0.446335 0.138461 100 56 32
0.101474 -0.437978 0.137303 105 57 32
0.105037 -0.435646 0.136585 109 60 38
-0.202143 -0.461902 0.208066 104 54 39
-0.189804 -0.461868 0.204837 127 70 51
-0.185247 -0.463128 0.20362 125 69 52
-0.1796 -0.469307 0.20201 127 69 50
-0.179616 -0.496837 0.201394 113 49 36
-0.0980291 -0.596298 0.179018 194 182 170
-0.0818698 -0.591919 0.175174 178 164 152
-0.063099 -0.594373 0.170616 179 165 154
-0.0245271 -0.572006 0.161856 151 137 126
-0.011935 -0.575188 0.158857 167 155 145
0.0153685 -0.576369 0.152523 146 134 122
0.0319102 -0.577074 0.148732 136 121 112
0.0901589 -0.5214 0.136733 66 27 13
0.0896702 -0.468832 0.137835 98 53 32
-0.149892 -0.49098 0.192266 133 68 49
-0.162048 -0.563003 0.193577 140 79 61
-0.13804 -0.612007 0.186447 195 181 170
-0.106992 -0.580317 0.17953 176 162 151
-0.0716726 -0.583287 0.170907 176 162 153
-0.0661499 -0.583975 0.169567 174 162 150
-0.0441185 -0.588049 0.164233 159 145 134
-0.0248223 -0.567974 0.16011 175 161 152
0.0186454 -0.577098 0.149839 147 133 122
0.0260119 -0.577537 0.148145 140 126 115
0.0547413 -0.571152 0.141775 132 120 108
0.101863 -0.432299 0.134556 100 54 29
-0.157295 -0.478517 0.192844 119 55 40
-0.148777 -0.501082 0.190048 137 74 57
-0.140249 -0.594943 0.185336 175 161 150
-0.0924441 -0.581135 0.174007 176 162 151
-0.0309474 -0.575738 0.159468 175 161 150
-0.0127774 -0.574112 0.155256 167 153 142
0.00910057 -0.577588 0.1501 152 138 127
0.0382569 -0.575238 0.143492 128 117 105
0.0490318 -0.572881 0.141113 126 114 104
0.0880085 -0.488719 0.134636 107 62 45
0.100927 -0.430385 0.133432 99 53 30
0.108949 -0.432715 0.131647 104 56 31
0.150642 -0.465755 0.121853 96 59 37
-0.202782 -0.460925 0.203448 105 55 40
-0.185904 -0.462133 0.199062 129 73 53
-0.17955 -0.463107 0.197402 128 72 48
-0.16633 -0.479143 0.193496 93 39 25
-0.148012 -0.492952 0.18843 139 73 57
-0.15617 -0.578842 0.187726 178 164 152
-0.131379 -0.581872 0.181509 175 161 150
-0.115166 -0.578631 0.177639 173 161 149
-0.10546 -0.577663 0.175304 175 161 150
-0.0947136 -0.580758 0.172605 174 162 150
-0.08707 -0.580045 0.170781 174 162 150
-0.0812892 -0.578932 0.169423 174 162 150
-0.0687476 -0.582667 0.166305 175 161 150
-0.0406958 -0.579218 0.159744 174 160 149
0.00688651 -0.578621 0.148659 153 139 128
0.00867613 -0.577538 0.148278 152 138 127
0.0123727 -0.578346 0.147403 150 136 124
0.0434013 -0.575531 0.140399 125 111 100
0.0469214 -0.574069 0.139645 121 106 95
0.0890463 -0.569484 0.130349 177 160 150
0.0924339 -0.567671 0.129654 184 168 155
0.0915733 -0.46269 0.13307 94 49 30
0.145487 -0.454816 0.121753 101 62 39
-0.171624 -0.47472 0.193375 117 56 38
-0.170599 -0.476279 0.193058 113 52 36
-0.150837 -0.481301 0.187903 136 71 54
-0.152122 -0.577056 0.18479 175 161 150
-0.133407 -0.580363 0.180069 175 161 150
-0.0991737 -0.581991 0.171679 174 162 150
-0.0689396 -0.580624 0.164464 175 161 150
-0.0616107 -0.581462 0.162689 174 160 149
-0.0540833 -0.580189 0.160944 173 159 148
-0.0484291 -0.578654 0.159656 173 159 148
-0.0224269 -0.564919 0.153997 168 154 143
-0.0100033 -0.574993 0.150765 163 148 137
-0.00818939 -0.574975 0.150344 163 148 137
0.0192602 -0.577819 0.143912 142 127 116
0.0466201 -0.575004 0.137767 123 111 99
0.053489 -0.571006 0.136348 131 117 108
0.056955 -0.569463 0.135617 135 120 109
0.0718349 -0.569901 0.132259 150 136 122
0.0973603 -0.558092 0.126984 197 181 168
0.0882879 -0.4801 0.13169 102 58 36
0.118546 -0.428556 0.12696 104 57 34
-0.204939 -0.463457 0.200687 107 55 40
-0.188923 -0.456335 0.19691 127 74 51
-0.152571 -0.57699 0.182916 175 161 152
-0.147129 -0.578641 0.181513 171 157 145
-0.0488594 -0.57859 0.157827 172 158 147
-0.0321312 -0.573571 0.154075 172 158 147
-0.00496282 -0.576853 0.147613 157 143 129
0.0495852 -0.572459 0.135271 130 116 105
0.0512658 -0.57121 0.134938 131 117 106
0.0681374 -0.57248 0.131084 145 131 118
0.0923271 -0.456965 0.130144 91 49 29
0.123168 -0.429652 0.124539 105 61 35
0.126476 -0.43037 0.123801 99 55 31
-0.159367 -0.471575 0.187232 127 64 44
-0.15124 -0.475956 0.185015 141 75 61
-0.131977 -0.578768 0.175819 177 160 150
-0.0824441 -0.577748 0.163908 175 161 150
-0.0400945 -0.578134 0.153847 172 158 147
-0.0249985 -0.563747 0.150902 168 154 143
0.0491661 -0.572389 0.133459 129 118 106
0.0677177 -0.572409 0.129263 144 130 117
0.0728027 -0.569419 0.128245 151 137 124
0.0805696 -0.570887 0.12644 163 148 137
0.0857887 -0.568728 0.125363 172 158 145
0.0895961 -0.568878 0.124506 179 163 152
0.120481 -0.427388 0.123827 106 65 42
-0.179272 -0.459284 0.191214 133 74 55
-0.148351 -0.480354 0.182498 145 78 64
-0.160994 -0.575485 0.181074 178 164 152
-0.157082 -0.575699 0.180105 176 162 151
-0.107213 -0.577388 0.167919 171 160 148
-0.0793815 -0.579194 0.161168 173 161 149
-0.0184919 -0.572779 0.147104 165 151 138
0.0488707 -0.5733 0.131573 131 117 106
0.0541758 -0.571508 0.13045 135 120 109
0.0761683 -0.569602 0.125571 158 142 129
0.0869678 -0.567267 0.123254 173 159 148
0.144714 -0.441187 0.116537 104 65 39
-0.207894 -0.463353 0.196599 102 54 38
-0.165443 -0.5635 0.180789 136 88 75
-0.0963692 -0.577442 0.163362 173 159 148
-0.0851283 -0.577303 0.160684 171 160 148
-0.0740674 -0.577875 0.158023 173 161 149
-0.0501477 -0.578352 0.152341 173 159 148
-0.0312727 -0.566418 0.148499 169 155 144
0.065064 -0.572573 0.126018 142 127 116
0.0961799 -0.567947 0.119247 187 173 160
0.0929844 -0.45211 0.125829 93 48 31
0.117156 -0.424122 0.121957 101 57 35
-0.195303 -0.455667 0.192286 123 72 53
-0.161843 -0.47077 0.183136 132 70 50
-0.165805 -0.575051 0.178292 178 156 148
0.0948289 -0.439837 0.124639 92 47 30
0.100102 -0.425354 0.124272 98 54 30
0.142127 -0.429885 0.114814 102 60 36
0.1472 -0.437308 0.11329 100 63 39
-0.198344 -0.454103 0.191569 115 69 46
-0.187991 -0.457411 0.1888 130 76 55
-0.175704 -0.463519 0.185396 127 69 50
-0.157285 -0.520907 0.177443 140 79 61
-0.166122 -0.557021 0.177447 116 61 45
-0.139194 -0.57694 0.169753 171 157 145
-0.13738 -0.577434 0.169287 172 158 147
-0.0881333 -0.578793 0.157425 172 158 147
-0.0711572 -0.577148 0.153496 171 160 148
-0.0599096 -0.57537 0.150943 172 158 145
-0.0545594 -0.576864 0.149596 172 158 145
-0.0509187 -0.57716 0.148723 171 157 145
-0.0490972 -0.577298 0.148287 170 159 145
-0.0107263 -0.575481 0.139424 159 145 134
-0.00708904 -0.575424 0.138583 157 143 131
-0.00529031 -0.573387 0.138283 156 141 130
0.0315046 -0.578015 0.129526 133 119 108
0.065559 -0.569103 0.122267 143 129 117
0.0781475 -0.56662 0.119558 159 145 134
0.0966952 -0.565363 0.115446 190 174 161
0.105382 -0.421048 0.122001 99 55 31
-0.186072 -0.459617 0.186621 130 79 58
-0.162169 -0.469677 0.18012 140 75 56
-0.166064 -0.572938 0.174506 173 158 150
-0.160969 -0.575673 0.173102 174 160 149
-0.116205 -0.575439 0.162364 168 156 144
-0.00932895 -0.576346 0.137129 157 143 129
0.0145147 -0.578339 0.131486 145 131 120
0.0199486 -0.576935 0.130319 140 126 115
0.0687437 -0.568323 0.119683 147 133 122
0.0817026 -0.567689 0.116781 165 151 138
0.0908949 -0.566589 0.11477 182 165 155
0.114088 -0.418382 0.118893 93 49 27
0.118623 -0.415342 0.118085 95 51 27
-0.172267 -0.465272 0.181296 127 69 48
-0.163146 -0.467142 0.17895 138 75 58
-0.153742 -0.47641 0.176042 149 83 69
-0.141885 -0.576209 0.166495 167 153 142
-0.0962836 -0.577342 0.15555 168 156 146
-0.0571331 -0.575485 0.146431 169 156 142
-0.0480483 -0.576207 0.144251 168 155 141
-0.00793837 -0.574202 0.135024 156 141 130
0.0306555 -0.57779 0.12587 129 118 106
0.0542938 -0.573684 0.120719 135 124 112
0.0704639 -0.569821 0.117284 151 137 124
0.0722703 -0.569465 0.116897 152 138 125
0.0904768 -0.566474 0.11296 180 164 154
0.0996714 -0.565183 0.110964 191 175 162
0.0955122 -0.440104 0.120235 92 50 30
0.0979468 -0.429804 0.12038 92 47 28
0.106585 -0.418057 0.119239 101 59 36
0.131696 -0.415606 0.113831 106 62 36
-0.208642 -0.457761 0.18912 99 53 39
-0.180359 -0.463729 0.181797 127 74 53
-0.155843 -0.472389 0.175241 148 84 67
-0.134555 -0.57611 0.162777 164 150 138
-0.115697 -0.577549 0.158187 164 152 143
-0.108005 -0.57712 0.156392 164 153 141
-0.105989 -0.576503 0.155957 164 153 141
-0.0763556 -0.578318 0.148826 171 157 145
-0.0392482 -0.574628 0.140375 166 152 141
0.0319758 -0.576479 0.123724 129 118 106
0.044417 -0.57194 0.121182 127 115 105
0.0536041 -0.571589 0.1191 136 122 110
0.0608461 -0.570387 0.117526 138 126 114
0.0774468 -0.569208 0.113819 160 146 135
0.0872706 -0.571095 0.11145 173 159 146
0.0952035 -0.440015 0.118896 92 50 30
0.10202 -0.421766 0.11866 92 50 30
0.119713 -0.412266 0.115381 99 52 32
-0.19074 -0.456322 0.183294 127 75 56
-0.189841 -0.45792 0.182955 127 75 56
-0.182156 -0.459577 0.180969 127 74 53
-0.165431 -0.462976 0.176676 138 75 56
-0.154812 -0.477134 0.173054 152 86 69
-0.161066 -0.571486 0.16747 163 152 140
-0.158969 -0.571109 0.166997 162 150 138
-0.144844 -0.576403 0.163234 163 146 138
-0.12339 -0.575768 0.158181 161 149 137
-0.0921924 -0.580969 0.150415 166 154 142
-0.0581852 -0.577219 0.142695 163 152 140
-0.00512977 -0.575858 0.13042 152 138 127
0.0112729 -0.575103 0.126676 145 131 120
0.0150211 -0.576845 0.12568 143 129 115
0.0589062 -0.572537 0.115897 140 128 116
0.139331 -0.416848 0.109318 97 57 34
-0.165776 -0.462865 0.175211 141 77 60
-0.116344 -0.5763 0.154513 157 145 136
-0.0995792 -0.577605 0.150454 159 147 135
-0.0383987 -0.576438 0.136195 161 148 134
-0.026979 -0.563836 0.134514 159 145 132
-0.0128379 -0.574867 0.130365 153 141 127
0.00902911 -0.575079 0.125276 145 131 120
0.0292172 -0.575414 0.120583 131 119 107
0.0347854 -0.575798 0.119268 127 115 105
0.0398443 -0.571167 0.118463 125 113 103
0.0549836 -0.573987 0.11476 135 123 114
0.0568062 -0.573689 0.114365 136 125 113
0.137761 -0.41408 0.108517 96 56 35
-0.206396 -0.454717 0.184058 104 56 40
-0.202739 -0.454496 0.183199 111 64 45
-0.181539 -0.456652 0.177938 126 74 53
-0.162759 -0.466382 0.172642 147 81 67
-0.158677 -0.47241 0.171168 150 87 69
-0.156551 -0.572902 0.162336 158 143 135
-0.120629 -0.576319 0.153562 153 141 131
-0.0965439 -0.579083 0.147664 156 145 133
-0.0796106 -0.578647 0.143724 159 147 135
-0.0626808 -0.576593 0.139926 158 144 133
-0.0514773 -0.574546 0.137475 158 144 131
-0.0328126 -0.565546 0.133857 154 141 127
-0.0274288 -0.564692 0.132673 154 141 127
-0.0150784 -0.57474 0.128976 152 138 125
-0.0132596 -0.574723 0.128554 152 138 125
0.0177732 -0.575289 0.121312 138 126 114
0.0413434 -0.571774 0.116155 124 112 102
0.0707609 -0.569911 0.109537 152 138 127
0.0799853 -0.568992 0.107495 165 151 138
0.0926303 -0.453807 0.114093 91 49 29
0.0939825 -0.438767 0.115027 89 47 25
0.0986573 -0.426625 0.114968 91 46 27
0.107524 -0.415771 0.113853 92 47 26
-0.157984 -0.473785 0.169299 151 88 71
-0.160885 -0.572569 0.161412 157 142 133
-0.150057 -0.575875 0.15857 152 138 129
-0.146153 -0.575957 0.157642 152 138 129
-0.143521 -0.573581 0.157227 151 136 128
-0.141987 -0.575043 0.156739 150 136 124
-0.116764 -0.574049 0.150887 148 136 126
-0.104467 -0.578591 0.147606 148 136 124
-0.0966151 -0.576962 0.145904 150 139 127
-0.0949706 -0.578255 0.145406 150 139 127
-0.039246 -0.57614 0.13256 153 139 128
-0.0314907 -0.566447 0.131587 151 137 124
-0.02788 -0.565539 0.130825 150 136 122
-0.0172877 -0.572605 0.127752 149 134 123
-0.00276595 -0.574311 0.124232 147 134 120
0.0174085 -0.57613 0.119398 136 125 113
0.0247192 -0.575483 0.117761 132 120 108
0.0815626 -0.569412 0.105173 167 153 140
0.0957816 -0.564967 0.102291 187 173 162
0.103424 -0.564981 0.100536 194 180 169
0.106008 -0.416163 0.112829 90 48 26
0.108454 -0.415164 0.112358 88 44 22
0.128588 -0.40825 0.108381 95 51 27
0.131813 -0.408853 0.107596 94 50 26
-0.205624 -0.45185 0.180981 105 55 40
-0.159077 -0.47551 0.16781 151 88 71
-0.143953 -0.573418 0.155375 145 131 120
-0.118998 -0.573489 0.14951 145 131 122
-0.0194978 -0.571453 0.126457 144 130 119
0.064326 -0.569668 0.107198 143 129 117
0.0659755 -0.568347 0.106937 147 133 122
0.0827564 -0.567871 0.10311 168 155 141
0.0964471 -0.491542 0.106857 94 56 35
0.0940664 -0.445602 0.111561 90 48 28
0.105715 -0.416053 0.111568 90 48 26
0.107813 -0.414131 0.111263 88 46 24
-0.16206 -0.573186 0.157672 149 134 125
-0.152157 -0.573093 0.155359 145 131 122
-0.146186 -0.572742 0.153993 143 129 117
-0.134577 -0.572771 0.151272 140 126 115
-0.132774 -0.57323 0.150806 140 126 117
-0.11177 -0.572916 0.145922 136 124 115
-0.058183 -0.573635 0.133346 135 123 114
-0.0382096 -0.574896 0.128575 134 125 110
-0.0324147 -0.568118 0.127865 135 124 112
-0.0287868 -0.56721 0.127107 134 122 110
-0.0269963 -0.567244 0.126687 135 124 110
-0.021723 -0.571283 0.12508 132 120 106
0.0109868 -0.574222 0.117205 128 117 105
0.0398713 -0.569322 0.11097 123 110 101
0.0729419 -0.567722 0.103468 156 142 128
0.10149 -0.420667 0.110766 89 47 25
0.104739 -0.414087 0.110641 89 47 25
0.105956 -0.413593 0.110408 89 47 25
0.107172 -0.413094 0.110176 88 46 24
-0.207781 -0.454188 0.178123 103 56 37
-0.18871 -0.450941 0.173974 124 73 52
-0.182477 -0.451875 0.172422 126 72 52
-0.177117 -0.454498 0.170907 127 75 56
-0.170774 -0.458563 0.169021 137 79 60
-0.165458 -0.569948 0.156801 143 131 122
-0.164293 -0.57243 0.156285 145 131 122
-0.127542 -0.573417 0.147606 133 119 110
-0.123458 -0.572326 0.146761 132 120 110
-0.113782 -0.57139 0.144596 131 119 107
-0.0825388 -0.57379 0.137077 126 116 103
-0.0768201 -0.572535 0.135868 126 114 102
-0.0716545 -0.575166 0.134406 129 118 106
-0.0185632 -0.573103 0.122256 120 110 98
-0.0149331 -0.573075 0.121415 121 112 99
0.00142936 -0.573583 0.117563 124 115 104
0.00324831 -0.573492 0.11715 121 112 99
0.00695708 -0.575276 0.116113 121 111 101
0.0649775 -0.56703 0.103462 146 132 121
0.0897481 -0.568728 0.0975569 178 162 149
0.0955352 -0.428957 0.109972 89 47 25
0.101194 -0.420546 0.109493 88 45 28
0.103342 -0.418651 0.109183 87 45 22
0.121737 -0.404238 0.106357 88 44 20
0.134026 -0.402525 0.103692 92 53 29
-0.168791 -0.460557 0.166809 145 84 68
-0.162695 -0.465373 0.164896 151 88 71
-0.162077 -0.467799 0.164503 153 90 73
-0.161061 -0.469301 0.164113 151 88 71
-0.150929 -0.572302 0.151204 137 123 112
-0.116444 -0.572775 0.143132 124 112 100
-0.0478986 -0.571097 0.127362 114 104 94
-0.0135373 -0.57287 0.119193 114 104 94
0.00839984 -0.575974 0.113777 120 108 98
0.0339815 -0.57361 0.108074 119 109 98
0.046731 -0.571888 0.105289 131 119 109
0.0854988 -0.56845 0.0966369 172 158 145
0.11035 -0.40806 0.107293 88 46 24
0.116354 -0.402156 0.106506 82 40 18
0.117916 -0.402517 0.106107 84 42 20
0.126207 -0.405095 0.10392 88 44 20
0.13171 -0.401238 0.103039 88 46 22
-0.181366 -0.451348 0.169149 126 72 52
-0.161136 -0.472497 0.162213 151 88 71
-0.170546 -0.542751 0.156924 96 52 40
-0.157944 -0.574315 0.150645 136 121 114
-0.145672 -0.572693 0.147972 130 115 109
-0.134567 -0.574608 0.145192 121 111 103
-0.115063 -0.572966 0.140842 113 106 95
-0.0951075 -0.576691 0.135814 113 106 95
-0.0376536 -0.574421 0.122712 119 109 98
-0.00851026 -0.572563 0.116137 109 100 89
0.0206494 -0.572801 0.109331 98 88 80
0.0299103 -0.573847 0.107066 117 108 97
0.0463091 -0.571699 0.103479 134 124 116
0.0942723 -0.460158 0.104182 90 48 28
0.117629 -0.402391 0.104883 82 40 16
0.119196 -0.402743 0.104481 83 42 17
-0.187924 -0.450291 0.169244 122 71 50
-0.18436 -0.449863 0.16847 126 72 52
-0.162391 -0.487044 0.159309 146 83 66
-0.168902 -0.522019 0.156957 138 81 66
-0.168855 -0.569726 0.151686 131 119 109
-0.1479 -0.571986 0.146595 125 112 105
-0.144296 -0.572991 0.145651 123 110 103
-0.106239 -0.573593 0.136779 115 105 97
-0.0931888 -0.573839 0.133729 115 107 98
-0.0651792 -0.571408 0.127505 36 26 16
-0.0271507 -0.574494 0.118336 110 101 90
-0.0107431 -0.57142 0.114862 105 93 83
0.0222513 -0.575404 0.106745 58 50 41
0.0401094 -0.569329 0.103257 164 155 149
0.0419187 -0.569077 0.102863 176 168 162
0.0790265 -0.568345 0.0942905 166 150 140
0.102894 -0.411731 0.106 89 47 25
0.106171 -0.409325 0.105498 87 45 22
0.110968 -0.40728 0.1046 88 45 26
-0.164571 -0.495816 0.157161 143 82 64
-0.172527 -0.567371 0.150821 141 134 125
-0.171071 -0.56892 0.15031 126 116 105
-0.118385 -0.575099 0.137462 60 51 40
-0.114319 -0.573912 0.136659 75 67 59
-0.0618748 -0.570553 0.124913 60 54 45
-0.0313476 -0.577211 0.117069 117 105 93
-0.0147635 -0.569302 0.114122 96 87 74
-0.00934794 -0.572165 0.112535 101 92 79
0.0198712 -0.573392 0.105592 101 91 83
0.0254891 -0.574831 0.104118 155 148 139
0.115876 -0.402666 0.102655 80 41 18
-0.191626 -0.446116 0.167503 119 67 46
-0.177499 -0.447676 0.164101 131 80 59
-0.170357 -0.571192 0.1479 123 114 103
-0.161038 -0.573132 0.145534 50 78 19
-0.137132 -0.571598 0.140226 49 39 31
-0.129668 -0.572422 0.138412 93 83 75
-0.0224456 -0.571135 0.11378 92 82 72
-0.000630475 -0.574589 0.108297 98 91 80
0.0233054 -0.575796 0.102574 109 101 94
0.0763675 -0.568332 0.0910473 160 146 135
0.0955167 -0.568798 0.0864977 182 165 153
0.0943231 -0.447931 0.101089 89 46 29
-0.163742 -0.478864 0.155666 143 81 66
-0.13344 -0.570356 0.137569 106 95 90
-0.113781 -0.575795 0.132391 38 29 18
-0.0903198 -0.570818 0.127603 96 89 78
-0.0834063 -0.573818 0.125642 93 88 76
-0.0669085 -0.574731 0.121721 26 19 8
-0.0482593 -0.571184 0.117843 49 39 29
-0.0410854 -0.57253 0.116015 97 90 79
-0.00654652 -0.572615 0.107982 103 93 85
-0.00470505 -0.57453 0.107318 101 91 83
0.0263963 -0.573219 0.100225 122 112 104
0.0404466 -0.566481 0.0977655 70 60 52
0.0795666 -0.567303 0.0884853 163 149 135
0.107773 -0.565071 0.0821148 189 176 162
0.111402 -0.556802 0.0822704 199 185 171
-0.128707 -0.5724 0.134273 61 56 44
-0.100677 -0.574033 0.127642 83 76 65
-0.0708392 -0.573147 0.120887 86 78 67
-0.0653912 -0.57369 0.119561 47 42 30
-0.0505698 -0.571843 0.11637 129 121 112
-0.0486756 -0.570959 0.116044 126 116 105
-0.0269358 -0.57167 0.110915 101 92 79
-0.0232229 -0.568709 0.110429 90 78 68
-0.0160353 -0.570639 0.108514 93 83 73
0.00397752 -0.572858 0.103572 101 91 81
0.0111752 -0.570383 0.102206 103 93 85
0.0296245 -0.572582 0.0976139 116 107 96
0.0514688 -0.569501 0.0928829 136 121 112
0.105539 -0.565367 0.0806598 186 172 158
-0.152399 -0.572272 0.13772 48 78 21
-0.145861 -0.569962 0.136535 109 101 94
-0.132736 -0.5713 0.133372 101 93 84
-0.129128 -0.572164 0.132437 73 69 57
-0.123703 -0.573406 0.131037 108 100 91
-0.0824294 -0.573597 0.121557 48 41 30
-0.0438059 -0.572986 0.112728 0 0 0
0.0437777 -0.570413 0.0926397 128 116 109
0.110528 -0.563543 0.0777649 192 177 166
-0.0937214 -0.571803 0.122442 88 81 69
-0.0716748 -0.572672 0.117265 83 76 65
0.0160513 -0.574404 0.0966741 107 97 89
0.0467527 -0.567656 0.0903766 131 119 109
0.0654339 -0.568338 0.0858766 145 131 120
0.0672485 -0.567974 0.0854967 147 133 122
0.0903738 -0.569772 0.0797746 168 155 141
