ply
format ascii 1.0
comment Created by Open3D
element vertex 2000
property double x
property double y
property double z
property uchar red
property uchar green
property uchar blue
end_header
0.314485 -0.624735 0.269422 82 72 66
0.315124 -0.627073 0.267495 82 72 66
0.309839 -0.631271 0.261762 84 73 70
0.312506 -0.632445 0.259292 82 74 70
0.317642 -0.631818 0.258568 90 82 78
0.321159 -0.624064 0.256391 100 94 91
0.314669 -0.632748 0.256669 83 75 71
0.323992 -0.61235 0.251025 108 106 104
0.321588 -0.625239 0.246924 101 97 94
0.31198 -0.637961 0.24835 83 75 71
0.321898 -0.637219 0.24455 94 90 87
0.309126 -0.63566 0.243338 85 74 69
0.3077 -0.63449 0.240852 85 74 69
0.321009 -0.629149 0.238139 97 95 93
0.309449 -0.641215 0.234668 84 76 72
0.314108 -0.639739 0.233783 83 77 72
0.317202 -0.63107 0.231742 94 92 88
0.313173 -0.639393 0.231403 82 76 71
0.31067 -0.641063 0.229607 83 75 71
0.317397 -0.638378 0.228234 90 83 81
0.317486 -0.635114 0.225208 91 86 83
0.3185 -0.632211 0.22456 94 90 87
0.315483 -0.642255 0.224308 79 73 68
0.309369 -0.642507 0.222745 76 68 62
0.316616 -0.640679 0.221447 84 78 73
0.317144 -0.636917 0.220733 87 83 80
0.306849 -0.644132 0.220941 77 70 61
0.303045 -0.641133 0.21373 72 64 57
0.313911 -0.642046 0.209908 71 65 60
0.310883 -0.642791 0.208033 62 54 48
0.310436 -0.643197 0.20574 60 52 45
0.30433 -0.643345 0.204246 65 57 50
0.313633 -0.631086 0.201142 82 80 76
0.300323 -0.64228 0.202291 62 54 50
0.309035 -0.643118 0.201104 55 47 41
0.312675 -0.639875 0.200117 71 65 60
0.312692 -0.63524 0.199476 77 76 72
0.302439 -0.642371 0.199586 59 51 44
0.305506 -0.642942 0.1992 55 47 43
0.299419 -0.64302 0.197736 58 52 48
0.305053 -0.643309 0.196913 55 47 43
0.307674 -0.644223 0.194224 49 45 39
0.31076 -0.644763 0.193822 55 49 44
0.301075 -0.643441 0.192741 53 46 42
0.30315 -0.642279 0.192274 49 45 39
0.307217 -0.644572 0.19193 46 43 37
0.309799 -0.644249 0.191491 50 44 39
0.297589 -0.644389 0.188616 50 46 41
0.300648 -0.644979 0.1882 51 46 39
0.305833 -0.645565 0.185041 46 38 32
0.299743 -0.646784 0.181348 51 46 39
0.297811 -0.644458 0.179025 49 45 39
0.300379 -0.644168 0.178574 47 44 38
0.296856 -0.643866 0.176737 51 47 42
0.298462 -0.642979 0.174 46 43 37
0.302601 -0.640635 0.173091 46 39 35
0.297014 -0.641497 0.171726 46 43 37
0.301141 -0.639161 0.170822 44 38 34
0.298008 -0.644368 0.169437 46 43 37
0.301167 -0.640282 0.168545 44 38 34
0.304723 -0.6417 0.168071 46 43 37
0.297068 -0.64704 0.160261 47 41 36
0.299298 -0.64441 0.152525 40 34 29
0.0715638 -0.622757 0.194725 9 0 0
0.0884811 -0.639471 0.192137 142 142 144
0.296857 -0.641103 0.150388 40 34 29
0.0694256 -0.611029 0.192283 113 105 101
0.0769967 -0.62209 0.191337 142 137 137
0.093387 -0.634671 0.188524 153 151 151
0.0972301 -0.632975 0.18755 115 110 112
0.100861 -0.630267 0.186556 126 119 119
0.199663 -0.626676 0.165597 55 54 50
0.0642049 -0.604718 0.191006 134 126 120
0.0829756 -0.63744 0.188891 109 109 109
0.0907215 -0.634172 0.186929 124 121 122
0.0940254 -0.629543 0.185886 114 109 111
0.119389 -0.566705 0.176284 122 95 90
0.124123 -0.563364 0.175066 117 86 80
0.175837 -0.612058 0.167326 24 22 20
0.178444 -0.613251 0.166868 32 30 28
0.195226 -0.616566 0.163687 48 46 45
0.21036 -0.620141 0.160896 39 37 35
0.214299 -0.618471 0.160027 116 114 110
0.220986 -0.617737 0.15868 61 59 55
0.257612 -0.633592 0.152543 41 40 36
0.0532528 -0.596978 0.19103 133 124 123
0.0628435 -0.597906 0.188866 130 122 115
0.0823381 -0.636587 0.186817 123 123 123
0.0862151 -0.634969 0.185839 130 132 132
0.102171 -0.558582 0.177622 94 56 48
0.112212 -0.547916 0.174808 46 7 0
0.113389 -0.545544 0.174415 51 11 2
0.117616 -0.541304 0.173261 61 24 14
0.127325 -0.549984 0.171712 39 13 4
0.139903 -0.579631 0.170791 49 32 24
0.149276 -0.603957 0.170237 71 54 46
0.172071 -0.602756 0.16545 89 87 83
0.187461 -0.603452 0.162368 95 96 93
0.189725 -0.603644 0.161923 104 104 102
0.201883 -0.600876 0.15935 25 23 19
0.226145 -0.604337 0.154789 34 32 33
0.0409398 -0.637231 0.194303 29 23 20
0.0439362 -0.624986 0.192871 53 46 44
0.0470012 -0.595646 0.19042 137 133 130
0.0543323 -0.593919 0.188606 133 125 121
0.0755935 -0.62248 0.185373 132 125 123
0.0790765 -0.632074 0.185136 120 120 120
0.0875952 -0.610458 0.181957 126 119 119
0.0877357 -0.600283 0.18134 126 112 112
0.0920972 -0.555672 0.177817 111 66 63
0.0952899 -0.545792 0.176553 102 56 49
0.107576 -0.531559 0.17308 116 75 64
0.109197 -0.531138 0.172707 112 70 59
0.111395 -0.526414 0.171974 115 74 63
0.120509 -0.528005 0.17012 173 142 134
0.140127 -0.575369 0.168548 130 107 99
0.15412 -0.607673 0.167352 41 23 18
0.157241 -0.610881 0.166871 37 21 18
0.170854 -0.59466 0.163194 91 85 80
0.184168 -0.5961 0.160558 88 84 81
0.186763 -0.597237 0.160092 104 100 97
0.251912 -0.609383 0.147931 103 96 94
0.293088 -0.592854 0.139568 103 99 98
0.054113 -0.596012 0.186791 131 122 119
0.0582013 -0.598576 0.185981 124 114 108
0.08153 -0.637817 0.182744 123 123 123
0.0839228 -0.571535 0.178645 118 86 85
0.0845868 -0.565314 0.178164 120 82 81
0.0953528 -0.532467 0.174039 105 56 48
0.0967511 -0.531119 0.173662 108 60 51
0.100419 -0.525106 0.172548 113 66 57
0.105789 -0.519621 0.1711 110 61 52
0.152883 -0.598597 0.165073 197 180 172
0.159769 -0.600563 0.16373 213 202 197
0.166564 -0.589777 0.161792 223 213 207
0.168415 -0.589117 0.161378 222 212 206
0.238581 -0.598125 0.147819 219 214 213
0.27378 -0.586902 0.140708 217 210 210
0.286631 -0.587307 0.138355 217 213 212
0.289829 -0.584141 0.137652 220 215 215
0.0297949 -0.637063 0.192647 30 28 26
0.0400429 -0.638452 0.190272 27 20 18
0.0416612 -0.633325 0.189627 37 35 33
0.0452637 -0.606966 0.187434 112 105 105
0.0486719 -0.602643 0.186413 108 104 101
0.0541133 -0.600086 0.18501 103 95 89
0.0622628 -0.604181 0.183322 100 91 85
0.0645512 -0.606916 0.18293 104 96 90
0.0826802 -0.62249 0.179553 131 133 135
0.0815509 -0.592275 0.178308 121 108 108
0.083075 -0.54119 0.175442 119 69 68
0.0890352 -0.528746 0.173506 111 55 49
0.0906449 -0.528397 0.173133 107 54 44
0.105462 -0.51349 0.169177 109 58 50
0.116021 -0.509483 0.166722 146 104 95
0.122846 -0.521003 0.165805 156 126 116
0.168484 -0.584786 0.159146 210 202 198
0.183423 -0.585533 0.156117 212 206 203
0.196225 -0.580262 0.153308 211 204 202
0.206097 -0.5781 0.151251 212 205 205
0.211362 -0.580087 0.15029 213 206 206
0.224718 -0.584809 0.147858 211 204 204
0.234779 -0.582023 0.145796 212 207 206
0.245756 -0.580779 0.14364 209 205 204
0.258708 -0.582771 0.141253 212 207 206
0.270187 -0.57728 0.138903 209 205 204
0.274024 -0.579637 0.13827 210 206 205
0.285219 -0.577445 0.136124 210 206 205
0.291742 -0.57566 0.134869 119 111 105
0.0272324 -0.636261 0.191075 34 32 31
0.039554 -0.638552 0.188236 23 21 15
0.046902 -0.608882 0.185108 118 111 109
0.0508302 -0.609515 0.184214 120 114 109
0.0545496 -0.608128 0.183279 112 104 100
0.0583697 -0.607704 0.182368 116 108 101
0.0650044 -0.613951 0.181117 125 117 111
0.0810888 -0.615678 0.177501 127 127 127
0.0811569 -0.533419 0.173746 117 60 57
0.086425 -0.526233 0.172246 114 54 47
0.0889847 -0.522615 0.171515 112 51 44
0.10357 -0.507765 0.167661 111 53 46
0.105101 -0.507355 0.167312 112 57 48
0.107097 -0.502659 0.166677 115 57 47
0.109847 -0.500841 0.166007 128 75 63
0.182628 -0.584697 0.154221 211 204 202
0.184098 -0.583037 0.153856 212 206 203
0.193591 -0.58021 0.151819 211 204 202
0.239374 -0.578387 0.142711 209 205 204
0.254521 -0.580396 0.13987 210 206 205
0.259512 -0.576428 0.138792 210 206 205
0.276732 -0.576667 0.13556 214 209 209
0.291303 -0.575763 0.13283 127 119 113
0.0309574 -0.639146 0.188158 32 30 28
0.0329847 -0.639032 0.187668 27 25 24
0.0441826 -0.627226 0.184497 135 131 128
0.047484 -0.619917 0.183405 125 121 118
0.0533475 -0.619351 0.182002 124 116 110
0.0633578 -0.620233 0.179702 127 119 115
0.0658314 -0.623954 0.179286 137 128 124
0.0784946 -0.641389 0.177097 122 118 117
0.0768274 -0.569774 0.174486 119 99 99
0.0758613 -0.553708 0.174038 119 86 83
0.0895465 -0.519408 0.169556 96 38 31
0.100877 -0.511546 0.166745 104 43 36
0.101674 -0.50824 0.16644 104 44 34
0.110445 -0.498553 0.164159 116 57 45
0.121441 -0.507757 0.162159 151 112 102
0.166279 -0.5812 0.155458 211 204 202
0.170597 -0.581742 0.154579 212 204 202
0.190206 -0.578289 0.150425 211 204 202
0.198607 -0.577953 0.148711 212 206 203
0.202225 -0.576352 0.147928 212 206 203
0.209678 -0.578451 0.146505 212 205 205
0.221708 -0.580485 0.14418 212 205 205
0.22622 -0.580494 0.143289 212 205 205
0.253132 -0.578734 0.138 212 205 205
0.276803 -0.577619 0.133468 214 209 209
0.0366193 -0.639863 0.184675 28 27 23
0.0385751 -0.638728 0.184164 37 33 30
0.0404442 -0.636588 0.183636 71 65 60
0.0457774 -0.628137 0.182044 133 126 124
0.0759656 -0.641771 0.175517 120 114 111
0.0858113 -0.519186 0.16869 115 50 44
0.0891719 -0.519474 0.167951 94 34 29
0.112236 -0.494853 0.162023 123 61 50
0.150839 -0.572762 0.156438 187 167 160
0.160144 -0.588597 0.154999 199 188 185
0.164356 -0.582878 0.153923 211 204 202
0.16733 -0.579673 0.153195 211 204 202
0.176676 -0.582558 0.151342 212 206 203
0.182143 -0.580411 0.150143 212 206 203
0.195588 -0.57698 0.147283 212 206 203
0.201795 -0.576432 0.146008 211 204 202
0.209245 -0.578531 0.144568 212 206 203
0.217754 -0.577833 0.142844 211 204 202
0.22042 -0.578762 0.142339 212 206 203
0.228991 -0.577854 0.140614 212 205 205
0.236687 -0.575006 0.139023 212 206 203
0.2567 -0.573117 0.135089 212 207 206
0.277163 -0.574874 0.131226 214 209 209
0.0237004 -0.6356 0.185468 56 54 53
0.0258158 -0.637509 0.185024 60 58 56
0.0400341 -0.63766 0.181624 98 91 89
0.0419751 -0.63651 0.181122 101 95 93
0.0457437 -0.63319 0.180113 97 90 88
0.0617744 -0.631545 0.176286 124 115 112
0.0828827 -0.522847 0.167779 115 45 41
0.0854362 -0.519245 0.167088 114 48 45
0.0899359 -0.517227 0.166016 94 34 27
0.0981136 -0.510123 0.163974 101 41 34
0.11456 -0.493048 0.159858 117 62 49
0.120175 -0.500714 0.158884 139 95 85
0.171552 -0.58121 0.150366 211 204 202
0.211038 -0.578672 0.142183 212 205 205
0.219984 -0.578835 0.140388 211 204 202
0.225346 -0.58065 0.139361 211 204 204
0.23806 -0.574125 0.136686 212 206 203
0.24398 -0.57661 0.13558 212 206 203
0.273082 -0.577174 0.129951 214 209 209
0.0252749 -0.636577 0.182977 62 60 59
0.0315725 -0.640256 0.181576 109 107 105
0.0417289 -0.639566 0.179128 110 103 101
0.056036 -0.639249 0.175734 115 106 104
0.0665578 -0.641038 0.173325 127 119 115
0.104089 -0.497114 0.160641 117 53 43
0.105315 -0.495732 0.160336 119 54 46
0.107739 -0.492955 0.159732 121 54 45
0.108662 -0.490601 0.159468 122 56 46
0.111594 -0.48972 0.158808 120 59 45
0.121024 -0.499329 0.157028 137 98 86
0.124037 -0.503604 0.156492 146 109 99
0.128004 -0.510713 0.155826 157 122 113
0.162308 -0.585553 0.15043 200 188 183
0.177985 -0.582919 0.147061 212 206 203
0.183095 -0.579815 0.145921 212 206 203
0.187467 -0.580185 0.145022 212 206 203
0.199122 -0.577372 0.142555 212 206 203
0.204337 -0.579415 0.141534 213 206 206
0.210602 -0.578737 0.140243 212 206 203
0.234905 -0.577875 0.135341 212 206 203
0.247687 -0.580098 0.132852 213 207 204
0.258604 -0.573963 0.130601 213 207 204
0.267492 -0.576842 0.128923 213 208 208
0.269812 -0.576619 0.12847 212 207 206
0.274461 -0.576136 0.127565 214 209 209
0.285875 -0.578429 0.12541 215 211 210
0.0226309 -0.633727 0.181395 54 52 50
0.0289335 -0.638432 0.180001 68 66 64
0.0310796 -0.640315 0.179536 112 111 107
0.0332407 -0.642189 0.179067 4 2 0
0.0416361 -0.644609 0.177125 100 94 91
0.0457347 -0.644272 0.176142 96 89 87
0.0800106 -0.623943 0.167591 73 57 56
0.0773027 -0.561532 0.166619 106 52 47
0.0909164 -0.525134 0.162624 83 25 20
0.093215 -0.520497 0.161997 97 36 29
0.0983329 -0.514103 0.160703 97 36 29
0.112709 -0.489314 0.156969 120 59 45
0.119177 -0.494606 0.155688 125 77 63
0.162397 -0.58118 0.148311 200 189 186
0.164546 -0.581467 0.14786 203 195 191
0.179375 -0.582258 0.144745 212 206 203
0.18411 -0.578204 0.143673 212 206 203
0.210166 -0.578794 0.138304 212 206 203
0.225426 -0.578069 0.135193 212 205 205
0.229938 -0.578023 0.134284 212 206 203
0.231755 -0.577091 0.133904 212 206 203
0.234018 -0.577043 0.13345 211 204 202
0.257194 -0.572282 0.128782 212 206 203
0.275837 -0.575082 0.125182 215 211 210
0.277653 -0.57396 0.124817 215 211 210
0.0389398 -0.642822 0.175549 68 60 56
0.0512868 -0.642761 0.172613 59 50 46
0.0637789 -0.643389 0.169686 71 65 58
0.075617 -0.638759 0.166824 65 59 57
0.0786189 -0.631223 0.165965 67 53 51
0.0799132 -0.548825 0.163897 109 46 42
0.082466 -0.535083 0.163026 107 36 35
0.0897814 -0.529442 0.161254 81 22 19
0.103896 -0.499126 0.157499 113 51 42
0.108872 -0.488326 0.1562 119 54 46
0.110048 -0.486926 0.155917 120 55 47
0.128487 -0.504069 0.152235 154 122 112
0.180046 -0.579718 0.142552 212 206 203
0.181862 -0.578989 0.142158 213 207 204
0.189477 -0.576921 0.140531 212 206 203
0.256754 -0.572334 0.126805 213 207 204
0.267428 -0.574145 0.124719 213 208 208
0.287586 -0.574521 0.120791 117 108 107
0.0299754 -0.638412 0.175446 59 57 53
0.0548799 -0.642384 0.169583 46 43 37
0.0608895 -0.6407 0.168137 52 48 43
0.0772147 -0.612178 0.163818 78 56 52
0.0821166 -0.55345 0.161669 107 42 36
0.0842954 -0.537725 0.160904 102 32 28
0.093124 -0.523494 0.158671 89 28 23
0.102547 -0.501504 0.156215 109 46 38
0.105202 -0.493496 0.155505 115 50 42
0.166641 -0.578338 0.143384 202 192 188
0.175267 -0.579326 0.141559 213 207 204
0.181787 -0.579959 0.140186 213 207 204
0.187604 -0.578648 0.138944 213 207 204
0.189794 -0.57881 0.138486 213 207 204
0.198596 -0.579354 0.136651 213 206 206
0.204843 -0.578737 0.135345 213 206 206
0.226799 -0.578144 0.130823 211 204 204
0.241313 -0.57958 0.127889 212 206 203
0.2436 -0.579481 0.127427 211 204 202
0.247249 -0.577489 0.126677 213 207 204
0.250412 -0.574591 0.126022 214 208 206
0.269296 -0.57396 0.122262 215 211 210
0.0211657 -0.633852 0.175356 44 41 40
0.0316321 -0.640321 0.172924 50 48 47
0.033796 -0.642186 0.172431 27 25 24
0.056107 -0.639214 0.167076 47 48 41
0.058249 -0.639978 0.166581 48 49 44
0.0727308 -0.598676 0.162617 86 64 60
0.0915834 -0.525844 0.157338 73 19 15
0.101634 -0.512026 0.154913 74 20 16
0.104416 -0.497799 0.154129 112 46 41
0.117503 -0.487552 0.151138 115 58 45
0.121028 -0.488488 0.15038 112 64 51
0.128578 -0.496455 0.148822 149 116 106
0.139348 -0.518055 0.146705 172 149 141
0.1561 -0.555507 0.143452 192 176 172
0.167676 -0.576755 0.141163 206 193 191
0.174052 -0.58287 0.139854 212 206 203
0.195564 -0.578347 0.135259 213 207 204
0.200367 -0.579497 0.134261 212 206 203
0.202187 -0.578681 0.133874 213 206 206
0.235857 -0.578889 0.126925 211 204 202
0.245872 -0.575764 0.124877 213 207 204
0.247686 -0.574761 0.124507 213 207 204
0.263242 -0.572714 0.121376 214 208 206
0.266538 -0.574225 0.120722 215 209 209
0.26885 -0.573997 0.120261 214 209 209
0.270662 -0.572898 0.119899 214 209 209
0.278128 -0.572964 0.118419 216 212 211
0.288505 -0.573431 0.116374 226 220 217
0.0186689 -0.633957 0.173831 44 41 40
0.0207184 -0.634877 0.173343 41 39 38
0.0227299 -0.634789 0.172855 41 39 38
0.0247905 -0.635692 0.172366 40 38 36
0.0310168 -0.63835 0.170892 38 36 34
0.0372371 -0.639932 0.169415 39 37 35
0.0451886 -0.637273 0.167488 37 38 33
0.0493286 -0.637886 0.166509 37 38 31
0.0576472 -0.63901 0.16455 43 44 39
0.0619431 -0.640513 0.163552 45 47 39
0.0696528 -0.621331 0.161553 58 49 47
0.0923597 -0.523542 0.155424 72 18 14
0.0937281 -0.52219 0.155103 78 22 16
0.0953153 -0.521806 0.154742 78 22 18
0.102561 -0.510664 0.153025 85 26 21
0.110173 -0.485598 0.151151 116 51 44
0.112779 -0.483736 0.150564 115 55 46
0.117705 -0.484237 0.149487 114 57 44
0.133144 -0.501085 0.146228 164 136 127
0.161831 -0.561761 0.140364 196 181 177
0.183092 -0.580207 0.135898 213 207 204
0.185645 -0.581315 0.135359 213 207 204
0.211045 -0.57991 0.13 213 206 206
0.251412 -0.578159 0.121685 213 209 206
0.274553 -0.576102 0.117025 215 211 210
0.276374 -0.574977 0.116664 215 211 210
-0.049682 -0.628836 0.188657 33 34 27
-0.0338554 -0.631178 0.184667 18 16 14
-0.0299229 -0.632433 0.183686 23 24 19
-0.0178279 -0.630009 0.180647 36 37 32
-0.0158096 -0.629076 0.180139 36 36 34
-0.0118152 -0.628186 0.179141 37 35 33
-0.00786063 -0.629263 0.178169 35 33 32
-0.00388959 -0.630308 0.177195 33 31 29
9.76846e-05 -0.63132 0.17622 31 29 27
0.00410092 -0.6323 0.175243 28 29 22
0.00810221 -0.632248 0.174263 28 29 22
0.0141919 -0.635108 0.172795 38 36 34
0.0283862 -0.636492 0.169363 36 36 34
0.0405719 -0.636642 0.166437 37 35 33
0.0446983 -0.63729 0.165455 38 36 34
0.0659707 -0.536894 0.159842 104 52 49
0.0839685 -0.533527 0.155673 80 21 18
0.0901675 -0.522952 0.154209 59 11 12
0.0960593 -0.519486 0.152859 69 17 16
0.0974025 -0.51812 0.15255 67 17 15
0.103987 -0.511224 0.151043 85 29 25
0.106822 -0.491732 0.150341 112 46 41
0.115315 -0.48282 0.148436 115 56 44
0.119937 -0.482333 0.14742 111 57 41
0.123443 -0.483236 0.146656 120 77 66
0.125842 -0.485566 0.146137 135 95 86
0.178293 -0.579833 0.134919 213 207 204
0.185203 -0.581332 0.133439 213 207 204
0.192486 -0.578257 0.131885 214 208 206
0.205338 -0.577982 0.129165 213 206 206
0.218722 -0.578241 0.126357 214 207 208
0.223216 -0.57824 0.12542 214 209 209
0.25002 -0.576426 0.119894 213 209 206
0.252313 -0.576276 0.119427 214 208 206
0.255087 -0.576987 0.118858 214 208 206
0.261028 -0.574696 0.11766 214 208 206
0.263825 -0.575355 0.117089 215 209 207
0.266632 -0.575999 0.116518 215 209 209
0.273595 -0.575266 0.115116 214 209 209
-0.170253 -0.607462 0.218379 137 128 124
-0.0524525 -0.631626 0.187249 87 88 83
-0.0503646 -0.630836 0.186716 83 87 81
-0.0442239 -0.62941 0.185155 52 53 48
-0.0402511 -0.629746 0.184151 51 52 49
-0.0343495 -0.631188 0.182667 49 47 46
-0.0324157 -0.632318 0.182184 45 46 43
-0.0103548 -0.630237 0.176676 34 35 30
0.00362021 -0.63331 0.173239 23 24 19
0.0504701 -0.638704 0.161934 39 38 31
0.0545281 -0.638272 0.160969 40 41 34
0.0585833 -0.637806 0.160007 42 43 38
0.0607259 -0.638554 0.159502 43 44 37
0.0620727 -0.547572 0.159019 93 51 45
0.0632635 -0.522089 0.1587 115 62 55
0.0730798 -0.531534 0.156434 110 45 42
0.0755853 -0.536148 0.15586 112 49 45
0.086807 -0.524659 0.15327 51 5 7
0.0897844 -0.522959 0.152589 52 6 6
0.0925199 -0.520264 0.151965 63 14 10
0.0972569 -0.519098 0.150891 61 14 12
0.10606 -0.496019 0.148915 107 42 36
0.106738 -0.4927 0.148765 109 44 39
0.116108 -0.481403 0.146697 114 55 41
0.118668 -0.479492 0.146136 111 56 43
0.14215 -0.509219 0.140941 178 154 149
0.149134 -0.523632 0.139387 188 166 162
0.184395 -0.580414 0.1316 213 207 204
0.185847 -0.578732 0.131294 213 207 204
0.195284 -0.575767 0.129286 214 207 208
0.211156 -0.577263 0.125913 215 209 209
0.22277 -0.57825 0.123466 214 209 209
0.231296 -0.581739 0.121663 214 209 209
0.238162 -0.577014 0.120265 214 209 209
0.252811 -0.578036 0.117233 215 209 207
0.259244 -0.576638 0.115924 214 208 206
0.268995 -0.576639 0.113934 214 209 209
0.282467 -0.574136 0.111228 216 212 211
-0.0976137 -0.630957 0.196759 45 43 41
-0.0956251 -0.631344 0.196239 45 43 41
-0.0796617 -0.63415 0.192087 85 84 78
-0.0509561 -0.631833 0.184738 47 50 47
-0.0427319 -0.629584 0.182659 45 46 43
-0.0407448 -0.629748 0.182157 44 45 42
-0.0348437 -0.631189 0.180668 37 38 35
-0.0188769 -0.632018 0.176672 24 25 22
-0.00688212 -0.632299 0.173698 22 23 20
0.0111729 -0.634173 0.169261 28 29 24
0.0172344 -0.634983 0.167782 32 30 26
0.0233179 -0.63572 0.166304 31 29 25
0.025384 -0.636614 0.165803 34 33 29
0.0638026 -0.634071 0.156626 25 22 16
0.0598544 -0.523586 0.157804 114 62 55
0.0606976 -0.518394 0.157619 119 65 60
0.0864219 -0.52466 0.151646 45 4 4
0.106001 -0.52186 0.147205 73 21 16
0.10683 -0.506081 0.147086 98 35 29
0.10692 -0.494622 0.147117 108 43 38
0.114864 -0.478549 0.145427 111 54 42
0.117097 -0.475697 0.144948 113 55 43
0.120236 -0.475672 0.144256 109 54 40
0.153676 -0.527076 0.136618 196 176 172
0.173167 -0.568663 0.132102 207 196 193
0.194458 -0.574851 0.127465 214 207 208
0.199632 -0.576906 0.126341 213 206 206
0.220075 -0.578259 0.121987 214 209 209
0.222751 -0.579151 0.121414 214 209 209
0.225438 -0.580029 0.120839 213 208 208
0.252832 -0.578914 0.115133 214 208 206
0.254661 -0.577875 0.114766 215 209 209
0.258792 -0.576642 0.113928 215 209 207
0.260613 -0.575577 0.113566 217 210 210
0.262922 -0.57537 0.113093 214 209 209
0.270365 -0.575538 0.111564 216 212 211
0.283551 -0.568434 0.108972 221 215 212
-0.119012 -0.631506 0.20022 61 61 59
-0.116806 -0.631003 0.199643 75 75 72
-0.109045 -0.633786 0.197582 77 78 73
-0.103233 -0.636037 0.196044 61 61 57
-0.100666 -0.6335 0.195391 48 46 45
-0.0943162 -0.632701 0.193742 38 36 34
-0.0760204 -0.633774 0.189 54 55 48
-0.0234499 -0.633851 0.175677 21 23 20
-0.0133497 -0.631189 0.17318 27 25 24
-0.00137181 -0.633323 0.170209 14 12 11
0.0310111 -0.637243 0.162296 19 17 13
0.0372226 -0.638801 0.160791 21 20 16
0.0657771 -0.512405 0.154797 136 77 72
0.0673254 -0.512128 0.154438 115 55 48
0.0716439 -0.51844 0.153392 125 68 58
0.088051 -0.526248 0.149548 44 3 3
0.108425 -0.489893 0.145214 108 42 40
0.10994 -0.484207 0.144924 111 48 42
0.116449 -0.474743 0.14356 113 54 40
0.118955 -0.472827 0.143023 110 53 38
0.120358 -0.472335 0.142718 111 55 40
0.121759 -0.471837 0.142413 108 56 42
0.180603 -0.578372 0.128422 212 206 203
0.186408 -0.577042 0.127176 214 208 206
0.205823 -0.577148 0.122994 212 205 205
0.209447 -0.575446 0.12224 214 207 208
0.222729 -0.580044 0.119354 215 211 210
0.232227 -0.580788 0.117335 213 208 208
0.246846 -0.577452 0.114313 215 211 210
0.254682 -0.578742 0.11266 214 207 208
0.26941 -0.574675 0.109673 215 211 210
0.282335 -0.571283 0.107075 211 202 203
-0.126873 -0.635855 0.200081 54 54 52
-0.124639 -0.635384 0.199496 57 57 55
-0.119965 -0.63344 0.198288 72 73 70
-0.111759 -0.634309 0.196122 70 71 66
-0.103363 -0.634061 0.19393 45 43 41
-0.0984423 -0.629954 0.192693 37 35 33
-0.0888312 -0.633777 0.190157 44 41 40
-0.0722516 -0.632364 0.185901 36 36 34
-0.0703865 -0.633635 0.18541 36 36 34
-0.0643802 -0.634427 0.183865 35 33 32
-0.0178316 -0.631064 0.172173 16 14 12
-0.0138408 -0.631173 0.171181 8 9 6
-0.00986528 -0.63225 0.170186 8 9 6
-0.00787774 -0.633277 0.169685 11 9 7
0.000146491 -0.635302 0.167688 12 10 6
0.0460578 -0.628932 0.156615 44 39 32
0.0606838 -0.585942 0.153572 51 34 26
0.0618375 -0.509967 0.154092 132 74 69
0.066618 -0.510147 0.152972 115 52 44
0.0686689 -0.512818 0.152465 115 57 47
0.0794378 -0.526993 0.149809 98 38 26
0.0812364 -0.527639 0.149385 85 26 21
0.0894785 -0.526844 0.147493 44 3 3
0.092032 -0.523168 0.146949 46 5 5
0.0974968 -0.524907 0.145678 45 4 4
0.0995649 -0.52644 0.145187 45 6 5
0.104869 -0.527109 0.143971 48 4 5
0.106478 -0.526672 0.143611 55 10 9
0.107832 -0.525264 0.143321 71 19 16
0.108432 -0.51473 0.143313 89 28 23
0.108675 -0.509469 0.143323 91 28 24
0.108343 -0.502292 0.143487 106 40 35
0.108344 -0.49084 0.14363 106 40 37
0.11216 -0.477096 0.14295 113 51 42
0.115193 -0.471885 0.142342 113 53 42
0.12389 -0.469873 0.140438 119 69 56
0.131099 -0.476751 0.138751 169 127 120
0.176928 -0.569999 0.127346 208 199 197
0.185595 -0.576104 0.125364 212 205 205
0.196154 -0.575866 0.123076 215 209 209
0.216096 -0.576431 0.118776 215 209 209
0.222704 -0.580929 0.117288 217 210 210
0.243644 -0.576687 0.112924 214 210 207
0.252392 -0.579771 0.111027 218 211 211
0.259705 -0.57556 0.109577 215 211 210
0.260548 -0.57276 0.109455 216 212 211
0.265152 -0.572323 0.108505 217 213 212
0.271775 -0.575265 0.10707 215 211 210
0.275111 -0.576707 0.10635 216 212 211
-0.0816288 -0.63707 0.1861 34 32 31
-0.0773141 -0.635715 0.185011 33 31 29
-0.0529368 -0.636764 0.17878 16 14 12
-0.0467181 -0.635344 0.177227 6 4 3
-0.0343319 -0.631276 0.174168 19 20 13
-0.0324562 -0.633396 0.173668 19 20 13
-0.0202079 -0.627975 0.170686 25 23 21
0.0255169 -0.628468 0.159452 33 31 27
0.0274512 -0.627351 0.158999 36 30 25
0.0351087 -0.622809 0.157213 42 36 31
0.0389674 -0.621489 0.156303 44 38 34
0.0464466 -0.616769 0.154576 44 38 34
0.0565099 -0.618651 0.152149 45 35 27
0.0594584 -0.61022 0.151568 50 35 28
0.0597716 -0.597076 0.151682 59 42 34
0.069844 -0.512509 0.150539 122 59 51
0.0832387 -0.531194 0.147145 73 19 15
0.0911252 -0.5284 0.145366 45 4 4
0.106088 -0.526653 0.141966 46 5 5
0.107444 -0.525245 0.14168 59 12 9
0.108535 -0.522868 0.14147 73 19 15
0.108827 -0.511375 0.14159 87 29 23
0.112641 -0.47471 0.14134 112 52 42
0.117028 -0.469013 0.140456 113 54 40
0.13605 -0.477888 0.136078 52 7 0
0.144143 -0.495024 0.13398 200 171 169
0.191326 -0.575602 0.122122 217 210 210
0.198298 -0.576865 0.12058 217 210 210
0.205531 -0.573541 0.119078 218 211 211
0.213831 -0.577294 0.11721 216 212 211
0.218727 -0.578219 0.116137 217 210 210
0.245938 -0.577418 0.110349 217 213 212
0.248695 -0.578154 0.109749 220 215 215
-0.160339 -0.635891 0.204576 52 44 37
-0.100193 -0.633829 0.188789 34 34 32
-0.0943621 -0.635957 0.187239 31 29 27
-0.0883315 -0.637029 0.185663 15 16 9
-0.0637321 -0.637599 0.179353 12 13 6
-0.0575713 -0.637303 0.177794 14 12 11
-0.0514241 -0.636931 0.176244 11 9 7
-0.0493175 -0.636126 0.175726 11 9 5
-0.040807 -0.630825 0.173677 6 7 2
-0.0366838 -0.629117 0.172672 19 20 13
-0.034697 -0.629249 0.172172 19 20 13
-0.00479613 -0.625252 0.16481 18 17 10
0.00109777 -0.618236 0.163484 19 18 11
0.0165808 -0.614845 0.159756 26 20 13
0.0281988 -0.614222 0.156946 51 46 39
0.0300725 -0.613093 0.156513 60 52 45
0.0579653 -0.586142 0.150318 108 93 85
0.0577456 -0.51957 0.151595 120 64 60
0.0597007 -0.511167 0.151289 128 67 65
0.0641692 -0.509394 0.150272 127 67 60
0.0911614 -0.530323 0.143589 46 5 5
0.0944011 -0.529548 0.142856 42 6 4
0.110336 -0.47847 0.140246 111 48 42
0.119889 -0.464686 0.138393 117 60 45
0.125331 -0.466924 0.13713 129 72 55
0.147038 -0.499053 0.131606 95 58 47
0.181805 -0.574035 0.122245 217 208 209
0.19126 -0.576492 0.120111 225 218 218
0.213795 -0.578168 0.115159 244 239 241
0.216451 -0.579086 0.114562 241 236 235
0.222645 -0.582675 0.113135 235 228 228
0.224057 -0.580857 0.112875 233 226 226
0.22772 -0.578994 0.112132 238 231 229
0.232254 -0.57888 0.11116 238 229 228
0.233636 -0.577031 0.11091 240 233 231
0.235905 -0.576949 0.110426 237 228 226
0.242275 -0.575757 0.109094 239 232 230
0.25514 -0.577631 0.106307 198 190 188
0.260124 -0.573575 0.105359 208 199 197
-0.156568 -0.636155 0.201359 49 41 35
-0.107482 -0.636493 0.188459 13 12 8
-0.0968777 -0.635544 0.185735 11 9 5
-0.0948706 -0.635917 0.185208 14 13 9
-0.0890037 -0.637976 0.183649 14 15 8
-0.0848119 -0.637663 0.182579 12 13 6
-0.0683936 -0.638045 0.178372 10 12 4
-0.0661301 -0.636318 0.177835 10 12 4
-0.0639991 -0.635574 0.177309 14 15 8
-0.0578598 -0.635275 0.175758 9 10 3
-0.0452853 -0.630465 0.172689 8 9 2
-0.0346662 -0.621227 0.170225 20 21 14
0.00813323 -0.603071 0.160021 68 65 59
0.0287493 -0.59909 0.155091 110 100 92
0.0452555 -0.593623 0.151237 106 94 85
0.0543136 -0.590555 0.149141 104 92 82
0.0558069 -0.587341 0.148857 103 90 83
0.0576449 -0.521515 0.149895 121 62 59
0.0654976 -0.510073 0.148303 117 61 53
0.0685781 -0.509504 0.147592 116 52 40
0.0744703 -0.515471 0.146076 119 54 44
0.0899817 -0.53457 0.142023 45 2 3
0.098154 -0.532596 0.140179 41 3 0
0.102563 -0.529397 0.139239 43 5 2
0.107252 -0.520883 0.138367 60 10 6
0.108839 -0.520431 0.138015 69 19 16
0.108905 -0.49652 0.13858 101 36 31
0.111873 -0.469439 0.138575 115 52 44
0.113264 -0.468971 0.138272 115 53 40
0.117544 -0.463265 0.137452 116 59 44
0.119232 -0.463716 0.137062 118 62 47
0.190813 -0.576456 0.118201 197 188 189
0.193768 -0.578417 0.117497 173 164 164
0.197648 -0.572326 0.11681 75 66 67
0.19984 -0.572417 0.116326 47 38 39
0.215581 -0.578147 0.112729 24 13 12
0.233181 -0.576994 0.108946 38 29 25
0.235001 -0.576027 0.108582 49 41 37
0.252376 -0.57777 0.1048 98 90 84
0.273221 -0.575766 0.100425 169 161 157
-0.112009 -0.635587 0.187485 19 20 13
-0.0819213 -0.629047 0.179903 13 12 8
-0.0660166 -0.631308 0.175785 16 17 10
-0.0555167 -0.627486 0.173224 32 31 22
-0.0409406 -0.619771 0.169753 42 42 31
-0.0306489 -0.611433 0.167392 40 40 28
-0.0198157 -0.580901 0.165485 47 41 34
-0.014233 -0.575064 0.16425 195 182 177
-0.00177378 -0.593172 0.160703 174 159 153
0.00191949 -0.59114 0.159848 166 150 142
0.0111473 -0.590925 0.157592 141 130 125
0.0166836 -0.590707 0.156247 126 115 112
0.0185288 -0.59062 0.1558 122 112 106
0.0222186 -0.590422 0.154907 114 103 98
0.0293404 -0.585948 0.153297 105 95 87
0.0311009 -0.584812 0.152901 105 95 87
0.0401299 -0.583013 0.150771 103 93 85
0.0419478 -0.582831 0.150339 105 93 83
0.0570062 -0.55684 0.147423 107 83 76
0.0942724 -0.532393 0.139329 46 5 5
0.0973037 -0.530616 0.138676 44 3 3
0.100783 -0.530753 0.137868 56 15 11
0.108709 -0.521356 0.136305 80 35 30
0.108214 -0.478861 0.137621 106 43 40
0.109326 -0.47223 0.137558 112 50 41
0.115527 -0.462772 0.136426 115 56 42
0.117939 -0.460855 0.135938 120 63 48
0.126067 -0.462071 0.134075 144 76 58
0.202987 -0.570706 0.113682 231 224 224
0.208612 -0.573534 0.112357 197 188 187
0.266273 -0.577354 0.0997388 240 233 233
-0.155607 -0.636668 0.196678 70 62 56
-0.144488 -0.635772 0.19378 80 75 68
-0.131018 -0.624937 0.190598 28 22 19
-0.12737 -0.618655 0.189844 20 19 15
-0.102561 -0.627402 0.183127 25 23 19
-0.10002 -0.624849 0.182551 25 23 19
-0.0919709 -0.625347 0.180464 21 20 16
-0.0855732 -0.623412 0.178882 13 12 8
-0.067867 -0.626039 0.174284 35 35 26
-0.0531164 -0.618681 0.170772 49 48 40
-0.0489407 -0.616071 0.169798 49 48 40
-0.0305872 -0.602396 0.165606 35 35 24
-0.0180159 -0.568921 0.16348 190 178 170
-0.0110849 -0.574083 0.161607 172 157 151
0.0104992 -0.582882 0.156034 140 125 119
0.017719 -0.581582 0.15431 124 111 104
0.0376225 -0.580151 0.14953 105 93 85
0.0506961 -0.58275 0.146312 100 88 79
0.0525145 -0.582523 0.145883 100 88 79
0.0570988 -0.560752 0.145451 106 84 78
0.0597488 -0.518952 0.146099 118 62 56
0.0633644 -0.511253 0.145479 110 54 48
0.0709075 -0.50883 0.143776 125 58 47
0.09736 -0.532511 0.136856 54 13 14
0.098991 -0.532096 0.136491 67 27 24
0.107583 -0.477866 0.136248 105 42 38
0.10758 -0.472644 0.136419 109 46 42
0.132601 -0.467883 0.13091 153 89 77
0.143532 -0.488119 0.127771 175 131 121
0.193154 -0.57385 0.113749 232 225 225
0.194183 -0.571214 0.113612 228 221 221
0.225562 -0.572571 0.106645 219 214 213
0.238621 -0.571223 0.103844 221 216 216
0.26665 -0.574478 0.0976551 216 207 208
0.277462 -0.575943 0.0952763 194 185 183
0.279291 -0.574788 0.0949293 213 206 206
-0.167828 -0.631828 0.197873 73 65 54
-0.161849 -0.633773 0.196222 59 51 42
-0.145674 -0.630321 0.192095 66 61 54
-0.116964 -0.590416 0.186032 30 26 21
-0.110576 -0.605288 0.183845 26 23 15
-0.10796 -0.621218 0.182605 26 20 15
-0.081398 -0.60689 0.176281 142 131 115
-0.0640075 -0.607378 0.171837 62 57 45
-0.0442386 -0.601411 0.167052 26 26 12
-0.0284297 -0.589461 0.163502 38 37 28
-0.0114555 -0.571028 0.159913 172 157 149
0.0117329 -0.577765 0.15398 136 121 112
0.0189161 -0.577438 0.152239 118 105 98
0.0334923 -0.579424 0.148633 105 93 85
0.0407074 -0.578743 0.146915 104 91 84
0.0571836 -0.564655 0.143449 107 85 79
0.0580092 -0.532251 0.144372 116 59 56
0.0607909 -0.517653 0.144217 109 56 47
0.0811353 -0.521849 0.13927 101 38 30
0.093913 -0.534239 0.135843 56 15 13
0.100688 -0.533559 0.134289 86 52 50
0.10486 -0.529354 0.133471 87 51 50
0.107597 -0.526528 0.132939 91 55 49
0.108079 -0.49735 0.13388 98 37 33
0.106673 -0.47591 0.134982 104 41 37
0.111209 -0.460798 0.134497 117 55 42
0.116001 -0.457003 0.133546 128 69 53
0.118364 -0.45508 0.133081 137 74 57
0.130525 -0.463181 0.130025 149 78 64
0.135397 -0.47193 0.128596 159 95 85
0.162875 -0.525051 0.120397 182 151 145
0.180963 -0.56051 0.114984 198 187 184
0.193173 -0.580094 0.111499 218 211 211
0.209105 -0.571652 0.108278 211 204 204
0.218827 -0.573492 0.106054 227 222 221
0.252262 -0.57117 0.0988146 226 221 220
-0.166945 -0.620636 0.195901 69 62 53
-0.161094 -0.622566 0.19428 59 51 42
-0.153822 -0.626945 0.192192 71 66 56
-0.149324 -0.62621 0.191043 69 63 58
-0.142615 -0.625031 0.189335 62 57 47
-0.130494 -0.610735 0.186746 62 54 48
-0.115789 -0.583547 0.184006 173 160 153
-0.110806 -0.586807 0.182585 204 192 182
-0.107064 -0.605082 0.180897 191 180 165
-0.0987135 -0.602744 0.178838 223 211 199
-0.06259 -0.592429 0.170019 221 209 200
-0.0592529 -0.595857 0.169043 43 38 28
-0.0572788 -0.595078 0.168574 57 54 43
-0.0514998 -0.593685 0.167169 78 74 66
-0.0496481 -0.593867 0.166696 84 79 69
-0.0440881 -0.594371 0.165279 97 90 79
-0.0344608 -0.590073 0.163031 119 112 101
-0.0305971 -0.5873 0.162171 127 115 105
-0.0246581 -0.578588 0.161024 179 164 156
-0.0152712 -0.565901 0.159176 171 159 150
-0.00128026 -0.577992 0.155259 157 142 133
0.000512259 -0.576973 0.154857 152 138 129
0.00591948 -0.578868 0.153457 145 131 122
0.0166814 -0.577466 0.150877 121 109 102
0.034704 -0.577208 0.146509 105 92 87
0.0365006 -0.577043 0.146081 105 93 85
0.0419789 -0.577496 0.144741 103 91 81
0.0550277 -0.579941 0.141512 102 87 79
0.0572605 -0.56855 0.141417 105 86 77
0.0582994 -0.537131 0.142381 111 60 54
0.0585339 -0.526998 0.142717 108 55 48
0.0635173 -0.506934 0.142309 97 42 29
0.0650475 -0.506655 0.141957 95 40 26
0.0692823 -0.503817 0.141066 119 54 42
0.074582 -0.506807 0.139698 135 64 50
0.0795834 -0.515927 0.138164 112 47 35
0.106859 -0.467332 0.133748 111 48 44
0.108152 -0.461671 0.13368 115 52 44
0.116054 -0.453642 0.132199 133 72 56
0.118718 -0.452655 0.131633 151 82 69
0.120047 -0.452154 0.131351 155 84 69
0.122044 -0.453518 0.13084 159 89 74
0.129149 -0.460337 0.128944 153 80 66
0.133303 -0.46723 0.127716 152 79 65
0.210453 -0.570711 0.106001 210 203 203
0.217101 -0.570736 0.104521 221 216 216
0.243158 -0.572604 0.0986768 226 221 220
0.247242 -0.571438 0.0978311 230 226 225
0.251802 -0.571101 0.0968458 228 223 223
0.254086 -0.570916 0.0963535 222 216 216
0.277028 -0.576661 0.091085 184 176 174
-0.164054 -0.610104 0.193461 63 56 47
-0.16184 -0.609791 0.192894 66 56 46
-0.156701 -0.613564 0.191376 66 58 51
-0.155361 -0.616084 0.190913 68 62 55
-0.149281 -0.616907 0.189285 72 67 59
-0.142394 -0.614765 0.187582 98 93 83
-0.134286 -0.607696 0.185782 202 193 182
-0.131368 -0.604346 0.185171 207 197 187
-0.115307 -0.579588 0.182089 195 186 175
-0.10654 -0.582694 0.179688 196 184 174
-0.0912994 -0.581798 0.175809 195 183 173
-0.074559 -0.581657 0.171541 195 183 173
-0.0708037 -0.581211 0.170605 194 181 172
-0.0587601 -0.58784 0.167272 210 198 188
-0.0551011 -0.588254 0.166331 127 115 105
-0.0495051 -0.587824 0.16494 133 121 111
-0.0460307 -0.590155 0.163968 160 148 138
-0.0346354 -0.58601 0.161288 202 190 180
-0.019158 -0.564736 0.158332 179 162 154
-0.00707059 -0.574939 0.154909 164 149 140
0.0143795 -0.575483 0.149618 125 113 103
0.0252759 -0.577855 0.146861 105 93 85
0.03419 -0.576141 0.14477 105 92 87
0.0510754 -0.581334 0.140477 101 86 78
0.05289 -0.5811 0.140051 101 86 78
0.0561535 -0.577639 0.139415 104 87 79
0.057952 -0.563278 0.139595 106 80 73
0.0588428 -0.531869 0.140722 104 53 45
0.061768 -0.50813 0.14104 97 44 32
0.0714033 -0.500206 0.139094 135 67 49
0.0778489 -0.509023 0.137191 123 55 39
0.0904568 -0.537818 0.132977 67 20 16
0.100519 -0.543548 0.130367 95 62 57
0.101964 -0.542147 0.13009 101 72 66
0.109126 -0.542282 0.128412 91 58 53
0.112467 -0.54134 0.127675 87 48 45
0.109806 -0.512069 0.129581 87 33 29
0.113365 -0.455494 0.131272 126 65 49
0.12138 -0.452528 0.129571 159 89 74
0.128467 -0.45935 0.127645 159 86 72
0.136458 -0.472179 0.125242 154 86 73
0.146453 -0.489523 0.122179 161 113 102
0.193226 -0.571927 0.107801 213 207 204
0.196427 -0.569386 0.107197 215 209 209
0.207385 -0.569704 0.104719 215 211 210
0.212629 -0.571554 0.103457 213 206 206
0.226003 -0.571428 0.100476 226 221 220
0.230935 -0.572183 0.0993422 227 222 221
0.24953 -0.572068 0.0952265 228 223 223
0.254102 -0.571705 0.0942353 222 216 216
0.259657 -0.573019 0.0929473 214 207 208
0.260984 -0.571073 0.0927507 214 208 206
0.273213 -0.575177 0.0898633 214 207 208
0.27947 -0.568874 0.088808 236 226 227
-0.169976 -0.589062 0.19394 145 135 129
-0.149319 -0.601286 0.187929 199 189 179
-0.147159 -0.600904 0.187383 197 187 176
-0.142855 -0.60011 0.1863 195 186 175
-0.14071 -0.599699 0.185762 195 186 175
-0.138301 -0.598315 0.185202 194 185 174
-0.117076 -0.577119 0.180715 192 182 172
-0.109026 -0.574963 0.17874 192 180 171
-0.102121 -0.577551 0.17684 194 181 172
-0.0834925 -0.577137 0.172091 194 181 172
-0.0818757 -0.578433 0.171618 196 184 174
-0.0781294 -0.578045 0.170682 195 183 173
-0.0764975 -0.57932 0.170207 194 181 172
-0.070961 -0.579153 0.168809 196 184 174
-0.0549923 -0.583206 0.164583 196 182 173
-0.0422905 -0.584408 0.161336 188 174 165
-0.0290761 -0.577267 0.158365 186 171 163
-0.0213757 -0.565599 0.156989 180 163 156
-0.0127852 -0.571815 0.154572 169 155 146
-0.00931058 -0.57585 0.153526 168 151 143
-0.00215749 -0.575843 0.151761 156 141 132
0.00142542 -0.576795 0.150836 150 135 126
0.0157303 -0.575319 0.147397 122 107 101
0.0211426 -0.576018 0.146043 109 96 89
0.0374198 -0.576718 0.142057 104 92 82
0.0393016 -0.577532 0.141563 104 92 82
0.0411009 -0.577344 0.141137 103 91 81
0.0487122 -0.580488 0.139154 101 86 78
0.0577814 -0.565178 0.137687 104 80 72
0.0587847 -0.522656 0.139433 102 51 43
0.0610844 -0.506093 0.139659 95 43 31
0.0684656 -0.494563 0.138444 129 61 43
0.0835483 -0.522901 0.133538 99 37 26
0.0873815 -0.533256 0.132143 76 25 17
0.102369 -0.553164 0.127671 99 70 66
0.110673 -0.54992 0.125879 90 57 54
0.10421 -0.476182 0.130923 100 39 35
0.11873 -0.450166 0.128833 161 90 75
0.12339 -0.454755 0.127538 167 94 78
0.128473 -0.460218 0.126105 166 93 79
0.135757 -0.471187 0.123897 157 87 72
0.139643 -0.477097 0.122717 152 84 68
0.21176 -0.570572 0.101678 212 205 205
0.237245 -0.571814 0.0959005 228 223 223
0.244046 -0.571428 0.0944044 229 225 224
0.246786 -0.572148 0.0937568 228 223 223
0.25689 -0.573148 0.0914601 226 219 219
0.259674 -0.573795 0.0908087 217 210 210
0.273241 -0.575943 0.0876944 213 206 206
-0.156962 -0.585227 0.188705 187 177 169
-0.146991 -0.585318 0.186099 186 176 166
-0.129778 -0.579989 0.181908 190 180 170
-0.122367 -0.573715 0.180316 191 181 171
-0.120845 -0.575149 0.179849 191 181 171
-0.118823 -0.57464 0.179353 192 180 171
-0.114558 -0.572622 0.178358 192 180 171
-0.0785786 -0.577958 0.168878 194 182 170
-0.0767883 -0.578246 0.168409 194 182 170
-0.0729006 -0.576823 0.167495 192 180 171
-0.0529707 -0.57735 0.162436 192 177 168
-0.047795 -0.57987 0.161008 189 175 166
-0.0460896 -0.581028 0.160522 189 174 168
-0.0332363 -0.578975 0.15741 184 172 163
-0.0256703 -0.572362 0.155859 181 167 158
-0.0237987 -0.57044 0.15549 180 165 157
-0.0217159 -0.563519 0.155321 180 163 156
-0.0183107 -0.565625 0.15437 174 160 151
-0.000808446 -0.574738 0.149586 156 141 132
0.0206575 -0.574934 0.144314 106 94 87
0.0242875 -0.575696 0.143391 101 91 81
0.035107 -0.575809 0.140755 100 88 79
0.0462568 -0.578634 0.137913 100 85 76
0.0499735 -0.579183 0.136989 98 84 75
0.0591117 -0.516401 0.137975 98 47 40
0.0664447 -0.493806 0.137375 116 53 36
0.0677502 -0.492531 0.137129 125 59 43
0.0694071 -0.49321 0.1367 132 64 46
0.0755649 -0.501064 0.134836 138 68 51
0.100041 -0.560739 0.125985 90 59 53
0.108501 -0.557528 0.124158 98 65 58
0.104698 -0.463338 0.129939 109 49 44
0.112473 -0.450178 0.128826 135 71 56
0.114149 -0.446397 0.128638 150 82 66
0.117745 -0.448228 0.127711 162 91 76
0.119723 -0.449597 0.127182 167 94 80
0.127449 -0.458289 0.124942 166 93 77
0.20069 -0.571187 0.102135 217 213 212
0.211306 -0.570481 0.0997641 216 212 211
0.215318 -0.569591 0.0989049 228 223 223
0.221987 -0.569521 0.0974023 228 223 223
0.241313 -0.571476 0.0929467 231 224 224
0.249541 -0.57363 0.090983 229 225 224
0.256422 -0.573055 0.0894774 228 221 221
-0.161569 -0.579483 0.188229 185 175 167
-0.148673 -0.576441 0.185042 186 176 168
-0.146893 -0.577012 0.184547 187 177 169
-0.1274 -0.576529 0.179527 190 180 170
-0.125361 -0.576047 0.179027 191 181 171
-0.12282 -0.573621 0.178508 191 181 171
-0.121049 -0.574087 0.178025 191 181 171
-0.119276 -0.574546 0.177543 192 180 171
-0.102601 -0.575416 0.173215 195 183 173
-0.0911419 -0.573682 0.170384 194 181 172
-0.0877765 -0.575333 0.169436 194 181 172
-0.0859967 -0.575656 0.168966 194 181 172
-0.0826042 -0.577266 0.168015 194 181 172
-0.0772372 -0.578152 0.166604 194 182 170
-0.0498343 -0.577617 0.159722 189 175 166
-0.0429266 -0.581238 0.157794 187 174 167
-0.0299606 -0.577087 0.154783 182 168 159
-0.0242842 -0.571345 0.153683 178 161 153
-0.0205316 -0.566481 0.153016 178 161 153
-0.0170275 -0.566577 0.152142 173 156 149
-0.0119543 -0.574656 0.150446 168 151 143
-0.0101702 -0.574672 0.150004 166 150 142
-0.00482436 -0.575676 0.14863 156 141 132
0.000542228 -0.575616 0.147311 147 133 124
0.0113033 -0.5763 0.14463 131 117 108
0.0220576 -0.575723 0.142031 105 93 85
0.0239026 -0.576598 0.141533 103 91 81
0.0441055 -0.579743 0.136453 101 86 78
0.0515606 -0.580836 0.134591 98 84 75
0.0550702 -0.579357 0.133826 100 85 76
0.0580578 -0.573897 0.133405 101 85 74
0.0591622 -0.542486 0.134859 103 57 50
0.0587127 -0.527426 0.135793 100 49 39
0.0642638 -0.492054 0.136406 108 49 35
0.0655675 -0.490786 0.136164 115 53 38
0.0705246 -0.492825 0.13487 139 71 53
0.10489 -0.567519 0.122586 112 86 79
0.112237 -0.544941 0.122111 83 47 43
0.103272 -0.469868 0.128415 100 39 35
0.111751 -0.45341 0.127364 131 68 53
0.114145 -0.447266 0.127156 150 82 66
0.117418 -0.448157 0.126347 164 92 75
0.120057 -0.451395 0.125551 168 95 79
0.130539 -0.463249 0.122452 164 92 77
0.137518 -0.473245 0.12027 161 93 77
0.145743 -0.485915 0.117649 150 87 69
0.177933 -0.552923 0.106393 183 163 159
0.187144 -0.570507 0.103265 224 220 219
0.194689 -0.568206 0.101668 217 213 212
0.201236 -0.568433 0.100158 226 221 220
0.203427 -0.568487 0.0996544 224 220 219
0.234064 -0.567228 0.0927702 229 225 224
0.244461 -0.569342 0.0902978 229 225 224
0.263838 -0.573989 0.0856631 214 207 208
0.268472 -0.57347 0.0846559 212 205 205
0.271293 -0.574044 0.0839898 207 201 199
0.273704 -0.565531 0.0839671 213 206 206
-0.165282 -0.577167 0.187352 185 175 167
-0.143494 -0.577073 0.181702 184 174 166
-0.139925 -0.578162 0.180713 187 174 167
-0.138137 -0.578695 0.180219 187 178 167
-0.131684 -0.576399 0.178692 190 180 170
-0.115698 -0.573398 0.174762 192 180 171
-0.0937502 -0.575199 0.169046 194 181 172
-0.0900026 -0.574901 0.168111 194 181 172
-0.0648508 -0.57788 0.161569 191 179 170
-0.0610116 -0.576346 0.160692 191 179 170
-0.0485875 -0.57868 0.157435 188 174 165
-0.0265998 -0.573167 0.15227 180 165 157
-0.0247205 -0.571246 0.151915 180 163 156
0.0125979 -0.574126 0.142537 130 115 107
0.0162422 -0.575943 0.141538 118 105 98
0.0235156 -0.577493 0.139669 104 92 82
0.0452758 -0.577446 0.134379 101 86 78
0.0508972 -0.578753 0.132942 101 86 78
0.0589417 -0.556474 0.13231 107 77 69
0.0591632 -0.545351 0.132911 103 61 52
0.0582862 -0.505133 0.135489 94 44 29
0.061108 -0.49351 0.135497 96 41 28
0.103171 -0.460332 0.127494 107 46 42
0.10695 -0.458033 0.126747 117 55 44
0.115452 -0.447639 0.125391 158 88 73
0.127113 -0.459068 0.121985 170 98 81
0.189617 -0.572355 0.100585 227 222 221
0.203376 -0.569285 0.0976097 223 219 218
0.209157 -0.567581 0.0963901 223 218 220
0.216624 -0.569373 0.0945697 229 225 224
0.225098 -0.568328 0.0927004 230 226 225
0.232257 -0.568979 0.0910288 229 225 224
0.242193 -0.570254 0.0886904 232 225 225
0.263365 -0.573879 0.0836673 212 205 205
0.273144 -0.573642 0.0814775 209 202 202
0.275267 -0.568801 0.0813114 211 204 204
-0.165415 -0.576114 0.185476 184 174 164
-0.149595 -0.576229 0.181371 185 173 164
-0.147515 -0.575846 0.180858 183 171 161
-0.115668 -0.571349 0.172959 192 180 171
-0.108603 -0.573038 0.171046 191 179 170
-0.101511 -0.574612 0.169138 194 181 172
-0.0977524 -0.574377 0.168196 194 181 172
-0.0961758 -0.575717 0.16771 194 181 172
-0.0687348 -0.576303 0.160728 192 180 171
-0.0614561 -0.576238 0.1589 191 179 167
-0.0575209 -0.57368 0.158072 190 178 168
-0.0472363 -0.578734 0.155177 188 173 167
-0.038085 -0.577445 0.152971 187 172 166
-0.0309716 -0.578872 0.151109 182 168 159
-0.0270938 -0.574057 0.150446 180 165 157
-0.00569321 -0.574469 0.14512 161 144 136
0.022972 -0.575393 0.138022 106 94 87
0.0247636 -0.575264 0.137592 104 92 82
0.0302034 -0.575829 0.136229 104 92 82
0.039599 -0.579931 0.133685 104 92 82
0.0524873 -0.580382 0.13053 101 86 78
0.0574304 -0.575663 0.129631 101 87 76
0.0587152 -0.571445 0.129586 104 85 76
0.0591785 -0.561303 0.130112 102 80 74
0.0578173 -0.51515 0.133343 97 47 32
0.0605867 -0.492437 0.134106 96 39 26
0.0630429 -0.488938 0.133737 107 47 38
0.0733218 -0.494948 0.130895 140 73 55
0.0755794 -0.498522 0.13013 140 73 55
0.107551 -0.543764 0.11965 90 52 47
0.108007 -0.538484 0.119878 84 46 41
0.111176 -0.449008 0.124862 139 73 57
0.116437 -0.447064 0.123756 168 95 81
0.118406 -0.448432 0.123207 171 99 82
0.123057 -0.453 0.121826 177 105 88
0.175958 -0.54996 0.103209 151 125 115
0.204713 -0.568311 0.0953535 227 222 224
0.224638 -0.568214 0.0907775 232 225 225
0.227311 -0.569032 0.0901102 230 226 225
0.244922 -0.57173 0.0859016 234 227 229
0.26289 -0.573761 0.0816724 212 206 203
0.270837 -0.574665 0.0798066 210 203 201
0.272166 -0.572675 0.0796403 198 192 189
-0.169338 -0.58006 0.184244 190 178 170
-0.16021 -0.576934 0.182099 185 173 164
-0.15214 -0.576485 0.180047 184 174 164
-0.150054 -0.576111 0.179536 185 173 164
-0.145898 -0.575336 0.178518 180 167 158
-0.122911 -0.575696 0.172598 191 179 170
-0.120384 -0.573251 0.172118 191 181 171
-0.118368 -0.572732 0.171638 190 180 170
-0.11459 -0.572638 0.17068 192 180 171
-0.109504 -0.57487 0.169232 192 180 171
-0.10795 -0.576251 0.168743 192 180 171
-0.0968249 -0.576581 0.165894 192 180 171
-0.0912753 -0.576641 0.164483 194 181 172
-0.054635 -0.575939 0.155298 192 177 168
-0.043995 -0.577926 0.152503 187 172 166
-0.0331464 -0.577663 0.149816 183 169 160
-0.0148753 -0.568322 0.145903 169 155 146
-0.0132443 -0.573335 0.145165 168 154 145
-0.00970143 -0.574358 0.144221 166 150 142
-0.00257035 -0.577315 0.142264 159 143 135
0.00460534 -0.576165 0.140573 144 129 121
0.0100325 -0.577969 0.139119 137 122 114
0.0135395 -0.574815 0.138468 125 111 102
0.0171173 -0.574624 0.137603 118 105 98
0.0243792 -0.576144 0.135724 105 93 83
0.0278453 -0.573875 0.135028 104 92 82
0.0353773 -0.578198 0.132903 104 92 82
0.053857 -0.580017 0.12829 100 85 76
0.0670736 -0.487969 0.131266 132 64 46
0.0798051 -0.505533 0.127033 129 64 47
0.101535 -0.574874 0.117165 111 85 76
0.103335 -0.574426 0.116766 120 96 90
0.104025 -0.56913 0.116958 119 95 89
0.104832 -0.556613 0.117611 103 72 66
0.104934 -0.549397 0.118075 95 62 57
0.10591 -0.499605 0.121215 78 22 18
0.102777 -0.461109 0.124573 108 48 41
0.10868 -0.45599 0.123528 125 61 51
0.109419 -0.453634 0.123515 126 65 51
0.113164 -0.447021 0.123086 152 84 68
0.122722 -0.452911 0.120438 180 107 93
0.160686 -0.517492 0.10711 151 89 74
0.189373 -0.568578 0.0968875 227 222 224
0.205065 -0.569993 0.0931431 235 230 232
0.219723 -0.56819 0.0898767 228 223 223
0.229088 -0.568831 0.0876709 232 225 225
0.230886 -0.567861 0.087325 232 225 225
0.245333 -0.568835 0.0839342 235 228 230
0.247604 -0.568664 0.083425 220 213 213
-0.173643 -0.584916 0.183008 154 146 142
-0.154067 -0.574823 0.178698 184 172 163
-0.132507 -0.574124 0.173221 188 178 170
-0.0988525 -0.575117 0.164584 192 180 171
-0.0954888 -0.576812 0.163611 192 180 171
-0.0806521 -0.576429 0.15989 194 181 172
-0.06977 -0.577053 0.157107 194 181 172
-0.0641299 -0.57578 0.15578 192 180 171
-0.060558 -0.576213 0.154854 191 179 170
-0.0586482 -0.575427 0.154431 190 178 168
-0.0571007 -0.577609 0.153888 192 180 171
-0.0534027 -0.576992 0.153006 190 178 168
-0.0498196 -0.577338 0.152086 190 178 168
-0.0405952 -0.575091 0.149942 186 171 163
-0.0334512 -0.575547 0.14813 185 170 161
-0.01014 -0.574236 0.142442 167 153 144
-0.00300754 -0.576195 0.140542 157 142 133
0.00235705 -0.574097 0.139368 149 134 123
0.00956801 -0.576849 0.137399 139 125 114
0.0202561 -0.57428 0.134958 111 99 89
0.0239393 -0.576021 0.133933 105 93 83
0.0475549 -0.576655 0.128126 100 85 76
0.0577561 -0.519863 0.12968 99 51 38
0.0577965 -0.498672 0.131176 98 45 31
0.0863922 -0.523167 0.122548 106 63 50
0.104089 -0.532946 0.117616 85 48 42
0.110115 -0.452126 0.121997 135 71 56
0.113152 -0.447866 0.121588 153 85 69
0.114467 -0.447378 0.121313 162 91 76
0.124737 -0.455078 0.118334 177 105 88
0.189675 -0.570275 0.0946965 234 232 233
0.205411 -0.571666 0.0909187 234 229 230
0.220544 -0.570727 0.0874659 230 226 225
0.227698 -0.57143 0.0857532 234 227 227
0.234905 -0.572021 0.0840387 233 226 226
0.264738 -0.574101 0.0769953 212 205 205
0.274036 -0.572958 0.0749432 213 206 206
0.274851 -0.570111 0.0749706 209 202 202
-0.13296 -0.573993 0.171406 188 178 170
-0.129144 -0.574017 0.170432 188 179 168
-0.109946 -0.57267 0.165655 194 181 172
-0.108176 -0.573074 0.165175 192 180 171
-0.0923628 -0.577368 0.160852 192 180 171
-0.088231 -0.575078 0.159981 191 179 170
-0.079312 -0.576585 0.157621 194 181 172
-0.0664965 -0.576412 0.154415 192 180 171
-0.0610018 -0.576083 0.153062 191 179 170
-0.0590911 -0.575297 0.152643 191 179 170
-0.0465805 -0.576531 0.149423 189 175 166
-0.0174313 -0.566049 0.142961 173 158 150
0.000135874 -0.575006 0.13795 152 138 129
0.00192537 -0.574964 0.137512 150 135 126
0.0288204 -0.574466 0.130945 103 91 81
0.0325445 -0.57613 0.12991 103 91 81
0.0344928 -0.577943 0.129298 102 89 80
0.041708 -0.577176 0.127594 103 89 80
0.0527401 -0.577784 0.124861 100 85 76
0.0546636 -0.578516 0.124339 100 85 76
0.0616372 -0.486674 0.129541 108 49 35
0.0645503 -0.486101 0.128881 119 58 42
0.0711081 -0.488786 0.127096 139 73 55
0.0839518 -0.513338 0.122154 114 60 44
0.0989936 -0.558674 0.11512 126 100 93
0.100571 -0.541883 0.116009 100 64 60
0.101091 -0.536614 0.116282 92 57 48
0.10416 -0.501757 0.118186 72 18 16
0.10175 -0.475569 0.120747 98 37 31
0.10154 -0.469408 0.121265 99 41 33
0.102098 -0.460912 0.121777 103 46 35
0.107414 -0.453907 0.121045 128 64 51
0.110496 -0.44967 0.120636 141 76 57
0.114137 -0.44728 0.119954 166 93 77
0.118732 -0.447646 0.118838 178 106 89
0.147519 -0.490329 0.108768 160 99 83
0.200147 -0.570542 0.0902108 236 231 233
0.205944 -0.568856 0.0889817 233 228 229
0.214783 -0.56887 0.0869114 230 226 225
0.217426 -0.569736 0.0862262 231 227 226
0.220079 -0.570589 0.0855398 233 228 227
0.229479 -0.571206 0.0832973 234 227 227
0.247132 -0.569259 0.07934 235 228 230
0.24988 -0.569938 0.0786484 231 227 228
0.260972 -0.572502 0.0758733 212 205 205
0.27517 -0.567123 0.0730116 229 223 223
-0.168271 -0.578423 0.17812 178 168 158
-0.165817 -0.577175 0.177592 181 169 159
-0.160945 -0.574643 0.17655 182 170 160
-0.159169 -0.575253 0.176047 182 170 160
-0.118434 -0.574722 0.16572 191 179 170
-0.108623 -0.572937 0.163378 192 180 171
-0.096386 -0.576543 0.160001 191 179 170
-0.0597822 -0.577142 0.150761 191 179 170
-0.0470233 -0.576394 0.147634 190 176 167
-0.0397744 -0.575944 0.145864 188 173 167
-0.0379849 -0.576062 0.145409 187 172 164
-0.0343331 -0.575281 0.144562 185 170 161
-0.0270128 -0.572632 0.142953 181 167 158
-0.0178625 -0.565915 0.141214 174 160 151
-0.016142 -0.566942 0.140706 172 158 147
-0.00924977 -0.574969 0.138369 165 150 142
0.00327572 -0.574779 0.135292 149 134 125
0.0158378 -0.57523 0.132165 123 110 101
0.019379 -0.574014 0.131391 114 103 91
0.0212153 -0.574887 0.130872 111 99 89
0.026531 -0.573486 0.129679 104 92 82
0.0339757 -0.576812 0.127593 102 89 80
0.0358549 -0.577624 0.127069 102 89 82
0.0395487 -0.578232 0.126118 103 90 83
0.0413556 -0.578029 0.125693 103 89 80
0.0449676 -0.5776 0.124845 100 85 76
0.0542193 -0.578377 0.122528 100 85 76
0.0589798 -0.491037 0.128279 100 45 34
0.0609542 -0.484602 0.12831 107 50 37
0.0622379 -0.483341 0.128099 116 54 41
0.0722129 -0.488351 0.125289 136 73 53
0.0794039 -0.500954 0.122552 126 65 47
0.103228 -0.525512 0.114865 76 33 27
0.101928 -0.488756 0.118107 77 23 16
0.101491 -0.46505 0.120104 100 42 32
0.106486 -0.451915 0.119962 128 64 51
0.108841 -0.450039 0.11955 135 72 54
0.112177 -0.446727 0.119021 157 89 73
0.197102 -0.569432 0.0889982 234 232 233
0.206292 -0.57051 0.0867438 233 228 229
0.212105 -0.568738 0.0855192 230 226 225
0.213483 -0.56694 0.0853411 230 226 225
0.220038 -0.571331 0.0834424 230 226 225
0.222276 -0.57128 0.0829208 233 226 226
0.25493 -0.571102 0.0752875 215 209 209
0.269404 -0.574958 0.071593 212 205 205
0.271736 -0.574662 0.0710742 205 198 198
-0.149802 -0.575185 0.171701 183 173 165
-0.141227 -0.572604 0.169739 184 173 168
-0.113076 -0.57392 0.162499 194 181 172
-0.09268 -0.574142 0.15734 194 181 172
-0.0493579 -0.577088 0.146247 189 174 168
-0.0402994 -0.576795 0.144016 188 173 167
-0.0254616 -0.568571 0.141012 181 167 158
-0.0115003 -0.57582 0.136952 168 154 145
0.00284493 -0.575631 0.133425 151 134 126
0.00467546 -0.578563 0.132731 146 132 123
0.00648044 -0.5785 0.132291 146 132 123
0.00828533 -0.578429 0.131852 143 129 117
0.0100902 -0.57835 0.131415 140 126 115
0.0153626 -0.57409 0.13047 125 111 102
0.0354896 -0.57847 0.125167 102 89 82
0.0410011 -0.578873 0.123785 102 87 79
0.0599602 -0.569258 0.119955 99 83 70
0.0595944 -0.529058 0.123387 100 54 42
0.0716632 -0.487257 0.123938 132 70 50
0.0929978 -0.53517 0.114779 136 106 98
0.0955173 -0.538619 0.113882 117 89 83
0.0978439 -0.541089 0.113114 105 72 67
0.100296 -0.529163 0.113519 78 35 32
0.101687 -0.527754 0.113302 75 32 28
0.100863 -0.458793 0.119276 106 46 39
0.112841 -0.445196 0.117549 164 92 75
0.123707 -0.450514 0.114506 176 106 88
0.12675 -0.454606 0.113435 169 99 81
0.133638 -0.464576 0.110951 167 99 83
0.161029 -0.51723 0.0999778 117 71 60
0.174764 -0.546734 0.0942134 231 215 214
0.185387 -0.567905 0.0898945 236 233 234
0.194457 -0.569209 0.0876298 235 230 232
0.197031 -0.570186 0.086936 234 232 233
0.202611 -0.572999 0.0853738 234 229 230
0.204423 -0.572131 0.0850181 234 229 230
0.206232 -0.571256 0.0846639 234 229 230
0.211642 -0.568585 0.0836105 234 229 230
0.221807 -0.571125 0.0809903 233 228 227
0.243451 -0.56826 0.0761315 233 228 229
0.2494 -0.570497 0.0745396 233 228 227
0.252631 -0.57202 0.0736489 235 228 230
0.254451 -0.570945 0.0733136 214 207 208
-0.149082 -0.577499 0.169356 181 171 163
-0.130765 -0.574542 0.16498 187 177 169
-0.115536 -0.574318 0.161156 190 178 168
-0.102206 -0.573207 0.157897 192 180 171
-0.0913467 -0.57432 0.155072 194 181 172
-0.0803136 -0.57418 0.152318 194 181 172
-0.0751265 -0.575981 0.150862 192 180 171
-0.0239827 -0.565493 0.139035 180 165 157
-0.0187633 -0.566622 0.137644 177 160 152
-0.00835528 -0.575664 0.134281 166 150 142
0.000599878 -0.57254 0.132341 156 139 129
0.016789 -0.575821 0.128066 124 110 101
0.0257687 -0.575177 0.125914 105 93 83
0.0330916 -0.576514 0.124 102 89 82
0.0368538 -0.578128 0.122937 102 89 80
0.0458862 -0.577076 0.120816 98 84 75
0.0496019 -0.577593 0.119862 98 84 75
0.0532152 -0.577091 0.119022 100 85 78
0.0607495 -0.539729 0.12044 101 60 49
0.0691071 -0.483556 0.12331 129 66 46
0.0927203 -0.527845 0.113708 111 75 67
0.0970826 -0.531826 0.112303 79 37 33
0.100274 -0.516596 0.112865 54 9 8
0.1021 -0.453996 0.117919 114 55 41
0.105228 -0.449803 0.117535 130 67 52
0.115123 -0.444094 0.115661 177 102 84
0.123032 -0.44947 0.11329 176 106 88
0.126066 -0.453563 0.112201 172 102 85
0.137493 -0.471244 0.107903 167 101 82
0.160987 -0.518006 0.0981469 135 84 72
0.196181 -0.569121 0.0852132 234 232 233
0.208557 -0.567532 0.0824057 234 229 230
0.221337 -0.570963 0.0790608 233 228 227
0.224008 -0.571784 0.0783532 236 230 230
0.232574 -0.570538 0.0764309 234 227 227
0.260011 -0.572883 0.069724 210 206 205
-0.168643 -0.57513 0.172556 176 166 156
-0.16653 -0.574823 0.172049 180 167 158
-0.156984 -0.575984 0.169525 179 169 161
-0.153417 -0.577152 0.168515 181 171 163
-0.149841 -0.57829 0.167507 180 170 162
-0.147153 -0.575985 0.16704 180 170 162
-0.137097 -0.574809 0.164609 185 173 166
-0.132991 -0.573891 0.163658 184 173 168
-0.12384 -0.575302 0.161223 189 176 169
-0.120275 -0.5762 0.160244 190 178 168
-0.106195 -0.572292 0.157063 192 180 171
-0.104424 -0.572673 0.156583 192 180 171
-0.0896368 -0.572521 0.152889 192 180 171
-0.0770346 -0.573585 0.149638 192 180 171
-0.0697674 -0.573608 0.147821 192 180 171
-0.066346 -0.575057 0.146834 192 180 171
-0.0556198 -0.576269 0.144049 190 178 168
-0.052145 -0.577606 0.143062 190 178 170
-0.0411842 -0.576483 0.140438 187 172 166
-0.0263296 -0.568265 0.137499 182 168 159
-0.0226617 -0.565389 0.136852 180 165 157
-0.0209091 -0.565433 0.136413 180 163 156
-0.00341134 -0.574449 0.131262 161 147 136
0.00736296 -0.576125 0.12845 148 131 121
0.0307119 -0.574544 0.122846 102 89 80
0.045541 -0.577905 0.1189 98 84 75
0.0509645 -0.577184 0.117636 98 84 77
0.0545766 -0.576668 0.116799 98 84 77
0.06126 -0.571613 0.115625 101 82 72
0.0608419 -0.481015 0.124 109 52 37
0.0619458 -0.478775 0.123936 111 55 40
0.0665869 -0.479838 0.122707 120 59 43
0.0683848 -0.481477 0.122119 125 64 46
0.074056 -0.487313 0.120204 129 68 48
0.0969503 -0.525463 0.111147 56 8 6
0.0987973 -0.505456 0.112532 62 17 14
0.0985142 -0.479782 0.114955 83 27 23
0.105922 -0.448279 0.116057 134 70 53
0.116423 -0.444404 0.113881 178 106 89
0.1207 -0.448022 0.112518 178 106 89
0.122695 -0.449349 0.111915 177 105 88
0.195331 -0.568049 0.0834989 237 232 234
0.204496 -0.56913 0.0812027 237 232 234
0.243423 -0.569659 0.0718551 234 227 229
0.246162 -0.570348 0.0711382 235 228 230
0.254831 -0.568666 0.0692314 213 206 206
0.264151 -0.572186 0.0666852 210 206 207
0.271609 -0.57216 0.0649154 207 202 202
-0.161647 -0.576509 0.168682 177 167 157
-0.137548 -0.57464 0.16279 183 171 163
-0.13577 -0.575147 0.162294 184 172 165
-0.131666 -0.574213 0.161352 184 173 168
-0.129356 -0.572769 0.16091 185 172 168
-0.114417 -0.57344 0.157095 190 178 168
-0.0993383 -0.57263 0.153394 192 180 171
-0.0924275 -0.574975 0.151441 192 180 171
-0.0902675 -0.573336 0.151057 194 181 172
-0.084401 -0.571311 0.149784 192 180 171
-0.0826313 -0.571603 0.149314 192 180 171
-0.0808603 -0.571887 0.148845 192 180 171
-0.0737639 -0.572952 0.146971 194 181 172
-0.0719869 -0.573201 0.146504 192 180 171
-0.0685726 -0.574664 0.145513 192 180 171
-0.0650033 -0.575111 0.144581 192 180 171
-0.0613019 -0.574539 0.143713 192 180 171
-0.0593933 -0.573747 0.143314 191 179 170
-0.0489952 -0.577757 0.140344 190 178 170
-0.0396684 -0.574447 0.138341 186 171 163
-0.0342369 -0.573762 0.137058 184 172 163
-0.0179068 -0.567329 0.133622 175 161 152
-0.00206323 -0.575245 0.128949 159 145 134
0.00152954 -0.57615 0.127975 155 138 128
0.00690452 -0.574964 0.126761 148 131 121
0.0196318 -0.57824 0.123311 119 107 99
0.0541321 -0.5765 0.114995 97 82 76
0.0603244 -0.479903 0.12269 106 52 38
0.0626821 -0.476399 0.122448 111 55 40
0.0676659 -0.479395 0.120944 119 60 41
0.0729235 -0.48329 0.119288 129 68 50
0.0816152 -0.495459 0.116005 131 86 72
0.0904745 -0.51362 0.11211 83 27 21
0.0933766 -0.518994 0.110889 67 15 12
0.097775 -0.472535 0.114264 92 33 30
0.10191 -0.450463 0.115374 123 61 48
0.105589 -0.448153 0.114703 136 71 54
0.120032 -0.446967 0.11132 180 107 91
0.208851 -0.569871 0.0780529 236 229 232
0.220394 -0.570615 0.075205 233 228 229
0.255303 -0.570199 0.0668709 212 207 208
0.266961 -0.573422 0.063767 210 206 207
-0.159675 -0.575042 0.166357 176 166 156
-0.154329 -0.576803 0.164838 177 167 159
-0.152543 -0.577376 0.164332 177 167 159
-0.129803 -0.572594 0.159103 184 172 165
-0.12321 -0.576378 0.157074 187 174 167
-0.121175 -0.575856 0.156616 187 174 167
-0.108852 -0.571563 0.15396 189 177 167
-0.107306 -0.572925 0.153438 189 177 167
-0.103539 -0.572707 0.152518 190 178 168
-0.0930652 -0.57578 0.149596 191 179 170
-0.0795286 -0.571991 0.146595 192 180 171
-0.0598338 -0.573574 0.141533 191 179 170
-0.0563875 -0.574937 0.14054 191 179 170
-0.0546005 -0.575114 0.140078 191 179 172
-0.0529225 -0.576274 0.139546 190 178 170
-0.0235238 -0.565057 0.133363 180 166 155
-0.0217712 -0.565101 0.132925 182 165 155
-0.0149953 -0.57317 0.130445 172 158 147
0.00468294 -0.575856 0.125312 152 136 126
0.0298302 -0.574204 0.119273 102 89 80
0.0316242 -0.574031 0.118848 99 87 78
0.0334914 -0.574842 0.118307 100 88 79
0.0407647 -0.575038 0.116497 101 86 78
0.0518814 -0.576587 0.11361 97 82 76
0.0612951 -0.578153 0.111141 101 81 74
0.0633968 -0.566748 0.111759 101 73 62
0.0797975 -0.48854 0.115522 123 67 49
0.0818986 -0.491074 0.114756 119 65 47
0.0901014 -0.506311 0.111233 76 25 19
0.0966052 -0.480892 0.112178 75 24 18
0.0971625 -0.471442 0.112985 93 34 29
0.098412 -0.459677 0.113854 106 46 39
0.101291 -0.449387 0.114179 123 61 48
0.105256 -0.448022 0.11335 139 73 57
0.111833 -0.445641 0.111988 170 98 81
0.124363 -0.451327 0.108374 176 106 88
0.201761 -0.569642 0.0777506 235 230 232
0.205364 -0.567892 0.0770542 238 234 235
0.213644 -0.571444 0.0746944 238 231 231
0.218108 -0.571368 0.0736226 236 230 230
0.235665 -0.569751 0.0695443 236 229 232
0.243384 -0.571024 0.0675537 239 232 234
0.250704 -0.57131 0.0657595 239 232 234
0.257116 -0.569772 0.0643695 212 207 208
0.26038 -0.571227 0.0634361 210 206 207
0.272457 -0.570626 0.0605892 206 201 203
0.273277 -0.567781 0.0606797 233 226 226
-0.170356 -0.575535 0.167014 172 162 154
-0.162887 -0.57709 0.16498 172 162 152
-0.142871 -0.576116 0.160069 178 168 160
-0.134615 -0.574325 0.15819 181 168 161
-0.132292 -0.572893 0.157758 183 170 165
-0.126705 -0.57335 0.156314 183 170 165
-0.121374 -0.574705 0.154842 185 173 166
-0.10775 -0.572744 0.151644 189 175 166
-0.0874151 -0.572623 0.146586 191 179 170
-0.0838623 -0.573215 0.14564 191 179 170
-0.0730211 -0.573833 0.142877 192 180 171
-0.0498823 -0.577401 0.136757 190 178 168
-0.0480844 -0.577548 0.136295 188 176 166
-0.0119332 -0.575986 0.127495 171 157 145
0.000642837 -0.5748 0.124506 158 144 133
0.00781705 -0.574532 0.122761 146 132 121
0.0132275 -0.575248 0.12135 133 119 110
0.0187015 -0.57689 0.119828 123 110 101
0.0204593 -0.575768 0.11951 119 107 97
0.0330494 -0.574661 0.116518 99 87 78
0.0348463 -0.574473 0.116095 99 87 78
0.0460142 -0.577146 0.113066 97 82 76
0.0534716 -0.578112 0.111129 97 82 76
0.0636473 -0.571475 0.109312 99 76 65
0.059951 -0.500718 0.117545 102 52 39
0.0802739 -0.485126 0.11417 112 51 35
0.0921124 -0.502445 0.109473 70 23 16
0.095052 -0.488292 0.11022 69 20 14
0.101706 -0.446915 0.112885 131 68 51
0.115751 -0.444942 0.109659 180 107 91
0.126382 -0.453411 0.106184 172 102 85
0.133955 -0.465171 0.103114 166 101 79
0.146353 -0.488738 0.0976386 161 101 80
0.185253 -0.567153 0.0799955 240 235 236
0.191 -0.56562 0.0787554 238 234 235
0.2071 -0.567708 0.0746194 238 230 233
0.217213 -0.570288 0.0718909 236 230 230
0.235634 -0.570427 0.0674012 236 230 230
0.240624 -0.570996 0.0661303 239 232 232
-0.170812 -0.575342 0.165169 170 160 150
-0.146886 -0.574854 0.159247 173 163 155
-0.14481 -0.574438 0.158774 177 167 159
-0.0975238 -0.574739 0.146959 191 179 170
-0.0843039 -0.573027 0.143855 191 179 170
-0.0825256 -0.573313 0.143382 191 179 170
-0.0667442 -0.577531 0.139006 192 180 171
-0.059056 -0.574385 0.137436 191 179 170
-0.0538071 -0.575904 0.135969 192 177 168
-0.02268 -0.565735 0.129344 181 167 156
0.00019937 -0.573618 0.122832 158 144 133
0.00198913 -0.573562 0.122396 157 143 131
0.0164541 -0.576823 0.118468 130 115 107
0.0326072 -0.574472 0.11473 99 87 78
0.0416775 -0.574451 0.112493 98 84 75
0.0634783 -0.573248 0.107246 101 78 70
0.0632173 -0.476646 0.117704 107 50 37
0.0749816 -0.476017 0.114876 122 61 41
0.0784516 -0.478212 0.113785 121 57 42
0.08494 -0.486735 0.111272 93 38 27
0.0941987 -0.486221 0.109051 69 18 12
0.096654 -0.455596 0.111748 107 49 41
0.102108 -0.444438 0.111611 140 73 53
0.116726 -0.444291 0.108042 182 110 91
0.187701 -0.568876 0.0772037 238 234 235
0.192708 -0.565499 0.0763433 240 235 236
0.194495 -0.564661 0.0759964 236 231 233
0.199639 -0.566557 0.0745327 237 232 234
0.204829 -0.568397 0.0730645 238 230 233
0.210062 -0.57018 0.0715917 234 229 230
0.232005 -0.56861 0.0663991 235 228 228
0.259403 -0.570821 0.0594715 209 204 206
0.275801 -0.573246 0.0552092 239 232 232
-0.17374 -0.576373 0.163801 169 161 157
-0.168039 -0.577346 0.162273 170 160 150
-0.144965 -0.573284 0.156985 172 162 154
-0.141412 -0.574335 0.155984 176 166 156
-0.126082 -0.574387 0.152166 183 171 163
-0.124302 -0.574839 0.151673 182 169 162
-0.113949 -0.57117 0.14951 184 172 165
-0.108862 -0.573332 0.148004 185 173 164
-0.0959846 -0.573903 0.144742 189 176 169
-0.0863409 -0.571558 0.142609 191 179 170
-0.0815266 -0.575362 0.140989 191 179 170
-0.0561571 -0.576529 0.134564 191 179 170
-0.0397242 -0.574815 0.130681 187 172 164
-0.0323577 -0.572204 0.129146 185 170 161
-0.0145837 -0.574606 0.124475 173 158 150
-0.00920525 -0.57459 0.123145 167 153 142
-0.00739869 -0.573576 0.122811 167 153 142
-0.00559965 -0.572554 0.122479 164 150 138
0.00334879 -0.574297 0.12007 153 139 128
0.0141738 -0.575749 0.117229 133 119 110
0.0285695 -0.574629 0.113793 104 92 82
0.0451226 -0.576758 0.109462 99 82 74
0.0600121 -0.486142 0.115901 102 50 38
0.0616047 -0.477759 0.116444 103 48 37
0.0710073 -0.472663 0.114692 122 59 41
0.075235 -0.471647 0.113763 123 62 42
0.0770568 -0.473227 0.113137 122 59 41
0.080742 -0.47636 0.111878 113 52 36
0.0832612 -0.480799 0.11076 104 44 32
0.0875036 -0.485788 0.109156 88 39 30
0.0935825 -0.478946 0.108422 71 19 12
0.0939348 -0.468561 0.109495 90 33 23
0.0943927 -0.459149 0.110434 101 43 33
0.0949646 -0.455874 0.110659 104 47 37
0.0965788 -0.451223 0.110781 114 55 41
0.097636 -0.449843 0.110675 118 58 44
0.102066 -0.445233 0.110099 143 75 57
0.107902 -0.445248 0.108659 161 90 73
0.10952 -0.445702 0.10821 170 98 81
0.110832 -0.445216 0.107941 170 98 81
0.137087 -0.470697 0.0986267 167 102 80
0.143817 -0.483829 0.0955009 163 100 80
0.18798 -0.570487 0.0749363 238 234 235
0.189411 -0.56876 0.0747776 238 234 233
0.19403 -0.564457 0.0741228 238 234 235
0.195816 -0.563612 0.0737784 237 232 234
0.20616 -0.567302 0.0708216 235 230 232
0.218073 -0.568941 0.0677093 236 230 230
0.231967 -0.569273 0.0642578 235 228 228
0.248313 -0.568975 0.0602764 236 230 230
0.250128 -0.567905 0.0599506 217 213 214
-0.151341 -0.57335 0.156607 171 161 153
-0.141861 -0.574129 0.154165 174 164 156
-0.13951 -0.572728 0.153744 176 166 158
-0.128308 -0.573722 0.150851 181 168 161
-0.118415 -0.572075 0.148589 183 171 163
-0.116642 -0.572494 0.148101 185 170 163
-0.109079 -0.572156 0.146265 185 173 164
-0.0940557 -0.571095 0.142663 189 176 169
-0.0887378 -0.572037 0.141236 190 178 168
-0.0867806 -0.571356 0.140829 192 177 168
-0.083582 -0.573897 0.139742 192 177 168
-0.0741883 -0.572263 0.137603 191 179 170
-0.0493115 -0.575969 0.131009 189 175 166
-0.0400815 -0.57362 0.128994 187 172 164
-0.0382155 -0.572731 0.128635 187 172 164
-0.0114387 -0.5744 0.121808 169 155 144
-0.00601731 -0.570366 0.120932 163 148 137
0.00289945 -0.573102 0.118407 153 139 130
0.0101057 -0.574761 0.11643 142 127 118
0.0190454 -0.573198 0.114397 125 111 100
0.0299248 -0.574253 0.111581 102 89 80
0.048292 -0.576067 0.106823 96 82 73
0.0574415 -0.575704 0.1046 95 80 74
0.0638311 -0.568619 0.103839 101 81 74
0.0637371 -0.54353 0.106766 105 73 61
0.0621222 -0.521718 0.10969 107 66 55
0.0608008 -0.502861 0.1122 102 52 39
0.0626783 -0.477301 0.114693 103 46 35
0.085335 -0.47794 0.109012 97 44 32
0.0891313 -0.48098 0.107721 91 47 37
0.0922453 -0.474962 0.107647 72 18 14
0.0928287 -0.465543 0.108593 89 31 24
0.104055 -0.443226 0.1084 153 85 67
0.108266 -0.442748 0.107414 170 98 81
0.12433 -0.450192 0.102579 176 104 85
0.128062 -0.456081 0.100974 171 103 83
0.137072 -0.471447 0.0969662 166 101 79
0.143792 -0.484572 0.0937845 163 100 78
0.184965 -0.569268 0.0737948 244 239 241
0.190743 -0.567721 0.0725455 241 236 237
0.196129 -0.565199 0.0715062 237 233 232
0.215368 -0.568776 0.0663361 234 227 229
0.231927 -0.569927 0.0621104 235 228 228
0.235556 -0.567911 0.0614473 235 228 228
0.237817 -0.567759 0.0609063 235 228 228
0.249641 -0.567684 0.0579934 213 208 210
0.263037 -0.56984 0.0544343 214 209 211
0.270481 -0.569776 0.0526029 207 202 204
-0.168613 -0.575979 0.158604 168 156 146
-0.166493 -0.575658 0.158118 168 156 146
-0.145861 -0.572865 0.153351 171 161 153
-0.140243 -0.573472 0.151889 173 163 155
-0.136127 -0.572559 0.150981 174 164 156
-0.132305 -0.572569 0.150034 178 166 159
-0.123159 -0.5739 0.147613 181 168 161
-0.112829 -0.57019 0.145502 185 170 163
-0.100009 -0.570855 0.14225 187 174 167
-0.0891779 -0.571828 0.139454 190 176 167
-0.085805 -0.573401 0.13843 192 177 168
-0.0840234 -0.573687 0.137955 192 177 168
-0.0642133 -0.575365 0.13285 190 178 168
-0.0605034 -0.574766 0.132004 192 180 171
-0.0532291 -0.574467 0.130239 185 170 161
-0.051547 -0.575611 0.129685 185 170 161
-0.0478593 -0.574908 0.128856 183 169 160
-0.0441838 -0.574175 0.128034 186 171 163
-0.038654 -0.572522 0.126862 185 170 161
-0.0223102 -0.567163 0.123456 178 162 151
-0.0188573 -0.569203 0.122356 175 158 148
-0.00821671 -0.569192 0.119721 167 153 142
-0.00466083 -0.568138 0.118966 168 151 141
-0.00289419 -0.569089 0.118414 168 151 141
0.00424933 -0.572823 0.116197 150 136 124
0.00603893 -0.572745 0.115763 149 134 123
0.00961785 -0.572567 0.114897 143 128 119
0.0239797 -0.57256 0.111337 114 104 96
0.0440384 -0.574372 0.106146 97 84 77
0.0624114 -0.574596 0.101562 99 82 74
0.0639001 -0.547242 0.104471 106 78 69
0.0667474 -0.469105 0.113127 112 51 35
0.0778972 -0.466403 0.110683 129 66 48
0.0838536 -0.472973 0.108418 103 53 40
0.0876091 -0.476021 0.10712 103 57 48
0.0932367 -0.451763 0.108629 110 48 37
0.0961463 -0.446696 0.108513 124 62 49
0.0971857 -0.445317 0.10842 130 69 51
0.0984962 -0.444878 0.108148 138 72 53
0.105026 -0.442604 0.106798 161 90 73
0.107933 -0.442591 0.106078 170 100 82
0.108926 -0.441176 0.106001 175 103 84
0.119328 -0.445569 0.102891 183 111 92
0.121647 -0.447807 0.102047 181 109 88
0.141649 -0.479819 0.0932444 164 99 80
0.149155 -0.49472 0.0895954 162 99 79
0.18303 -0.565414 0.072715 242 237 239
0.200027 -0.565052 0.0685347 238 231 231
0.201818 -0.564179 0.0681942 235 228 228
0.20742 -0.566862 0.066481 235 228 230
0.212254 -0.567706 0.0651785 233 226 226
0.228749 -0.568948 0.0609303 231 224 224
0.240051 -0.568233 0.058207 235 228 228
0.243237 -0.56978 0.0572299 241 234 234
0.253249 -0.566145 0.0551761 210 206 207
0.25697 -0.568452 0.0539752 210 206 207
0.268153 -0.570701 0.0509262 206 201 203
-0.144828 -0.574127 0.150987 171 163 154
-0.128933 -0.572327 0.14729 177 165 158
-0.127159 -0.572786 0.146795 180 167 160
-0.111735 -0.571338 0.143168 183 171 161
-0.0913912 -0.571304 0.138149 188 174 165
-0.0841121 -0.571507 0.136325 189 175 166
-0.0821645 -0.570802 0.135931 190 178 168
-0.0803918 -0.571072 0.135459 189 177 167
-0.0609442 -0.574549 0.13022 189 177 167
-0.0554577 -0.574089 0.12892 189 175 166
-0.0535577 -0.573261 0.128552 190 176 167
-0.0429236 -0.575066 0.125697 187 172 164
-0.0158415 -0.571992 0.11937 176 162 151
-0.0140567 -0.571994 0.118928 173 159 148
0.0002273 -0.571748 0.115417 161 147 136
0.00738852 -0.572443 0.113555 146 134 124
0.00922215 -0.574334 0.112866 145 131 122
0.0527033 -0.573869 0.102128 95 80 74
0.0644473 -0.565921 0.100193 103 84 76
0.061028 -0.480174 0.111668 99 46 34
0.0619673 -0.476959 0.111833 99 45 31
0.068055 -0.462487 0.112111 119 55 38
0.0749086 -0.460812 0.110613 129 66 48
0.0767003 -0.462385 0.109972 136 71 52
0.0787216 -0.464909 0.109156 127 67 48
0.0805446 -0.466461 0.10851 115 58 41
0.0904941 -0.46467 0.106254 81 28 21
0.0912374 -0.456231 0.107113 98 38 29
0.0926381 -0.45065 0.107455 112 51 37
0.0981632 -0.444716 0.106813 140 75 56
0.104694 -0.442442 0.105466 162 92 74
0.113117 -0.441395 0.103494 181 109 90
0.117019 -0.444079 0.102189 183 111 92
0.118659 -0.444481 0.10173 183 111 92
0.123305 -0.448942 0.100019 177 107 87
0.195192 -0.564752 0.0677522 236 230 230
0.206541 -0.565742 0.0647947 233 226 226
0.209562 -0.567504 0.0638221 232 225 225
0.227394 -0.566967 0.059432 229 223 223
0.258385 -0.571613 0.0511092 208 203 205
0.263497 -0.571905 0.0497944 209 204 206
-0.173429 -0.575198 0.155917 164 154 144
-0.136736 -0.571154 0.147418 172 162 154
-0.134688 -0.570683 0.146975 172 162 154
-0.12911 -0.571139 0.145544 173 163 155
-0.0965324 -0.567188 0.138026 183 171 161
-0.0947743 -0.567514 0.137551 184 172 165
-0.0934065 -0.569788 0.136923 184 172 165
-0.0882817 -0.571686 0.135416 188 174 165
-0.0847279 -0.572264 0.134465 192 177 168
-0.0595955 -0.574508 0.127972 200 188 179
-0.0469491 -0.574599 0.124833 188 173 167
-0.041571 -0.574952 0.123457 182 168 159
-0.0361873 -0.575241 0.122088 176 162 153
-0.0304831 -0.570505 0.121282 195 180 174
-0.0197682 -0.56976 0.118723 180 164 154
-0.0181006 -0.572753 0.117927 179 163 152
-0.0162798 -0.571769 0.117602 178 162 151
-0.0145237 -0.572763 0.117039 173 159 148
-0.010946 -0.572745 0.116154 172 158 147
-0.00912253 -0.57074 0.115959 169 155 144
-0.00735425 -0.571705 0.115397 168 154 143
0.00517261 -0.573296 0.112085 149 137 128
0.0069486 -0.57222 0.111782 148 136 126
0.00878025 -0.57411 0.111085 145 133 123
0.0105771 -0.57401 0.110652 144 129 121
0.0357042 -0.571852 0.104684 50 38 31
0.0503468 -0.572929 0.100902 95 80 74
0.0522574 -0.573643 0.100335 94 79 71
0.0642862 -0.567653 0.0981058 105 86 79
0.0714272 -0.459397 0.110179 127 61 45
0.0818074 -0.466868 0.106631 121 63 44
0.0941605 -0.446794 0.10611 125 62 45
0.105662 -0.441804 0.103868 165 96 76
0.113101 -0.442154 0.101961 182 110 91
0.118321 -0.444311 0.100377 185 113 94
0.129398 -0.457756 0.0958842 169 102 84
0.13809 -0.472137 0.0918694 166 101 79
0.145182 -0.486122 0.0883064 162 99 79
0.164402 -0.525745 0.0784304 211 191 189
0.178447 -0.555878 0.0710629 243 239 238
0.201274 -0.564608 0.0642201 231 224 224
0.203466 -0.564617 0.0636684 231 224 224
0.206066 -0.565504 0.0629023 234 227 227
0.2113 -0.567236 0.0613669 232 225 225
0.224145 -0.570434 0.0577318 231 224 224
0.227346 -0.567599 0.0572881 234 227 227
0.238172 -0.566027 0.0547662 234 227 227
0.242241 -0.564809 0.0538978 234 227 227
0.262117 -0.574483 0.0476656 227 222 224
-0.154905 -0.57189 0.149832 164 154 146
-0.133362 -0.570929 0.144678 170 160 152
-0.116637 -0.572018 0.140429 180 167 158
-0.106627 -0.569109 0.138352 184 172 163
-0.0793272 -0.569898 0.131527 183 171 163
-0.0743214 -0.572607 0.129935 203 191 181
-0.0525409 -0.571971 0.124643 143 128 121
-0.038344 -0.573929 0.120874 125 113 103
-0.0309837 -0.571267 0.119404 153 138 132
-0.0272504 -0.568403 0.118858 199 184 175
-0.0220254 -0.570499 0.117286 181 167 158
-0.00780709 -0.572467 0.113501 168 154 143
-0.0059969 -0.570449 0.113319 167 153 142
0.0101111 -0.572788 0.109009 144 129 121
0.0191596 -0.574159 0.106578 85 73 66
0.0389296 -0.572181 0.101918 127 116 111
0.0444072 -0.572473 0.100514 100 88 79
0.0462033 -0.572227 0.100099 87 72 66
0.0593906 -0.5752 0.0964159 98 81 73
0.063007 -0.57458 0.0955949 102 85 78
0.0624313 -0.522572 0.102609 106 65 53
0.0602865 -0.488855 0.107599 97 47 34
0.0618386 -0.471438 0.109511 99 45 31
0.0681662 -0.458914 0.109582 124 58 43
0.0738088 -0.458536 0.108219 134 69 48
0.0851655 -0.463614 0.104703 95 38 27
0.0961852 -0.444814 0.104417 138 70 52
0.112448 -0.441054 0.100824 181 109 90
0.116343 -0.443734 0.0994906 184 112 95
0.120289 -0.446371 0.0981502 184 112 93
0.201196 -0.565256 0.0621209 233 226 226
0.203392 -0.565263 0.0615658 230 225 227
0.206397 -0.567037 0.0605742 230 225 227
0.213866 -0.568717 0.0584672 243 238 240
0.22773 -0.569095 0.054914 236 229 232
0.23092 -0.566231 0.0544831 236 230 230
0.238587 -0.567503 0.0523769 238 231 231
0.242669 -0.566276 0.0515048 238 231 229
-0.170081 -0.574099 0.151275 162 152 142
-0.166183 -0.574388 0.150285 160 151 140
-0.154203 -0.574103 0.147401 166 156 148
-0.146169 -0.573419 0.145531 169 162 153
-0.142026 -0.572546 0.144637 172 164 153
-0.130262 -0.571626 0.141884 183 173 165
-0.124163 -0.570086 0.1406 172 162 156
-0.111284 -0.57103 0.137316 182 170 160
-0.107288 -0.569843 0.136497 166 153 146
-0.101552 -0.56897 0.135207 149 137 130
-0.100204 -0.571261 0.134565 163 151 144
-0.0948743 -0.57225 0.133121 133 120 113
-0.0893456 -0.572195 0.131769 134 122 114
-0.0817049 -0.57038 0.130137 111 98 91
-0.0496205 -0.573996 0.121734 209 195 186
-0.0462287 -0.576232 0.120591 179 164 158
0.00966999 -0.57255 0.107234 145 131 122
0.0168784 -0.573068 0.10537 128 116 109
0.0205156 -0.573776 0.104368 70 58 50
0.0330271 -0.571583 0.101548 90 77 70
0.0458583 -0.57297 0.0981566 85 70 63
0.049456 -0.572457 0.0973278 95 80 72
0.0625577 -0.574339 0.0937951 104 87 79
0.0719037 -0.457734 0.107329 133 66 48
0.0781938 -0.460164 0.105418 144 76 58
0.0854914 -0.460171 0.103582 95 38 25
0.0872567 -0.455563 0.103764 93 34 22
0.0881151 -0.453258 0.103861 99 39 28
0.0889573 -0.450952 0.103963 104 43 25
0.0958506 -0.444635 0.103084 140 73 55
0.100798 -0.441912 0.102206 159 90 70
0.107899 -0.441427 0.100479 180 107 89
0.122606 -0.449327 0.0956907 181 109 90
0.199536 -0.562329 0.0608989 255 255 255
-0.148391 -0.572639 0.144221 167 159 153
-0.146315 -0.572216 0.143774 145 137 128
-0.142762 -0.57325 0.142764 123 116 104
-0.138631 -0.572343 0.141884 101 93 82
-0.132749 -0.571871 0.140514 120 109 104
-0.109951 -0.571164 0.135041 190 178 170
-0.0970913 -0.571681 0.131818 183 171 161
-0.0735705 -0.573339 0.125808 190 176 167
-0.059249 -0.574953 0.122054 152 139 134
-0.0553127 -0.572323 0.121452 111 96 90
-0.0266754 -0.573913 0.11415 193 178 170
-0.024881 -0.573951 0.1137 183 169 160
-0.0123116 -0.574013 0.110575 172 158 147
-0.00332294 -0.57285 0.108506 163 148 137
-0.00152972 -0.572793 0.108068 161 144 134
0.0217242 -0.570417 0.102612 103 90 85
0.0528325 -0.573626 0.0943862 96 81 75
0.0586169 -0.575688 0.0926475 97 80 72
0.0595906 -0.479413 0.105912 97 44 30
0.0729195 -0.457203 0.105673 137 69 51
0.172361 -0.543366 0.0684351 255 249 249
0.186854 -0.568915 0.0611856 246 239 239
0.196644 -0.566489 0.0590288 255 255 255
0.21694 -0.567197 0.0537508 255 255 255
-0.103068 -0.57139 0.131395 176 164 156
-0.0957524 -0.571749 0.129553 177 165 158
-0.0939734 -0.572064 0.129072 169 157 149
-0.0701421 -0.571565 0.123296 199 187 178
-0.0665792 -0.571982 0.122359 110 97 92
-0.0576548 -0.572896 0.12003 176 163 158
-0.0520719 -0.571383 0.118872 98 84 75
-0.0415389 -0.574085 0.115881 220 208 201
-0.032429 -0.572513 0.113856 110 97 92
-0.0288503 -0.572625 0.112954 128 113 104
-0.0270602 -0.57267 0.112504 195 181 172
-0.0198964 -0.572778 0.110713 180 166 155
-0.0145204 -0.572782 0.109378 174 160 149
-0.0127527 -0.57376 0.108798 173 159 148
-0.0109772 -0.57473 0.108217 172 158 147
0.00338943 -0.57035 0.105278 154 140 131
0.00876639 -0.571063 0.103836 147 133 124
0.0194961 -0.570315 0.101268 141 128 123
0.0376808 -0.572426 0.096417 122 112 106
0.0486695 -0.572935 0.0935897 96 81 75
0.0524975 -0.57435 0.0924249 96 81 75
0.0581661 -0.575431 0.0908455 98 81 73
0.0616286 -0.513818 0.0988743 102 58 46
0.146179 -0.487373 0.0812316 160 99 81
0.173719 -0.547643 0.0655523 255 245 242
0.197579 -0.564461 0.0570351 255 255 255
0.205358 -0.56714 0.0546572 255 255 255
-0.0474552 -0.574481 0.115358 81 68 59
-0.0456594 -0.574599 0.114898 113 101 94
-0.0400187 -0.571944 0.113899 214 204 198
-0.0239184 -0.572478 0.109836 181 167 156
0.00117494 -0.572147 0.103651 159 145 134
0.00653722 -0.570903 0.102499 151 136 128
0.0172678 -0.570198 0.0999263 100 88 81
0.0190554 -0.570056 0.0995009 57 45 38
0.0227314 -0.571721 0.0983343 74 61 54
0.0318384 -0.572792 0.0958956 113 101 94
0.0613389 -0.574546 0.0882246 105 88 78
0.0630148 -0.573249 0.087995 106 89 79
0.209301 -0.566809 0.0516269 255 255 255
0.21152 -0.566766 0.0510608 255 255 255
