ply
format ascii 1.0
comment Created by Open3D
element vertex 2000
property double x
property double y
property double z
property uchar red
property uchar green
property uchar blue
end_header
0.816497 0.234956 0.250391 200 194 205
0.834521 0.212214 0.277975 171 165 174
0.851138 0.191986 0.298499 163 157 166
0.853992 0.183305 0.306767 205 198 209
0.85957 0.180687 0.308408 185 178 190
0.866528 0.178834 0.308344 166 160 171
0.874871 0.175321 0.310263 148 142 150
0.854265 0.178036 0.310804 226 220 228
0.857268 0.17642 0.311973 219 212 223
0.859451 0.175972 0.31173 215 209 220
0.881074 0.169944 0.311924 166 160 171
0.884034 0.17597 0.301794 155 146 158
0.848368 0.1815 0.304299 220 214 223
0.862009 0.172673 0.311741 227 220 234
0.868615 0.171383 0.310924 214 208 219
0.884166 0.168624 0.308744 192 185 197
0.885487 0.169418 0.307052 188 178 193
0.88772 0.169059 0.306705 183 174 188
0.895002 0.164894 0.31 170 161 175
0.889086 0.165006 0.308221 210 200 215
0.896787 0.162809 0.308432 188 178 193
0.857081 0.16961 0.310671 253 243 255
0.873391 0.165383 0.310075 241 232 248
0.893959 0.163983 0.303928 213 204 216
0.900366 0.160988 0.305783 205 197 206
0.912041 0.154241 0.31106 186 173 182
0.916309 0.151627 0.31321 183 170 179
0.856185 0.168524 0.308833 250 241 255
0.883631 0.162289 0.306572 238 232 245
0.905388 0.15744 0.305057 212 202 210
0.90864 0.155965 0.305926 210 200 208
0.870679 0.164351 0.305024 252 242 255
0.880455 0.161552 0.305066 254 244 255
0.882691 0.161167 0.304719 252 242 255
0.89028 0.161476 0.301271 243 234 249
0.895713 0.159607 0.301814 238 228 243
0.924645 0.146937 0.308778 218 205 214
0.940847 0.135698 0.318618 211 196 203
0.871531 0.163444 0.302191 253 243 255
0.883081 0.160867 0.301181 253 243 255
0.894753 0.158479 0.299957 246 239 255
0.89748 0.15755 0.300208 246 237 251
0.900218 0.15663 0.300447 243 234 249
0.902485 0.15631 0.300027 240 231 243
0.905238 0.155406 0.300244 237 231 242
0.926803 0.146981 0.303962 225 214 225
0.850907 0.166416 0.302878 248 239 255
0.862232 0.163496 0.302226 252 242 255
0.873252 0.161355 0.300694 253 243 255
0.901033 0.155772 0.297516 253 243 255
0.920458 0.149584 0.298783 238 227 240
0.921757 0.150507 0.297027 236 225 235
0.923554 0.150846 0.295899 235 224 234
0.871444 0.161491 0.297512 254 244 255
0.882963 0.158909 0.296458 254 244 255
0.884274 0.159737 0.29478 254 244 255
0.895548 0.155317 0.296486 254 244 255
0.90006 0.154655 0.295653 255 245 255
0.91417 0.152258 0.2936 249 240 255
0.859559 0.162617 0.297187 253 243 255
0.875363 0.159012 0.295663 254 244 255
0.899084 0.153549 0.293789 255 245 255
0.905867 0.152602 0.29248 255 245 255
0.910898 0.151412 0.292199 255 245 255
0.846199 0.166414 0.293956 255 250 255
0.858642 0.161593 0.295344 253 243 255
0.863005 0.160694 0.294756 253 243 255
0.881458 0.158824 0.289781 255 245 255
0.889033 0.156509 0.28994 254 244 255
0.91196 0.152733 0.286254 255 247 255
0.852974 0.16213 0.293386 253 243 255
0.860322 0.159511 0.293876 254 244 255
0.877446 0.156729 0.290607 255 245 255
0.879205 0.156948 0.289597 255 247 255
0.893464 0.153534 0.288564 255 245 255
0.902921 0.151617 0.287483 255 245 255
0.905175 0.151309 0.287034 255 246 255
0.914476 0.152295 0.282194 255 246 255
0.936145 0.144042 0.285261 255 245 255
0.850831 0.162993 0.289534 253 243 255
0.856388 0.160198 0.290989 255 243 255
0.861577 0.158051 0.291728 255 244 255
0.863333 0.158222 0.290758 254 242 255
0.865087 0.158399 0.289784 255 245 255
0.878252 0.155917 0.287746 255 245 255
0.907214 0.151453 0.282377 255 245 255
0.911718 0.150881 0.281435 255 247 255
0.923327 0.146813 0.282508 255 247 255
0.931232 0.144916 0.282119 255 247 255
0.93689 0.143297 0.282206 255 247 255
0.9392 0.143101 0.281634 255 248 255
0.960421 0.136618 0.282656 246 235 250
0.966817 0.134607 0.283075 243 230 243
0.859802 0.158292 0.288557 255 244 255
0.868519 0.156537 0.287287 255 244 255
0.887885 0.153627 0.283345 255 246 255
0.900458 0.150091 0.283127 255 245 255
0.912967 0.149532 0.279089 255 248 255
0.935321 0.14277 0.279722 255 247 255
0.960033 0.137096 0.278353 253 241 255
0.961819 0.137573 0.27712 250 238 253
0.968207 0.135579 0.277504 245 231 248
0.97464 0.133629 0.27783 243 230 243
0.99892 0.123366 0.282898 230 217 226
0.842605 0.16255 0.286631 255 248 255
0.849009 0.161064 0.285864 255 244 255
0.87459 0.153671 0.285049 255 245 255
0.894994 0.149703 0.282138 255 246 255
0.902193 0.148109 0.281436 255 247 255
0.908451 0.147813 0.279419 255 247 255
0.917991 0.146099 0.278058 255 247 255
0.934279 0.141655 0.277836 255 247 255
0.952629 0.138001 0.275996 255 249 255
0.954959 0.13786 0.275361 255 249 255
0.965427 0.136184 0.273883 255 240 255
0.986525 0.128635 0.276375 245 232 246
0.857102 0.157593 0.283552 255 245 255
0.866198 0.155184 0.28294 255 245 255
0.870559 0.154335 0.28226 255 245 255
0.875831 0.152269 0.282831 255 246 255
0.879327 0.152724 0.280807 255 246 255
0.881527 0.15234 0.280425 255 246 255
0.885475 0.152215 0.279006 255 246 255
0.887215 0.152473 0.277973 255 246 255
0.889895 0.151498 0.278191 255 247 255
0.895284 0.149573 0.278593 255 246 255
0.904706 0.147678 0.27741 255 247 255
0.919746 0.14416 0.276276 255 247 255
0.929371 0.142597 0.274728 255 248 255
0.959103 0.135849 0.27274 255 249 255
0.980706 0.129841 0.272958 254 239 255
0.986045 0.129157 0.27203 251 237 253
0.990192 0.127349 0.272926 247 233 249
0.994358 0.125555 0.273801 243 231 246
0.99795 0.124367 0.274109 243 229 245
0.846777 0.159812 0.281531 255 244 255
0.856173 0.156641 0.28171 255 244 255
0.862653 0.155281 0.280773 255 245 255
0.876618 0.151505 0.279967 255 245 255
0.877908 0.152361 0.27832 255 246 255
0.880102 0.151973 0.277939 255 246 255
0.8823 0.151592 0.27755 255 246 255
0.894771 0.147936 0.277355 255 247 255
0.906929 0.145105 0.276295 255 247 255
0.909934 0.146378 0.273499 255 247 255
0.917701 0.144329 0.273198 255 248 255
0.922743 0.143213 0.272746 255 248 255
0.925533 0.142361 0.272803 255 248 255
0.930088 0.14191 0.271699 255 247 255
0.935185 0.14088 0.271151 255 248 255
0.980806 0.129789 0.26919 255 248 255
1.01984 0.115046 0.274682 235 223 236
0.852678 0.156803 0.279512 255 246 255
0.865174 0.151996 0.280532 255 246 255
0.871278 0.151346 0.278845 255 246 255
0.900948 0.145316 0.274757 255 247 255
0.903186 0.145003 0.27429 255 247 255
0.907175 0.14502 0.272726 255 248 255
0.90892 0.14535 0.271634 255 247 255
0.919957 0.14179 0.271999 255 248 255
0.931322 0.140625 0.269256 255 248 255
0.958709 0.134059 0.267706 255 249 255
0.980891 0.12976 0.265432 255 249 255
0.983252 0.129718 0.264689 255 250 255
0.99869 0.126079 0.264057 255 242 255
1.02356 0.116338 0.267964 243 230 243
0.847073 0.157485 0.277589 255 245 255
0.922938 0.140871 0.268457 255 248 255
0.950108 0.133969 0.26719 255 248 255
0.975638 0.12811 0.265527 255 248 255
0.980939 0.12739 0.264604 255 249 255
0.988037 0.127286 0.262335 255 250 255
0.989811 0.127868 0.261026 255 250 255
1.00111 0.126103 0.25945 255 250 255
1.00471 0.124946 0.259684 255 242 255
0.843515 0.155028 0.278917 255 244 255
0.858097 0.152282 0.276202 255 245 255
0.871539 0.149021 0.274773 255 247 255
0.888634 0.146564 0.270967 255 247 255
0.898453 0.14394 0.270412 255 247 255
0.909622 0.142413 0.268005 255 247 255
0.911865 0.142131 0.267501 255 248 255
0.91687 0.140966 0.26706 255 248 255
0.921382 0.14046 0.265993 255 248 255
0.924161 0.139596 0.266033 255 249 255
0.929222 0.138518 0.265496 255 249 255
0.971025 0.128253 0.263229 255 249 255
0.985134 0.127926 0.2588 255 250 255
1.00234 0.124938 0.256703 255 250 255
1.00771 0.124426 0.255565 255 249 255
1.02594 0.11891 0.256344 253 241 255
1.03089 0.116673 0.257457 247 235 253
1.04822 0.112759 0.256712 235 224 234
0.843395 0.152846 0.278381 255 244 255
0.849894 0.154068 0.273991 255 245 255
0.853747 0.153755 0.272743 255 245 255
0.861035 0.151095 0.273058 255 247 255
0.867519 0.149782 0.27202 255 247 255
0.88278 0.146972 0.269331 255 247 255
0.904621 0.141377 0.267723 255 247 255
0.908598 0.141413 0.266136 255 248 255
0.920341 0.13944 0.264118 255 247 255
0.935524 0.136229 0.262445 255 248 255
0.982826 0.1256 0.258711 255 250 255
0.984594 0.126172 0.257415 255 250 255
1.00058 0.124354 0.25425 255 251 255
1.01495 0.122229 0.252098 255 251 255
1.02705 0.120259 0.250568 255 242 255
0.832228 0.159991 0.270754 227 218 232
0.839163 0.15441 0.274843 255 245 255
0.842999 0.154027 0.273654 255 245 255
0.849433 0.155272 0.269281 255 246 255
0.86612 0.149505 0.269541 255 247 255
0.868282 0.149078 0.26918 255 246 255
0.883521 0.146293 0.266446 255 248 255
0.885712 0.145925 0.266026 255 248 255
0.900394 0.141973 0.265137 255 248 255
0.914291 0.139583 0.262725 255 248 255
0.932713 0.134772 0.261724 255 249 255
0.934992 0.134567 0.26113 255 248 255
0.938347 0.133123 0.261666 255 248 255
0.966517 0.12847 0.257213 255 249 255
0.99882 0.123787 0.251802 255 251 255
0.837461 0.154841 0.2717 255 245 255
0.839964 0.15367 0.272086 255 245 255
0.856139 0.151041 0.268427 255 246 255
0.861285 0.148838 0.269022 255 247 255
0.863873 0.147749 0.269303 255 247 255
0.865597 0.147957 0.268319 255 247 255
0.885187 0.144351 0.26478 255 247 255
0.892258 0.142645 0.264066 255 248 255
0.908278 0.139792 0.2613 255 247 255
0.913966 0.140227 0.258575 255 248 255
0.954911 0.126721 0.259845 255 249 255
0.958348 0.125345 0.260272 255 249 255
0.968876 0.126054 0.255674 255 250 255
0.971785 0.125358 0.255489 255 250 255
0.979976 0.123948 0.254331 255 250 255
1.00301 0.122087 0.248736 255 251 255
1.00899 0.120981 0.248065 255 251 255
1.02405 0.118418 0.246171 255 251 255
1.03299 0.119537 0.242001 255 243 255
0.830426 0.158323 0.267108 229 218 230
0.84546 0.154038 0.26591 255 246 255
0.916182 0.137722 0.257334 255 248 255
0.918938 0.136831 0.257367 255 248 255
0.961969 0.126403 0.254097 255 249 255
0.97242 0.124807 0.252305 255 250 255
0.988237 0.122709 0.249317 255 251 255
0.996508 0.121492 0.247943 255 251 255
1.01619 0.118825 0.244524 255 251 255
0.833673 0.156427 0.264795 255 246 255
0.861087 0.147272 0.26435 255 247 255
0.866656 0.147261 0.262026 255 247 255
0.889293 0.14207 0.259144 255 247 255
0.891487 0.141722 0.258691 255 248 255
0.903497 0.138815 0.257481 255 247 255
0.907939 0.138223 0.256466 255 248 255
0.910669 0.137299 0.256527 255 248 255
0.914625 0.137393 0.254887 255 249 255
0.938606 0.130923 0.253633 255 249 255
0.947647 0.127889 0.253934 255 250 255
0.955108 0.126831 0.252482 255 249 255
0.964922 0.125757 0.250237 255 250 255
0.973623 0.123654 0.24965 255 252 255
0.986494 0.122211 0.246875 255 251 255
0.992991 0.120355 0.246826 255 251 255
1.01739 0.117744 0.241695 255 252 255
0.861401 0.147266 0.260907 255 247 255
0.89219 0.141112 0.255778 255 249 255
0.897556 0.139156 0.256012 255 248 255
0.934178 0.131382 0.251248 255 250 255
0.936445 0.131188 0.250633 255 249 255
0.942078 0.129558 0.250482 255 250 255
0.956306 0.125663 0.249893 255 250 255
0.988284 0.120479 0.244674 255 251 255
0.993584 0.119859 0.243574 255 251 255
1.00485 0.118133 0.241753 255 251 255
1.02636 0.116415 0.236608 255 252 255
0.834317 0.153617 0.261526 255 245 255
0.843074 0.150884 0.261045 255 246 255
0.858304 0.146865 0.259416 255 247 255
0.876393 0.142148 0.257589 255 247 255
0.904145 0.136003 0.253822 255 248 255
0.919739 0.134082 0.250061 255 249 255
0.946643 0.126958 0.248385 255 252 255
0.954633 0.125264 0.24745 255 252 255
0.966707 0.121678 0.247287 255 252 255
0.977753 0.121963 0.243034 255 252 255
0.997731 0.118168 0.240503 255 252 255
0.830549 0.154687 0.258681 255 246 255
0.833007 0.153484 0.259061 255 244 255
0.837957 0.151101 0.259787 255 246 255
0.84214 0.150071 0.25921 255 245 255
0.846341 0.14907 0.258604 255 247 255
0.847616 0.149902 0.257041 255 246 255
0.85225 0.14828 0.257017 255 247 255
0.856055 0.148008 0.255723 255 247 255
0.867139 0.145141 0.254515 255 247 255
0.874945 0.141935 0.255134 255 249 255
0.878026 0.140227 0.255916 255 249 255
0.879737 0.140495 0.254891 255 249 255
0.889202 0.140626 0.25089 255 248 255
0.891382 0.140282 0.250425 255 248 255
0.93374 0.129868 0.246311 255 250 255
0.967322 0.121175 0.244114 255 252 255
0.969641 0.121094 0.243377 255 252 255
0.996559 0.117068 0.238571 255 251 255
0.999522 0.116476 0.238231 255 252 255
1.00249 0.115895 0.23788 255 251 255
1.0222 0.113373 0.234113 255 252 255
0.841206 0.149271 0.257376 255 247 255
0.87657 0.140021 0.253462 255 249 255
0.881208 0.141499 0.249798 255 249 255
0.898387 0.13645 0.24886 255 248 255
0.916582 0.133504 0.245193 255 249 255
0.926031 0.131906 0.24344 255 250 255
0.948449 0.125298 0.242722 255 252 255
0.958122 0.121718 0.24331 255 252 255
0.984809 0.117237 0.238895 255 251 255
0.817409 0.166992 0.243415 238 227 240
0.823605 0.159059 0.2502 255 255 255
0.835705 0.150192 0.255493 255 246 255
0.84027 0.148481 0.255541 255 247 255
0.851605 0.14752 0.25178 255 247 255
0.866069 0.142151 0.252034 255 249 255
0.870356 0.141309 0.251241 255 249 255
0.875572 0.139171 0.251606 255 249 255
0.9133 0.132853 0.243882 255 250 255
1.00422 0.114411 0.231798 255 252 255
1.01142 0.112064 0.231973 255 252 255
1.01678 0.111618 0.230652 255 251 255
1.02499 0.113297 0.226022 255 249 255
1.03167 0.111755 0.225523 242 230 247
0.832707 0.149957 0.253942 255 247 255
0.837251 0.148223 0.254002 255 246 255
0.838931 0.148374 0.253084 255 245 255
0.844781 0.147522 0.251543 255 246 255
0.85275 0.146258 0.249606 255 247 255
0.886153 0.138043 0.245333 255 250 255
0.896318 0.134695 0.245136 255 250 255
0.899003 0.133715 0.245203 255 250 255
0.902905 0.133754 0.243604 255 250 255
0.939494 0.126258 0.238124 255 252 255
0.949057 0.122557 0.238779 255 252 255
0.959331 0.120769 0.237024 255 253 255
0.970845 0.117865 0.23613 255 252 255
0.976648 0.116478 0.23561 255 254 255
0.987148 0.115096 0.233431 255 254 255
1.00724 0.111519 0.230434 255 252 255
1.02442 0.111566 0.224543 255 251 255
0.833849 0.148665 0.251833 255 247 255
0.83967 0.147766 0.250332 255 247 255
0.880343 0.138608 0.243812 255 250 255
0.890432 0.13517 0.243685 255 249 255
0.942353 0.125627 0.234397 255 252 255
1.00183 0.112261 0.227926 255 252 255
1.0048 0.111687 0.227534 255 252 255
1.01311 0.110653 0.225813 255 254 255
1.01846 0.110226 0.224456 255 252 255
1.02706 0.113939 0.217477 238 226 244
1.02941 0.114092 0.216525 226 217 229
0.843297 0.145315 0.248491 255 246 255
0.844972 0.145491 0.247556 255 247 255
0.848734 0.145187 0.246282 255 247 255
0.856319 0.141748 0.247033 255 249 255
0.866936 0.139535 0.245104 255 250 255
0.880265 0.136453 0.243122 255 250 255
0.894244 0.132985 0.241412 255 250 255
0.897632 0.133664 0.239271 255 250 255
0.906896 0.131795 0.237719 255 250 255
0.909096 0.131514 0.237171 255 250 255
0.935034 0.124579 0.234998 255 252 255
0.936196 0.125696 0.233294 255 252 255
0.959351 0.118706 0.23249 255 253 255
0.963358 0.116675 0.233288 255 253 255
0.970269 0.116431 0.231032 255 252 255
0.983011 0.114934 0.228101 255 252 255
0.998904 0.110539 0.227333 255 254 255
1.01878 0.112456 0.218354 255 254 255
1.0355 0.11088 0.214444 209 198 211
0.832865 0.148686 0.246034 255 247 255
0.835321 0.147475 0.246359 255 248 255
0.837789 0.146271 0.246673 255 247 255
0.839456 0.146433 0.245752 255 247 255
0.853237 0.141442 0.245555 255 249 255
0.855775 0.140298 0.245789 255 249 255
0.87756 0.135356 0.242295 255 250 255
0.892234 0.133483 0.238422 255 251 255
0.895603 0.134159 0.236292 255 249 255
0.915676 0.128528 0.234705 255 252 255
0.932221 0.123209 0.234281 255 252 255
0.938427 0.123298 0.231812 255 253 255
0.940679 0.123126 0.23115 255 252 255
0.949682 0.120062 0.231182 255 253 255
0.96681 0.115523 0.229877 255 253 255
0.969692 0.114804 0.229617 255 252 255
0.971999 0.114738 0.228847 255 252 255
0.974308 0.114681 0.22807 255 254 255
1.00598 0.108368 0.223717 255 254 255
1.01006 0.109133 0.221459 255 254 255
1.01304 0.108591 0.221017 255 254 255
1.01884 0.110143 0.217334 255 254 255
1.05303 0.0946415 0.222522 198 187 200
0.8258 0.149611 0.245043 255 247 255
0.830667 0.147141 0.245729 255 247 255
0.838511 0.145701 0.243924 255 247 255
0.856047 0.140428 0.242383 255 250 255
0.860269 0.139522 0.24162 255 250 255
0.864506 0.138644 0.240826 255 250 255
0.869661 0.136443 0.241167 255 250 255
0.878699 0.134166 0.23999 255 250 255
0.890471 0.130993 0.23875 255 251 255
0.900399 0.130698 0.235068 255 252 255
0.925577 0.124056 0.232588 255 252 255
0.951944 0.117689 0.229605 255 254 255
0.967375 0.11512 0.226705 255 254 255
0.96909 0.115694 0.225444 255 255 255
0.991744 0.110986 0.222403 255 252 255
1.00119 0.108533 0.221717 255 252 255
1.01996 0.109196 0.21446 255 248 255
0.821328 0.152225 0.241009 255 248 255
0.824879 0.148912 0.243223 255 247 255
0.851719 0.139252 0.242469 255 249 255
0.854639 0.140358 0.239952 255 249 255
0.864401 0.13652 0.24015 255 250 255
0.871246 0.134573 0.239468 255 250 255
0.894006 0.131856 0.233142 255 252 255
0.922253 0.123411 0.231321 255 252 255
0.927243 0.122297 0.230612 255 252 255
0.935112 0.122815 0.227001 255 253 255
0.942345 0.119176 0.228252 255 253 255
0.950247 0.117415 0.227194 255 253 255
0.956489 0.115203 0.227275 255 253 255
0.97889 0.112592 0.221855 255 254 255
0.98642 0.111897 0.219883 255 254 255
0.997035 0.108106 0.22018 255 254 255
1.00529 0.106975 0.218473 255 254 255
1.01937 0.107515 0.21297 255 254 255
1.03543 0.106547 0.208498 201 190 202
0.821173 0.150172 0.240435 255 248 255
0.839088 0.143064 0.240554 255 247 255
0.851993 0.139406 0.239077 255 250 255
0.873597 0.13435 0.235591 255 250 255
0.889116 0.131057 0.232852 255 252 255
0.904838 0.128152 0.229719 255 252 255
0.916853 0.125463 0.227921 255 252 255
0.927306 0.12254 0.227049 255 253 255
0.957055 0.114813 0.224134 255 254 255
0.972519 0.112361 0.221045 255 255 255
1.00641 0.106013 0.215633 255 254 255
1.0194 0.105212 0.211922 255 254 255
0.847261 0.13896 0.238555 255 249 255
0.859415 0.13683 0.235702 255 250 255
0.891912 0.130265 0.229433 255 252 255
0.90377 0.12734 0.227856 255 250 255
0.922284 0.121466 0.226944 255 252 255
0.946855 0.116919 0.222386 255 254 255
0.977121 0.110018 0.218497 255 254 255
0.999284 0.106168 0.214558 255 254 255
1.00162 0.106215 0.213672 255 255 255
1.00628 0.106339 0.211878 255 254 255
1.01095 0.1065 0.210053 255 254 255
1.02393 0.105815 0.206231 239 229 246
0.852557 0.136799 0.235611 255 250 255
0.85886 0.135413 0.234438 255 250 255
0.865197 0.134094 0.2332 255 251 255
0.867316 0.133668 0.232772 255 251 255
0.869439 0.13325 0.232337 255 251 255
0.875078 0.13038 0.233136 255 251 255
0.902198 0.127217 0.225457 255 252 255
0.91028 0.124334 0.225359 255 252 255
0.914157 0.12448 0.223655 255 252 255
0.922876 0.121064 0.223919 255 253 255
0.958156 0.114087 0.217856 255 254 255
0.962152 0.112018 0.218569 255 254 255
0.963277 0.113244 0.216834 255 255 255
0.975347 0.109722 0.2161 255 255 255
0.987458 0.108979 0.212444 255 255 255
0.994519 0.10643 0.212579 255 254 255
1.00739 0.105409 0.209032 255 254 255
1.01566 0.104415 0.207144 255 255 255
0.825621 0.144397 0.235998 255 248 255
0.862079 0.133801 0.231776 255 250 255
0.877406 0.130219 0.22923 255 252 255
0.892458 0.127699 0.22575 255 252 255
0.901129 0.126431 0.223598 255 252 255
0.93953 0.116147 0.219488 255 253 255
0.960413 0.11177 0.216174 255 255 255
1.01378 0.104043 0.204762 255 255 255
1.01717 0.105539 0.202003 255 244 255
0.84104 0.139457 0.231639 255 249 255
0.853109 0.13422 0.232122 255 250 255
0.855205 0.133752 0.231728 255 250 255
0.859751 0.135169 0.228226 255 250 255
0.866961 0.132484 0.228081 255 251 255
0.87303 0.128892 0.229425 255 252 255
0.874243 0.129873 0.227847 255 252 255
0.890914 0.127623 0.223354 255 253 255
0.897392 0.126648 0.221755 255 252 255
0.925093 0.118964 0.218896 255 253 255
0.92953 0.118544 0.217599 255 253 255
0.938396 0.115295 0.217596 255 254 255
0.945126 0.114816 0.2155 255 254 255
0.973563 0.107211 0.212735 255 255 255
0.977561 0.107788 0.210638 255 255 255
1.00368 0.104722 0.204271 255 254 255
1.01529 0.105181 0.199636 255 243 255
0.835565 0.140529 0.229904 255 249 255
0.847526 0.13519 0.23047 255 250 255
0.85666 0.134925 0.226799 255 251 255
0.864286 0.131507 0.227236 255 252 255
0.875345 0.128752 0.225528 255 252 255
0.879614 0.12798 0.224568 255 252 255
0.888676 0.125841 0.223099 255 252 255
0.890345 0.126187 0.222038 255 252 255
0.898487 0.125578 0.219352 255 252 255
0.901154 0.124588 0.219323 255 252 255
0.923979 0.118151 0.217017 255 254 255
0.926728 0.117256 0.216878 255 254 255
0.946224 0.11382 0.212894 255 255 255
0.952415 0.111552 0.212896 255 254 255
0.998895 0.104994 0.202356 255 255 255
1.00539 0.103183 0.201866 255 255 255
0.822888 0.129243 0.244918 255 243 255
0.819761 0.138553 0.236189 255 251 255
0.82772 0.142911 0.227862 255 249 255
0.834609 0.139883 0.228081 255 249 255
0.843639 0.136418 0.22785 255 250 255
0.848199 0.13473 0.227679 255 251 255
0.849851 0.134949 0.226723 255 251 255
0.858629 0.132392 0.225682 255 251 255
0.871728 0.129131 0.223595 255 252 255
0.885471 0.125456 0.221758 255 252 255
0.893102 0.125468 0.218587 255 252 255
0.927824 0.116237 0.214342 255 254 255
0.942278 0.113799 0.211229 255 255 255
0.959175 0.109026 0.209693 255 255 255
0.96487 0.107522 0.209085 255 255 255
0.98264 0.105239 0.20476 255 255 255
0.985539 0.104578 0.204363 255 255 255
1.00942 0.101742 0.198513 255 255 255
1.0128 0.103231 0.195774 255 249 255
0.818458 0.13863 0.233754 255 249 255
0.835286 0.139426 0.225342 255 250 255
0.859719 0.131265 0.22342 255 252 255
0.880137 0.125469 0.220913 255 252 255
0.887743 0.125414 0.217796 255 252 255
0.891545 0.125429 0.216205 255 252 255
0.893694 0.125102 0.215665 255 252 255
0.924487 0.115653 0.213116 255 253 255
0.933895 0.114165 0.210941 255 254 255
0.954599 0.109611 0.207602 255 255 255
0.963687 0.106648 0.207174 255 255 255
0.974475 0.107027 0.202691 255 255 255
0.979632 0.106315 0.201484 255 255 255
1.01155 0.102274 0.193843 255 253 255
1.01758 0.105976 0.187925 221 212 227
0.819697 0.140398 0.228375 255 249 255
0.821332 0.140532 0.227491 255 249 255
0.865001 0.129283 0.220268 255 252 255
0.883841 0.123321 0.218581 255 253 255
0.896923 0.123743 0.212711 255 253 255
0.901738 0.122445 0.212094 255 253 255
0.914666 0.118323 0.211141 255 253 255
0.92063 0.115781 0.211385 255 253 255
0.965353 0.105039 0.204936 255 255 255
0.969317 0.105579 0.202869 255 255 255
0.977227 0.106756 0.198673 255 255 255
0.989383 0.103452 0.197475 255 255 255
0.99229 0.10282 0.197033 255 255 255
0.994588 0.102857 0.196143 255 255 255
1.00798 0.101232 0.192854 255 255 255
1.01438 0.10696 0.184771 225 216 230
1.01408 0.109663 0.18217 214 206 218
0.819513 0.138368 0.227734 255 249 255
0.827685 0.1391 0.223271 255 249 255
0.829708 0.138552 0.222948 255 250 255
0.837433 0.137139 0.221009 255 251 255
0.853533 0.130855 0.220582 255 251 255
0.859019 0.127815 0.221404 255 251 255
0.873791 0.124847 0.21819 255 253 255
0.878513 0.123365 0.217742 255 253 255
0.889414 0.124005 0.212506 255 253 255
0.895845 0.123027 0.21086 255 253 255
0.900148 0.122414 0.209726 255 253 255
0.904462 0.121833 0.208563 255 253 255
0.923379 0.115248 0.207713 255 254 255
0.932199 0.114439 0.20503 255 254 255
0.94888 0.109417 0.203611 255 255 255
0.952824 0.107264 0.204272 255 255 255
0.967535 0.105389 0.200502 255 255 255
0.969215 0.106003 0.199238 255 255 255
0.982373 0.103866 0.196408 255 255 255
1.0143 0.0999644 0.18849 250 238 255
0.828358 0.138668 0.220552 255 250 255
0.834026 0.137769 0.21897 255 252 255
0.838499 0.136013 0.21883 255 251 255
0.860865 0.128394 0.217033 255 252 255
0.86251 0.128667 0.216041 255 252 255
0.86761 0.126401 0.216213 255 252 255
0.882432 0.123666 0.212766 255 253 255
0.887181 0.122253 0.212238 255 253 255
0.899062 0.121703 0.207875 255 254 255
0.946037 0.108063 0.20293 255 255 255
0.965754 0.105217 0.198141 255 255 255
0.975407 0.104363 0.195305 255 255 255
0.981154 0.102995 0.194495 255 255 255
1.01572 0.101231 0.183396 228 220 232
1.01708 0.104742 0.179427 207 199 211
0.820904 0.137463 0.222315 255 250 255
0.825319 0.135603 0.222266 255 250 255
0.827797 0.137364 0.219311 255 250 255
0.82942 0.137535 0.218406 255 250 255
0.840389 0.133467 0.217768 255 250 255
0.843647 0.133893 0.215888 255 251 255
0.857321 0.128911 0.215088 255 252 255
0.87807 0.122325 0.212997 255 253 255
0.896828 0.119911 0.207616 255 253 255
0.90494 0.119428 0.204766 255 254 255
0.921656 0.113048 0.204455 255 254 255
0.952169 0.10359 0.201863 255 255 255
0.962879 0.103781 0.197491 255 255 255
0.979332 0.102805 0.192144 255 255 255
1.00192 0.0984017 0.187999 255 255 255
0.822999 0.113818 0.243109 255 244 255
0.817075 0.135893 0.222842 255 249 255
0.88079 0.121616 0.209592 255 253 255
0.894745 0.120627 0.204747 255 254 255
0.896887 0.120315 0.204175 255 254 255
0.944817 0.105108 0.200073 255 255 255
0.961103 0.103642 0.195135 255 255 255
0.963939 0.102888 0.194781 255 255 255
0.971901 0.101369 0.193206 255 255 255
0.997747 0.0981097 0.186578 255 255 255
1.0119 0.100716 0.178745 232 223 235
0.815766 0.136054 0.220437 255 250 255
0.820641 0.136472 0.217789 255 250 255
0.829514 0.135843 0.214437 255 251 255
0.841255 0.133427 0.211693 255 251 255
0.861525 0.126332 0.21008 255 252 255
0.868708 0.123632 0.209733 255 252 255
0.874558 0.123144 0.207726 255 253 255
0.881852 0.12059 0.207217 255 253 255
0.888239 0.11953 0.205595 255 254 255
0.892019 0.11957 0.203971 255 254 255
0.903865 0.119159 0.199467 255 254 255
0.905498 0.119584 0.198368 255 255 255
0.924313 0.11044 0.19985 255 255 255
0.926512 0.110231 0.199169 255 255 255
0.93037 0.110531 0.197314 255 255 255
0.939197 0.107242 0.197052 255 255 255
0.962156 0.102759 0.192429 255 255 255
0.970687 0.100543 0.191295 255 255 255
0.991915 0.0971457 0.186479 255 255 255
1.00003 0.0959681 0.184555 255 255 255
1.00898 0.099056 0.178191 247 235 253
1.01063 0.0998275 0.176827 234 225 239
1.0165 0.0987756 0.17567 212 203 215
0.812659 0.133069 0.222103 255 252 255
0.817322 0.13723 0.215709 255 250 255
0.837033 0.132429 0.211742 255 252 255
0.86303 0.124566 0.208314 255 253 255
0.884347 0.117439 0.206371 255 253 255
0.890442 0.119617 0.201618 255 254 255
0.928104 0.108601 0.197075 255 255 255
0.939137 0.105103 0.196092 255 255 255
0.95368 0.100282 0.195047 255 255 255
0.954789 0.10155 0.193361 255 255 255
0.973402 0.100331 0.187267 255 255 255
1.00606 0.0974166 0.177629 255 249 255
1.01228 0.0984129 0.174335 227 218 232
0.818312 0.115575 0.234485 251 237 253
0.811001 0.133984 0.219115 255 250 255
0.82436 0.134391 0.212613 255 251 255
0.825974 0.13456 0.211714 255 251 255
0.827981 0.134008 0.21137 255 252 255
0.836052 0.131866 0.209923 255 252 255
0.859024 0.125839 0.205881 255 252 255
0.886568 0.11751 0.2024 255 254 255
0.889359 0.118969 0.199772 255 254 255
0.89575 0.118004 0.19805 255 254 255
0.897886 0.117698 0.197461 255 254 255
0.904826 0.116123 0.196138 255 255 255
0.914426 0.111106 0.197137 255 255 255
0.940742 0.103501 0.193922 255 255 255
0.958083 0.100576 0.18987 255 255 255
0.99522 0.0941856 0.181624 255 255 255
1.00022 0.096383 0.177604 255 255 255
1.01265 0.098329 0.171048 216 210 221
1.01234 0.101096 0.168516 205 196 208
0.811147 0.13125 0.219017 255 250 255
0.812584 0.135167 0.214403 255 250 255
0.829023 0.132919 0.209203 255 251 255
0.830633 0.133107 0.208291 255 252 255
0.832645 0.132572 0.207927 255 252 255
0.864218 0.123949 0.202645 255 253 255
0.886154 0.118672 0.198488 255 254 255
0.889411 0.119427 0.196367 255 254 255
0.892028 0.118387 0.196291 255 254 255
0.904227 0.114752 0.194771 255 255 255
0.924145 0.106673 0.194478 255 255 255
0.926341 0.106464 0.193784 255 255 255
0.969291 0.0980869 0.184725 255 255 255
0.834493 0.130041 0.206834 255 252 255
0.845497 0.126034 0.205919 255 252 255
0.849601 0.125067 0.205066 255 253 255
0.878057 0.117339 0.200334 255 254 255
0.880647 0.116246 0.2003 255 254 255
0.905774 0.113109 0.192774 255 255 255
0.950096 0.0979788 0.189324 255 255 255
0.956823 0.0976584 0.186939 255 255 255
0.964148 0.0967296 0.184918 255 255 255
0.971981 0.0979117 0.180694 255 255 255
0.979951 0.0964983 0.178924 255 255 255
1.00413 0.0928535 0.173047 255 255 255
1.00844 0.0958368 0.168581 236 227 242
1.0088 0.0979509 0.16645 220 213 225
0.81244 0.137368 0.206779 255 251 255
0.814405 0.136772 0.206471 255 251 255
0.825083 0.132421 0.20593 255 252 255
0.842029 0.126711 0.203972 255 252 255
0.854759 0.123102 0.201899 255 253 255
0.863946 0.119877 0.201048 255 253 255
0.880731 0.11671 0.196903 255 254 255
0.950003 0.0985103 0.185752 255 255 255
0.980967 0.0957092 0.176127 255 255 255
0.982619 0.0964006 0.174826 255 255 255
0.998688 0.0939554 0.170899 255 255 255
1.00324 0.0941251 0.168988 255 247 255
1.00528 0.101903 0.160909 212 205 216
0.813836 0.135544 0.205229 255 251 255
0.821739 0.133217 0.203917 255 252 255
0.844252 0.126649 0.200251 255 252 255
0.852856 0.12401 0.199026 255 253 255
0.870785 0.118373 0.196686 255 253 255
0.890231 0.114368 0.192228 255 255 255
0.898122 0.111262 0.191883 255 255 255
0.90077 0.110245 0.191745 255 255 255
0.901901 0.11139 0.190168 255 255 255
0.918035 0.108162 0.186538 255 255 255
0.920739 0.10723 0.186312 255 255 255
0.934935 0.102016 0.185458 255 255 255
0.959386 0.0979864 0.179398 255 255 255
0.964443 0.0971597 0.17816 255 255 255
0.966094 0.0977986 0.1769 255 255 255
0.993898 0.0944312 0.169139 255 255 255
1.00297 0.0947468 0.165337 249 240 255
0.82315 0.131417 0.20231 255 252 255
0.835566 0.127417 0.200604 255 253 255
0.857264 0.120353 0.197823 255 253 255
0.867639 0.118206 0.195362 255 254 255
0.93651 0.100451 0.183273 255 255 255
0.953138 0.0981297 0.178703 255 255 255
0.963803 0.0957228 0.176678 255 255 255
0.966043 0.0956683 0.175833 255 255 255
0.972771 0.09556 0.173254 255 255 255
0.985234 0.0941964 0.169605 255 255 255
0.814281 0.133253 0.201859 255 252 255
0.818223 0.132079 0.201195 255 252 255
0.820201 0.131501 0.200852 255 252 255
0.828553 0.128517 0.199949 255 252 255
0.834573 0.126911 0.198788 255 252 255
0.836176 0.127131 0.197856 255 253 255
0.853728 0.121001 0.195948 255 253 255
0.883326 0.114585 0.189207 255 255 255
0.92277 0.105493 0.181186 255 255 255
0.956372 0.0972317 0.175184 255 255 255
0.967049 0.0948833 0.173078 255 255 255
0.971529 0.0948137 0.171351 255 255 255
0.98172 0.0934097 0.168604 255 255 255
0.984999 0.0948275 0.165996 255 255 255
0.807138 0.128358 0.207177 255 250 255
0.813704 0.132041 0.200605 255 252 255
0.851383 0.122692 0.192586 255 253 255
0.853866 0.121493 0.192632 255 253 255
0.877085 0.116201 0.187517 255 255 255
0.89641 0.109849 0.18523 255 255 255
0.898541 0.109549 0.184608 255 255 255
0.901184 0.108532 0.184443 255 255 255
0.905466 0.107974 0.183158 255 255 255
0.90813 0.106986 0.182963 255 255 255
0.944072 0.0970719 0.177301 255 255 255
0.952933 0.096616 0.174108 255 255 255
0.975365 0.0933469 0.168093 255 255 255
0.992338 0.0921446 0.162466 255 255 255
1.00363 0.092561 0.157659 234 225 239
0.809204 0.132047 0.199995 255 252 255
0.815091 0.130239 0.199013 255 252 255
0.816684 0.130401 0.198129 255 252 255
0.822225 0.129422 0.196532 255 252 255
0.832585 0.125931 0.19516 255 253 255
0.868151 0.116475 0.188326 255 255 255
0.878091 0.115279 0.18513 255 255 255
0.885836 0.112019 0.184849 255 255 255
0.908025 0.104929 0.182018 255 255 255
0.921517 0.102783 0.178344 255 255 255
0.954508 0.0951238 0.171814 255 255 255
0.962344 0.093494 0.170129 255 255 255
0.969635 0.0926582 0.16795 255 255 255
0.810213 0.130993 0.197871 255 252 255
0.827598 0.126539 0.194134 255 253 255
0.859723 0.116153 0.189535 255 255 255
0.874923 0.115111 0.183854 255 255 255
0.894174 0.108684 0.181531 255 255 255
0.902081 0.105603 0.181012 255 255 255
0.904223 0.105324 0.180361 255 255 255
0.916552 0.101882 0.178328 255 255 255
0.929036 0.0986797 0.176049 255 255 255
0.936707 0.0967334 0.174647 255 255 255
0.952212 0.0931167 0.171568 255 255 255
0.954434 0.093022 0.170744 255 255 255
0.957234 0.0922299 0.170323 255 255 255
0.967795 0.0926447 0.16565 255 255 255
0.975697 0.0911864 0.163786 255 255 255
0.989779 0.0906357 0.158648 255 255 255
0.805926 0.116153 0.211178 255 255 255
0.840208 0.123148 0.188931 255 253 255
0.855281 0.118322 0.186709 255 254 255
0.895677 0.107075 0.179519 255 255 255
0.915391 0.101272 0.17646 255 255 255
0.953781 0.0916316 0.169256 255 255 255
0.990124 0.0906433 0.155423 255 255 255
0.992368 0.0907057 0.154471 255 255 255
0.802807 0.124166 0.202401 255 255 255
0.820079 0.126571 0.19218 255 252 255
0.838018 0.121687 0.188574 255 253 255
0.852195 0.118288 0.185374 255 254 255
0.858776 0.116195 0.184386 255 254 255
0.864492 0.115663 0.182353 255 255 255
0.867016 0.114507 0.182307 255 255 255
0.869549 0.113361 0.18225 255 255 255
0.871624 0.112967 0.181703 255 255 255
0.877391 0.112571 0.179548 255 255 255
0.91423 0.100674 0.174593 255 255 255
0.944779 0.092719 0.168988 255 255 255
0.958632 0.0914235 0.164435 255 255 255
0.97704 0.0904635 0.157789 255 255 255
0.980898 0.0911907 0.155579 255 255 255
0.804704 0.113703 0.208556 255 255 255
0.802617 0.129318 0.195049 255 252 255
0.823053 0.125002 0.189621 255 253 255
0.82662 0.124647 0.188321 255 253 255
0.831 0.122805 0.188028 255 254 255
0.849555 0.117526 0.184529 255 254 255
0.852028 0.116308 0.184542 255 254 255
0.856118 0.1154 0.183554 255 255 255
0.861825 0.114842 0.181535 255 255 255
0.872147 0.112814 0.178844 255 255 255
0.87838 0.111689 0.177144 255 255 255
0.880947 0.110588 0.177028 255 255 255
0.883524 0.109497 0.1769 255 255 255
0.914694 0.10058 0.17159 255 255 255
0.928202 0.0958995 0.170096 255 255 255
0.950751 0.0910153 0.165056 255 255 255
0.992388 0.0914731 0.147663 249 240 255
0.803748 0.113252 0.206694 255 255 255
0.800442 0.128029 0.194639 255 252 255
0.807992 0.129469 0.189807 255 253 255
0.812625 0.126729 0.190181 255 252 255
0.814583 0.126133 0.189826 255 253 255
0.83758 0.12103 0.184008 255 254 255
0.844463 0.118021 0.183653 255 255 255
0.856218 0.115982 0.180254 255 255 255
0.869927 0.111213 0.178515 255 255 255
0.888703 0.107968 0.173243 255 255 255
0.891303 0.106907 0.173072 255 255 255
0.933548 0.0947697 0.16593 255 255 255
0.936839 0.093166 0.165977 255 255 255
0.957784 0.0907427 0.159401 255 255 255
0.964425 0.0905802 0.156805 255 255 255
0.970477 0.0912063 0.153765 255 255 255
0.988498 0.0885527 0.148766 255 255 255
0.800198 0.126101 0.193912 255 252 255
0.822274 0.125124 0.184594 255 254 255
0.832981 0.120875 0.18357 255 254 255
0.838565 0.120086 0.181756 255 254 255
0.851534 0.11567 0.179919 255 254 255
0.889682 0.107128 0.170784 255 255 255
0.90175 0.103416 0.16888 255 255 255
0.909695 0.100418 0.168139 255 255 255
0.92962 0.095064 0.16441 255 255 255
0.95712 0.0893824 0.1579 255 255 255
0.807597 0.0992805 0.212147 255 255 255
0.826017 0.122076 0.183018 255 253 255
0.828398 0.120764 0.183112 255 255 255
0.838379 0.118136 0.18094 255 253 255
0.845697 0.114365 0.181021 255 254 255
0.853398 0.113245 0.178566 255 255 255
0.859532 0.111914 0.177018 255 255 255
0.863639 0.111064 0.175951 255 255 255
0.875565 0.10945 0.17212 255 255 255
0.953667 0.0888243 0.156863 255 255 255
0.955874 0.0887466 0.156009 255 255 255
0.960876 0.0879031 0.154661 255 255 255
0.963531 0.0899537 0.151768 255 255 255
0.967948 0.0898944 0.149991 255 255 255
0.974581 0.0898754 0.147271 255 255 255
0.984297 0.0864265 0.146279 255 255 255
0.988759 0.0865308 0.144364 255 255 255
0.808998 0.127096 0.183742 255 253 255
0.812503 0.126661 0.182509 255 254 255
0.818732 0.124136 0.181899 255 254 255
0.822656 0.123 0.181113 255 254 255
0.839359 0.117208 0.178673 255 255 255
0.866676 0.109778 0.173028 255 255 255
0.874941 0.108221 0.170748 255 255 255
0.880204 0.108636 0.168065 255 255 255
0.884852 0.1072 0.167294 255 255 255
0.899965 0.10162 0.165623 255 255 255
0.906272 0.0981078 0.165979 255 255 255
0.910025 0.098342 0.164153 255 255 255
0.924515 0.0948226 0.161019 255 255 255
0.941434 0.0887435 0.159135 255 255 255
0.95962 0.0872699 0.152768 255 255 255
0.99101 0.0895647 0.13782 238 231 247
0.995118 0.0875586 0.137867 224 217 233
0.800349 0.12923 0.183305 255 254 255
0.811535 0.126293 0.18072 255 254 255
0.81775 0.123756 0.180104 255 254 255
0.833513 0.119357 0.176786 255 255 255
0.843617 0.113501 0.177379 255 255 255
0.847663 0.112536 0.176403 255 255 255
0.849692 0.112064 0.175905 255 255 255
0.852437 0.11343 0.173466 255 255 255
0.857396 0.111014 0.173371 255 255 255
0.875262 0.105487 0.170279 255 255 255
0.896197 0.102144 0.164014 255 255 255
0.942397 0.0880204 0.156429 255 255 255
0.94459 0.0879001 0.155604 255 255 255
0.949551 0.0869615 0.154317 255 255 255
0.953377 0.0875094 0.152231 255 255 255
0.994764 0.0883769 0.13431 207 195 212
0.796095 0.125394 0.18616 255 252 255
0.848639 0.11164 0.174084 255 255 255
0.858817 0.10938 0.171483 255 255 255
0.887762 0.10408 0.163259 255 255 255
0.889853 0.103761 0.162618 255 255 255
0.895052 0.101649 0.162174 255 255 255
0.89868 0.099111 0.162788 255 255 255
0.90182 0.0973345 0.162957 255 255 255
0.922123 0.0937183 0.157289 255 255 255
0.928068 0.0911318 0.156963 255 255 255
0.933508 0.0893274 0.156186 255 255 255
0.938421 0.0882993 0.154971 255 255 255
0.942791 0.0880412 0.153331 255 255 255
0.948307 0.0863638 0.152428 255 255 255
0.957686 0.0853149 0.149361 255 255 255
0.960337 0.0873706 0.146487 255 255 255
0.965924 0.0858588 0.145433 255 255 255
0.995341 0.0856148 0.133426 214 205 222
1.00517 0.0773293 0.1364 193 180 200
0.796344 0.114677 0.192913 255 255 255
0.802996 0.125721 0.180102 255 253 255
0.80997 0.12481 0.177654 255 255 255
0.833872 0.117288 0.173222 255 255 255
0.842697 0.113727 0.172306 255 255 255
0.847153 0.111994 0.171793 255 255 255
0.855259 0.110157 0.169731 255 255 255
0.884056 0.104695 0.161627 255 255 255
0.903295 0.0958084 0.160832 255 255 255
0.915037 0.0958301 0.155706 255 255 255
0.925772 0.0920608 0.154296 255 255 255
0.95145 0.08559 0.148834 255 255 255
0.975891 0.0823433 0.141283 255 255 255
0.983169 0.0817146 0.138773 255 255 255
0.989584 0.0847873 0.133516 245 238 254
1.0032 0.0773423 0.134147 191 181 200
0.794558 0.123937 0.183087 255 254 255
0.795787 0.124841 0.181721 255 255 255
0.813995 0.120934 0.176618 255 255 255
0.822992 0.119615 0.173605 255 255 255
0.828894 0.117972 0.172316 255 255 255
0.841655 0.113335 0.170496 255 255 255
0.879117 0.10149 0.163847 255 255 255
0.883909 0.102726 0.160665 255 255 255
0.89276 0.100691 0.158499 255 255 255
0.907416 0.0932842 0.158392 255 255 255
0.916516 0.0943555 0.153516 255 255 255
0.940881 0.0861678 0.149951 255 255 255
0.943064 0.086047 0.149118 255 255 255
0.944682 0.0866677 0.147901 255 255 255
0.947436 0.0858327 0.14743 255 255 255
0.954005 0.0855791 0.144845 255 255 255
0.980249 0.0803297 0.138178 255 255 255
0.986927 0.0804681 0.135267 255 255 255
0.799882 0.124136 0.177894 255 255 255
0.801443 0.124281 0.177037 255 255 255
0.818472 0.119619 0.173131 255 255 255
0.821991 0.119264 0.171811 255 255 255
0.828685 0.116057 0.171484 255 255 255
0.843466 0.110914 0.169135 255 255 255
0.869244 0.103317 0.163986 255 255 255
0.871307 0.102928 0.163394 255 255 255
0.883267 0.101518 0.159264 255 255 255
0.888527 0.102054 0.156479 255 255 255
0.891112 0.100985 0.156244 255 255 255
0.945049 0.0867358 0.144805 255 255 255
0.949408 0.0865467 0.143098 255 255 255
0.959316 0.084825 0.140314 255 255 255
0.992631 0.0822657 0.128408 216 209 223
0.797371 0.123682 0.176957 255 255 255
0.800842 0.123181 0.175757 255 255 255
0.809725 0.121646 0.17292 255 255 255
0.822944 0.118363 0.169594 255 255 255
0.841992 0.111312 0.166857 255 255 255
0.849593 0.110184 0.164356 255 255 255
0.863573 0.104474 0.162875 255 255 255
0.87895 0.100249 0.159553 255 255 255
0.887386 0.10161 0.154653 255 255 255
0.900888 0.0955867 0.153752 255 255 255
0.914131 0.0933566 0.149812 255 255 255
0.917329 0.0916442 0.149849 255 255 255
0.922148 0.0904961 0.148709 255 255 255
0.938895 0.0871579 0.144237 255 255 255
0.96681 0.0841295 0.134801 255 255 255
0.825083 0.115125 0.168807 255 255 255
0.836955 0.111948 0.166031 255 255 255
0.846955 0.1095 0.163525 255 255 255
0.867035 0.102486 0.160329 255 255 255
0.884663 0.100741 0.153897 255 255 255
0.886245 0.101178 0.152828 255 255 255
0.90549 0.092324 0.151695 255 255 255
0.910262 0.0910764 0.150634 255 255 255
0.941987 0.0863894 0.140693 255 255 255
0.944724 0.0855455 0.140208 255 255 255
0.950221 0.0838922 0.139204 255 255 255
0.968312 0.0828207 0.132337 255 255 255
0.983346 0.0808123 0.1276 255 255 255
0.800482 0.122729 0.171328 255 255 255
0.828002 0.1137 0.166109 255 255 255
0.853943 0.107301 0.159585 255 255 255
0.878286 0.0998162 0.154834 255 255 255
0.911198 0.0903675 0.148036 255 255 255
0.920804 0.0880069 0.14576 255 255 255
0.934812 0.0855052 0.141698 255 255 255
0.936415 0.0861129 0.140501 255 255 255
0.938014 0.0867272 0.139301 255 255 255
0.945069 0.085656 0.137121 255 255 255
0.948384 0.0840899 0.136971 255 255 255
0.978227 0.0794098 0.127988 255 255 255
0.979822 0.0801704 0.126689 255 255 255
0.982998 0.0817119 0.124084 255 253 255
0.984578 0.0824929 0.122778 245 238 254
1.01612 0.0572647 0.129924 152 145 163
0.789675 0.115042 0.180389 255 255 255
0.790747 0.124132 0.172271 255 255 255
0.822662 0.115259 0.164739 255 255 255
0.835704 0.109691 0.163348 255 255 255
0.837694 0.109182 0.162855 255 255 255
0.891178 0.0978697 0.147998 255 255 255
0.901583 0.093688 0.146806 255 255 255
0.912128 0.0896722 0.145432 255 255 255
0.9282 0.0839695 0.143025 255 255 255
0.932519 0.0836521 0.141392 255 255 255
0.959581 0.0839349 0.129408 255 255 255
0.971305 0.0802403 0.127362 255 255 255
0.983584 0.0841327 0.118966 228 221 237
0.790143 0.123067 0.170994 255 255 255
0.79616 0.12028 0.170465 255 255 255
0.8104 0.117643 0.165963 255 255 255
0.81233 0.117045 0.165556 255 255 255
0.853114 0.10424 0.15729 255 255 255
0.868276 0.0997451 0.154087 255 255 255
0.882709 0.0971993 0.14966 255 255 255
0.903023 0.0922278 0.144638 255 255 255
0.922127 0.0845939 0.142384 255 255 255
0.937763 0.0827385 0.137017 255 255 255
0.949174 0.0814813 0.133052 255 255 255
0.950772 0.0821461 0.131819 255 255 255
0.956711 0.0827094 0.128787 255 255 255
0.984749 0.0858697 0.11419 194 187 203
0.788317 0.121089 0.17105 255 255 255
0.815583 0.114784 0.163406 255 255 255
0.837586 0.108015 0.158744 255 255 255
0.855624 0.103787 0.153919 255 255 255
0.860126 0.10215 0.1532 255 255 255
0.87032 0.100151 0.150196 255 255 255
0.882052 0.0960313 0.148241 255 255 255
0.885215 0.0969141 0.146101 255 255 255
0.895038 0.0933864 0.144552 255 255 255
0.900761 0.0905332 0.144302 255 255 255
0.910777 0.0872475 0.142493 255 255 255
0.920905 0.0841244 0.140519 255 255 255
0.948476 0.0802269 0.131524 255 255 255
0.97587 0.0784679 0.121034 255 255 255
0.789261 0.120155 0.168929 255 255 255
0.797347 0.120046 0.165191 255 255 255
0.822749 0.11142 0.160313 255 255 255
0.83101 0.108458 0.158883 255 255 255
0.836535 0.107698 0.156942 255 255 255
0.847798 0.102898 0.155643 255 255 255
0.878359 0.0967647 0.146662 255 255 255
0.89697 0.0911563 0.14279 255 255 255
0.92935 0.0814449 0.136145 255 255 255
0.786223 0.11313 0.173639 255 255 255
0.79175 0.119364 0.165958 255 255 255
0.793298 0.119502 0.165113 255 255 255
0.820558 0.110102 0.159897 255 255 255
0.826437 0.108437 0.1585 255 255 255
0.832352 0.106836 0.157041 255 255 255
0.841863 0.105107 0.154031 255 255 255
0.848731 0.102104 0.153279 255 255 255
0.859951 0.101038 0.148987 255 255 255
0.866042 0.0998209 0.147181 255 255 255
0.876738 0.0971719 0.144436 255 255 255
0.879277 0.0960454 0.144185 255 255 255
0.893701 0.0910394 0.141665 255 255 255
0.896298 0.0899816 0.141339 255 255 255
0.912063 0.0838536 0.139146 255 255 255
0.928654 0.0802237 0.134635 255 255 255
0.93241 0.0806769 0.132608 255 255 255
0.943197 0.0800746 0.128316 255 255 255
0.947523 0.0798973 0.12655 255 255 255
0.972249 0.0759003 0.118873 255 255 255
0.788364 0.117255 0.166838 255 255 255
0.789586 0.118188 0.165507 255 255 255
0.795773 0.118753 0.16212 255 255 255
0.799207 0.118267 0.160887 255 255 255
0.819152 0.110623 0.157642 255 255 255
0.841222 0.104007 0.152665 255 255 255
0.848784 0.102905 0.150053 255 255 255
0.860412 0.101076 0.146166 255 255 255
0.902431 0.0872292 0.138068 255 255 255
0.929012 0.0803684 0.13158 255 255 255
0.937615 0.07982 0.128187 255 255 255
0.947832 0.0800863 0.123456 255 255 255
0.98036 0.0800192 0.109252 229 222 238
0.790185 0.11809 0.162883 255 255 255
0.846569 0.101476 0.14966 255 255 255
0.849702 0.102139 0.147687 255 255 255
0.878556 0.095765 0.139489 255 255 255
0.927218 0.0806843 0.129365 255 255 255
0.935235 0.0808749 0.12564 255 255 255
0.937942 0.0800002 0.125117 255 255 255
0.951446 0.0787319 0.120114 255 255 255
0.954773 0.0771865 0.119845 255 255 255
0.969607 0.074865 0.11511 255 255 255
0.971791 0.0748842 0.114135 255 255 255
0.975905 0.0779292 0.109971 255 255 255
0.980577 0.0802983 0.106094 210 200 217
0.785244 0.115871 0.164587 255 255 255
0.788021 0.116928 0.162427 255 255 255
0.791112 0.117198 0.160743 255 255 255
0.798322 0.115384 0.158756 255 255 255
0.80749 0.113061 0.156258 255 255 255
0.812877 0.11207 0.154504 255 255 255
0.817888 0.108494 0.154969 255 255 255
0.819834 0.107924 0.154505 255 255 255
0.824132 0.106003 0.154004 255 255 255
0.840352 0.101028 0.150354 255 255 255
0.841499 0.102134 0.148952 255 255 255
0.845487 0.101177 0.147853 255 255 255
0.849491 0.100251 0.146727 255 255 255
0.863151 0.0980412 0.14216 255 255 255
0.869243 0.0968712 0.140279 255 255 255
0.879943 0.0942988 0.137396 255 255 255
0.882977 0.092403 0.137492 255 255 255
0.888596 0.0894269 0.137256 255 255 255
0.891173 0.0883449 0.136927 255 255 255
0.89376 0.0872731 0.136587 255 255 255
0.903682 0.0838639 0.134744 255 255 255
0.916375 0.0825078 0.130068 255 255 255
0.920624 0.0821256 0.128454 255 255 255
0.947999 0.07833 0.119158 255 255 255
0.969864 0.0751193 0.111953 255 255 255
0.977359 0.0767406 0.107405 250 240 255
0.788284 0.11766 0.159328 255 255 255
0.791697 0.117129 0.15812 255 255 255
0.807229 0.111212 0.155397 255 255 255
0.812247 0.111025 0.153177 255 255 255
0.824658 0.105997 0.151277 255 255 255
0.842841 0.100568 0.147027 255 255 255
0.854866 0.0978226 0.143589 255 255 255
0.873131 0.0942309 0.137966 255 255 255
0.884859 0.0901677 0.135746 255 255 255
0.887423 0.0890703 0.135425 255 255 255
0.892076 0.0876859 0.134374 255 255 255
0.917801 0.081137 0.127766 255 255 255
0.928443 0.0802826 0.12363 255 255 255
0.938115 0.078244 0.120859 255 255 255
0.957676 0.0746659 0.114872 255 255 255
0.961024 0.0731465 0.114548 255 255 255
0.980683 0.0786349 0.101657 199 190 206
0.818172 0.106622 0.151367 255 255 255
0.883202 0.0906122 0.133542 255 255 255
0.901273 0.0831034 0.13105 255 255 255
0.926153 0.0784932 0.123298 255 255 255
0.927738 0.0791044 0.122115 255 255 255
0.933116 0.077296 0.121072 255 255 255
0.938525 0.0755334 0.119983 255 255 255
0.963848 0.0756312 0.10858 255 255 255
0.766139 0.111876 0.169672 127 65 54
0.773703 0.113029 0.165136 200 110 104
0.792671 0.11362 0.155603 255 255 255
0.798691 0.110846 0.154878 255 255 255
0.806328 0.108332 0.153193 255 255 255
0.817916 0.104768 0.150461 255 255 255
0.821812 0.103636 0.149496 255 255 255
0.82493 0.10415 0.147634 255 255 255
0.827688 0.101994 0.147997 255 255 255
0.834009 0.0996107 0.146862 255 255 255
0.843526 0.0979372 0.143698 255 255 255
0.845954 0.096662 0.143543 255 255 255
0.850401 0.0949393 0.142792 255 255 255
0.856006 0.0944148 0.140588 255 255 255
0.87022 0.0915979 0.136162 255 255 255
0.877446 0.0917431 0.13272 255 255 255
0.882035 0.0902845 0.131722 255 255 255
0.886648 0.0888627 0.130688 255 255 255
0.890208 0.0862045 0.131082 255 255 255
0.897973 0.0830046 0.129964 255 255 255
0.900579 0.0819591 0.129568 255 255 255
0.904783 0.0814565 0.128031 255 255 255
0.935102 0.0752252 0.118999 255 255 255
0.940981 0.0756614 0.116016 255 255 255
0.950577 0.0768069 0.110835 255 255 255
0.953893 0.0752551 0.110519 255 255 255
0.958208 0.0751943 0.108632 255 255 255
0.976447 0.0768642 0.0992361 222 215 229
0.76338 0.112463 0.168165 132 70 57
0.769074 0.114336 0.163979 193 105 96
0.775593 0.113839 0.161223 109 68 70
0.779629 0.111575 0.161021 255 254 255
0.782427 0.112618 0.15888 255 255 255
0.795472 0.112111 0.153038 255 255 255
0.803418 0.108741 0.151837 255 255 255
0.804967 0.108936 0.150953 255 255 255
0.810345 0.107927 0.149175 255 255 255
0.821941 0.104468 0.146339 255 255 255
0.830566 0.100688 0.145163 255 255 255
0.837629 0.100262 0.142175 255 255 255
0.842016 0.0984793 0.141479 255 255 255
0.87677 0.0906429 0.131284 255 255 255
0.891098 0.0855735 0.128522 255 255 255
0.931135 0.0757104 0.117683 255 255 255
0.935971 0.074694 0.116256 255 255 255
0.954739 0.0747805 0.107718 255 255 255
0.978169 0.0727017 0.0987712 226 219 232
0.758535 0.114684 0.166446 125 68 56
0.784577 0.112685 0.155424 255 254 255
0.811627 0.106309 0.147376 255 255 255
0.832289 0.098308 0.143677 255 255 255
0.839373 0.0979083 0.140653 255 255 255
0.857135 0.0910237 0.13754 255 255 255
0.858259 0.0922046 0.136127 255 255 255
0.881751 0.0893334 0.12739 255 255 255
0.88941 0.0860348 0.126332 255 255 255
0.93785 0.075601 0.111984 255 255 255
0.939422 0.076266 0.110775 255 255 255
0.947399 0.0767182 0.106825 255 255 255
0.950118 0.0759069 0.106198 255 255 255
0.962251 0.0712792 0.104163 255 255 255
0.974649 0.0721774 0.0979201 254 244 255
0.976205 0.0729771 0.096629 236 227 242
0.757378 0.115353 0.164156 151 75 64
0.767533 0.113179 0.160885 207 111 109
0.770932 0.112503 0.159756 210 116 118
0.778365 0.109573 0.158386 255 252 255
0.779613 0.110506 0.157083 255 252 255
0.787034 0.11196 0.152429 255 252 255
0.788906 0.111281 0.152044 255 254 255
0.816386 0.104356 0.144173 255 255 255
0.81832 0.103785 0.143686 255 255 255
0.825334 0.0996731 0.143456 255 255 255
0.833195 0.0975575 0.141335 255 255 255
0.838712 0.0968591 0.139263 255 255 255
0.852422 0.09082 0.137354 255 255 255
0.853997 0.0911857 0.136344 255 255 255
0.873842 0.0880184 0.129461 255 255 255
0.888222 0.0857212 0.12451 255 255 255
0.890288 0.0854264 0.123775 255 255 255
0.893362 0.0835636 0.123742 255 255 255
0.916386 0.0751608 0.119392 255 255 255
0.928048 0.0757034 0.113651 255 255 255
0.938136 0.0758715 0.108925 255 255 255
0.952116 0.0739349 0.104004 255 255 255
0.776471 0.107651 0.158365 255 246 255
0.786402 0.110973 0.151112 255 252 255
0.788273 0.110291 0.150725 255 252 255
0.801145 0.10653 0.147379 255 253 255
0.806142 0.10631 0.145164 255 255 255
0.819996 0.101384 0.142256 255 255 255
0.834097 0.0968196 0.138987 255 255 255
0.839609 0.0961371 0.136897 255 255 255
0.842017 0.0948427 0.136726 255 255 255
0.844434 0.0935573 0.136544 255 255 255
0.855783 0.088881 0.134689 255 255 255
0.860499 0.0900403 0.131623 255 255 255
0.864548 0.0892399 0.130324 255 255 255
0.86861 0.0884716 0.128998 255 255 255
0.924113 0.0762575 0.112344 255 255 255
0.931581 0.0742892 0.110368 255 255 255
0.936849 0.075488 0.107078 255 255 255
0.963315 0.071174 0.0981878 255 255 255
0.96763 0.0712105 0.096204 255 255 255
0.754052 0.115044 0.161354 168 83 73
0.763877 0.113649 0.157627 208 105 108
0.765706 0.112884 0.157311 210 107 110
0.789845 0.107803 0.149457 255 251 255
0.795164 0.106639 0.147772 255 252 255
0.807408 0.104701 0.143361 255 253 255
0.848624 0.08996 0.134728 255 255 255
0.894039 0.0810836 0.120029 255 255 255
0.897686 0.0813391 0.11815 255 255 255
0.917069 0.0726992 0.115506 255 255 255
0.924964 0.0757493 0.10964 255 255 255
0.961008 0.0692434 0.0978703 255 255 255
0.965921 0.0685065 0.0961667 255 255 255
0.974002 0.0747566 0.0879574 209 199 214
0.980462 0.0696229 0.0887486 178 166 181
0.763248 0.112687 0.156323 212 114 113
0.79418 0.10648 0.14599 255 252 255
0.801405 0.104736 0.143812 255 254 255
0.82847 0.0930544 0.139487 255 255 255
0.838695 0.0932536 0.1345 255 255 255
0.8411 0.0919514 0.134315 255 255 255
0.851086 0.0896357 0.131297 255 255 255
0.857119 0.08834 0.129404 255 255 255
0.86567 0.0859175 0.127156 255 255 255
0.867239 0.0863394 0.126113 255 255 255
0.881534 0.0838798 0.121217 255 255 255
0.920556 0.0741647 0.110147 255 255 255
0.929576 0.0727893 0.106978 255 255 255
0.93327 0.0733194 0.104892 255 255 255
0.93965 0.0730199 0.102172 255 255 255
0.942348 0.0721704 0.101545 255 255 255
0.948755 0.0719858 0.0987369 255 255 255
0.76234 0.112565 0.154541 220 124 124
0.776766 0.111695 0.148204 255 250 255
0.786688 0.106524 0.147195 255 250 255
0.807656 0.102935 0.13976 255 254 255
0.828971 0.0931422 0.136724 255 255 255
0.835631 0.0935421 0.133274 255 255 255
0.848403 0.0890443 0.130492 255 255 255
0.858452 0.086875 0.127323 255 255 255
0.86498 0.0848607 0.125709 255 255 255
0.887002 0.0818742 0.117542 255 255 255
0.910871 0.0745859 0.11167 255 255 255
0.929864 0.073089 0.10394 255 255 255
0.934663 0.0720816 0.102444 255 255 255
0.94218 0.0702642 0.100278 255 255 255
0.973122 0.0716868 0.0850425 206 197 211
0.748205 0.0744817 0.186698 102 49 40
0.742265 0.11967 0.156856 167 92 79
0.77644 0.109906 0.147345 255 249 255
0.798213 0.103409 0.141564 255 251 255
0.803555 0.102349 0.139769 255 252 255
0.816985 0.0981817 0.136354 255 254 255
0.8283 0.0921273 0.135323 255 255 255
0.841314 0.0902319 0.130506 255 255 255
0.845723 0.088471 0.129682 255 255 255
0.89349 0.078346 0.114457 255 255 255
0.91803 0.0735081 0.106461 255 255 255
0.920136 0.0733387 0.105602 255 255 255
0.929683 0.0711939 0.102696 255 255 255
0.936052 0.0708563 0.0999818 255 255 255
0.937615 0.0715359 0.0987734 255 255 255
0.953685 0.0695999 0.0927195 255 255 255
0.775496 0.109794 0.145572 255 249 255
0.794128 0.102901 0.141531 255 252 255
0.804807 0.100755 0.137942 255 253 255
0.807893 0.1012 0.136145 255 253 255
0.811719 0.10001 0.135164 255 254 255
0.814016 0.0985968 0.135076 255 254 255
0.815942 0.0980204 0.134567 255 254 255
0.829594 0.0905892 0.13336 255 255 255
0.840214 0.0900344 0.128703 255 255 255
0.842622 0.0887359 0.128485 255 255 255
0.869225 0.0824332 0.120381 255 255 255
0.907844 0.0718134 0.109774 255 255 255
0.916231 0.073983 0.104315 255 255 255
0.931521 0.0721793 0.0984638 255 255 255
0.936314 0.071195 0.0969302 255 255 255
0.951189 0.0707665 0.0903277 255 255 255
0.960904 0.0692071 0.0869297 255 255 255
0.739098 0.10189 0.166591 125 61 49
0.746615 0.119552 0.150347 197 112 104
0.748883 0.117048 0.151024 205 121 115
0.759619 0.112259 0.149213 215 120 118
0.764775 0.110788 0.147758 200 114 113
0.768711 0.108437 0.147522 255 240 253
0.774554 0.109691 0.143803 255 248 255
0.77792 0.109094 0.1426 255 249 255
0.78817 0.103105 0.141908 255 251 255
0.790047 0.10243 0.141483 255 251 255
0.793137 0.102774 0.13975 255 250 255
0.798454 0.101666 0.13798 255 252 255
0.817975 0.0948069 0.133481 255 255 255
0.824595 0.0914834 0.13267 255 255 255
0.828916 0.0895846 0.131951 255 255 255
0.832047 0.090196 0.130024 255 255 255
0.847484 0.0871495 0.124829 255 255 255
0.85705 0.0857987 0.121242 255 255 255
0.866493 0.0817672 0.119615 255 255 255
0.86806 0.0822035 0.118566 255 255 255
0.884393 0.07949 0.112766 255 255 255
0.93234 0.0717458 0.0957193 255 255 255
0.937129 0.070773 0.0941666 255 255 255
0.942506 0.0690687 0.0928549 255 255 255
0.944061 0.0697797 0.091632 255 255 255
0.963831 0.0688778 0.0830722 255 255 255
0.965969 0.0689112 0.082057 255 247 255
0.746258 0.0571139 0.192383 72 36 32
0.737353 0.105162 0.162805 132 65 54
0.756916 0.112963 0.147762 215 118 116
0.758986 0.111334 0.147905 213 115 114
0.764421 0.109015 0.146901 201 117 116
0.773915 0.108757 0.142482 255 248 255
0.794709 0.100324 0.13838 255 252 255
0.839268 0.0871951 0.126244 255 255 255
0.841253 0.0867136 0.125636 255 255 255
0.850789 0.0852435 0.122123 255 255 255
0.865791 0.080734 0.118153 255 255 255
0.873459 0.0800852 0.114971 255 255 255
0.888781 0.0762353 0.110415 255 255 255
0.893413 0.0748729 0.10918 255 255 255
0.904315 0.0728324 0.105464 255 255 255
0.916868 0.0716367 0.100393 255 255 255
0.931599 0.0706507 0.0941681 255 255 255
0.947563 0.068571 0.0881467 255 255 255
0.962476 0.0685154 0.081228 255 255 255
0.967046 0.0763099 0.0736906 131 122 132
0.735194 0.116055 0.153937 152 78 67
0.738021 0.116872 0.151983 172 95 82
0.790287 0.100694 0.137914 255 251 255
0.799034 0.0991141 0.134797 255 252 255
0.80093 0.0984824 0.134324 255 252 255
0.802474 0.0986957 0.133432 255 254 255
0.820514 0.0917224 0.129623 255 255 255
0.833061 0.0868623 0.126995 255 255 255
0.842551 0.0852361 0.123588 255 255 255
0.851218 0.0854409 0.119308 255 255 255
0.858119 0.0825328 0.118041 255 255 255
0.868218 0.0805873 0.114586 255 255 255
0.882481 0.0782093 0.109465 255 255 255
0.885511 0.0762882 0.109362 255 255 255
0.887568 0.0759926 0.108592 255 255 255
0.899421 0.0722392 0.105584 255 255 255
0.90307 0.0725654 0.103633 255 255 255
0.918767 0.0695999 0.0982788 255 255 255
0.958398 0.0689121 0.0801445 255 255 255
0.96418 0.0697508 0.0768625 240 230 247
0.966007 0.0728804 0.0738527 192 183 197
0.735402 0.0931886 0.167485 105 50 39
0.737396 0.115976 0.150696 170 98 81
0.738688 0.116818 0.14948 179 104 88
0.745268 0.120267 0.143876 230 162 155
0.784021 0.101794 0.137855 255 249 255
0.785886 0.101106 0.137429 255 250 255
0.788084 0.0995816 0.137422 255 250 255
0.794597 0.099453 0.134363 255 252 255
0.798374 0.0981645 0.133432 255 252 255
0.801812 0.0977441 0.132064 255 254 255
0.813278 0.0941293 0.12904 255 255 255
0.830001 0.08722 0.125778 255 255 255
0.837892 0.0852017 0.123388 255 255 255
0.839874 0.0847163 0.122773 255 255 255
0.857866 0.0807006 0.116939 255 255 255
0.87313 0.0793072 0.110621 255 255 255
0.878159 0.0770054 0.109812 255 255 255
0.882252 0.076366 0.108305 255 255 255
0.886356 0.0757605 0.106772 255 255 255
0.906497 0.0740469 0.0983961 255 255 255
0.912768 0.0704666 0.0978873 255 255 255
0.92845 0.070837 0.0902235 255 255 255
0.936442 0.0681855 0.0882724 255 255 255
0.941645 0.0695287 0.0849004 255 255 255
0.964941 0.0694492 0.074006 225 216 228
0.731121 0.119391 0.149205 139 75 63
0.742665 0.121065 0.142413 209 141 127
0.764165 0.101157 0.145624 99 35 37
0.795478 0.0987073 0.132122 255 252 255
0.797711 0.0972209 0.132063 255 252 255
0.799254 0.0974278 0.131175 255 252 255
0.813397 0.0951081 0.125942 255 255 255
0.815697 0.0936964 0.125802 255 255 255
0.819552 0.0925719 0.124716 255 255 255
0.834471 0.0827134 0.124293 255 255 255
0.849827 0.0834457 0.116425 255 255 255
0.868363 0.0790039 0.110594 255 255 255
0.871947 0.0791068 0.108812 255 255 255
0.874451 0.0779459 0.10841 255 255 255
0.876486 0.0776098 0.107668 255 255 255
0.878523 0.0772822 0.10692 255 255 255
0.885144 0.0755391 0.104954 255 255 255
0.891305 0.0746864 0.102601 255 255 255
0.893364 0.0744193 0.101804 255 255 255
0.909415 0.0703981 0.0969152 255 255 255
0.916746 0.0682547 0.0948961 255 255 255
0.925058 0.0706796 0.089305 255 255 255
0.927704 0.0697684 0.0886719 255 255 255
0.956875 0.0667135 0.0769651 255 255 255
0.958999 0.0667266 0.0759544 255 255 255
0.96053 0.067516 0.074697 255 255 255
0.963884 0.0714488 0.0704472 200 191 206
0.731358 0.121051 0.145779 152 84 70
0.740316 0.121031 0.141414 196 123 111
0.750257 0.117805 0.138762 203 101 99
0.774073 0.101796 0.138078 255 248 255
0.778075 0.0995047 0.137695 255 249 255
0.779933 0.0987938 0.137277 255 249 255
0.781482 0.0989382 0.136427 255 249 255
0.786439 0.0985601 0.13428 255 252 255
0.811974 0.0958421 0.123776 255 222 236
0.828225 0.0861035 0.122557 255 255 255
0.836505 0.0832333 0.120519 255 255 255
0.839629 0.0839268 0.118546 255 255 255
0.844722 0.0841844 0.115923 255 255 255
0.848693 0.0832858 0.114626 255 255 255
0.851122 0.082021 0.114317 255 255 255
0.859129 0.0803545 0.111606 255 255 255
0.873262 0.0777511 0.106601 255 255 255
0.875292 0.0774123 0.105859 255 255 255
0.876846 0.0778975 0.104787 255 255 255
0.882373 0.0748189 0.104229 255 255 255
0.900891 0.0724003 0.0970263 255 255 255
0.909707 0.070753 0.0939394 255 255 255
0.928501 0.0693799 0.0859287 255 255 255
0.931154 0.0684861 0.0852721 255 255 255
0.943209 0.0688257 0.0793228 255 255 255
0.956108 0.0656247 0.0753708 255 255 255
0.957641 0.0664064 0.0741185 255 255 255
0.960095 0.0687571 0.0713731 250 241 255
0.9616 0.0749916 0.0664614 153 142 153
0.740715 0.0367063 0.196059 45 25 22
0.72956 0.0998105 0.15886 109 57 45
0.729875 0.117648 0.146647 134 73 59
0.732454 0.119316 0.144258 160 92 76
0.743415 0.122797 0.136549 211 125 122
0.744637 0.123685 0.135352 210 124 121
0.762854 0.0993205 0.142928 87 29 30
0.773118 0.101735 0.136302 255 248 255
0.795346 0.0978935 0.128103 252 229 246
0.802266 0.100672 0.122878 180 100 104
0.806395 0.0986156 0.122266 179 92 97
0.81018 0.097433 0.121233 166 112 123
0.831863 0.0832639 0.120306 255 255 255
0.859524 0.0806155 0.108771 255 255 255
0.868029 0.0782752 0.106259 255 255 255
0.888358 0.0750701 0.0986662 255 255 255
0.891406 0.0731755 0.0984789 255 255 255
0.897039 0.0702334 0.0977576 255 255 255
0.900156 0.0713696 0.0955044 255 255 255
0.916759 0.0698024 0.0886236 255 255 255
0.918843 0.0696468 0.0877334 255 255 255
0.927197 0.0691155 0.0841052 255 255 255
0.9584 0.0661138 0.0712681 255 255 255
0.961153 0.0708193 0.0668144 207 198 213
0.731614 0.119314 0.142512 164 93 81
0.734603 0.119295 0.141063 178 102 91
0.753303 0.111894 0.136885 198 118 109
0.762196 0.0984112 0.141575 89 36 40
0.78293 0.0982602 0.131582 255 251 255
0.786005 0.0985907 0.129867 255 254 255
0.789404 0.0980946 0.128548 255 254 255
0.791273 0.0974311 0.128084 251 216 230
0.798568 0.099305 0.12329 201 116 120
0.801245 0.100603 0.121125 193 108 114
0.822157 0.0869345 0.120131 255 255 255
0.826842 0.0841796 0.119705 255 255 255
0.835847 0.0833078 0.115935 255 255 255
0.841769 0.0818688 0.114036 255 255 255
0.847722 0.0805003 0.112077 255 255 255
0.855261 0.0796159 0.109032 255 255 255
0.865758 0.0768273 0.105836 255 255 255
0.875407 0.0758934 0.101816 255 255 255
0.890674 0.0721603 0.0969674 255 255 255
0.903036 0.0707027 0.0920065 255 255 255
0.909247 0.0700928 0.0894354 255 255 255
0.917556 0.0694049 0.0859136 255 255 255
0.919096 0.0700515 0.0847462 255 255 255
0.927983 0.068749 0.0813609 255 255 255
0.944367 0.0658743 0.0754421 255 255 255
0.958557 0.066607 0.0681856 255 255 255
0.726005 0.114275 0.146457 114 62 47
0.729495 0.11848 0.141955 158 89 78
0.733311 0.12102 0.138401 184 108 97
0.735813 0.122741 0.136034 196 118 107
0.737051 0.123611 0.134851 199 121 109
0.751882 0.113598 0.134252 200 125 109
0.776411 0.100323 0.131101 255 248 255
0.783485 0.0983687 0.128953 255 255 255
0.788935 0.100781 0.124703 168 110 116
0.799508 0.102243 0.118597 188 100 109
0.807317 0.0953335 0.119385 213 134 140
0.848137 0.080756 0.109269 255 255 255
0.868147 0.0767611 0.102249 255 255 255
0.870634 0.0755829 0.101828 255 255 255
0.877299 0.0767118 0.0978679 255 255 255
0.957191 0.0663157 0.0663616 255 255 255
0.961117 0.0695049 0.0623828 194 181 194
0.734739 0.123627 0.133859 197 117 107
0.748466 0.116984 0.131518 210 131 123
0.759415 0.106148 0.133299 255 245 255
0.770594 0.105166 0.12849 255 247 255
0.776357 0.102143 0.127669 255 254 255
0.783064 0.101059 0.125113 164 107 112
0.785438 0.103119 0.122603 166 94 93
0.832076 0.0827388 0.113325 255 255 255
0.834036 0.0822392 0.112702 255 255 255
0.877056 0.0749068 0.0966851 255 255 255
0.891753 0.0690661 0.0934137 255 255 255
0.909825 0.067863 0.0854824 255 255 255
0.933856 0.064804 0.0759094 255 255 255
0.945889 0.0652698 0.0698161 255 255 255
0.954896 0.064466 0.0660122 255 255 255
0.960944 0.0676819 0.0610055 222 211 221
0.722465 0.109209 0.147172 105 55 44
0.731018 0.117626 0.137491 183 109 100
0.733103 0.12107 0.134224 196 118 107
0.751584 0.113672 0.130009 221 162 150
0.756859 0.111309 0.128972 255 242 255
0.761615 0.110722 0.12703 255 248 255
0.764595 0.110935 0.125437 255 248 255
0.768162 0.109451 0.124663 255 253 255
0.781441 0.102746 0.122554 150 82 80
0.78794 0.106227 0.117117 183 104 99
0.808966 0.0903664 0.117208 253 196 206
0.827865 0.0819783 0.113476 255 255 255
0.831375 0.0817973 0.111887 255 255 255
0.838398 0.0815192 0.108655 255 255 255
0.848268 0.0792385 0.105346 255 255 255
0.891564 0.0702559 0.0901969 255 255 255
0.90648 0.0678496 0.0845422 255 255 255
0.917835 0.0684363 0.0786705 255 255 255
0.926805 0.0640598 0.0771779 255 255 255
0.933502 0.0660668 0.0726399 255 255 255
0.743725 0.122168 0.126207 206 120 117
0.756423 0.119267 0.121872 255 251 255
0.761646 0.116981 0.120795 255 253 255
0.777378 0.106865 0.119645 161 89 83
0.792431 0.104263 0.113978 176 95 91
0.795317 0.10106 0.114639 183 116 118
0.803043 0.0940707 0.115384 226 158 169
0.806381 0.090053 0.11635 238 174 186
0.819001 0.0840427 0.114079 255 255 255
0.833771 0.0815515 0.108492 255 255 255
0.840781 0.0813232 0.105226 255 255 255
0.847123 0.0791295 0.103555 255 255 255
0.888279 0.0703521 0.0892101 255 255 255
0.890322 0.0700859 0.0883897 255 255 255
0.90211 0.069484 0.0830556 255 255 255
0.912407 0.0685444 0.0786654 255 255 255
0.915008 0.0675795 0.0780256 255 255 255
0.924942 0.0646353 0.0751055 255 255 255
0.926477 0.0653228 0.0739185 255 255 255
0.943556 0.0670955 0.0645017 255 255 255
0.958488 0.0695081 0.0557204 159 148 159
0.718906 0.11103 0.143406 108 61 47
0.722596 0.121251 0.135049 158 94 84
0.733212 0.125507 0.127121 196 114 105
0.738984 0.125602 0.124233 183 97 94
0.754413 0.122767 0.118497 255 228 242
0.758136 0.120367 0.118213 235 202 213
0.75958 0.120473 0.117439 217 177 186
0.77758 0.107895 0.11669 163 89 84
0.779381 0.107202 0.116253 159 83 77
0.794654 0.100186 0.113281 163 90 90
0.816374 0.0836833 0.113237 255 255 255
0.822176 0.0820307 0.111462 255 255 255
0.834199 0.0818226 0.105728 255 255 255
0.83853 0.0800167 0.10477 255 255 255
0.844006 0.0794764 0.102445 255 255 255
0.849493 0.0790026 0.100072 255 255 255
0.857876 0.076526 0.0975687 255 255 255
0.863407 0.0762161 0.0950708 255 255 255
0.866477 0.077155 0.0929744 255 255 255
0.877948 0.0730087 0.090037 255 255 255
0.895728 0.0713849 0.0824168 255 255 255
0.908054 0.0670914 0.0791615 255 255 255
0.921548 0.0645469 0.0742222 255 255 255
0.937474 0.0677312 0.0644426 255 255 255
0.958308 0.0677079 0.0543329 172 160 173
0.664531 -0.0559258 0.273949 63 55 53
0.719046 0.0834946 0.158672 89 47 36
0.71663 0.103379 0.147232 103 54 43
0.72158 0.122178 0.132871 160 93 82
0.732372 0.125576 0.125425 187 104 98
0.749735 0.120843 0.119923 152 105 112
0.766808 0.114081 0.115855 178 105 95
0.78267 0.104123 0.114411 174 93 86
0.820698 0.0828202 0.109324 255 255 255
0.824963 0.0808987 0.108457 255 255 255
0.830404 0.0802014 0.106239 255 255 255
0.844403 0.0797851 0.0996596 255 255 255
0.84637 0.079344 0.0989778 255 255 255
0.849875 0.079326 0.0972764 255 255 255
0.87625 0.0737051 0.0879544 255 255 255
0.878749 0.0725694 0.0874541 255 255 255
0.890374 0.0686937 0.0842339 255 255 255
0.903178 0.0664927 0.0793779 255 255 255
0.905236 0.0662938 0.0784992 255 255 255
0.912955 0.0663958 0.0746662 255 255 255
0.919154 0.0659579 0.0719179 255 255 255
0.922748 0.0665131 0.069812 255 255 255
0.924268 0.0672026 0.0686333 255 255 255
0.936703 0.0667259 0.0628679 255 255 255
0.942006 0.0650644 0.0613336 255 255 255
0.950013 0.0626649 0.0589485 255 255 255
0.957814 0.0635346 0.0545928 219 210 224
0.674605 0.00878672 0.225168 69 62 60
0.737277 0.125748 0.120858 156 84 79
0.740876 0.123217 0.120685 127 60 53
0.744512 0.12071 0.12048 143 76 69
0.745959 0.12077 0.119733 151 81 75
0.776594 0.105343 0.114423 183 104 97
0.812306 0.0841535 0.110252 255 255 255
0.832375 0.0808379 0.102505 255 255 255
0.83669 0.0790194 0.101534 255 255 255
0.838649 0.0785465 0.100872 255 255 255
0.840611 0.0780816 0.100203 255 255 255
0.851131 0.0779824 0.0951126 255 255 255
0.86257 0.0764708 0.0904597 255 255 255
0.868551 0.0754056 0.0882002 255 255 255
0.875035 0.0735863 0.0861681 255 255 255
0.895247 0.0678092 0.0799022 255 255 255
0.919913 0.0656449 0.0691841 255 255 255
0.922951 0.0670153 0.0668346 255 255 255
0.924464 0.0677104 0.0656568 255 255 255
0.928034 0.0683221 0.063524 255 255 255
0.950738 0.0624413 0.0561061 255 255 255
0.952832 0.0624563 0.0550715 255 255 255
0.656514 -0.0104735 0.243305 68 59 58
0.713421 0.11129 0.139522 116 65 55
0.718298 0.123237 0.129684 155 90 80
0.727823 0.125728 0.123461 195 107 100
0.73213 0.125756 0.121331 181 98 92
0.735695 0.123185 0.121185 162 88 81
0.750569 0.122011 0.114621 179 101 93
0.753707 0.121322 0.113512 182 103 95
0.755417 0.12055 0.113154 188 107 100
0.788813 0.09523 0.112554 186 101 95
0.795747 0.0898332 0.112516 208 124 121
0.79797 0.0883386 0.112357 204 116 112
0.802448 0.0853739 0.112008 209 121 126
0.808154 0.0835695 0.110332 239 194 202
0.812774 0.0844056 0.107544 255 255 255
0.816603 0.0832802 0.106366 255 255 255
0.818523 0.0827287 0.105767 255 255 255
0.839894 0.077167 0.0987439 255 255 255
0.854994 0.0783683 0.0905809 255 255 255
0.85742 0.0771373 0.090157 255 255 255
0.860925 0.0772179 0.0883859 255 255 255
0.865824 0.0748213 0.0874746 255 255 255
0.876308 0.0723329 0.083878 255 255 255
0.880821 0.0709029 0.0825533 255 255 255
0.890413 0.0673359 0.0800666 255 255 255
0.894493 0.066847 0.0783676 255 255 255
0.901143 0.0653621 0.076027 255 255 255
0.907307 0.064779 0.0733629 255 255 255
0.917079 0.0647959 0.0685517 255 255 255
0.927265 0.0673409 0.0619599 255 255 255
0.944034 0.0638046 0.0559262 255 255 255
0.949115 0.0653734 0.0524511 255 255 255
0.715128 0.120792 0.1307 144 84 77
0.718944 0.123293 0.127284 162 93 85
0.722685 0.125846 0.123873 198 119 112
0.728427 0.125828 0.121067 191 106 98
0.731515 0.124978 0.120077 181 98 92
0.733405 0.12325 0.120217 174 93 86
0.748776 0.120268 0.114515 179 98 91
0.753356 0.119659 0.112643 188 105 97
0.755069 0.118886 0.11228 189 107 98
0.756505 0.118991 0.111509 192 109 100
0.763414 0.115985 0.109974 196 116 106
0.786954 0.0933063 0.112422 193 108 102
0.795747 0.0872363 0.111852 208 126 122
0.813986 0.0829542 0.105533 255 255 255
0.824742 0.0814133 0.101195 255 255 255
0.829011 0.0795336 0.100258 255 255 255
0.831358 0.0781799 0.0999394 255 255 255
0.833716 0.0768354 0.0996105 255 255 255
0.844887 0.0786976 0.0929632 255 255 255
0.84881 0.0778399 0.0915627 255 255 255
0.854271 0.077456 0.0891123 255 255 255
0.858674 0.0758372 0.0879461 255 255 255
0.859741 0.0771398 0.0866154 255 255 255
0.871081 0.0728716 0.0836713 255 255 255
0.891195 0.0669577 0.0774225 255 255 255
0.893735 0.0658915 0.0768304 255 255 255
0.895777 0.0656588 0.0759685 255 255 255
0.905496 0.0654443 0.0713126 255 255 255
0.908072 0.064449 0.0706586 255 255 255
0.933807 0.0645491 0.0579115 255 255 255
0.93795 0.0644534 0.0559278 255 255 255
0.948328 0.0643805 0.050855 255 255 255
0.713215 0.119188 0.130567 142 82 73
0.717943 0.12427 0.125138 167 100 91
0.723097 0.126816 0.121052 194 113 106
0.732559 0.12335 0.11853 186 105 98
0.74189 0.120962 0.11541 184 103 99
0.753887 0.119846 0.110199 192 109 100
0.757594 0.11744 0.10985 194 111 103
0.782594 0.0938071 0.112026 196 118 107
0.791646 0.0867944 0.111867 197 116 109
0.795397 0.0855049 0.11081 205 126 121
0.804492 0.083271 0.107701 255 254 255
0.811002 0.0835075 0.104351 255 254 255
0.81865 0.0812696 0.101954 255 255 255
0.819797 0.0824462 0.100668 255 255 255
0.839153 0.0774479 0.0941902 255 255 255
0.850053 0.0765187 0.0893837 255 255 255
0.87836 0.0706934 0.078983 255 255 255
0.90473 0.064488 0.0697606 255 255 255
0.925717 0.0653991 0.0588236 255 255 255
0.928333 0.0645119 0.058074 255 255 255
0.930956 0.0636368 0.0573132 255 255 255
0.94903 0.0641949 0.0480258 255 255 255
0.950518 0.0650018 0.0467938 234 225 237
0.710946 0.119346 0.12953 137 79 69
0.71588 0.123539 0.124569 157 91 81
0.716756 0.126139 0.122563 168 99 91
0.720853 0.126946 0.120063 190 111 104
0.723913 0.126048 0.119106 194 113 106
0.733832 0.120851 0.117387 187 106 97
0.738388 0.120084 0.115614 189 106 100
0.758112 0.117647 0.107394 196 116 106
0.761848 0.115273 0.106996 201 123 115
0.796583 0.0840089 0.108859 209 134 132
0.798467 0.0833802 0.108311 175 119 122
0.801897 0.0830113 0.106844 255 255 255
0.832591 0.0779795 0.0947502 255 255 255
0.837593 0.0782624 0.0921069 255 255 255
0.838696 0.0795065 0.0908063 255 255 255
0.898843 0.0655771 0.0695028 255 255 255
0.901398 0.0645521 0.0688599 255 255 255
0.929615 0.0634721 0.0555184 255 255 255
0.932239 0.0626046 0.0547434 255 255 255
0.940521 0.0624394 0.0507316 255 255 255
0.716999 0.127995 0.119323 185 111 107
0.73087 0.123578 0.115165 195 114 105
0.737524 0.120195 0.113928 193 112 105
0.749232 0.119858 0.108371 189 106 100
0.750658 0.119951 0.107613 191 111 102
0.751809 0.120928 0.10646 195 114 105
0.755766 0.117631 0.106493 195 114 105
0.783713 0.0897057 0.109508 200 119 112
0.790261 0.0850879 0.109055 204 123 118
0.793667 0.0846619 0.10763 193 121 116
0.832581 0.0791851 0.0916883 255 253 255
0.853779 0.0781987 0.0817787 255 255 255
0.873423 0.0716686 0.0759675 255 255 255
0.877418 0.0710622 0.0743491 255 255 255
0.879907 0.0699383 0.0737907 255 255 255
0.887425 0.0666323 0.0720496 255 255 255
0.903153 0.0656924 0.0647978 255 255 255
0.913358 0.0648777 0.0602119 255 255 255
0.916911 0.0654269 0.0581117 255 255 255
0.928273 0.063318 0.0537271 255 255 255
0.944449 0.0606492 0.0472775 255 255 255
0.950413 0.0638669 0.0423589 218 209 221
0.639868 0.171496 0.129163 84 75 76
0.651548 0.0118183 0.218409 81 72 72
0.705758 0.115378 0.130356 126 71 58
0.713908 0.125551 0.120308 173 103 97
0.73025 0.122824 0.113905 197 119 109
0.736661 0.120315 0.112246 193 112 105
0.750029 0.119187 0.106336 193 112 103
0.767286 0.102576 0.107722 205 134 121
0.772359 0.0967423 0.108694 204 133 120
0.77721 0.0918192 0.109232 205 132 122
0.783346 0.0879976 0.10848 201 123 115
0.789565 0.0842439 0.107645 197 128 122
0.791433 0.0835901 0.107111 168 113 111
0.808156 0.082655 0.0993968 255 253 255
0.811576 0.0823742 0.0978706 255 252 255
0.831043 0.0800322 0.0896186 255 254 255
0.840716 0.0777017 0.086209 255 254 255
0.849588 0.0772699 0.0820599 255 254 255
0.851097 0.0777148 0.0810441 255 255 255
0.865773 0.0734277 0.0763072 255 255 255
0.876187 0.0709928 0.072579 255 255 255
0.881161 0.0687469 0.0714442 255 255 255
0.901345 0.0664069 0.0627817 255 255 255
0.911514 0.0655717 0.0582062 255 255 255
0.917636 0.06518 0.0553829 255 255 255
0.94043 0.0612883 0.0463188 255 255 255
0.639391 0.193234 0.114845 83 74 77
0.711504 0.126616 0.118868 170 103 96
0.720236 0.125574 0.115196 197 118 111
0.727765 0.123823 0.112527 197 118 113
0.742251 0.11802 0.10882 195 114 109
0.752792 0.116868 0.104304 195 114 105
0.760191 0.107529 0.106163 199 126 114
0.765434 0.100756 0.107572 206 135 123
0.7916 0.0847256 0.1041 255 247 255
0.80556 0.0823952 0.0985607 255 252 255
0.812392 0.0818288 0.0955071 255 251 255
0.81543 0.0824528 0.0936307 255 252 255
0.830326 0.0791726 0.0881706 255 253 255
0.832663 0.0778297 0.0878029 255 254 255
0.84345 0.076808 0.0830408 255 253 255
0.8784 0.0681265 0.0707558 255 255 255
0.892986 0.0654944 0.0650273 255 255 255
0.901092 0.0646632 0.0614651 255 255 255
0.916856 0.0642484 0.0538168 255 255 255
0.92464 0.0615069 0.0515428 255 255 255
0.642738 0.165912 0.127535 64 57 59
0.653655 0.0160523 0.209629 63 57 54
0.655742 0.0113474 0.211359 60 53 53
0.659624 0.0115185 0.209371 56 49 49
0.668527 0.0238801 0.19783 38 35 38
0.6717 0.03205 0.191519 28 26 29
0.705349 0.049966 0.164641 58 29 25
0.708036 0.125981 0.118962 156 94 86
0.709291 0.126815 0.117861 172 107 100
0.728566 0.123104 0.110557 196 117 109
0.730209 0.122244 0.110251 194 116 108
0.733283 0.121426 0.109216 196 117 111
0.736127 0.121515 0.107763 197 118 113
0.769807 0.094092 0.107168 206 139 130
0.77615 0.0893063 0.106829 189 120 111
0.797691 0.0831089 0.0997818 255 250 255
0.802613 0.083025 0.0973878 255 252 255
0.81434 0.0824793 0.0918804 255 251 255
0.821943 0.080338 0.0893525 255 252 255
0.823854 0.0798218 0.0887042 255 252 255
0.836906 0.0772844 0.0836889 255 253 255
0.838841 0.0768299 0.0829905 255 254 255
0.868245 0.070988 0.0717309 255 255 255
0.874683 0.0692048 0.0695564 255 255 255
0.899286 0.0654004 0.0594592 255 255 255
0.90484 0.0656813 0.0565053 255 255 255
0.906867 0.0655178 0.0555833 255 255 255
0.918115 0.0632087 0.0512893 255 255 255
0.920158 0.0631028 0.0503241 255 255 255
0.930956 0.0619082 0.0455935 255 255 255
0.946522 0.0601816 0.038768 255 255 255
0.648585 0.0358222 0.198071 69 61 66
0.655062 0.0060216 0.212139 55 45 51
0.705554 0.0306417 0.173312 41 21 19
0.712941 0.125969 0.11459 193 116 110
0.726523 0.12235 0.110006 202 126 118
0.731233 0.120652 0.10867 198 121 115
0.732657 0.120688 0.107948 194 118 111
0.736921 0.120831 0.105764 203 124 118
0.741919 0.118364 0.104727 199 121 113
0.763184 0.0972728 0.106433 199 128 118
0.769717 0.0915279 0.106528 193 140 133
0.775462 0.0884972 0.105439 228 197 203
0.778808 0.0879803 0.10408 247 225 235
0.786164 0.0852658 0.102006 255 248 255
0.798511 0.0825388 0.0974554 255 250 255
0.807973 0.0833363 0.0922862 255 251 255
0.813251 0.0825158 0.0901338 255 252 255
0.820052 0.0820987 0.0869867 255 252 255
0.866558 0.0718008 0.0697128 255 255 255
0.889938 0.0661819 0.0612422 255 255 255
0.900018 0.0651318 0.0567818 255 255 255
0.911107 0.0658061 0.0508001 255 255 255
0.934267 0.060889 0.0419793 255 255 255
0.93689 0.0600556 0.0411406 255 255 255
0.944556 0.0608325 0.0368082 255 255 255
0.703195 0.0281038 0.173425 39 17 13
0.696872 0.105728 0.13209 92 48 40
0.699092 0.11963 0.123046 134 79 68
0.70283 0.122943 0.119318 148 88 79
0.720819 0.125154 0.109219 198 121 113
0.732031 0.119956 0.106677 204 128 122
0.733453 0.119998 0.105952 203 127 119
0.737712 0.120157 0.10376 201 120 113
0.744643 0.116008 0.102717 203 127 119
0.75704 0.104206 0.103356 196 120 114
0.759901 0.0999005 0.10441 198 125 115
0.779634 0.0873671 0.101822 255 248 255
0.781466 0.0866828 0.101305 255 248 255
0.788177 0.0857752 0.0984917 255 248 255
0.800493 0.0831265 0.0938856 255 249 255
0.81443 0.0811398 0.0880783 255 251 255
0.817444 0.0817998 0.0861931 255 252 255
0.823136 0.0802342 0.0842499 255 252 255
0.825841 0.0779949 0.0841865 255 253 255
0.828159 0.0766321 0.0838117 255 253 255
0.832006 0.0756629 0.0824452 255 253 255
0.855527 0.0735527 0.0718687 255 255 255
0.857484 0.0731815 0.0710997 255 255 255
0.863837 0.0712701 0.0690096 255 255 255
0.882659 0.0668714 0.0620739 255 255 255
0.898725 0.0650628 0.0550129 255 255 255
0.908301 0.0650455 0.0501828 255 255 255
0.915997 0.0621947 0.0479394 255 255 255
0.922115 0.0618924 0.0450169 255 255 255
0.925646 0.0625482 0.0428475 255 255 255
0.934953 0.0607365 0.0391781 255 255 255
0.943171 0.0606989 0.0350287 255 255 255
0.697896 0.0600452 0.155415 72 37 30
0.747639 0.112784 0.101044 196 118 107
0.761557 0.0966 0.103348 174 122 121
0.799434 0.0831921 0.0921401 255 248 255
0.803956 0.0840327 0.0894041 255 250 255
0.833475 0.0773409 0.0784432 255 253 255
0.862162 0.0721104 0.0670035 255 255 255
0.887398 0.0660818 0.0577107 255 255 255
0.897433 0.0650043 0.0532478 255 255 255
0.907519 0.0641515 0.0486239 255 255 255
0.910074 0.063186 0.0478815 255 255 255
0.912636 0.0622325 0.0471283 255 255 255
0.918192 0.0627106 0.0440319 255 255 255
0.921711 0.0633424 0.0418807 255 255 255
