ply
format ascii 1.0
comment Created by Open3D
element vertex 2000
property double x
property double y
property double z
property uchar red
property uchar green
property uchar blue
end_header
0.0449202 -0.632674 0.434418 109 98 97
0.0491881 -0.631788 0.432961 109 98 99
0.145468 -0.625257 0.411382 115 93 46
0.167862 -0.623303 0.407245 71 53 11
-0.00152814 -0.630667 0.4423 116 107 107
0.0291768 -0.634368 0.436309 125 115 121
0.0721331 -0.628693 0.423555 210 200 204
0.119262 -0.631501 0.416067 212 185 124
0.147203 -0.625945 0.408764 156 131 73
0.1653 -0.624908 0.405689 117 93 33
0.181301 -0.623813 0.403093 85 63 14
-0.00860375 -0.630223 0.441231 116 106 111
0.0285263 -0.633677 0.433335 231 223 228
0.064886 -0.628273 0.422149 225 217 222
0.078009 -0.628521 0.419532 222 215 220
0.100378 -0.630276 0.41608 232 224 229
0.131824 -0.622351 0.406608 191 164 96
0.178426 -0.624607 0.401139 226 201 132
-0.0308061 -0.626802 0.443029 154 147 149
-0.0286685 -0.627999 0.443021 213 206 210
-0.020008 -0.630047 0.441576 223 218 222
-0.0134854 -0.630825 0.440134 230 225 229
-0.0113043 -0.631955 0.44011 228 223 227
-0.0069686 -0.630633 0.438225 229 224 228
-0.00263946 -0.630162 0.436799 227 221 226
0.00173212 -0.631434 0.436281 221 214 219
0.036688 -0.634085 0.428816 219 211 216
0.0733603 -0.630734 0.418915 220 213 217
0.0755296 -0.630613 0.418404 220 213 217
0.143667 -0.62678 0.404318 243 218 147
0.164476 -0.627094 0.401489 180 155 86
0.175868 -0.626244 0.399573 173 147 83
0.19587 -0.62272 0.395459 184 158 94
0.198711 -0.623804 0.395669 208 180 112
-0.0446033 -0.631094 0.44661 227 220 224
-0.0292103 -0.629063 0.440963 217 212 216
-0.0118499 -0.630353 0.436672 219 211 216
0.0553894 -0.631544 0.420477 221 214 219
0.0598552 -0.632333 0.419895 220 213 217
0.0859051 -0.630937 0.413772 221 213 221
0.16592 -0.626803 0.398461 232 210 138
0.198317 -0.624893 0.393548 182 154 86
-0.085189 -0.631784 0.457201 84 74 80
-0.0584269 -0.632387 0.448766 215 208 213
-0.0297524 -0.630118 0.438902 214 209 213
-0.0123798 -0.631407 0.43461 219 211 216
0.0331795 -0.632584 0.423421 221 214 219
0.0742895 -0.63094 0.413422 222 215 220
0.0786177 -0.630672 0.412402 222 215 220
0.0807809 -0.630525 0.411891 221 214 219
0.0872666 -0.630028 0.410356 222 215 220
0.0892512 -0.628951 0.40943 222 214 222
0.138497 -0.629713 0.401195 134 105 45
0.215158 -0.62641 0.38979 111 87 38
0.226081 -0.628596 0.389749 84 61 21
-0.105364 -0.627577 0.459225 97 90 92
-0.0478403 -0.631947 0.442469 214 209 213
0.0369428 -0.632803 0.419924 222 215 220
0.0520237 -0.631882 0.415993 222 215 220
0.088618 -0.629096 0.406952 222 215 220
0.0909506 -0.629799 0.406849 224 216 221
0.137812 -0.629882 0.398709 248 224 148
0.160193 -0.628164 0.394558 227 204 130
0.19296 -0.621631 0.387265 192 164 101
0.220976 -0.63032 0.388337 99 77 28
-0.112782 -0.628436 0.459452 185 173 177
-0.0462206 -0.633369 0.439918 214 209 213
-0.0351084 -0.629785 0.434814 216 211 215
-0.0156113 -0.631459 0.430064 220 213 217
0.0297055 -0.63101 0.418062 224 216 221
0.0363614 -0.632936 0.417428 224 216 221
0.0408856 -0.634776 0.41728 224 216 221
0.0429642 -0.633881 0.416354 222 215 220
0.0449343 -0.632077 0.415007 224 216 221
0.0732013 -0.632116 0.408865 225 217 222
0.0965876 -0.628409 0.402432 226 218 223
0.136872 -0.629151 0.39584 222 198 124
0.20322 -0.625293 0.38517 194 166 98
0.211113 -0.626692 0.38497 148 120 66
-0.0909512 -0.631228 0.450424 204 196 203
-0.0118049 -0.632954 0.427032 221 214 219
0.0206188 -0.632638 0.418403 224 216 221
0.0271868 -0.633773 0.417347 225 217 222
0.0443459 -0.632195 0.41252 224 216 221
0.213615 -0.628766 0.382988 126 101 48
-0.102388 -0.629344 0.450621 210 202 209
-0.0937142 -0.631697 0.44879 209 200 208
-0.0891186 -0.631066 0.446938 205 197 204
-0.0667286 -0.629923 0.439077 213 208 212
-0.0448966 -0.631341 0.433026 219 211 216
0.0307964 -0.632186 0.413019 226 218 223
0.0416938 -0.633209 0.410952 225 217 222
0.0547924 -0.633959 0.408358 227 220 224
0.067506 -0.631676 0.404512 226 218 223
-0.0214967 -0.6304 0.42307 222 215 220
-0.0171865 -0.630905 0.422112 224 216 221
-0.00418577 -0.63491 0.420512 224 216 221
0.038947 -0.633299 0.408967 227 220 224
0.0796526 -0.630071 0.398603 227 220 224
0.0882377 -0.629362 0.396571 228 221 226
0.218152 -0.626122 0.376004 104 80 29
-0.109598 -0.626911 0.446404 155 145 151
-0.0988225 -0.629952 0.444131 210 205 211
-0.0854718 -0.630659 0.439998 210 202 209
-0.0720893 -0.630124 0.435403 213 205 212
-0.0480508 -0.631193 0.428465 220 213 217
0.085463 -0.629637 0.394621 226 218 223
-0.0724629 -0.629339 0.432429 215 208 213
-0.0570107 -0.627946 0.426945 221 214 219
-0.0312362 -0.633057 0.421722 224 216 221
-0.0203816 -0.630824 0.417606 224 216 221
0.0914353 -0.630016 0.391029 228 221 226
-0.0992948 -0.62755 0.437673 214 208 215
-0.0863918 -0.630876 0.434923 212 204 211
-0.0513745 -0.63368 0.42523 222 215 220
0.0350501 -0.633498 0.402033 228 221 226
0.0522864 -0.633367 0.398049 229 222 227
0.0715084 -0.631628 0.393134 228 221 226
0.0843757 -0.630675 0.3901 229 222 227
0.0865179 -0.630485 0.389593 229 222 227
0.0907998 -0.630078 0.388577 229 222 227
0.216981 -0.629177 0.369553 109 83 33
-0.0846944 -0.631488 0.431929 211 203 208
-0.0300708 -0.632581 0.415817 225 217 222
-0.0214272 -0.631848 0.413057 226 218 223
0.000102598 -0.633916 0.408232 227 220 224
0.0411218 -0.635388 0.398873 232 224 229
0.0454412 -0.635355 0.397874 231 223 228
0.0754893 -0.633215 0.39044 232 224 229
0.214064 -0.630038 0.367609 114 88 37
-0.0154999 -0.633513 0.409552 227 220 224
0.0125858 -0.636594 0.403637 229 222 227
0.0920316 -0.631769 0.383927 229 222 227
-0.0833403 -0.631251 0.425975 214 207 212
-0.0613723 -0.631374 0.41915 224 216 221
0.0227772 -0.636141 0.398293 232 224 229
0.024936 -0.636201 0.3978 232 224 229
0.0313341 -0.635411 0.39592 233 225 230
0.0356448 -0.63545 0.394928 232 224 229
0.0785409 -0.632964 0.384521 208 198 203
0.116097 -0.624888 0.37392 231 222 137
0.162837 -0.630881 0.369185 233 211 137
0.213272 -0.632007 0.363293 117 91 39
-0.0706016 -0.631483 0.419374 222 215 220
-0.0511099 -0.633366 0.4143 226 218 223
-0.0380635 -0.632695 0.410198 227 220 224
0.0136865 -0.637663 0.398586 232 224 229
0.0286831 -0.63631 0.394341 233 225 230
0.130793 -0.632733 0.372317 234 209 136
0.152706 -0.630232 0.367806 233 211 139
0.216411 -0.629779 0.359412 114 88 35
-0.0235115 -0.633773 0.403964 231 223 228
-0.0149165 -0.634705 0.402042 231 223 228
0.0452441 -0.635409 0.387521 228 221 226
0.0838821 -0.633358 0.378483 199 192 196
0.130358 -0.633663 0.370218 233 211 139
0.134896 -0.633779 0.369527 232 210 136
0.141852 -0.634332 0.368653 233 211 137
0.152284 -0.631164 0.365702 239 214 140
0.15742 -0.632883 0.365669 236 214 139
-0.108463 -0.627053 0.424338 223 218 224
-0.021903 -0.635846 0.401818 230 225 229
0.0916198 -0.631592 0.37366 221 216 218
0.0933775 -0.629529 0.372438 239 237 237
0.10234 -0.611534 0.363056 114 193 75
0.182106 -0.632247 0.359395 242 217 146
0.189533 -0.63306 0.358769 236 213 141
0.212726 -0.630674 0.355008 119 94 41
-0.121083 -0.631894 0.42801 205 196 197
0.0312771 -0.636343 0.385969 236 226 231
0.0550347 -0.636942 0.38087 221 214 219
0.0571859 -0.636859 0.380369 220 213 217
0.0743787 -0.635876 0.376346 179 169 172
0.0765253 -0.635713 0.375841 168 161 161
0.082961 -0.635172 0.374324 185 178 180
0.0909833 -0.631575 0.371231 222 217 219
0.163599 -0.634994 0.360513 242 219 149
0.172171 -0.632823 0.358407 247 221 153
-0.0809811 -0.62967 0.411241 222 215 220
-0.0638127 -0.632344 0.407102 228 221 226
-0.0552502 -0.63392 0.405222 231 223 228
-0.0293446 -0.634131 0.397907 232 224 229
0.0307063 -0.636312 0.383517 238 228 234
0.0588602 -0.637661 0.377785 218 210 215
0.0696139 -0.637069 0.375271 195 185 189
0.130697 -0.634193 0.362714 237 214 147
0.160733 -0.635529 0.358585 244 221 151
0.167469 -0.634839 0.357331 245 222 155
0.193692 -0.635404 0.35404 233 211 141
0.202989 -0.634491 0.352525 208 180 110
0.216203 -0.631068 0.349621 119 94 41
-0.0708715 -0.632863 0.406842 228 221 226
-0.0556564 -0.632985 0.402333 231 223 228
0.0108385 -0.635736 0.385486 238 228 234
0.103944 -0.626946 0.361831 55 118 26
0.139335 -0.635258 0.359203 238 216 151
0.152439 -0.633422 0.356412 249 225 160
0.195779 -0.636549 0.351659 232 210 147
-0.104392 -0.632429 0.414623 226 220 224
-0.0844743 -0.632755 0.408381 224 216 221
-0.069101 -0.632359 0.40348 229 222 227
-0.056202 -0.633861 0.400259 232 224 229
-0.0390568 -0.63658 0.396463 233 225 230
-0.00894053 -0.63628 0.388171 235 228 233
0.0233372 -0.638895 0.381216 238 228 234
0.0769597 -0.63635 0.368377 151 147 146
0.118867 -0.636904 0.36075 213 198 178
0.134612 -0.636985 0.358127 153 134 113
0.146635 -0.631636 0.35405 255 239 185
0.151448 -0.632501 0.353658 255 241 190
0.159296 -0.635522 0.35369 253 230 174
0.172429 -0.633176 0.350865 253 229 178
-0.0673376 -0.63183 0.40013 229 222 227
-0.0481221 -0.635242 0.395892 233 225 230
-0.0351508 -0.634359 0.391862 233 225 230
-0.00303719 -0.636715 0.384263 238 228 234
0.0638923 -0.639961 0.370012 210 202 207
0.183659 -0.633783 0.347032 249 227 178
0.200337 -0.633676 0.344842 220 199 145
-0.070113 -0.633175 0.398925 231 223 228
-0.0656694 -0.632188 0.397191 232 224 229
-0.0551524 -0.635957 0.39563 233 225 230
-0.0335436 -0.635493 0.389313 233 225 230
-0.0121108 -0.639666 0.385259 235 228 233
-0.00351097 -0.639422 0.382936 238 228 234
0.0459489 -0.63966 0.371224 231 223 228
0.210963 -0.631904 0.340332 125 100 56
-0.0578398 -0.636436 0.39402 233 225 230
-0.0556267 -0.635889 0.393156 234 226 231
-0.0426715 -0.636084 0.389531 234 226 231
0.0582485 -0.639109 0.365789 218 210 215
0.0816639 -0.636497 0.359927 138 137 130
0.1235 -0.636578 0.352241 235 225 228
0.139479 -0.6374 0.349904 237 225 229
0.192055 -0.634775 0.341236 251 241 246
0.210187 -0.631898 0.337887 66 46 17
-0.041082 -0.15922 0.197869 154 78 72
0.0147666 -0.640262 0.373625 240 230 236
0.0255893 -0.641448 0.371516 240 230 236
0.0298987 -0.641487 0.370526 238 230 235
0.0341238 -0.640559 0.369181 238 228 234
0.0383339 -0.639595 0.367838 238 228 234
0.0599199 -0.639837 0.363199 214 207 212
0.125676 -0.63888 0.350253 202 216 227
0.146775 -0.633692 0.344798 242 234 242
0.160689 -0.634327 0.342916 249 237 241
0.186689 -0.635139 0.339553 240 232 237
0.188481 -0.633606 0.338739 239 229 235
0.20479 -0.632434 0.336216 174 160 160
-0.104537 -0.633695 0.402048 227 221 226
-0.0501 -0.635851 0.386417 234 226 231
-0.0243789 -0.637417 0.379933 236 229 234
0.00130583 -0.638629 0.373758 239 231 236
0.0485848 -0.640188 0.363265 229 222 227
0.0656102 -0.638422 0.358932 196 186 190
0.0848436 -0.636809 0.354417 126 130 120
0.185937 -0.635093 0.337118 243 233 236
0.200125 -0.63469 0.335112 213 206 210
0.210756 -0.631118 0.332485 124 109 105
-0.080859 -0.634731 0.392471 231 223 228
-0.0549763 -0.636897 0.385665 235 228 233
-0.0184649 -0.637027 0.375677 238 230 235
0.103139 -0.614326 0.339872 97 178 57
0.161672 -0.634558 0.337857 178 201 214
0.182722 -0.634764 0.334923 244 239 245
-0.0423131 -0.157886 0.196978 123 64 50
-0.0988452 -0.634276 0.395281 223 218 222
-0.0965756 -0.633899 0.394425 223 218 222
-0.0726774 -0.635493 0.38774 233 225 230
-0.0275199 -0.636944 0.375524 236 229 234
-0.021118 -0.637623 0.374083 238 230 235
-0.00407133 -0.636245 0.369147 239 231 236
-0.0689625 -0.637133 0.384711 234 226 233
-0.053648 -0.635157 0.379533 235 228 233
0.0190472 -0.640887 0.362751 242 232 237
0.0299242 -0.642883 0.360963 239 229 235
0.038348 -0.640945 0.358308 237 227 233
0.0660572 -0.63883 0.351513 189 181 184
0.080991 -0.637579 0.348012 129 132 124
0.151439 -0.635524 0.3348 186 211 223
0.160225 -0.63437 0.333034 191 214 227
0.162346 -0.633831 0.33252 191 214 227
0.172393 -0.636114 0.331873 193 216 229
0.176648 -0.634929 0.330837 192 215 228
0.190397 -0.63385 0.328557 175 200 215
0.204924 -0.634191 0.326789 90 88 86
-0.0866708 -0.635281 0.38676 227 219 226
-0.0412656 -0.635068 0.373515 236 229 234
-0.0178804 -0.639617 0.368957 238 230 235
0.0741295 -0.638956 0.347425 138 136 132
0.129161 -0.639018 0.337219 168 200 214
0.156132 -0.63805 0.332506 188 213 225
0.208764 -0.633553 0.323585 79 84 85
0.212622 -0.631177 0.32228 79 69 59
-0.111183 -0.633874 0.391313 229 223 230
-0.073919 -0.634182 0.379989 233 225 232
-0.0695825 -0.63409 0.378681 234 226 233
-0.0545822 -0.634866 0.37465 235 228 233
-0.0396257 -0.635198 0.370609 236 229 234
-0.0375049 -0.635476 0.370133 236 229 234
-0.0247963 -0.638832 0.36797 238 230 235
-0.0226761 -0.639986 0.367839 239 229 235
-0.0077143 -0.639389 0.363756 239 231 236
0.0545388 -0.641965 0.350146 220 213 217
0.0884136 -0.637303 0.34152 106 124 95
0.0932159 -0.61853 0.333756 113 180 73
0.107674 -0.626054 0.333823 113 184 94
0.126096 -0.63836 0.335028 168 200 214
0.159673 -0.636875 0.329065 191 214 227
0.203374 -0.634029 0.321941 94 101 103
0.217588 -0.616644 0.314224 100 79 54
-0.00183496 -0.639632 0.359876 239 229 235
0.0153015 -0.641293 0.356306 242 231 239
0.0217229 -0.641418 0.354832 242 231 239
0.0282194 -0.642406 0.353683 239 231 238
0.0643684 -0.639288 0.344613 191 184 186
0.0835281 -0.637606 0.340126 128 132 121
0.107883 -0.629603 0.332649 71 145 36
0.156822 -0.637275 0.327172 192 215 228
0.176214 -0.633088 0.322828 192 215 228
0.20084 -0.635536 0.320302 156 166 174
-0.127142 -0.631138 0.390344 211 202 203
-0.105326 -0.633476 0.384215 228 221 226
-0.094589 -0.635207 0.381515 226 218 223
-0.0794771 -0.636694 0.377498 233 225 232
-0.0705738 -0.634693 0.374161 234 226 233
-0.0512772 -0.635199 0.368839 238 230 235
0.00187265 -0.638739 0.356152 239 231 236
0.0126144 -0.641051 0.354378 240 230 238
0.0339941 -0.641248 0.349463 238 228 234
0.202189 -0.634715 0.317367 108 110 111
-0.129829 -0.631252 0.388706 212 200 200
-0.101506 -0.634403 0.380822 224 219 225
-0.0711172 -0.635444 0.372082 234 226 233
-0.0348286 -0.638278 0.362952 238 230 235
-0.00926444 -0.639783 0.356832 240 232 237
-0.0028888 -0.639254 0.355044 240 230 236
0.00984865 -0.638901 0.3518 240 230 236
0.014204 -0.640916 0.351475 242 232 237
0.0357332 -0.642914 0.347196 239 229 235
0.0548855 -0.641316 0.342421 221 214 219
0.0570215 -0.641199 0.341925 219 211 216
0.0760618 -0.638814 0.337143 135 134 128
0.078188 -0.63861 0.336644 133 134 125
0.17294 -0.634321 0.318816 193 216 229
0.186267 -0.632387 0.316265 220 215 217
0.196816 -0.635104 0.315737 84 81 85
-0.082706 -0.637747 0.373785 233 225 232
-0.031037 -0.637633 0.359233 236 229 234
-0.0204181 -0.638715 0.356832 239 231 236
0.0542885 -0.641113 0.340022 229 222 227
0.121007 -0.637154 0.325677 179 209 222
0.125973 -0.639154 0.325498 178 208 220
0.130726 -0.640181 0.325034 181 208 222
0.13362 -0.642535 0.325347 182 210 221
0.143217 -0.63655 0.321718 187 212 226
0.161615 -0.637035 0.318976 193 216 229
-0.0476849 -0.164172 0.198706 99 44 33
-0.0463419 -0.162883 0.19776 119 58 42
-0.132085 -0.627565 0.383094 215 206 204
-0.0896307 -0.637085 0.373102 231 223 230
-0.0764403 -0.636088 0.368858 234 226 233
-0.00816094 -0.640455 0.351852 240 232 237
0.0174839 -0.642479 0.346319 240 232 237
0.0216957 -0.64159 0.345023 242 232 237
0.0299962 -0.638757 0.342125 242 232 237
0.041094 -0.643306 0.341207 240 230 236
0.0730039 -0.640481 0.333457 189 185 186
0.0855917 -0.638236 0.330178 144 154 137
0.116092 -0.637711 0.324302 51 78 94
0.140931 -0.638688 0.320373 186 211 225
0.159064 -0.638329 0.317354 193 216 229
0.192458 -0.633703 0.310952 110 105 109
-0.0397359 -0.152189 0.191494 136 77 63
-0.111154 -0.631664 0.375313 231 223 230
0.0232053 -0.64043 0.341823 242 231 239
0.0763176 -0.637972 0.3295 198 193 192
0.119886 -0.637683 0.321192 177 207 219
-0.0966756 -0.634281 0.369259 226 220 226
-0.0812973 -0.63294 0.364237 233 225 232
-0.0772023 -0.634733 0.363647 234 226 233
-0.0731887 -0.637426 0.363395 235 227 235
-0.0581772 -0.638181 0.359394 236 228 236
-0.0282471 -0.636474 0.350725 238 230 235
-0.0176855 -0.638409 0.348651 240 232 237
0.0355743 -0.641998 0.337096 240 232 237
0.0697901 -0.641159 0.329474 233 227 231
0.121798 -0.638945 0.31885 177 206 221
0.163059 -0.640529 0.312563 194 217 230
-0.137913 -0.618664 0.374546 126 113 106
-0.125046 -0.630451 0.374268 116 106 109
-0.0908977 -0.63646 0.365766 228 222 229
-0.0797382 -0.634077 0.361694 233 225 232
-0.0756355 -0.635854 0.361096 235 227 235
-0.00756432 -0.641781 0.34479 242 232 237
0.000932397 -0.641295 0.342534 240 230 236
0.114753 -0.639863 0.317981 82 109 125
0.125597 -0.638846 0.315732 181 208 222
0.182149 -0.630624 0.304132 196 192 200
-0.0449753 -0.160012 0.195082 129 70 54
-0.122956 -0.62902 0.370649 247 239 246
-0.0800503 -0.632903 0.358937 234 226 233
-0.0591665 -0.63864 0.35489 235 227 235
-0.0377647 -0.637859 0.348814 238 230 235
-0.0313592 -0.63669 0.346739 238 230 235
-0.0250097 -0.636387 0.344986 238 230 235
-0.0165808 -0.639023 0.343699 239 231 236
0.0430373 -0.642208 0.330648 240 232 237
0.0706839 -0.640476 0.324224 235 228 233
0.0728065 -0.640281 0.323728 235 228 233
0.0816263 -0.641309 0.322295 236 231 235
0.12351 -0.641828 0.314636 177 207 219
0.154044 -0.638065 0.308324 194 217 230
0.181395 -0.630418 0.301772 153 148 154
0.196328 -0.626592 0.29849 52 51 58
-0.138393 -0.617311 0.369359 125 112 105
-0.0915976 -0.635056 0.360559 231 223 230
-0.0871312 -0.634124 0.358944 233 225 232
-0.0765009 -0.635362 0.35626 234 226 233
-0.0596202 -0.638384 0.352475 235 227 235
-0.0468501 -0.639342 0.34929 236 229 234
0.00639347 -0.644834 0.337498 239 229 237
0.0233731 -0.643227 0.332981 239 231 238
0.0360743 -0.64213 0.329743 240 230 238
0.042657 -0.643846 0.328841 239 229 235
0.0553334 -0.642277 0.325593 238 228 234
0.0594585 -0.64105 0.324325 235 227 235
0.0811637 -0.641996 0.320194 236 228 236
0.132673 -0.636651 0.308994 182 210 221
0.155729 -0.638226 0.305688 193 216 229
0.195195 -0.625479 0.295916 51 50 57
-0.0429846 -0.157208 0.192889 136 79 64
-0.119907 -0.631585 0.365557 230 225 229
-0.11414 -0.636086 0.365199 231 223 230
-0.112031 -0.636649 0.364731 229 221 229
-0.0769307 -0.6351 0.353849 235 227 235
-0.0684174 -0.635737 0.351635 235 227 235
-0.0580352 -0.639399 0.349913 235 227 235
-0.0472599 -0.638125 0.346567 235 228 233
-0.0302492 -0.637315 0.341802 238 230 235
-0.0281407 -0.63753 0.341324 238 230 235
-0.0218106 -0.638122 0.339886 238 230 235
-0.0196992 -0.638302 0.339406 238 230 235
0.001529 -0.642488 0.335481 239 231 238
0.00799246 -0.644626 0.334612 239 229 237
0.0653575 -0.641248 0.32075 235 228 233
0.139358 -0.63875 0.306116 185 210 224
0.189574 -0.624833 0.294126 104 101 106
-0.0625467 -0.63655 0.347815 235 227 235
-0.0562265 -0.637562 0.346392 235 228 233
-0.0520072 -0.638193 0.34544 235 228 233
-0.00538864 -0.640937 0.334254 236 229 234
-0.00326835 -0.641048 0.333769 238 230 235
0.0263689 -0.640734 0.326667 239 231 238
0.0646082 -0.640008 0.318117 234 226 231
0.0754988 -0.640943 0.316184 235 228 233
0.114406 -0.639412 0.308272 179 211 223
0.131284 -0.636131 0.304287 181 208 222
-0.108438 -0.636306 0.358576 226 220 226
-0.106172 -0.635912 0.357773 224 219 225
-0.0502937 -0.637255 0.342257 235 228 233
-0.00802339 -0.640517 0.332359 238 230 235
-0.00376968 -0.641703 0.331685 238 228 234
0.0451669 -0.642813 0.320727 238 228 234
0.0471831 -0.641759 0.319962 238 228 234
0.07911 -0.6402 0.312838 233 225 230
0.12874 -0.637233 0.302677 182 209 223
0.165234 -0.631328 0.294919 194 217 230
0.177294 -0.632873 0.293541 234 234 236
0.179386 -0.632233 0.293041 237 234 237
0.205058 -0.625676 0.287491 82 74 77
0.213583 -0.628771 0.287243 66 61 63
-0.0698234 -0.635818 0.344761 235 227 235
-0.0021705 -0.641495 0.328824 238 228 234
0.0404338 -0.643631 0.319615 236 229 234
0.0425609 -0.64355 0.319124 234 226 231
0.0530717 -0.64206 0.316396 234 226 231
0.104609 -0.640264 0.305552 168 202 215
0.14439 -0.639283 0.298241 185 213 226
0.181393 -0.633159 0.290629 227 231 237
0.2218 -0.632412 0.2848 72 65 68
-0.0441564 -0.155865 0.191836 131 77 59
-0.0435053 -0.156283 0.191696 135 79 59
-0.135311 -0.633269 0.360981 211 202 201
-0.132603 -0.631153 0.359508 214 205 203
-0.119145 -0.630174 0.355062 231 223 230
-0.102299 -0.633586 0.351012 224 219 223
-0.0939219 -0.635548 0.349137 231 223 230
-0.0554062 -0.636026 0.33844 235 227 235
0.0164208 -0.642661 0.322361 235 228 233
0.0227208 -0.641722 0.320622 236 228 236
0.0291528 -0.642624 0.31943 235 227 235
0.0420804 -0.644189 0.317027 234 226 231
0.0545966 -0.641609 0.313548 233 225 230
0.112167 -0.637589 0.300984 168 202 215
0.166788 -0.632961 0.29041 182 209 223
0.17821 -0.632624 0.288569 168 200 214
0.21732 -0.629405 0.282143 65 60 62
0.230174 -0.625309 0.279349 24 21 24
-0.0481713 -0.16761 0.196209 129 70 54
-0.135671 -0.632988 0.358544 212 204 202
-0.125735 -0.628111 0.354038 246 238 243
-0.117982 -0.633233 0.35317 229 224 228
-0.102692 -0.633282 0.348606 224 219 223
-0.00317082 -0.642759 0.324651 235 228 233
0.0520041 -0.64237 0.311947 234 226 231
0.0988648 -0.639351 0.301609 164 200 215
0.109614 -0.638589 0.299378 167 200 216
0.166991 -0.635449 0.288715 175 207 221
-0.0481255 -0.161212 0.194192 107 55 40
-0.118357 -0.632929 0.350755 229 224 228
-0.109497 -0.632342 0.347925 224 219 225
-0.0691228 -0.636177 0.337438 233 227 233
-0.0499588 -0.635312 0.331974 234 226 233
-0.0206333 -0.642316 0.326436 234 226 231
0.0964965 -0.641239 0.300239 161 197 215
0.110828 -0.636947 0.296319 167 201 214
0.115252 -0.637133 0.295564 168 202 215
0.1767 -0.632055 0.283898 156 188 205
0.194092 -0.634653 0.282036 166 198 212
-0.049645 -0.166965 0.195932 116 57 45
-0.046287 -0.162526 0.193516 135 78 63
-0.13739 -0.627145 0.352513 211 202 201
-0.114385 -0.632803 0.347093 227 221 226
-0.078139 -0.636199 0.337554 234 226 233
-0.042148 -0.63795 0.328294 234 226 231
-0.0294786 -0.637395 0.324855 234 226 231
-0.0274037 -0.63855 0.324661 233 225 230
-3.10493e-06 -0.641283 0.318679 233 225 230
0.0276205 -0.64352 0.312889 234 226 231
0.0425643 -0.644043 0.30972 233 225 232
0.0960404 -0.641853 0.298133 159 195 210
0.145186 -0.635189 0.287441 174 206 220
0.161929 -0.637883 0.285446 173 205 219
0.20032 -0.634017 0.278584 165 199 215
-0.0414015 -0.152601 0.188853 118 69 47
-0.101934 -0.633744 0.341262 226 220 224
-0.0616971 -0.637829 0.331085 234 226 233
-0.019512 -0.641769 0.321219 232 224 229
-0.0068653 -0.639677 0.317505 233 225 230
0.0101575 -0.644102 0.3147 234 226 231
0.0229569 -0.645133 0.312032 233 225 230
0.0250828 -0.645113 0.311543 233 225 230
0.0271346 -0.644122 0.310796 233 225 232
0.0419842 -0.643683 0.30737 231 223 228
0.0463323 -0.644442 0.30664 231 223 230
0.0504629 -0.643241 0.30541 228 220 228
0.125097 -0.637238 0.28912 184 216 231
0.146844 -0.635277 0.284836 170 204 218
0.170222 -0.637027 0.281526 168 200 214
0.209782 -0.635233 0.275187 170 199 214
0.216456 -0.633755 0.273876 185 207 215
-0.117934 -0.635312 0.344007 228 222 229
-0.0874487 -0.634772 0.33498 231 226 232
-0.0768868 -0.63589 0.332324 234 226 233
-0.00313073 -0.641424 0.314729 234 226 231
-0.000972275 -0.643436 0.314775 233 225 230
0.0159786 -0.643803 0.310884 232 224 229
0.062697 -0.642911 0.30037 221 214 219
0.0670732 -0.643494 0.299626 218 210 215
0.0825694 -0.645729 0.297109 216 211 215
0.128849 -0.636949 0.28603 169 201 215
0.160454 -0.637239 0.280774 168 200 214
-0.0436838 -0.154657 0.189695 119 67 48
-0.113429 -0.632328 0.339437 226 220 226
-0.104787 -0.632541 0.336958 224 219 223
-0.092155 -0.634467 0.333843 230 225 231
-0.05823 -0.635826 0.32483 233 225 232
-0.0371358 -0.634676 0.318967 231 223 228
-0.0350526 -0.634897 0.318492 229 221 229
-0.0204812 -0.639091 0.315968 231 223 228
0.0705399 -0.641745 0.296077 205 197 202
0.0746011 -0.640339 0.294867 198 190 195
0.081594 -0.643441 0.29431 196 188 193
0.106071 -0.6359 0.287541 163 199 214
0.112334 -0.63478 0.286079 168 202 215
0.169679 -0.639158 0.277439 168 200 216
0.183683 -0.632771 0.273602 167 198 215
0.186459 -0.633927 0.273482 165 199 215
0.224386 -0.632576 0.267724 169 201 215
-0.051665 -0.168415 0.195708 106 53 39
-0.121132 -0.635914 0.34028 228 223 227
-0.103408 -0.634555 0.334708 226 220 226
-0.0565843 -0.635746 0.322005 229 221 229
-0.0355966 -0.636425 0.316702 229 222 227
-0.0167773 -0.638993 0.312668 229 222 227
-0.00837025 -0.64045 0.311006 231 223 230
0.0128274 -0.643978 0.306932 228 221 226
0.0170061 -0.643034 0.305709 228 221 226
0.0293721 -0.639028 0.301811 222 215 220
0.0596376 -0.644246 0.296661 204 194 200
0.116291 -0.635512 0.283224 193 224 241
0.12983 -0.628695 0.279006 139 168 186
0.154198 -0.63582 0.276719 141 175 191
0.186035 -0.634516 0.271341 167 200 216
-0.138557 -0.632571 0.342236 211 202 201
-0.133981 -0.631977 0.340688 223 212 211
-0.105872 -0.633679 0.332798 224 219 223
-0.0930886 -0.634658 0.329391 230 225 229
-0.0867075 -0.635025 0.327687 230 225 231
-0.0382349 -0.637725 0.31538 228 220 228
0.0101298 -0.642584 0.304828 227 220 224
0.0186915 -0.644564 0.303378 226 218 223
0.0227949 -0.642599 0.301916 225 217 222
0.0523246 -0.641426 0.295105 203 193 201
0.0992989 -0.639992 0.285245 158 192 210
0.212298 -0.636064 0.26551 168 200 214
-0.119224 -0.632929 0.334119 228 223 227
-0.0936239 -0.635213 0.32731 230 225 229
-0.0850294 -0.635049 0.324853 229 223 230
-0.0408834 -0.639009 0.31405 227 219 226
-0.000940817 -0.64192 0.304914 228 221 226
0.0584329 -0.64344 0.292004 190 180 188
0.0668815 -0.642688 0.290049 175 165 171
0.110101 -0.632659 0.278992 139 152 168
0.169208 -0.636555 0.269777 164 198 214
0.180321 -0.635178 0.267682 164 200 215
0.226443 -0.636197 0.261184 167 201 214
-0.121847 -0.632916 0.3325 227 221 226
-0.0664806 -0.636119 0.317688 224 219 225
-0.0392526 -0.638819 0.311232 227 219 226
0.0132239 -0.640815 0.298962 222 214 222
0.127639 -0.611442 0.268198 142 79 61
0.143944 -0.637794 0.271937 175 207 223
0.184067 -0.634382 0.264563 159 195 212
0.199094 -0.636516 0.262801 163 199 214
0.209536 -0.632669 0.26035 163 199 214
0.227713 -0.635011 0.258345 165 200 213
-0.130061 -0.628322 0.331403 238 233 237
-0.126144 -0.630435 0.330765 228 223 227
-0.0818002 -0.635991 0.319474 224 219 225
-0.0711673 -0.635962 0.316562 223 218 224
-0.0271119 -0.637652 0.305524 226 218 225
0.00222758 -0.641186 0.299295 224 216 221
0.0528953 -0.641947 0.288124 184 174 180
0.10788 -0.628005 0.273655 118 67 59
-0.0455536 -0.154051 0.18865 108 59 39
-0.0447212 -0.154616 0.188463 118 66 47
-0.110118 -0.635343 0.324925 223 218 224
-0.103554 -0.63495 0.322949 224 219 225
-0.0946551 -0.633024 0.319955 226 220 224
0.046103 -0.642894 0.287491 189 179 185
0.0670049 -0.640228 0.282421 159 149 155
0.110014 -0.596042 0.263208 107 53 35
0.125068 -0.598747 0.261168 159 91 73
0.145721 -0.640235 0.267561 123 145 163
0.148106 -0.64064 0.267249 130 161 180
0.152018 -0.638597 0.266094 134 166 183
0.19297 -0.63634 0.258974 162 196 212
0.218988 -0.635066 0.254839 164 200 213
0.228967 -0.635262 0.253478 167 201 214
0.23901 -0.635269 0.252102 165 202 214
0.260916 -0.632827 0.248675 164 200 215
-0.0487194 -0.158791 0.190558 99 52 34
-0.128692 -0.62809 0.32621 229 224 228
-0.124782 -0.630185 0.325562 227 221 226
-0.120659 -0.63131 0.324627 226 220 224
-0.114816 -0.634821 0.323779 223 218 222
-0.112565 -0.634402 0.323028 223 218 222
-0.108411 -0.635427 0.322084 223 218 222
-0.0719004 -0.634126 0.311623 221 215 222
-0.0698275 -0.634475 0.31115 221 215 222
-0.044806 -0.637028 0.3052 225 217 224
0.116909 -0.585893 0.257415 148 81 61
0.149194 -0.638739 0.264279 193 224 241
0.176508 -0.638031 0.259597 165 199 215
0.182441 -0.635083 0.257974 163 197 213
0.194273 -0.635226 0.256173 164 198 214
0.199542 -0.636492 0.255663 165 200 213
0.249908 -0.632904 0.247735 169 203 217
0.252882 -0.633707 0.247519 163 199 212
-0.0492962 -0.161917 0.191129 108 58 41
-0.0446471 -0.154872 0.187957 118 66 45
-0.125326 -0.630695 0.323483 227 221 226
-0.11707 -0.632912 0.321606 223 218 222
-0.0641168 -0.635975 0.307661 221 213 221
-0.0369714 -0.638433 0.301222 222 214 222
0.00276328 -0.639867 0.291879 218 210 215
0.0216688 -0.640903 0.287769 209 201 206
0.02579 -0.639849 0.286586 203 193 201
0.121869 -0.591176 0.255676 155 88 68
0.245311 -0.635355 0.246505 166 203 215
0.266105 -0.635409 0.243776 161 198 213
0.292846 -0.634972 0.240367 109 140 157
0.296443 -0.6364 0.240235 96 121 135
-0.0502985 -0.160202 0.190846 84 43 29
-0.13929 -0.632289 0.325612 211 202 201
-0.0645421 -0.635509 0.305338 222 214 222
-0.0457086 -0.636095 0.30057 221 213 221
-0.0374347 -0.637961 0.298907 221 213 221
-0.0123826 -0.637891 0.292705 219 211 216
0.104434 -0.572247 0.252368 137 74 55
0.127988 -0.600199 0.254548 159 92 69
0.193417 -0.636272 0.251864 164 198 214
0.241076 -0.633256 0.244257 165 199 215
0.244457 -0.634997 0.244165 164 198 212
0.260121 -0.635349 0.242143 164 200 215
0.286265 -0.634331 0.238608 126 162 180
-0.0961876 -0.631223 0.310607 221 215 222
-0.0796732 -0.634521 0.306836 220 214 221
-0.0731374 -0.632731 0.304661 219 213 219
-0.0670368 -0.634711 0.303494 220 214 221
-0.0544458 -0.634582 0.30016 220 212 219
-0.0400232 -0.638237 0.297313 221 213 221
0.0226688 -0.639906 0.282699 194 181 190
0.0351226 -0.638537 0.279607 178 167 173
0.0392941 -0.638338 0.278647 171 160 166
0.0434642 -0.638105 0.277687 166 156 161
0.0475198 -0.636864 0.276525 160 150 154
0.0516786 -0.636563 0.275567 158 148 151
0.087661 -0.625573 0.265675 113 46 41
0.199613 -0.635458 0.248398 165 199 215
0.204905 -0.636665 0.247853 165 200 213
0.206994 -0.635878 0.247368 165 200 213
0.248214 -0.633615 0.240989 166 203 215
-0.0865296 -0.634786 0.306437 220 214 221
-0.044587 -0.636327 0.295724 219 211 218
-0.0342335 -0.638355 0.293575 219 211 218
0.0283085 -0.638276 0.278769 167 155 161
0.0470517 -0.637342 0.274455 152 142 146
0.0718194 -0.634057 0.268525 157 145 151
0.0965322 -0.592576 0.254336 118 65 53
0.11072 -0.570555 0.246813 157 92 71
0.119375 -0.580682 0.247493 161 94 73
0.127743 -0.595897 0.249358 162 97 76
-0.127497 -0.632651 0.315147 227 221 226
-0.114372 -0.632132 0.311269 221 216 220
-0.105954 -0.633179 0.309125 220 215 219
-0.0764557 -0.635249 0.301499 219 213 219
-0.0702374 -0.636294 0.300076 220 212 219
-0.0575329 -0.635249 0.296508 219 211 218
-0.0221749 -0.636889 0.287964 215 207 215
-0.0159445 -0.638242 0.286754 213 205 212
0.000696926 -0.637899 0.282714 205 197 202
0.109316 -0.567159 0.244324 160 95 73
0.135935 -0.611475 0.24915 156 97 81
0.16964 -0.633745 0.248168 101 128 146
0.193495 -0.635189 0.244633 168 202 217
0.195575 -0.634444 0.244152 164 200 213
0.212005 -0.633549 0.241453 168 202 215
0.290682 -0.636256 0.231185 108 139 158
-0.133155 -0.626662 0.313152 234 228 233
-0.11921 -0.632493 0.310391 221 216 220
-0.110437 -0.63171 0.307737 219 213 217
-0.104259 -0.633167 0.306322 220 215 219
-0.0957036 -0.633077 0.303933 220 214 221
-0.0789277 -0.634383 0.29966 219 213 219
-0.012283 -0.635982 0.283085 211 203 210
0.0250535 -0.636335 0.274508 159 149 152
0.0314432 -0.638081 0.27347 152 140 146
0.0518729 -0.63391 0.268125 154 144 150
0.0912645 -0.610225 0.254963 100 42 34
0.11359 -0.570541 0.242278 159 94 70
0.186456 -0.636926 0.243788 101 125 135
0.221881 -0.635234 0.23799 168 202 215
0.231445 -0.634433 0.236432 167 201 214
0.236875 -0.635314 0.235826 165 200 213
0.243991 -0.634301 0.234618 167 200 216
0.261252 -0.632729 0.231934 159 195 210
-0.143884 -0.633118 0.315321 209 200 197
-0.133266 -0.625233 0.310563 234 228 233
-0.0356227 -0.636816 0.286693 214 206 214
-0.0314105 -0.635227 0.285304 215 207 215
-0.0272725 -0.635554 0.284354 214 207 212
-0.0107054 -0.635545 0.280339 209 200 208
0.00586151 -0.635973 0.276534 194 184 189
0.0855324 -0.604536 0.252719 46 0 0
0.156581 -0.639336 0.246932 130 161 180
0.168128 -0.632812 0.243639 136 160 179
0.21362 -0.634601 0.236764 167 201 214
0.238536 -0.634874 0.233147 168 202 215
0.243567 -0.634787 0.232414 168 202 215
0.257838 -0.632467 0.22998 163 199 214
-0.051716 -0.161034 0.189732 66 33 24
-0.102615 -0.630712 0.300719 219 213 219
-0.0649949 -0.63281 0.291048 216 211 217
-0.0236247 -0.636288 0.281344 212 204 209
0.0178157 -0.636379 0.271618 168 158 164
0.0405013 -0.634548 0.266197 153 141 146
0.0424624 -0.633443 0.265539 153 141 146
0.0570136 -0.633288 0.262402 155 143 147
0.092718 -0.567562 0.241543 125 69 50
0.200517 -0.633574 0.236258 79 106 122
0.222707 -0.634414 0.233031 165 200 213
0.232258 -0.633584 0.231461 169 203 217
0.237685 -0.63445 0.230838 168 202 215
0.245662 -0.635202 0.229838 168 202 215
0.255333 -0.633951 0.228243 166 202 217
0.287308 -0.638902 0.224857 118 154 174
0.293002 -0.639212 0.224175 99 128 145
-0.0991858 -0.633012 0.297948 219 213 219
-0.0509315 -0.633239 0.285237 215 207 215
-0.0344711 -0.635925 0.28166 212 204 211
-0.00961782 -0.635522 0.275545 205 195 201
-0.00134428 -0.635769 0.273644 197 187 193
0.0278584 -0.63851 0.267546 150 140 143
0.048067 -0.632462 0.261886 155 141 146
0.0670293 -0.584009 0.247971 111 58 46
0.0815745 -0.579884 0.244223 108 58 41
0.0830327 -0.577643 0.243481 109 59 42
0.0952583 -0.564347 0.238436 125 69 52
0.209907 -0.634519 0.232667 170 204 218
0.228923 -0.63314 0.229533 167 201 214
0.231414 -0.633144 0.229166 168 202 215
0.252376 -0.634528 0.226403 168 202 217
-0.130593 -0.626758 0.303182 226 220 224
-0.103501 -0.630615 0.29635 217 212 216
-0.091183 -0.633229 0.293517 216 211 215
-0.0826917 -0.632872 0.291165 216 211 217
-0.0389706 -0.633041 0.27992 212 204 211
-0.0204198 -0.633487 0.275458 210 200 206
0.000188253 -0.634271 0.270724 195 185 191
0.0105471 -0.635329 0.268544 179 167 171
0.0250843 -0.636063 0.265404 151 141 144
0.0373073 -0.633564 0.262198 150 138 144
0.052207 -0.636463 0.259574 93 45 45
0.0792319 -0.57058 0.240809 111 59 42
0.0808523 -0.569311 0.240238 109 57 41
0.090834 -0.5635 0.23715 114 61 40
0.109188 -0.568708 0.234734 134 78 56
0.130224 -0.594112 0.235891 162 98 74
0.179515 -0.63737 0.235759 129 145 160
0.196845 -0.633399 0.232193 172 203 218
0.204557 -0.634743 0.231226 171 205 219
0.219765 -0.636188 0.229144 167 201 214
0.222654 -0.637144 0.228882 168 202 215
0.224742 -0.636271 0.228406 169 203 217
0.255379 -0.63666 0.224003 164 200 215
0.282408 -0.637504 0.220433 125 163 182
-0.0478292 -0.157138 0.186819 100 53 35
-0.0851336 -0.631943 0.28935 215 209 216
-0.0746373 -0.631817 0.286544 215 209 216
-0.0724792 -0.631183 0.285852 214 208 215
0.0367455 -0.632997 0.25997 150 138 144
0.0499032 -0.639008 0.258318 110 60 58
0.0580902 -0.637294 0.256244 105 56 50
0.0952642 -0.552805 0.232285 124 70 50
0.153918 -0.638278 0.237996 131 158 174
0.221821 -0.636679 0.226589 169 203 217
0.248112 -0.633748 0.222163 169 203 217
0.26792 -0.631809 0.219026 152 190 207
0.270938 -0.6325 0.21873 148 186 205
-0.125144 -0.627364 0.297162 221 216 220
-0.110858 -0.630977 0.293866 216 211 215
-0.0812954 -0.631165 0.285904 215 209 216
-0.0770825 -0.630909 0.284742 215 209 216
-0.0708331 -0.630944 0.283112 214 208 215
-0.0645949 -0.630901 0.281484 214 206 214
-0.0398203 -0.630924 0.27521 210 202 209
-0.0378159 -0.632094 0.27494 211 203 210
-0.0233897 -0.630258 0.271049 207 196 204
-0.00490029 -0.635 0.267566 196 186 192
-0.000798615 -0.634107 0.266432 194 184 189
0.0199308 -0.636015 0.262054 160 150 154
0.0239951 -0.634921 0.260929 152 142 148
0.0449435 -0.636795 0.256696 139 95 98
0.0715248 -0.564389 0.237205 118 64 48
0.0790794 -0.556165 0.234135 122 65 48
0.161178 -0.634383 0.233724 146 177 194
0.168021 -0.634356 0.232545 138 161 176
0.283653 -0.637299 0.215431 118 156 175
0.2934 -0.639941 0.21456 88 113 127
-0.144596 -0.625345 0.300036 207 198 196
-0.0486847 -0.633403 0.275656 210 202 209
-0.0423596 -0.631119 0.273638 210 202 209
-0.0361756 -0.630713 0.272028 209 201 206
-0.0218428 -0.631756 0.268732 203 193 199
-0.00748556 -0.63239 0.265432 197 187 193
0.0192687 -0.633464 0.259474 160 150 156
0.0337526 -0.633908 0.256338 150 138 144
0.0570235 -0.607364 0.246317 116 70 58
0.0636194 -0.563808 0.236749 120 65 52
0.0790381 -0.549418 0.230972 126 67 48
0.169328 -0.633175 0.229832 130 148 162
0.19725 -0.632985 0.225164 146 177 196
0.212726 -0.635526 0.223144 170 202 217
0.223445 -0.637577 0.221833 171 205 219
0.243084 -0.636555 0.218691 174 206 220
0.279197 -0.63537 0.213329 130 167 187
-0.144896 -0.624796 0.297728 204 195 194
-0.105752 -0.633194 0.288303 214 208 215
-0.0532927 -0.633315 0.274549 213 205 212
-0.0161754 -0.632464 0.265274 202 192 198
0.00833628 -0.630048 0.259092 181 169 175
0.0717086 -0.55091 0.230813 122 65 48
0.0810812 -0.544282 0.227754 133 72 54
0.134328 -0.5941 0.226785 155 97 75
0.190242 -0.634742 0.224323 176 205 220
0.192314 -0.633993 0.223853 170 202 217
0.213979 -0.634186 0.220406 169 203 217
0.259019 -0.633593 0.213518 160 197 212
0.285865 -0.638789 0.210574 111 144 164
-0.0468344 -0.152391 0.184664 99 52 36
-0.183811 -0.575179 0.298331 117 62 51
-0.171141 -0.587591 0.296627 94 52 46
-0.140008 -0.620735 0.293327 148 134 134
-0.103732 -0.631148 0.285102 215 209 216
-0.0847459 -0.630993 0.279996 214 208 215
-0.0722426 -0.631135 0.27675 213 205 212
-0.0370717 -0.629513 0.267566 207 199 207
-0.0146062 -0.631948 0.262577 200 190 195
0.0509803 -0.630434 0.247528 117 68 59
0.0657235 -0.560083 0.231778 120 63 48
0.0939162 -0.532817 0.2214 146 88 66
0.238844 -0.635643 0.214492 170 204 218
-0.173272 -0.580043 0.293832 119 65 58
-0.171119 -0.579847 0.293154 118 69 60
-0.107997 -0.628679 0.283554 214 208 215
-0.105961 -0.629141 0.283082 214 208 215
-0.0809183 -0.630151 0.276587 213 207 214
-0.0603676 -0.63231 0.271665 211 203 210
-0.0459442 -0.633024 0.268164 206 199 203
0.0156236 -0.631687 0.253304 170 157 164
0.0575041 -0.568424 0.233012 123 66 51
0.0740017 -0.539997 0.224687 132 71 55
0.165307 -0.633125 0.223719 177 205 218
0.17454 -0.633282 0.222153 173 205 219
0.180722 -0.631189 0.220755 180 210 225
0.190724 -0.632924 0.219367 176 205 220
0.205348 -0.633789 0.217114 168 202 215
0.258157 -0.634414 0.209077 163 198 216
-0.146587 -0.617747 0.290174 195 186 185
-0.134515 -0.603108 0.284283 189 180 183
-0.110373 -0.627611 0.281756 214 208 215
-0.098316 -0.631271 0.279132 213 207 214
0.000726704 -0.629157 0.254058 188 178 184
0.00480092 -0.629179 0.253123 187 175 181
0.0272074 -0.628708 0.247983 152 140 144
0.0330461 -0.625452 0.246131 147 132 137
0.0625013 -0.557059 0.228085 118 62 47
0.0704209 -0.541839 0.223881 131 70 52
0.209823 -0.634371 0.21419 177 209 224
0.225062 -0.6356 0.211959 171 205 219
-0.119186 -0.626962 0.281796 214 208 215
-0.0467529 -0.630794 0.263516 207 199 207
0.000253341 -0.629506 0.252026 188 178 186
0.0609911 -0.561515 0.227241 117 62 49
0.0659858 -0.548792 0.224095 121 62 48
0.0769029 -0.532891 0.219268 139 78 62
0.0783609 -0.531611 0.21877 141 77 60
0.0824623 -0.526769 0.217169 146 83 66
0.0887967 -0.524429 0.215563 151 88 68
0.160605 -0.63609 0.220506 170 202 217
-0.0451921 -0.152717 0.183151 132 77 55
-0.187913 -0.538558 0.285466 92 44 31
-0.183684 -0.576386 0.289989 160 85 74
-0.125891 -0.580175 0.27384 198 170 177
-0.0990336 -0.630038 0.274607 213 207 214
-0.0882827 -0.628166 0.271459 213 205 212
-0.0327596 -0.62749 0.257316 203 193 201
-0.0307309 -0.627638 0.256849 204 194 202
-0.0165118 -0.627453 0.253411 197 187 193
0.0759217 -0.530258 0.217235 142 79 59
0.0849364 -0.52444 0.214536 151 88 68
0.0963555 -0.521882 0.211948 150 89 66
0.100128 -0.52301 0.21142 153 95 73
0.108283 -0.533251 0.21153 154 94 71
0.18805 -0.636648 0.213566 175 207 221
0.252974 -0.633035 0.202624 168 202 217
0.283199 -0.639954 0.199147 114 149 169
0.28579 -0.639686 0.198735 104 136 152
0.288384 -0.639404 0.198323 93 122 137
-0.0536053 -0.162111 0.186977 67 39 30
-0.187909 -0.523036 0.281198 64 27 19
-0.182354 -0.577466 0.287637 163 87 76
-0.158009 -0.572307 0.279686 155 86 78
-0.0890617 -0.630445 0.269795 213 205 212
-0.0786165 -0.630293 0.267054 211 203 210
-0.0640466 -0.629514 0.263201 209 200 208
-0.0169839 -0.626798 0.251226 197 187 193
0.0407306 -0.615952 0.236397 140 114 118
0.109043 -0.531178 0.209255 150 89 66
0.178973 -0.632644 0.212239 175 207 221
0.234969 -0.633947 0.20321 157 186 201
-0.155694 -0.576713 0.277612 158 89 80
-0.128694 -0.580257 0.270503 164 103 103
-0.0977107 -0.629185 0.269634 213 205 212
-0.0644492 -0.62886 0.260983 209 200 208
-0.00729877 -0.62942 0.247177 194 183 191
-0.0032703 -0.627516 0.24594 190 180 186
0.0150398 -0.628418 0.241895 172 161 169
0.0454233 -0.608885 0.232149 118 81 82
0.17168 -0.633198 0.211334 167 200 216
0.195826 -0.635228 0.207475 178 212 230
0.226645 -0.633445 0.202152 188 224 242
0.240393 -0.636009 0.200331 188 220 234
-0.190341 -0.504506 0.275561 63 27 21
-0.185838 -0.567546 0.283031 156 80 71
-0.155624 -0.575138 0.275286 151 76 70
-0.129628 -0.582455 0.269026 147 79 77
-0.125799 -0.591671 0.269336 186 126 128
-0.116447 -0.625447 0.271831 213 207 214
-0.100251 -0.629087 0.268054 212 204 211
-0.0982188 -0.629504 0.267581 212 204 211
-0.0669752 -0.628896 0.259415 209 201 206
-0.0484634 -0.62818 0.254675 206 198 205
-0.00778623 -0.628747 0.244996 195 185 193
0.0123876 -0.625809 0.239912 178 167 173
0.0304028 -0.623157 0.235485 149 134 142
0.0323255 -0.622053 0.234894 147 132 137
0.0588557 -0.570754 0.221432 118 65 53
0.115302 -0.537045 0.205345 143 83 57
0.153138 -0.613158 0.2095 164 192 205
0.18602 -0.635819 0.206956 170 204 220
0.247815 -0.631537 0.196239 87 116 136
-0.181857 -0.519829 0.273221 119 57 46
-0.185868 -0.57226 0.281618 154 78 70
-0.127024 -0.623214 0.272138 199 163 171
-0.0962391 -0.627311 0.264505 211 203 210
-0.0550341 -0.62782 0.254051 207 196 204
-0.0285157 -0.626223 0.247335 201 191 196
-0.0244163 -0.623494 0.245948 197 187 193
-0.0163705 -0.623866 0.244095 196 186 194
0.0238333 -0.622771 0.234723 164 152 158
0.0587568 -0.572993 0.219837 116 64 52
0.217457 -0.637682 0.199623 170 209 225
-0.185425 -0.500303 0.269855 100 46 30
-0.13676 -0.576071 0.265975 128 70 58
-0.121504 -0.625067 0.268678 213 207 214
-0.113067 -0.625088 0.266416 212 206 212
-0.107015 -0.626461 0.265001 210 205 211
-0.047223 -0.626035 0.249668 204 196 201
-0.0309527 -0.624413 0.245479 201 191 196
-0.0208552 -0.623003 0.242865 196 186 194
0.00326532 -0.623528 0.23732 188 178 186
0.0172218 -0.621311 0.233835 174 162 170
0.0591097 -0.578174 0.218553 116 63 54
0.0706614 -0.523083 0.208352 144 83 63
0.184784 -0.63553 0.202591 168 202 217
0.197673 -0.638214 0.200723 170 206 221
0.211284 -0.636057 0.198135 121 155 173
-0.183558 -0.499501 0.267388 112 52 40
-0.18108 -0.530715 0.270642 138 73 66
-0.17669 -0.567525 0.274143 132 53 47
-0.119612 -0.623934 0.265786 213 205 212
-0.113575 -0.625381 0.264371 210 205 211
-0.0989577 -0.625553 0.260535 211 202 212
-0.0924672 -0.623824 0.258603 210 202 209
-0.045628 -0.625534 0.247024 204 194 200
-0.00721584 -0.626711 0.238028 193 182 190
-0.0051933 -0.626742 0.237564 193 182 190
0.00279992 -0.623815 0.235311 189 179 185
0.014647 -0.619674 0.232038 180 168 174
0.0862942 -0.519099 0.202966 132 74 50
0.181922 -0.635639 0.200841 121 155 171
0.19857 -0.635874 0.197981 177 211 227
0.209146 -0.638138 0.19647 199 233 251
0.213699 -0.637355 0.195604 195 233 252
0.23361 -0.637441 0.192322 180 218 233
0.244868 -0.634414 0.19013 182 218 238
0.256301 -0.636626 0.188587 181 217 233
0.265775 -0.639681 0.187476 177 212 230
0.282646 -0.640948 0.185033 110 141 160
0.2893 -0.642998 0.184269 86 109 122
-0.0515377 -0.157027 0.18397 82 39 24
-0.0502551 -0.15558 0.183392 87 42 25
-0.193224 -0.499472 0.268513 98 43 32
-0.131286 -0.590778 0.262325 161 92 86
-0.131934 -0.610982 0.265172 162 89 86
-0.0972889 -0.62527 0.257854 211 203 210
-0.0847836 -0.624597 0.254529 210 202 209
-0.0807576 -0.62528 0.25359 207 199 207
-0.0177552 -0.619775 0.237375 196 186 194
0.0161853 -0.619893 0.229586 180 167 176
0.0608978 -0.560272 0.211834 115 63 47
0.118208 -0.528499 0.196397 129 73 51
0.200198 -0.635373 0.195361 98 129 148
0.205095 -0.635587 0.194549 86 120 138
-0.0519246 -0.158027 0.183928 84 41 26
-0.182506 -0.542706 0.268698 151 82 73
-0.164469 -0.590843 0.269452 95 38 35
-0.140557 -0.563775 0.259344 103 46 35
-0.106004 -0.624844 0.257871 209 204 210
-0.103659 -0.623332 0.25706 211 203 210
-0.0526414 -0.625473 0.244384 203 193 201
0.00968854 -0.61932 0.22884 183 173 181
0.0628851 -0.543054 0.207289 121 67 49
0.182754 -0.634558 0.196039 175 209 224
0.190012 -0.635101 0.194826 98 131 152
0.209178 -0.63513 0.191516 152 188 203
-0.195224 -0.498241 0.265371 103 46 33
-0.169405 -0.585315 0.268056 78 22 18
-0.151944 -0.574873 0.261877 95 48 44
-0.122947 -0.623299 0.259951 213 205 212
-0.0712257 -0.623454 0.246569 206 198 205
-0.0327203 -0.621554 0.236875 197 187 195
-0.0126975 -0.621487 0.232133 193 182 190
-0.0106893 -0.622527 0.231798 193 182 190
0.00719352 -0.618621 0.227185 184 174 184
0.082478 -0.515262 0.198038 123 69 46
0.130742 -0.541598 0.192085 130 89 78
0.173418 -0.629492 0.194852 113 146 165
0.209636 -0.631804 0.188773 157 190 211
0.283889 -0.641614 0.177765 101 130 150
-0.176301 -0.519614 0.260365 146 78 72
-0.142468 -0.560834 0.25555 103 46 31
-0.0493097 -0.622457 0.23885 201 190 198
-0.0331932 -0.621807 0.234873 197 187 195
0.00278569 -0.619908 0.226223 187 176 184
0.00863647 -0.616854 0.224513 184 174 182
0.0935833 -0.507664 0.193247 125 70 48
0.100583 -0.502736 0.191322 118 64 44
0.195317 -0.633315 0.189163 181 217 233
0.197748 -0.633445 0.188752 40 66 85
0.204687 -0.632842 0.187477 165 194 212
-0.0529798 -0.159905 0.183617 86 43 25
-0.183699 -0.570064 0.266207 131 60 50
-0.100657 -0.622016 0.249546 210 202 209
-0.0437195 -0.622274 0.235315 200 189 197
0.00435619 -0.621128 0.223882 186 175 183
0.00631553 -0.620109 0.223314 186 175 183
0.0103538 -0.621027 0.222508 184 174 182
0.0610937 -0.584077 0.207045 101 50 40
0.0627636 -0.549598 0.202625 118 66 49
0.0776188 -0.519599 0.196083 124 73 56
0.0787941 -0.51732 0.195583 124 73 56
0.0836016 -0.516287 0.194508 118 62 43
0.087916 -0.513259 0.193308 123 65 46
0.183481 -0.634635 0.189156 163 202 216
0.189027 -0.636858 0.188409 178 212 230
0.207839 -0.635963 0.185002 55 91 109
0.270759 -0.639681 0.174893 135 175 196
-0.202347 -0.499105 0.262205 74 40 29
-0.173813 -0.51616 0.255587 137 72 65
-0.142057 -0.556536 0.251021 116 57 43
0.00202054 -0.625356 0.222772 187 176 184
0.0183872 -0.628959 0.21949 183 170 177
0.060014 -0.592433 0.206243 77 33 23
0.0832487 -0.51648 0.192883 115 66 46
0.0970023 -0.498732 0.188224 122 71 50
0.111963 -0.49858 0.185372 122 71 48
0.124769 -0.516528 0.184939 115 69 48
0.128947 -0.523569 0.184929 125 87 80
0.147141 -0.55961 0.185472 169 198 213
0.20739 -0.636223 0.182829 166 204 221
-0.200418 -0.498337 0.259756 104 47 35
-0.179884 -0.562929 0.260285 108 41 34
-0.165271 -0.561273 0.255995 61 14 14
-0.138108 -0.583893 0.25092 142 78 63
-0.117207 -0.617036 0.248942 209 200 208
-0.113431 -0.61893 0.248161 210 202 209
-0.109456 -0.619823 0.247223 209 200 208
-0.10764 -0.62123 0.246906 209 200 208
-0.0748381 -0.62118 0.238543 205 197 204
-0.0652271 -0.626509 0.236745 202 194 201
-0.0345346 -0.620533 0.228619 194 183 191
-0.0305137 -0.61979 0.227578 194 184 189
0.0536355 -0.591397 0.205463 60 1 0
0.0872161 -0.513636 0.190076 119 70 50
0.0923132 -0.501083 0.187731 124 71 48
0.117168 -0.500161 0.182905 120 69 43
0.119978 -0.503453 0.182726 117 68 46
0.207323 -0.637398 0.180682 167 204 219
-0.189891 -0.490975 0.254168 120 58 47
-0.174784 -0.498242 0.250469 132 70 57
-0.177135 -0.565495 0.25775 79 20 17
-0.175031 -0.565272 0.257136 77 21 17
-0.142264 -0.614872 0.253186 146 83 68
-0.0753219 -0.621401 0.236533 203 195 202
-0.0654238 -0.623772 0.234328 203 193 199
-0.0635103 -0.625012 0.233989 202 194 199
-0.0391345 -0.623447 0.227898 195 185 193
-0.0350837 -0.622737 0.226853 194 184 189
-0.010965 -0.631706 0.222149 190 183 185
0.0158775 -0.63744 0.216644 166 154 160
0.0782458 -0.527963 0.191654 111 64 43
0.087971 -0.511501 0.188001 118 69 49
0.10377 -0.490766 0.182813 122 71 48
0.114017 -0.491795 0.180984 126 75 49
0.167273 -0.595045 0.181445 183 197 211
0.274066 -0.639124 0.167229 118 156 175
-0.184297 -0.49413 0.251082 130 68 55
-0.171349 -0.521542 0.249924 131 67 57
-0.17351 -0.537669 0.252062 108 45 39
-0.142917 -0.624283 0.252119 153 87 73
-0.103961 -0.618613 0.241342 209 200 208
-0.0800431 -0.622971 0.235719 204 196 203
0.0487535 -0.59027 0.202374 117 48 49
0.0614427 -0.585643 0.199207 54 4 3
0.0701229 -0.560055 0.194795 114 60 42
0.0787269 -0.532044 0.190209 107 60 42
0.112128 -0.487213 0.179264 127 76 52
0.207729 -0.635176 0.175843 186 214 227
0.27361 -0.63937 0.164967 120 155 175
-0.19562 -0.4899 0.252257 109 53 42
-0.193304 -0.488896 0.251494 111 54 42
-0.18243 -0.493223 0.248716 129 70 54
-0.150748 -0.524716 0.242634 67 17 13
-0.124623 -0.616232 0.244305 210 202 209
-0.112745 -0.619051 0.241487 206 200 207
-0.0705044 -0.624647 0.231353 200 190 195
-0.0646645 -0.627408 0.230187 198 190 195
-0.058521 -0.627132 0.228656 197 187 193
-0.0564236 -0.626363 0.228068 197 187 193
-0.0524633 -0.627771 0.227246 195 187 192
-0.001571 -0.638179 0.21629 50 45 37
0.0191188 -0.638702 0.211661 112 103 104
0.131967 -0.511169 0.17615 110 68 46
0.200306 -0.636068 0.174982 255 255 255
0.27221 -0.637843 0.162716 121 156 176
0.280879 -0.638819 0.161365 96 115 127
0.284431 -0.64028 0.160901 101 109 113
-0.195207 -0.488283 0.250259 109 53 42
-0.174548 -0.4951 0.244884 130 71 57
-0.120965 -0.616432 0.241208 196 188 195
-0.113052 -0.618275 0.23933 193 182 190
-0.0949971 -0.620972 0.234968 185 177 184
-0.0712011 -0.626818 0.229571 176 167 170
0.0410457 -0.634439 0.204222 69 53 54
0.0445902 -0.629105 0.202946 73 55 57
0.048746 -0.582517 0.197646 128 57 56
0.0705535 -0.577418 0.192563 70 24 8
0.0725659 -0.578092 0.192208 94 42 28
0.106608 -0.477531 0.176227 132 79 56
0.126581 -0.497206 0.174208 114 70 46
0.263614 -0.637843 0.161809 176 201 216
0.271753 -0.638069 0.160461 139 172 192
-0.203693 -0.489695 0.2511 88 42 33
-0.184963 -0.485052 0.245312 128 71 56
-0.166453 -0.520353 0.242957 92 36 30
-0.082258 -0.62947 0.230382 162 152 158
-0.0637973 -0.630021 0.225878 166 157 157
0.0792997 -0.575974 0.188672 102 50 36
0.080754 -0.547192 0.185821 100 55 38
0.0925896 -0.491041 0.17853 124 73 52
0.130674 -0.500023 0.172019 110 68 46
-0.200698 -0.490563 0.248546 100 47 38
-0.184292 -0.486822 0.243549 129 72 55
-0.181719 -0.489165 0.242994 131 74 59
-0.167074 -0.496926 0.239464 136 74 61
-0.117354 -0.625005 0.236691 143 129 132
-0.0941279 -0.62269 0.230585 138 126 130
-0.0921287 -0.62305 0.230113 137 125 129
-0.0724962 -0.630153 0.225846 110 101 100
-0.0153621 -0.624692 0.211713 36 37 30
-0.00935197 -0.622795 0.210158 37 35 29
0.0145159 -0.619454 0.204439 20 8 8
0.049763 -0.582638 0.193509 110 42 38
0.0617897 -0.587081 0.19133 54 11 5
0.0865086 -0.527617 0.181175 106 61 42
0.0980627 -0.483335 0.175212 119 68 44
0.0989635 -0.480989 0.174845 118 70 45
0.105358 -0.475903 0.173197 132 79 56
0.130497 -0.495854 0.170047 116 73 54
-0.198354 -0.488832 0.246002 107 54 42
-0.169419 -0.492994 0.238099 136 74 59
-0.145985 -0.510881 0.233001 128 64 49
-0.129645 -0.621311 0.237378 143 130 130
-0.0807138 -0.626198 0.225369 76 64 63
0.0533264 -0.584313 0.190919 78 22 16
0.0843367 -0.58637 0.184581 79 31 18
0.101844 -0.47598 0.17232 127 76 52
-0.178397 -0.488131 0.238559 135 78 63
-0.176532 -0.487917 0.238021 136 79 64
-0.164198 -0.506245 0.23588 114 54 45
-0.159203 -0.507206 0.234577 85 31 24
-0.157319 -0.506891 0.234039 84 30 23
-0.145787 -0.509132 0.231066 136 73 55
-0.0826947 -0.622109 0.223376 4 0 0
-0.0747005 -0.623298 0.221497 23 14 10
0.0853663 -0.541309 0.178939 101 56 39
0.124669 -0.482035 0.166839 117 68 46
-0.188458 -0.485752 0.239531 128 71 54
-0.169494 -0.491415 0.234594 137 75 60
-0.16836 -0.49299 0.234385 137 75 62
-0.153457 -0.60386 0.237992 145 88 73
-0.127583 -0.617292 0.232204 93 82 79
-0.115124 -0.617189 0.229005 56 43 41
-0.0949276 -0.606132 0.223093 197 184 177
-0.00516219 -0.600366 0.201139 121 121 112
0.0324698 -0.634827 0.19527 32 25 25
0.045548 -0.605549 0.19023 85 68 62
0.0882278 -0.525317 0.1754 103 61 41
0.0892414 -0.502417 0.17356 115 71 49
0.0974229 -0.479442 0.170313 117 68 48
0.120496 -0.476105 0.16563 116 66 42
-0.171758 -0.487459 0.233272 136 77 61
-0.164828 -0.501226 0.232228 125 65 51
-0.159887 -0.502186 0.23094 106 48 36
-0.143666 -0.629747 0.235047 117 106 105
-0.102262 -0.599878 0.222412 188 175 168
-0.0916201 -0.594844 0.219395 189 176 169
-0.0734607 -0.604821 0.215604 192 182 174
-0.0520256 -0.60534 0.210444 197 192 180
-0.0462243 -0.605856 0.209093 196 189 178
-0.036672 -0.609547 0.207087 0 0 0
-0.0248426 -0.604154 0.203927 0 7 0
-0.00948828 -0.595513 0.199756 82 99 63
0.0405103 -0.637272 0.191506 39 30 29
0.0527519 -0.589696 0.185512 111 97 88
0.0895642 -0.511646 0.172463 108 66 43
0.103694 -0.470207 0.16691 122 71 48
0.110341 -0.471178 0.165687 119 66 43
0.115284 -0.471589 0.164764 114 63 39
0.11705 -0.472025 0.164454 114 64 37
-0.207681 -0.489671 0.241757 89 46 29
-0.159952 -0.501369 0.229179 113 55 43
-0.15381 -0.503787 0.227664 127 66 50
-0.1426 -0.512101 0.225171 145 77 63
-0.103398 -0.592772 0.22017 187 174 165
-0.0194221 -0.596492 0.200105 71 110 56
0.0036461 -0.603511 0.195286 13 23 0
0.00537492 -0.598475 0.194557 0 0 0
0.0940154 -0.486691 0.168307 113 67 44
0.101416 -0.474075 0.16606 117 68 46
0.107962 -0.469864 0.164524 118 64 44
0.118915 -0.469217 0.162376 116 66 40
-0.19913 -0.486765 0.237458 107 55 36
-0.157814 -0.499295 0.226761 118 62 47
-0.154764 -0.500496 0.226008 127 68 52
-0.143299 -0.513154 0.22367 146 78 64
-0.113248 -0.59085 0.220501 36 20 9
-0.0751009 -0.594922 0.211255 188 176 166
-0.0664512 -0.604121 0.209722 129 132 113
-0.0451404 -0.605278 0.20468 53 111 25
0.00316751 -0.602638 0.1933 16 28 6
0.0290172 -0.635405 0.189564 57 51 48
0.0750358 -0.62392 0.178889 169 161 159
0.100241 -0.47653 0.164885 111 62 40
0.101392 -0.475127 0.164577 114 65 43
-0.168091 -0.493153 0.227507 132 72 58
-0.159053 -0.496924 0.225259 118 62 45
-0.111447 -0.58944 0.217933 147 134 127
-0.101033 -0.585564 0.215098 185 173 164
-0.0971548 -0.585321 0.214115 185 173 164
-0.027987 -0.599466 0.198246 14 40 6
-0.0108423 -0.590891 0.193771 9 27 0
-0.00708402 -0.590897 0.192909 8 26 0
0.00248468 -0.595769 0.191016 23 39 11
0.026267 -0.632684 0.187846 99 97 96
0.0649973 -0.615434 0.178406 140 129 121
0.0902937 -0.533148 0.168442 104 61 44
-0.146061 -0.525263 0.221499 151 83 67
-0.10519 -0.584903 0.2141 184 172 163
-0.0994577 -0.585064 0.212677 185 173 164
-0.0791337 -0.589646 0.207906 188 176 166
-0.0671603 -0.602366 0.205682 23 48 10
-0.0475192 -0.598382 0.20076 0 22 0
-0.0019558 -0.58796 0.189591 0 19 0
0.015097 -0.591396 0.18593 169 161 155
0.0280026 -0.634651 0.185412 101 99 97
0.042231 -0.632428 0.182156 103 93 87
0.0591732 -0.620357 0.177826 96 86 78
0.0916427 -0.499791 0.164677 107 60 42
0.132245 -0.472585 0.155349 108 66 43
-0.166302 -0.491204 0.223545 124 70 52
-0.133796 -0.614146 0.220723 95 93 91
-0.101936 -0.585771 0.211331 184 172 163
-0.0476322 -0.593506 0.198515 20 69 0
-0.0342881 -0.59142 0.195262 59 111 30
-0.0324083 -0.591518 0.194827 67 120 34
-0.00990763 -0.583114 0.189188 97 154 64
0.0146666 -0.591496 0.184044 167 161 154
0.0401312 -0.636714 0.180675 155 144 139
0.0475414 -0.628908 0.178663 167 157 151
0.0995625 -0.477744 0.160409 107 57 38
0.102711 -0.472567 0.159543 105 56 36
0.10384 -0.471154 0.159254 107 55 36
0.107171 -0.466892 0.158402 108 59 35
0.108264 -0.465465 0.158122 109 61 36
-0.156685 -0.492194 0.219335 141 77 62
-0.151435 -0.501666 0.218333 153 85 69
-0.160377 -0.595256 0.224581 144 80 66
-0.158608 -0.634304 0.225795 135 122 118
-0.156312 -0.633947 0.22519 98 84 77
-0.125754 -0.594857 0.215702 204 193 188
-0.0935726 -0.590602 0.20748 185 173 164
-0.089672 -0.590284 0.206506 185 173 164
-0.0716843 -0.60009 0.202572 12 27 0
0.0892319 -0.548821 0.164029 99 60 44
0.111507 -0.46218 0.15583 112 61 37
-0.185609 -0.485085 0.22515 127 73 55
-0.168897 -0.47867 0.220424 118 66 47
-0.163033 -0.489836 0.219255 129 72 57
-0.157073 -0.492265 0.217763 142 79 61
-0.151506 -0.500799 0.216611 153 87 71
-0.163114 -0.602967 0.223501 148 84 69
-0.139731 -0.626407 0.218441 129 124 124
-0.0742859 -0.6019 0.201237 229 225 211
-0.0634932 -0.591194 0.198188 75 141 44
0.0087076 -0.603908 0.181938 180 177 169
0.0330164 -0.637462 0.177932 0 0 0
0.0827967 -0.633878 0.166995 108 100 93
0.091828 -0.546138 0.161548 99 61 42
0.12586 -0.463139 0.151548 119 68 42
0.132666 -0.467935 0.150402 115 69 44
-0.197497 -0.482687 0.226616 114 64 47
-0.160444 -0.491128 0.216939 139 78 62
-0.155133 -0.495378 0.215679 150 85 68
-0.151897 -0.500865 0.215012 155 89 73
-0.165298 -0.608767 0.222148 148 87 71
-0.0752192 -0.605941 0.199568 221 213 202
-0.0587459 -0.596859 0.195271 78 144 44
0.0145676 -0.612708 0.178923 160 157 151
0.0923749 -0.582952 0.160938 95 56 42
0.128347 -0.462077 0.149506 118 70 43
-0.203136 -0.482211 0.226445 103 53 38
-0.159782 -0.488397 0.215013 144 80 66
-0.157502 -0.491456 0.214502 149 84 67
-0.152042 -0.505256 0.213477 155 91 74
-0.160329 -0.577138 0.21777 153 90 75
-0.083943 -0.608851 0.199712 188 176 166
-0.0784789 -0.612677 0.198519 195 186 175
-0.0293147 -0.620054 0.187128 49 49 36
-0.0213522 -0.620292 0.185292 24 26 16
0.0235433 -0.634255 0.175583 54 50 47
0.0633592 -0.637068 0.166931 53 47 40
0.0959183 -0.551258 0.157211 97 59 42
0.0941872 -0.491712 0.155694 108 58 43
0.0948772 -0.488395 0.15545 105 57 42
0.105906 -0.467146 0.152571 104 57 36
0.108932 -0.457639 0.151685 105 59 36
0.129059 -0.460634 0.147804 120 69 43
-0.148125 -0.637159 0.214291 155 147 145
-0.118551 -0.599371 0.205837 148 137 132
-0.0994448 -0.615502 0.201599 206 194 185
-0.0695603 -0.617987 0.194447 113 161 90
-0.0633342 -0.61568 0.192892 96 141 72
-0.051922 -0.622783 0.1904 112 114 100
-0.0479227 -0.623098 0.189467 92 92 79
0.00846903 -0.629091 0.176651 1 2 0
0.0188534 -0.632586 0.174423 40 38 34
0.043862 -0.635511 0.168962 42 38 32
0.105406 -0.471471 0.151261 100 55 36
0.108622 -0.457687 0.15026 104 55 33
0.12414 -0.457163 0.147168 116 68 43
-0.187797 -0.433549 0.218111 85 44 29
-0.155862 -0.485025 0.2106 149 86 68
-0.0829228 -0.624398 0.19571 16 15 6
-0.0446735 -0.628426 0.186725 7 11 0
-0.0346363 -0.630993 0.184447 31 29 23
0.0540417 -0.637332 0.164613 47 41 36
0.102888 -0.575187 0.152632 100 61 45
-0.174569 -0.471746 0.213631 120 69 47
-0.164598 -0.476217 0.211085 137 81 61
-0.153834 -0.492409 0.208561 155 89 73
-0.131721 -0.618093 0.20536 64 60 57
-0.107871 -0.623339 0.199595 1 0 0
-0.0782163 -0.63222 0.192613 100 101 94
-0.0677341 -0.630478 0.190073 156 157 150
-0.0290925 -0.634284 0.181087 40 38 36
-0.0229406 -0.633456 0.179646 33 31 29
0.0342449 -0.631463 0.166668 35 34 28
0.0825367 -0.63384 0.156195 55 47 41
0.0923824 -0.629865 0.154011 56 49 40
0.110424 -0.455833 0.146887 104 57 34
0.134826 -0.461197 0.142119 119 73 48
-0.204017 -0.473739 0.219834 96 52 33
-0.202492 -0.477949 0.219466 102 54 36
-0.186301 -0.474027 0.215131 119 67 48
-0.179987 -0.471587 0.21344 118 69 49
-0.161372 -0.475622 0.208623 144 83 65
-0.155576 -0.482297 0.207208 151 88 71
-0.154461 -0.483807 0.206941 154 88 72
-0.153544 -0.490568 0.206795 153 90 73
-0.128369 -0.629307 0.202574 46 44 40
-0.126142 -0.628797 0.202017 46 44 40
-0.115841 -0.630019 0.199509 85 84 80
-0.0497912 -0.630225 0.183679 53 56 51
-0.0275209 -0.634391 0.178566 30 28 26
0.0485084 -0.633967 0.161417 40 34 29
0.109783 -0.454922 0.145521 104 57 34
0.137301 -0.460019 0.140089 115 69 46
-0.205369 -0.472101 0.218527 89 46 31
-0.168098 -0.470722 0.208715 133 81 64
-0.155679 -0.520743 0.205978 156 93 73
-0.157047 -0.638533 0.207606 43 31 24
-0.123791 -0.635603 0.199347 54 52 48
-0.0935333 -0.631202 0.191939 34 35 28
-0.060482 -0.630395 0.184049 44 45 42
-0.0463862 -0.633538 0.180781 32 30 26
-0.0320189 -0.632287 0.177419 38 36 34
-0.00754968 -0.632623 0.171797 23 24 21
0.00685195 -0.635268 0.168564 22 23 16
0.0294023 -0.633889 0.163485 13 9 3
0.0479267 -0.633008 0.159372 13 9 3
0.0562364 -0.632948 0.157548 12 4 0
0.0619415 -0.629104 0.15625 20 12 8
0.0636788 -0.626819 0.155842 16 10 6
-0.209003 -0.474855 0.21784 85 44 31
-0.194026 -0.473886 0.213887 110 61 41
-0.155104 -0.488168 0.203864 153 90 73
-0.167917 -0.579961 0.207672 154 93 75
-0.108883 -0.632672 0.193489 55 54 50
-0.0941639 -0.632215 0.189932 36 37 30
-0.0650113 -0.630018 0.182963 31 32 29
-0.0549445 -0.631958 0.180611 29 30 23
-0.0223133 -0.633596 0.173041 12 10 6
-0.0141396 -0.632676 0.171155 0 0 0
-0.0120993 -0.632675 0.170688 0 1 0
0.00218431 -0.632437 0.167433 7 6 2
0.0143155 -0.629915 0.164668 20 19 13
0.018254 -0.627679 0.163761 21 20 14
0.0560647 -0.619812 0.155303 39 31 27
0.0752859 -0.612662 0.151058 33 25 19
0.0785023 -0.607996 0.150322 30 20 14
0.0859127 -0.604486 0.148699 64 49 38
0.101737 -0.547312 0.144868 105 63 45
0.101516 -0.474475 0.144382 99 54 33
0.11899 -0.448009 0.140656 112 61 37
-0.209386 -0.47487 0.216274 86 45 32
-0.157817 -0.476534 0.20289 154 93 77
-0.160572 -0.538366 0.203701 153 92 74
-0.168353 -0.586301 0.20578 153 94 77
-0.127026 -0.636169 0.195732 74 72 68
-0.103589 -0.635783 0.190046 38 40 32
-0.0636436 -0.63223 0.180504 3 5 0
-0.0615197 -0.631432 0.179999 6 7 0
-0.028832 -0.630468 0.172371 20 19 15
0.0172407 -0.618713 0.161805 24 22 16
0.0271013 -0.616987 0.159588 32 26 21
0.0540032 -0.607941 0.153585 37 29 22
0.0577614 -0.606386 0.152754 33 25 19
0.0708482 -0.601211 0.149878 25 16 5
0.0982748 -0.480646 0.143525 102 58 34
0.100037 -0.475906 0.143144 99 54 35
0.106506 -0.452643 0.141749 100 56 32
0.109236 -0.447395 0.141179 104 57 36
0.124795 -0.447675 0.13802 115 65 39
0.130139 -0.452991 0.136947 114 64 37
-0.208796 -0.476555 0.214444 92 46 34
-0.190218 -0.471773 0.209626 115 66 46
-0.171226 -0.467661 0.204739 134 82 63
-0.156744 -0.49532 0.200967 155 89 73
-0.158559 -0.638585 0.201261 50 40 30
-0.144774 -0.636123 0.197865 55 54 50
-0.0597056 -0.628641 0.177414 12 10 6
-0.030855 -0.61542 0.170665 19 17 13
-0.0269081 -0.615538 0.169754 19 18 11
0.0966364 -0.498768 0.142285 107 62 45
0.106008 -0.461184 0.140368 98 53 32
0.107557 -0.452159 0.140064 101 57 35
-0.192435 -0.471952 0.208571 114 65 43
-0.178966 -0.465307 0.205155 121 70 48
-0.169169 -0.469844 0.202611 147 93 75
-0.158903 -0.477472 0.199948 157 94 76
-0.159173 -0.515852 0.199781 152 86 69
-0.11183 -0.629358 0.187667 15 9 6
-0.10761 -0.629144 0.186651 23 17 13
-0.0902497 -0.623976 0.182508 18 16 12
-0.068258 -0.62784 0.177285 12 13 6
-0.0500578 -0.629458 0.173014 4 2 0
0.0336629 -0.591196 0.154009 148 136 126
0.103304 -0.55073 0.139011 100 62 43
0.101978 -0.474027 0.139638 98 53 32
0.109967 -0.446902 0.138129 103 56 35
0.111607 -0.443075 0.137815 104 56 31
0.113281 -0.443494 0.137468 107 56 32
0.127828 -0.445049 0.134488 115 67 40
-0.190532 -0.470871 0.206466 116 67 47
-0.172341 -0.468572 0.20184 141 87 69
-0.159204 -0.500001 0.198186 155 89 73
-0.157219 -0.629903 0.196527 59 49 41
-0.122251 -0.606857 0.188176 25 18 16
-0.111172 -0.612262 0.185462 28 22 15
-0.0974439 -0.614787 0.182151 29 23 18
-0.0499838 -0.621469 0.170904 61 56 42
-0.0311287 -0.596423 0.166681 40 38 25
-0.00654712 -0.587614 0.161097 173 158 152
0.00290202 -0.590344 0.158935 166 153 146
0.048731 -0.578222 0.148772 124 112 102
0.104425 -0.556518 0.136874 78 42 25
0.0986139 -0.508378 0.138501 108 63 46
0.0984057 -0.484478 0.138748 104 57 36
-0.195643 -0.466174 0.20623 105 56 36
-0.169249 -0.472292 0.199412 151 93 76
-0.160681 -0.484558 0.197077 160 97 82
-0.155621 -0.622176 0.194028 50 40 32
-0.0672374 -0.608919 0.17296 207 195 186
-0.00526144 -0.579563 0.15892 167 155 145
0.0443916 -0.576726 0.14781 130 115 107
0.0679521 -0.571967 0.142686 127 115 105
0.0826395 -0.570009 0.139518 156 140 127
0.1027 -0.566166 0.13525 197 180 170
0.0986316 -0.48638 0.137088 105 58 40
0.107279 -0.454031 0.13569 100 55 36
0.117249 -0.439506 0.133822 112 61 37
-0.196452 -0.467048 0.204809 105 56 38
-0.172048 -0.470097 0.198559 150 93 76
-0.16884 -0.470436 0.197745 151 93 76
-0.162363 -0.506529 0.195467 154 86 71
-0.0845393 -0.588601 0.175271 182 170 160
-0.0677999 -0.591784 0.171275 180 167 158
0.00173765 -0.581313 0.155372 165 150 142
0.0657241 -0.572279 0.14125 127 115 105
0.0764131 -0.569186 0.138965 144 130 119
0.106882 -0.458282 0.134223 99 54 37
0.109031 -0.442618 0.134046 102 55 32
0.113347 -0.442012 0.133158 105 59 36
-0.164297 -0.505906 0.194237 154 88 72
-0.127974 -0.590387 0.183624 186 171 163
-0.0711816 -0.584367 0.170212 180 167 158
-0.0634624 -0.582208 0.168441 179 164 156
0.0288829 -0.578376 0.147374 140 128 118
0.0398943 -0.577144 0.144943 132 118 109
0.0842421 -0.572488 0.135286 158 142 129
0.103339 -0.571922 0.13117 189 172 160
0.104665 -0.569501 0.130933 193 177 164
0.0993254 -0.502595 0.133417 105 63 45
0.0994955 -0.480632 0.133828 101 56 37
0.10671 -0.449732 0.132946 99 54 35
0.115687 -0.440935 0.131256 104 56 31
0.127879 -0.436832 0.128815 110 62 37
0.13128 -0.437479 0.128097 110 62 35
0.136315 -0.441728 0.126962 112 66 39
-0.21347 -0.473994 0.205697 84 43 29
-0.210179 -0.471275 0.204939 85 44 31
-0.186731 -0.463404 0.199233 118 66 45
-0.174376 -0.466023 0.196063 146 90 71
-0.169943 -0.471303 0.194815 154 93 77
-0.167714 -0.523953 0.1929 150 82 64
-0.148354 -0.583002 0.186703 185 174 162
-0.125926 -0.579642 0.181363 183 171 161
-0.11592 -0.577844 0.179003 183 171 161
-0.0839755 -0.578638 0.171387 182 168 157
-0.0803148 -0.579166 0.170512 181 167 156
0.0303953 -0.579147 0.145086 139 125 116
0.0375348 -0.576338 0.143556 133 119 108
0.0990073 -0.491094 0.132102 104 61 44
0.101479 -0.472518 0.132028 99 54 35
-0.209618 -0.469479 0.203209 84 43 29
-0.18347 -0.462937 0.196847 124 73 54
-0.176528 -0.466255 0.195012 144 88 68
-0.170846 -0.531418 0.191656 146 80 62
-0.150549 -0.575155 0.185448 190 176 167
-0.119999 -0.576983 0.178039 183 171 161
-0.0995241 -0.579138 0.173102 182 169 162
-0.0719277 -0.583291 0.166484 180 166 155
-0.0680078 -0.58173 0.165607 180 166 155
-0.065844 -0.578949 0.165175 179 165 154
-0.0601531 -0.577514 0.163884 180 166 155
-0.0417335 -0.576883 0.159622 176 162 153
0.00400854 -0.577049 0.149146 158 144 133
0.00579619 -0.575962 0.14877 155 143 133
0.0132164 -0.577526 0.147053 151 136 128
0.0353918 -0.577504 0.142076 133 119 110
0.0446818 -0.577339 0.140011 128 113 102
0.0520164 -0.576279 0.138411 119 105 94
0.0995655 -0.575704 0.128004 185 169 156
0.0994968 -0.493927 0.130299 104 61 44
0.104545 -0.458693 0.130224 96 52 33
0.104657 -0.454427 0.130324 96 52 33
0.140992 -0.439154 0.123148 101 59 34
-0.210853 -0.460935 0.202189 82 46 31
-0.175487 -0.46686 0.193151 149 91 72
-0.174089 -0.4675 0.192782 154 93 75
-0.133621 -0.57578 0.179375 187 172 164
-0.0961238 -0.57875 0.170352 181 169 159
-0.0497482 -0.580365 0.159445 176 162 151
-4.05867e-05 -0.578153 0.148107 160 146 135
0.0238719 -0.577598 0.142724 139 125 116
0.0258747 -0.579417 0.142218 139 125 116
0.0295576 -0.579051 0.141403 138 124 115
0.0313026 -0.577862 0.141049 137 122 114
0.0678782 -0.572427 0.13309 132 118 107
0.0986825 -0.573714 0.126306 184 168 155
0.107299 -0.569341 0.124575 201 187 174
0.119865 -0.43442 0.126283 106 61 33
0.121537 -0.434783 0.125919 108 60 33
0.129692 -0.432232 0.124292 105 59 36
0.145006 -0.441421 0.120775 99 62 36
-0.176688 -0.561416 0.188318 141 80 64
-0.18617 -0.600472 0.189185 136 85 73
-0.136367 -0.577185 0.178016 188 174 165
-0.131758 -0.574245 0.177018 185 173 164
-0.0890717 -0.578912 0.166731 180 167 158
-0.0687524 -0.580625 0.161911 180 166 155
-0.0276128 -0.565338 0.152913 169 155 144
0.00861564 -0.57565 0.144302 149 137 128
0.0769272 -0.572507 0.12917 147 133 122
0.0850219 -0.574814 0.12731 159 143 131
0.108178 -0.444332 0.126983 94 49 30
0.137891 -0.433662 0.121094 99 58 33
-0.211095 -0.45996 0.199077 77 43 29
-0.206496 -0.461418 0.197871 82 40 27
-0.201432 -0.461928 0.196593 93 48 29
-0.196384 -0.462364 0.195324 102 54 36
-0.176598 -0.467671 0.190224 153 92 74
-0.17432 -0.517518 0.187594 158 96 81
-0.175347 -0.529993 0.187331 146 85 69
-0.0261878 -0.56331 0.150785 168 154 143
-0.000821404 -0.580025 0.144353 155 143 131
0.0303728 -0.576743 0.137435 138 124 113
0.0864351 -0.574327 0.125076 163 146 136
0.104812 -0.522012 0.123132 103 62 46
0.107536 -0.443347 0.125716 92 50 30
0.115211 -0.431729 0.124551 102 57 38
0.129981 -0.430637 0.121458 108 62 37
-0.207282 -0.458832 0.196585 78 39 25
-0.172095 -0.492634 0.186404 161 100 82
-0.158016 -0.574205 0.179368 192 180 171
-0.152021 -0.57394 0.177944 194 179 171
-0.101784 -0.581835 0.165685 181 167 156
-0.0939146 -0.580154 0.163909 180 166 155
-0.0600193 -0.577432 0.156118 178 164 152
-0.0525413 -0.576044 0.154444 175 161 152
-0.0141454 -0.577271 0.145567 163 148 137
-0.0123048 -0.579246 0.145063 163 148 137
0.0356614 -0.578028 0.134263 133 119 108
0.0412912 -0.578325 0.132989 127 115 103
0.0499442 -0.573063 0.13128 124 112 102
0.0556972 -0.574169 0.12995 127 115 103
0.0573725 -0.572878 0.129632 129 118 106
0.0700964 -0.570542 0.126907 138 124 115
0.0815562 -0.571183 0.124345 156 141 130
0.109934 -0.56908 0.118206 204 186 174
0.100415 -0.479419 0.124215 99 57 39
0.113266 -0.431286 0.123584 100 56 34
0.1365 -0.428428 0.118758 97 55 33
-0.20027 -0.454872 0.193472 93 48 31
-0.179067 -0.527629 0.184697 153 92 76
-0.151199 -0.576313 0.175662 193 178 170
-0.146268 -0.579807 0.174321 190 176 167
-0.096179 -0.579765 0.162498 178 167 155
-0.0848577 -0.579515 0.159862 181 167 156
-0.0831645 -0.580765 0.159409 181 167 156
-0.0810485 -0.579039 0.158996 180 166 155
-0.0529618 -0.575963 0.152618 175 161 150
-0.051138 -0.576095 0.15219 175 161 150
-0.0438986 -0.577548 0.150452 173 159 148
-0.00536781 -0.578998 0.141559 159 144 136
0.027793 -0.577775 0.134108 139 125 114
0.0334034 -0.578164 0.132828 132 120 108
0.107956 -0.570479 0.116635 194 178 165
0.105694 -0.521373 0.119474 101 61 45
-0.179872 -0.468648 0.186206 148 88 67
-0.177713 -0.504527 0.183775 160 100 79
-0.112654 -0.574624 0.164663 180 167 158
-0.11084 -0.574996 0.164218 180 167 158
0.0472928 -0.573169 0.128025 124 112 102
0.0604969 -0.574047 0.125027 135 120 109
0.0770878 -0.57181 0.121448 149 134 123
0.1066 -0.438922 0.121824 92 50 30
0.118167 -0.42992 0.119793 102 58 34
-0.183696 -0.46139 0.185951 136 79 62
-0.178684 -0.484621 0.183414 159 93 76
-0.139044 -0.578706 0.168694 184 172 163
-0.0947014 -0.576927 0.158392 178 166 157
-0.00803318 -0.579864 0.138249 156 145 133
0.00295259 -0.577441 0.135881 153 139 128
0.012181 -0.577878 0.133763 147 133 122
0.0324677 -0.576986 0.129228 135 120 109
0.0706694 -0.569916 0.121052 139 125 114
0.0819278 -0.569534 0.118566 156 141 130
0.102445 -0.463508 0.119925 94 51 33
0.105627 -0.445473 0.120242 92 50 30
0.11585 -0.42856 0.11897 101 57 35
-0.208618 -0.455137 0.190768 76 38 24
-0.195872 -0.454174 0.187752 101 51 36
-0.180162 -0.467575 0.183155 148 85 65
-0.182532 -0.518896 0.180598 151 93 74
-0.328146 -0.986522 0.18699 141 77 60
-0.129138 -0.576047 0.164543 181 169 157
-0.113506 -0.574424 0.160978 178 166 157
-0.0845906 -0.581462 0.153826 176 164 154
-0.0066432 -0.577711 0.136118 157 143 131
0.0174737 -0.580335 0.130486 142 131 119
0.0230945 -0.580834 0.129185 135 124 112
0.0524843 -0.57607 0.122842 126 114 104
0.0563002 -0.576451 0.121963 129 118 106
0.103523 -0.499585 0.116009 99 57 39
0.120644 -0.426266 0.116667 99 54 33
0.127764 -0.425187 0.115183 96 52 29
0.134071 -0.418838 0.114202 101 59 36
0.145464 -0.422987 0.111481 105 64 39
-0.192607 -0.453727 0.185442 104 55 37
-0.191705 -0.45532 0.185122 108 56 40
-0.188991 -0.456707 0.184382 116 65 46
-0.183008 -0.461884 0.182615 140 81 62
-0.321932 -0.977146 0.182375 115 71 58
-0.125697 -0.575823 0.161789 178 166 157
-0.0807779 -0.577891 0.151206 175 163 153
-0.0786792 -0.576148 0.15083 176 162 153
-0.0733262 -0.577805 0.149487 176 164 154
-0.0714952 -0.578012 0.149051 174 162 152
-0.0624262 -0.579933 0.146837 173 160 151
-0.0107334 -0.577698 0.13512 157 143 131
0.00578652 -0.577025 0.131401 146 132 121
0.009506 -0.57779 0.130508 145 133 121
0.0227503 -0.581716 0.127259 136 122 110
0.0814967 -0.571269 0.114701 152 138 127
0.110943 -0.572875 0.108039 194 178 165
0.114339 -0.570836 0.107415 194 173 162
0.101639 -0.472832 0.116468 97 54 37
0.101883 -0.468556 0.116687 96 53 36
0.109886 -0.433847 0.117145 94 51 31
0.112693 -0.429485 0.116809 98 54 30
-0.196518 -0.450615 0.185037 100 50 35
-0.191149 -0.453441 0.183563 108 58 41
-0.183874 -0.459317 0.181427 139 80 63
-0.184526 -0.495351 0.179106 157 92 75
-0.185667 -0.519875 0.177697 150 93 76
-0.129995 -0.575814 0.16083 178 163 154
-0.120443 -0.575962 0.158593 176 162 153
-0.0361846 -0.563471 0.139957 164 153 141
-0.0202941 -0.5747 0.13557 161 147 136
-0.0038084 -0.577355 0.131632 153 139 128
0.00913679 -0.578668 0.128599 146 132 121
0.011032 -0.579536 0.12811 145 131 120
0.0128775 -0.579401 0.1277 142 131 119
0.0184804 -0.579947 0.126392 137 128 115
0.0385545 -0.575744 0.122129 126 114 104
0.045884 -0.574717 0.120543 121 109 100
0.0812781 -0.572125 0.112758 151 137 126
0.0953748 -0.56664 0.109973 172 158 145
0.102192 -0.480807 0.114248 98 56 38
0.106359 -0.445654 0.115708 92 50 30
0.108003 -0.437587 0.115893 93 48 31
0.127272 -0.41841 0.112959 96 52 33
0.138873 -0.417041 0.110509 106 60 35
0.142226 -0.417515 0.109743 102 58 34
-0.210747 -0.447306 0.18711 62 32 19
-0.118833 -0.575254 0.156311 170 159 147
-0.113575 -0.577374 0.154939 171 159 150
-0.106068 -0.577813 0.153167 170 158 149
-0.0631705 -0.578693 0.143198 173 158 150
0.0326315 -0.576311 0.121495 128 117 105
0.0861204 -0.569751 0.109901 159 143 133
0.103626 -0.570345 0.105935 183 167 154
0.102347 -0.466925 0.113617 95 52 35
0.106046 -0.44556 0.114327 90 48 28
-0.199768 -0.445595 0.183098 96 48 32
-0.195258 -0.443508 0.182195 97 49 33
-0.19003 -0.453034 0.180233 115 63 47
-0.337188 -0.990933 0.173778 102 58 46
-0.125157 -0.57586 0.155775 171 157 145
-0.111973 -0.576626 0.152664 167 155 145
-0.0451335 -0.578859 0.1371 163 152 140
0.00273414 -0.577749 0.126245 147 135 123
0.0195577 -0.580515 0.122211 136 125 113
0.0934066 -0.569751 0.106328 169 153 140
0.10547 -0.499107 0.108948 97 56 38
0.103438 -0.466321 0.111881 93 53 35
0.105487 -0.458223 0.112036 92 50 30
0.109922 -0.432123 0.113024 92 47 26
0.129162 -0.413731 0.110147 99 52 32
0.134524 -0.41546 0.108826 102 55 32
0.141108 -0.413143 0.107545 97 55 35
-0.180738 -0.504718 0.172375 116 73 58
-0.358366 -1.00333 0.173945 137 81 63
-0.161016 -0.570324 0.162558 171 159 150
-0.136972 -0.57503 0.156611 168 156 144
-0.110572 -0.576842 0.150365 162 150 140
-0.0920837 -0.579031 0.145929 162 150 140
-0.0491575 -0.577523 0.136186 160 148 136
-0.0321403 -0.565225 0.13326 157 143 131
-0.0142425 -0.577218 0.128223 154 140 129
-0.00139061 -0.576799 0.125324 151 137 126
0.0645515 -0.569907 0.110893 131 117 108
0.0663674 -0.569552 0.11051 132 118 107
0.115232 -0.56539 0.0998182 197 179 165
0.105418 -0.445355 0.111568 92 47 28
0.111694 -0.425815 0.111721 92 47 28
-0.166257 -0.57285 0.161591 166 151 143
-0.145447 -0.575868 0.15653 168 154 145
-0.0830297 -0.57821 0.141959 159 145 134
-0.0478118 -0.578473 0.13386 156 145 133
-0.0380106 -0.566924 0.132575 153 141 129
-0.00730092 -0.577871 0.124649 150 136 124
-0.00180826 -0.576651 0.123497 152 138 127
0.0497037 -0.573323 0.112052 120 108 98
0.0589875 -0.572744 0.109993 127 115 103
0.0854868 -0.572241 0.10403 156 141 130
0.0907494 -0.569926 0.103032 166 150 140
0.115562 -0.424999 0.10953 90 48 26
0.128164 -0.412635 0.107738 95 50 31
0.132245 -0.411694 0.106903 97 50 29
0.149363 -0.41484 0.102805 96 54 32
-0.208619 -0.440779 0.180982 74 35 23
-0.198857 -0.441733 0.178635 93 48 31
-0.191416 -0.497963 0.171973 151 88 68
-0.160957 -0.573436 0.158336 164 150 138
-0.113039 -0.575199 0.147158 154 142 132
0.0106724 -0.576708 0.118711 136 125 113
0.0491531 -0.572183 0.110342 119 107 97
0.104951 -0.45456 0.107949 93 48 29
0.112165 -0.428359 0.108611 88 46 24
0.13073 -0.412203 0.105839 95 47 29
-0.205175 -0.437067 0.179004 84 41 26
-0.196099 -0.442156 0.176446 96 48 32
-0.195259 -0.443745 0.176107 98 48 33
-0.358107 -1.00559 0.162147 99 59 50
-0.15747 -0.573408 0.155557 158 144 133
-0.118697 -0.572944 0.146706 149 137 128
-0.11346 -0.575035 0.145314 148 136 126
-0.0931885 -0.577574 0.140438 147 135 125
-0.066779 -0.574803 0.134645 146 134 122
-0.0409579 -0.57252 0.128948 143 131 122
-0.0246317 -0.574837 0.125005 142 127 116
-0.009987 -0.576617 0.121498 136 125 113
0.0325722 -0.577325 0.111722 121 109 100
0.0752966 -0.573046 0.102378 140 126 115
0.097182 -0.567712 0.097884 176 159 149
0.114746 -0.420564 0.107336 85 40 19
0.119478 -0.410844 0.107152 92 47 26
0.140266 -0.410302 0.102491 92 47 26
0.151067 -0.40992 0.10008 95 58 36
-0.188722 -0.478345 0.169792 149 91 72
-0.193671 -0.496982 0.169148 150 92 71
-0.164222 -0.574445 0.155025 154 140 131
-0.120927 -0.572387 0.145319 145 131 122
-0.0976122 -0.578797 0.139377 141 129 119
-0.0824574 -0.577956 0.135993 139 127 115
-0.0582513 -0.577392 0.130515 139 127 115
-0.045327 -0.577172 0.127582 142 130 121
-0.0338927 -0.567592 0.125882 127 115 105
-0.0177486 -0.576612 0.121335 128 116 107
-0.00859301 -0.574396 0.119454 127 115 103
0.00799833 -0.576509 0.115464 126 116 105
0.0228488 -0.57721 0.112006 123 110 101
0.0445439 -0.571438 0.107602 116 107 96
0.08341 -0.567874 0.0990696 157 141 128
0.0910923 -0.568009 0.0973036 168 151 139
0.125248 -0.411101 0.104468 89 45 24
-0.192818 -0.443986 0.172492 114 64 45
-0.185313 -0.452287 0.16996 136 80 58
-0.165253 -0.576169 0.1531 151 136 128
-0.13496 -0.573175 0.146491 141 129 117
-0.121345 -0.572208 0.143482 135 123 114
-0.0882226 -0.576055 0.135544 129 117 108
-0.0673885 -0.572474 0.131145 129 117 108
0.00753433 -0.575338 0.113747 116 109 97
0.0129786 -0.573923 0.112643 119 107 97
0.0479025 -0.571675 0.104881 117 107 99
0.0686069 -0.571913 0.100121 135 120 109
0.116006 -0.567822 0.0896788 204 187 179
0.111307 -0.513301 0.0961662 92 54 35
0.104404 -0.450853 0.103945 92 47 28
0.126172 -0.410382 0.102973 84 42 22
0.147687 -0.404484 0.0986285 93 55 34
-0.202387 -0.433051 0.174267 86 41 22
-0.195991 -0.436638 0.172451 99 52 36
-0.115905 -0.571206 0.140398 128 116 109
-0.107427 -0.575883 0.137986 127 117 109
-0.0811831 -0.575845 0.132013 127 117 109
-0.0716712 -0.573911 0.130045 124 114 106
-0.0403254 -0.571063 0.123189 110 100 92
-0.0203935 -0.574282 0.118304 112 100 90
-0.0185653 -0.57426 0.117889 109 100 89
-0.0112518 -0.574095 0.116234 116 103 96
-0.00208446 -0.574718 0.114074 113 103 95
0.00890265 -0.574027 0.111633 114 104 94
0.0474855 -0.571491 0.103062 117 108 97
0.0530977 -0.571561 0.101768 121 109 100
0.0585714 -0.570581 0.100615 124 115 104
0.117131 -0.566114 0.0876361 205 193 183
0.105225 -0.436561 0.103743 87 44 26
0.122242 -0.408748 0.102693 86 43 23
0.13143 -0.403035 0.101165 88 44 22
-0.178471 -0.47202 0.163236 94 60 49
-0.16731 -0.57331 0.149876 138 126 116
-0.150791 -0.570926 0.146393 144 129 123
-0.120807 -0.574163 0.139249 133 122 114
-0.107846 -0.575689 0.136143 124 114 108
-0.0963571 -0.574594 0.13365 117 107 101
-0.0722066 -0.574709 0.128145 120 112 106
-0.0611425 -0.574712 0.125624 41 31 21
-0.00799627 -0.574771 0.113487 111 99 89
0.00119593 -0.575318 0.111326 102 92 84
0.0140362 -0.574382 0.108487 102 92 84
0.0563301 -0.570723 0.0991788 124 112 102
0.0809317 -0.570659 0.0935301 152 138 125
0.110645 -0.42772 0.102003 84 42 22
0.115789 -0.41475 0.1022 84 42 22
0.120739 -0.409197 0.101648 83 41 21
0.140777 -0.401043 0.0978763 88 46 24
-0.188529 -0.449608 0.166363 139 83 66
-0.189234 -0.491299 0.161912 119 77 59
-0.169231 -0.571582 0.148512 130 121 110
-0.0504366 -0.573255 0.121411 108 100 89
-0.0212085 -0.572898 0.114782 93 83 73
0.0466511 -0.5711 0.0994266 88 78 70
0.057585 -0.569213 0.0971211 124 112 100
0.0735527 -0.574061 0.0929022 140 126 115
0.0750223 -0.571714 0.0928249 143 129 117
0.105923 -0.43998 0.100332 85 45 26
-0.0124873 -0.575486 0.110561 95 86 75
0.0518438 -0.570963 0.0963093 116 107 96
0.0994531 -0.570381 0.0853697 179 163 150
0.118937 -0.562456 0.0817611 212 201 196
0.116316 -0.528052 0.0863313 87 51 33
0.104062 -0.462482 0.0967271 86 45 32
0.00365456 -0.575459 0.104925 91 81 71
0.0498666 -0.57302 0.0945799 115 105 95
-0.00233035 -0.573589 0.104585 88 79 66
0.00511689 -0.576101 0.102565 91 81 71
0.0105893 -0.574686 0.101483 92 82 74
0.0124264 -0.57453 0.10108 93 83 73
0.03433 -0.571097 0.0964588 85 75 65
0.0664197 -0.572637 0.0888418 135 120 109
0.105666 -0.566897 0.0804137 186 170 157
-0.0192221 -0.572971 0.106596 84 74 62
-0.0155682 -0.573881 0.105643 86 77 64
-0.0100536 -0.575685 0.104149 91 81 71
0.00662884 -0.577716 0.100061 91 81 71
0.0469345 -0.570914 0.0916273 115 105 95
0.0713236 -0.570271 0.0860439 140 127 113
0.0792077 -0.571516 0.0840479 150 136 122
0.0885767 -0.570231 0.0820252 165 150 134
0.097945 -0.568752 0.0800234 176 160 147
