ply
format ascii 1.0
comment Created by Open3D
element vertex 1999
property double x
property double y
property double z
property uchar red
property uchar green
property uchar blue
end_header
0.0447417 -0.276956 0.418641 199 192 194
0.0459792 -0.278562 0.419824 199 192 194
0.0508055 -0.279166 0.419004 200 193 196
0.0583866 -0.284285 0.42184 201 196 198
0.0633785 -0.28543 0.421627 204 197 199
0.0665152 -0.280594 0.416173 203 195 200
0.0678935 -0.282127 0.417304 202 197 199
0.0731556 -0.2853 0.419078 205 199 203
0.0788733 -0.290588 0.422829 203 198 202
0.0122181 -0.272384 0.423208 189 185 186
0.0171069 -0.272106 0.421162 192 185 187
0.0180982 -0.274508 0.423102 192 185 187
0.0202609 -0.277888 0.425568 192 185 187
0.02632 -0.279153 0.424692 195 187 190
0.0360568 -0.280203 0.422513 196 192 193
0.0397042 -0.282952 0.424007 200 194 194
0.088406 -0.290205 0.418445 208 203 205
0.105733 -0.294108 0.418861 211 204 206
0.0154385 -0.274867 0.422479 193 188 190
0.019931 -0.279526 0.425301 197 190 192
0.0237656 -0.277435 0.421994 196 192 193
0.0382587 -0.275722 0.415646 207 201 201
0.0550586 -0.280067 0.414877 209 204 206
0.05861 -0.279677 0.413551 209 204 206
0.0646858 -0.280883 0.413123 210 206 207
0.06581 -0.28023 0.412222 209 204 206
0.080703 -0.283757 0.41207 212 207 208
0.095019 -0.288093 0.413221 213 208 210
0.102082 -0.291531 0.415139 213 206 208
0.117355 -0.287397 0.408835 214 207 210
0.123723 -0.287441 0.407993 213 208 210
0.126886 -0.285513 0.405814 214 207 208
-0.0136094 -0.274944 0.431927 185 178 180
-0.0128542 -0.27742 0.433915 183 176 178
0.0030454 -0.27413 0.424483 192 185 185
0.00523054 -0.276196 0.425583 195 187 190
0.0195594 -0.267286 0.411991 203 195 198
0.0207685 -0.266823 0.411134 203 195 198
0.036827 -0.275702 0.414202 209 202 202
0.0427336 -0.275141 0.411873 211 204 204
0.0450925 -0.275464 0.41148 211 204 204
0.0509955 -0.276191 0.410472 212 205 205
0.0841238 -0.28471 0.410351 215 210 212
0.101146 -0.289528 0.411527 216 211 213
0.121094 -0.284864 0.404109 216 212 211
0.140645 -0.282669 0.399851 218 211 211
-0.0211437 -0.278606 0.436523 181 174 174
-0.00105482 -0.27543 0.425363 195 188 188
0.00607087 -0.269307 0.416946 199 192 192
0.0168588 -0.269066 0.412777 205 200 199
0.0260534 -0.272506 0.412825 209 201 204
0.0318615 -0.27506 0.413311 211 204 204
0.03539 -0.276397 0.413443 211 204 204
0.0401283 -0.275682 0.411317 213 206 206
0.0448813 -0.277815 0.411896 215 209 209
0.0711643 -0.280881 0.407818 213 208 210
0.0887624 -0.285603 0.408358 213 208 210
0.100395 -0.288238 0.408584 214 209 209
0.10162 -0.288176 0.408311 215 209 209
0.11219 -0.285925 0.404511 217 210 210
0.114613 -0.285699 0.40394 216 212 211
0.130026 -0.28302 0.399469 216 212 211
0.145192 -0.279524 0.394805 220 213 213
0.152413 -0.281116 0.395637 218 211 211
0.153768 -0.27841 0.393154 219 212 212
0.156117 -0.277841 0.392495 216 212 211
-0.0279554 -0.278669 0.437541 183 176 178
-0.0253146 -0.2789 0.436599 183 176 176
-0.0240876 -0.27935 0.436478 185 178 178
-0.0151599 -0.269733 0.423918 190 183 183
-0.0147825 -0.273607 0.427298 191 184 184
-0.00545479 -0.271393 0.421472 196 188 191
-0.00182045 -0.265057 0.414219 202 195 195
-0.000303454 -0.263279 0.411991 201 197 196
0.00333014 -0.262842 0.410183 204 197 199
0.00831919 -0.269375 0.414321 205 198 200
0.0104618 -0.271401 0.415402 203 199 198
0.0163122 -0.272815 0.414608 208 203 205
0.0173501 -0.274526 0.415824 208 203 205
0.024534 -0.274598 0.413433 210 206 207
0.0257112 -0.274834 0.413259 209 205 204
0.0280675 -0.275291 0.412906 212 205 205
0.0458243 -0.278856 0.410743 211 204 204
0.0684578 -0.280912 0.406656 209 205 204
0.0721336 -0.281822 0.406624 211 204 206
0.084356 -0.283555 0.405523 209 204 206
0.0881058 -0.284279 0.405421 210 206 207
0.105323 -0.28509 0.403006 212 205 205
0.107529 -0.284174 0.401813 212 205 205
0.127181 -0.283547 0.398462 217 210 210
0.131039 -0.283745 0.398179 215 211 210
0.137595 -0.284212 0.397878 218 211 211
0.149538 -0.281844 0.39469 219 214 213
0.153098 -0.281037 0.393709 221 214 215
0.159471 -0.277858 0.390516 219 214 213
0.162173 -0.277954 0.390445 219 214 213
0.162976 -0.276923 0.38951 217 213 212
-0.0422897 -0.280097 0.44327 176 167 168
-0.0372649 -0.277591 0.43873 181 172 173
-0.0126311 -0.269325 0.420615 198 191 191
-0.00853818 -0.267663 0.417439 199 194 194
-0.0058045 -0.266282 0.415087 202 195 195
0.00248828 -0.267251 0.412735 206 201 201
0.00467945 -0.268602 0.413139 206 201 201
0.00678828 -0.270655 0.414226 207 202 202
0.0137012 -0.273139 0.413987 209 205 204
0.0183283 -0.274948 0.414021 209 205 204
0.0208575 -0.273286 0.411629 209 204 206
0.0242733 -0.275474 0.412485 208 204 203
0.0289894 -0.27639 0.411778 209 202 202
0.0313261 -0.277551 0.412096 211 204 204
0.0337146 -0.27723 0.411047 211 204 204
0.0360803 -0.277621 0.410672 210 203 203
0.0479079 -0.278555 0.408037 206 199 199
0.0707109 -0.282656 0.405894 206 201 203
0.0871609 -0.28144 0.401199 209 202 202
0.091191 -0.283616 0.402382 207 201 201
0.106717 -0.282839 0.398924 210 203 203
0.111913 -0.28392 0.399081 210 203 203
0.115039 -0.282082 0.396969 211 204 202
0.138626 -0.28176 0.393802 213 208 208
0.160482 -0.278454 0.389197 219 214 213
0.162819 -0.277826 0.388525 219 214 213
0.169409 -0.275114 0.385895 219 214 213
0.174761 -0.272611 0.383585 219 212 212
-0.0427097 -0.277155 0.43884 179 169 172
-0.0393661 -0.275486 0.43583 181 171 175
-0.0139287 -0.269114 0.419096 202 195 195
-0.0101313 -0.268864 0.417322 203 195 198
-0.00405137 -0.26927 0.415269 205 200 199
-0.000326714 -0.268878 0.413469 208 204 203
0.000709199 -0.269924 0.414018 207 202 202
0.0134326 -0.27401 0.41304 207 202 202
0.016746 -0.27701 0.414604 206 201 201
0.0180622 -0.275822 0.41307 206 201 201
0.0251477 -0.277314 0.412041 205 200 199
0.0441279 -0.279717 0.408358 205 199 196
0.0547762 -0.280201 0.405836 205 198 198
0.0570939 -0.279676 0.404745 204 197 195
0.0654537 -0.281042 0.403868 204 197 197
0.0679142 -0.281925 0.404073 205 198 198
0.0808775 -0.281576 0.400823 203 196 194
0.0918574 -0.282972 0.399865 204 197 197
0.0954268 -0.282851 0.399087 205 198 198
0.0964416 -0.282053 0.398185 204 197 197
0.10018 -0.282623 0.398032 207 197 198
0.118166 -0.281826 0.394513 206 199 199
0.119591 -0.282427 0.39485 207 201 201
0.122208 -0.28287 0.394891 210 203 203
0.123395 -0.282713 0.394598 211 204 204
0.12458 -0.282551 0.394304 209 202 202
0.126684 -0.281473 0.393093 209 202 200
0.12877 -0.280378 0.391881 209 202 202
0.136971 -0.282136 0.392516 211 204 204
0.137857 -0.281185 0.391596 208 204 203
0.142251 -0.279542 0.389742 211 204 204
0.176491 -0.272047 0.381331 220 214 211
0.184589 -0.271776 0.380939 218 211 209
-0.0570484 -0.270131 0.437511 169 162 164
-0.0546539 -0.271282 0.437348 171 164 166
-0.0530944 -0.278296 0.442701 178 168 171
-0.0405907 -0.279128 0.437624 185 178 178
-0.0393636 -0.279639 0.437519 188 181 181
-0.028557 -0.270889 0.425009 195 188 188
-0.023834 -0.272673 0.424551 199 192 192
-0.018053 -0.270185 0.419904 203 196 196
-0.00838376 -0.271894 0.417494 208 204 203
-0.00343379 -0.271909 0.415566 208 204 203
0.011823 -0.276044 0.413616 205 198 198
0.0141834 -0.276609 0.413293 204 197 197
0.0164076 -0.278613 0.414326 204 197 197
0.0225721 -0.276973 0.410755 204 197 197
0.0379421 -0.280478 0.409051 203 194 193
0.0403273 -0.282317 0.410002 204 195 194
0.041519 -0.281746 0.409134 203 194 193
0.045104 -0.28223 0.408533 204 195 196
0.0545387 -0.281069 0.404878 200 194 194
0.0615935 -0.280923 0.402919 198 192 189
0.0641121 -0.282586 0.403789 199 192 192
0.0665773 -0.283481 0.403993 199 192 192
0.0689673 -0.283607 0.403534 202 193 194
0.0747252 -0.282335 0.40106 202 193 194
0.0784056 -0.283167 0.400993 201 192 192
0.090611 -0.284629 0.399792 202 193 194
0.0919652 -0.285349 0.400175 204 195 196
0.0941952 -0.284522 0.399016 202 195 195
0.0952193 -0.283726 0.398117 200 194 194
0.101164 -0.283429 0.396794 200 194 194
0.1265 -0.282352 0.392116 205 199 196
0.162868 -0.280338 0.387133 215 209 209
0.168713 -0.278676 0.385431 214 209 209
0.17181 -0.276907 0.383817 218 211 211
0.184449 -0.272668 0.379951 221 215 212
0.188303 -0.272105 0.379441 219 213 210
-0.0664629 -0.278494 0.447323 167 159 164
-0.064939 -0.278463 0.446546 171 164 168
-0.0605206 -0.275081 0.441488 176 167 170
-0.0529624 -0.281816 0.443677 182 173 176
-0.0499772 -0.281596 0.442091 186 176 177
-0.035397 -0.271493 0.426662 193 187 187
-0.0123347 -0.272341 0.417623 207 202 202
-0.00881649 -0.273475 0.417225 206 201 201
0.0173289 -0.279754 0.413191 202 195 195
0.0280443 -0.282689 0.412278 199 193 190
0.0304472 -0.283126 0.411908 200 191 189
0.0400795 -0.28468 0.410366 200 191 187
0.0520025 -0.283192 0.40566 197 188 187
0.0602408 -0.282448 0.402835 194 185 183
0.0627596 -0.284125 0.403702 196 187 186
0.0700276 -0.285286 0.402983 195 186 185
0.0710341 -0.28383 0.401449 195 186 185
0.0722262 -0.283876 0.401215 195 186 185
0.0841403 -0.284073 0.398799 194 185 183
0.123019 -0.284473 0.392636 199 193 190
0.130404 -0.284172 0.391462 203 196 194
0.139861 -0.282503 0.389008 205 199 196
0.143704 -0.282533 0.388667 206 199 199
0.166974 -0.281689 0.386283 212 206 203
0.16815 -0.281349 0.38594 213 206 206
0.172058 -0.281018 0.385481 214 208 206
0.176338 -0.278835 0.383505 214 209 209
0.176687 -0.277033 0.382007 214 209 209
0.181597 -0.273665 0.379105 214 209 209
-0.0678204 -0.274925 0.442941 171 164 168
-0.06031 -0.274695 0.439072 180 171 171
-0.0542267 -0.277603 0.438649 184 177 179
-0.0537774 -0.280182 0.440645 185 178 180
-0.0207029 -0.275031 0.421549 207 201 201
-0.00910471 -0.274343 0.416263 204 197 197
-0.000972829 -0.277546 0.415956 204 197 195
0.00247962 -0.279266 0.416188 200 194 194
0.00745108 -0.279074 0.414208 199 193 190
0.0169244 -0.282093 0.413571 197 190 190
0.0182524 -0.280886 0.412052 196 189 187
0.027747 -0.284303 0.411973 196 189 187
0.075469 -0.284091 0.398889 188 179 178
0.13022 -0.285047 0.390473 195 188 186
0.13762 -0.284567 0.389242 199 193 190
0.138804 -0.284345 0.388931 198 192 189
0.143843 -0.28415 0.388273 200 194 192
0.146845 -0.285126 0.388827 200 194 194
0.154291 -0.284238 0.387468 203 196 194
0.160911 -0.284204 0.386976 207 201 201
0.179675 -0.278574 0.381443 213 208 208
0.18732 -0.275009 0.378374 215 209 209
0.201234 -0.272102 0.375991 217 213 212
-0.0730363 -0.27331 0.442188 172 165 170
-0.0594395 -0.276214 0.43797 184 177 179
-0.0555217 -0.277289 0.437021 189 182 182
-0.0476993 -0.279274 0.43508 194 185 183
-0.0261245 -0.275587 0.422428 205 198 198
-0.0249358 -0.276028 0.422309 205 198 198
-0.0186285 -0.276742 0.42032 203 196 196
-0.0111714 -0.277694 0.418162 203 194 195
0.0128183 -0.284344 0.415119 195 188 186
0.0152373 -0.284903 0.41478 192 186 183
0.0214062 -0.284734 0.412566 191 183 181
0.023821 -0.285222 0.412208 193 184 182
0.0540884 -0.288179 0.405906 187 178 176
0.069753 -0.288535 0.402317 187 178 176
0.0780943 -0.288034 0.399998 186 177 175
0.0815782 -0.287313 0.398622 186 177 175
0.137417 -0.288639 0.390955 193 184 182
0.149699 -0.286963 0.38836 195 191 188
0.156337 -0.287035 0.38789 200 194 192
0.162292 -0.285506 0.386209 204 197 195
0.166591 -0.285983 0.386342 205 199 196
0.172524 -0.284245 0.384607 209 202 200
0.173313 -0.283162 0.383685 206 200 197
0.176464 -0.283861 0.384122 209 202 200
0.178048 -0.2842 0.384335 209 202 200
0.180765 -0.281603 0.382132 211 204 202
0.181519 -0.280492 0.381209 211 204 202
-0.0868992 -0.282415 0.454712 164 159 161
-0.0740113 -0.275545 0.442543 176 169 171
-0.0721752 -0.278148 0.443791 178 171 173
-0.0654986 -0.276721 0.439341 184 177 179
-0.0604366 -0.275211 0.435646 186 181 183
-0.0597818 -0.277136 0.436946 188 183 185
-0.0588385 -0.278392 0.437553 190 183 183
-0.0504708 -0.279101 0.434251 196 188 191
-0.0292069 -0.27697 0.423047 203 196 196
-0.0226744 -0.277065 0.420397 199 192 192
-0.00922648 -0.280035 0.417585 196 190 185
0.00278421 -0.283517 0.416101 194 185 183
0.0161052 -0.286788 0.414287 188 181 179
0.0331513 -0.291601 0.413028 187 178 174
0.125167 -0.29144 0.393009 188 181 179
0.155651 -0.289688 0.388372 190 183 181
0.156854 -0.289395 0.388038 192 186 183
0.160454 -0.288487 0.387028 196 189 187
0.163209 -0.288589 0.386926 197 190 188
0.165971 -0.288668 0.386816 198 192 189
0.167993 -0.287265 0.38555 198 192 189
0.184547 -0.281998 0.380596 206 200 197
0.186456 -0.280454 0.379314 206 200 197
0.192702 -0.278996 0.378041 210 203 201
0.19431 -0.27925 0.378222 211 204 204
0.197998 -0.280436 0.379123 212 205 205
0.218968 -0.275705 0.375635 216 213 214
-0.0909367 -0.277948 0.451085 160 155 159
-0.0773769 -0.273201 0.440317 174 170 169
-0.0761686 -0.273863 0.440254 178 171 171
-0.0547166 -0.279017 0.434194 198 191 191
-0.0476238 -0.279047 0.430976 203 194 195
-0.0233454 -0.279355 0.42077 196 189 187
-0.0161391 -0.281849 0.419993 197 188 187
-0.00646267 -0.284902 0.418866 191 183 181
0.00471116 -0.286494 0.416134 185 179 176
0.0192459 -0.29143 0.415419 183 174 173
0.0452862 -0.296544 0.411935 184 176 174
0.0477336 -0.295328 0.410203 184 176 174
0.0489189 -0.293952 0.408687 187 176 175
0.0550919 -0.294587 0.40759 184 176 174
0.0576161 -0.295568 0.407787 184 176 174
0.153174 -0.294395 0.390675 189 182 180
0.160135 -0.291895 0.388072 190 183 181
0.185665 -0.285032 0.38124 204 197 195
0.195067 -0.281551 0.378293 207 201 201
0.197141 -0.282502 0.379013 208 204 203
0.200188 -0.280389 0.377338 209 205 204
0.208104 -0.27882 0.376128 212 207 208
0.209749 -0.278998 0.376277 214 209 211
0.222287 -0.274922 0.3734 216 211 213
-0.0841455 -0.283835 0.450353 177 170 170
-0.0809536 -0.280628 0.446161 178 171 171
-0.0750457 -0.281344 0.443827 185 178 180
-0.0734997 -0.281339 0.443068 186 182 181
-0.0680038 -0.279276 0.438722 191 184 184
-0.059798 -0.280902 0.436173 199 192 192
-0.0479533 -0.279945 0.429956 204 195 196
-0.0409482 -0.279781 0.426714 201 192 192
-0.0373204 -0.281273 0.426388 199 193 190
-0.0316375 -0.280375 0.423212 197 188 187
-0.0242051 -0.282363 0.421805 194 185 183
-0.0170945 -0.2856 0.421693 193 184 182
0.0325423 -0.296372 0.413631 182 173 172
0.037555 -0.294886 0.410863 185 174 173
0.0412738 -0.295418 0.410246 186 175 174
0.0425321 -0.297104 0.411338 185 174 173
0.0475029 -0.296967 0.409834 183 174 173
0.0819235 -0.296018 0.400688 187 178 176
0.10749 -0.298967 0.398401 186 180 178
0.139467 -0.298045 0.393234 188 181 179
0.152096 -0.296309 0.390548 189 182 180
0.169907 -0.29344 0.386898 189 182 180
0.172396 -0.290182 0.384144 190 183 181
0.191407 -0.283784 0.378372 199 193 188
0.21341 -0.280922 0.37605 209 205 204
-0.0632397 -0.278682 0.434022 199 192 192
-0.0623075 -0.279953 0.434622 200 194 194
-0.0502512 -0.282366 0.431073 198 190 188
-0.045611 -0.281207 0.428051 198 190 188
-0.035212 -0.283128 0.425145 194 185 183
-0.0262893 -0.284941 0.422947 190 181 180
-0.0200082 -0.286375 0.421623 188 179 178
-0.0175625 -0.2872 0.421351 187 178 176
0.145755 -0.298508 0.391154 189 182 180
0.160487 -0.295155 0.387138 189 182 180
0.17179 -0.292895 0.384579 189 182 180
0.186683 -0.291553 0.382836 190 183 181
0.187467 -0.290412 0.381917 190 183 181
0.191824 -0.287971 0.379887 193 184 182
0.202933 -0.284504 0.377033 199 195 192
0.204812 -0.282817 0.375732 203 196 196
0.237202 -0.277352 0.37226 213 211 214
0.239459 -0.278042 0.372856 215 212 215
0.240618 -0.277396 0.372435 215 212 213
-0.0982695 -0.265911 0.439374 191 184 184
-0.0978344 -0.267912 0.440705 193 189 188
-0.0807139 -0.280542 0.441977 192 185 187
-0.0708482 -0.279184 0.436102 197 190 190
-0.0569455 -0.281156 0.431193 198 190 188
-0.0530259 -0.282162 0.430234 197 188 187
-0.0471509 -0.281567 0.427129 195 186 185
-0.0461804 -0.282789 0.427704 193 183 184
-0.0447229 -0.282616 0.426923 193 184 182
-0.04084 -0.28345 0.425925 193 184 182
-0.0316701 -0.284717 0.423096 188 179 178
-0.0304523 -0.285179 0.422974 188 179 178
0.05703 -0.300489 0.406639 184 172 172
0.0822165 -0.302383 0.402386 188 179 178
0.086254 -0.303923 0.402844 187 178 174
0.0900398 -0.303872 0.402044 185 179 176
0.13717 -0.301773 0.392951 188 181 179
0.143094 -0.299882 0.390755 189 182 180
0.152103 -0.302119 0.391664 186 182 179
0.170316 -0.296701 0.385916 188 181 179
0.17154 -0.296349 0.385562 189 182 180
0.185317 -0.292864 0.382144 189 182 180
0.192541 -0.290298 0.37992 188 181 179
0.204185 -0.287516 0.37758 193 187 185
0.243369 -0.277669 0.371017 212 209 213
-0.060271 -0.282259 0.431689 196 187 186
-0.0440683 -0.284716 0.426461 189 180 179
0.147852 -0.303053 0.391024 187 183 180
0.17089 -0.299074 0.385969 188 181 179
0.180276 -0.297955 0.384558 189 182 180
0.183134 -0.297896 0.384375 188 181 179
0.194462 -0.292183 0.379562 188 181 179
0.202281 -0.292717 0.379799 190 183 183
0.225607 -0.287898 0.37618 201 198 199
0.229962 -0.282888 0.372594 203 201 201
-0.0666975 -0.280161 0.43107 194 185 185
-0.0654842 -0.28077 0.430988 193 183 184
-0.0554443 -0.284763 0.4296 191 182 183
-0.050527 -0.286977 0.429202 188 179 180
-0.0492933 -0.287519 0.429098 187 178 178
0.140137 -0.30539 0.391926 186 180 178
0.162936 -0.301232 0.386446 187 183 180
0.182968 -0.298793 0.383296 189 182 180
0.233877 -0.28264 0.370783 202 199 200
-0.112648 -0.260658 0.437247 163 156 156
0.147133 -0.307364 0.390926 189 182 180
0.171657 -0.303089 0.385479 190 183 181
0.212792 -0.294552 0.377512 187 183 180
0.214485 -0.29473 0.377632 190 183 181
0.216183 -0.2949 0.377749 189 182 180
0.160883 -0.308475 0.38868 187 183 180
-0.0756704 -0.283737 0.432324 186 180 178
0.173673 -0.306754 0.384579 188 184 181
0.0201515 -0.332599 0.414367 182 175 173
0.0898468 -0.335975 0.399717 186 180 178
0.0363137 -0.358087 0.408982 132 128 129
0.0392052 -0.357622 0.407913 114 109 109
0.0900331 -0.361861 0.399218 188 184 181
0.0856874 -0.376279 0.400071 185 180 180
0.00730993 -0.396537 0.411888 171 164 164
0.0132614 -0.402781 0.414001 170 163 163
0.0406037 -0.404003 0.407741 182 175 173
0.0502216 -0.404896 0.405975 184 178 175
0.0582432 -0.405465 0.40446 186 180 178
0.0598956 -0.406422 0.404656 184 178 175
0.0615042 -0.40651 0.404346 185 179 176
0.0647806 -0.407531 0.404224 183 176 174
0.0726094 -0.405223 0.401138 188 181 179
0.0775899 -0.407043 0.401164 186 182 181
0.0241256 -0.406279 0.411193 183 176 174
0.0630112 -0.410905 0.404596 184 180 176
0.080879 -0.41139 0.401035 185 180 180
0.0318234 -0.409941 0.409364 183 176 174
0.00703438 -0.408732 0.413055 181 174 174
0.0232551 -0.412276 0.410849 182 175 173
0.0674369 -0.415428 0.402204 184 179 178
0.078717 -0.413954 0.398939 186 182 181
0.0838597 -0.426997 0.399206 185 178 178
0.15578 -0.437614 0.38816 187 183 180
0.0663565 -0.445044 0.402399 184 178 175
0.0835842 -0.443576 0.39798 184 179 178
0.328722 -0.424489 0.351869 184 176 174
0.336648 -0.431811 0.354818 180 171 169
0.344067 -0.438328 0.357425 183 174 173
0.150103 -0.464321 0.38818 186 182 181
0.353556 -0.452126 0.360996 181 172 171
0.0655523 -0.464407 0.402031 184 177 177
0.32552 -0.434858 0.348241 179 173 171
0.337259 -0.447723 0.353238 179 173 171
-0.10438 -0.446219 0.432085 162 155 155
-0.0911471 -0.448756 0.429143 168 161 161
-0.105983 -0.450357 0.432346 162 155 155
0.347736 -0.468385 0.357184 180 171 169
0.37852 -0.497272 0.365319 164 158 155
-0.00366626 -0.481831 0.413786 179 169 170
0.362951 -0.496276 0.363524 178 171 171
0.365434 -0.495927 0.363194 170 164 161
0.0834548 -0.494055 0.39747 179 173 173
0.0952632 -0.496606 0.396312 179 173 173
0.139909 -0.496103 0.387793 182 173 174
0.146694 -0.499872 0.388404 182 173 174
0.314276 -0.45242 0.346017 188 181 181
0.315485 -0.450678 0.345167 182 175 173
0.339562 -0.475365 0.353904 179 173 171
0.363446 -0.502281 0.363629 175 171 168
0.0067005 -0.487206 0.409259 178 168 169
0.0409312 -0.491348 0.403111 180 171 171
0.0447552 -0.492563 0.40282 180 171 171
0.0543128 -0.493204 0.400996 178 171 171
0.0583227 -0.497941 0.402357 179 173 173
0.075562 -0.49667 0.398085 179 173 173
0.0896074 -0.502109 0.397776 179 173 173
0.0931786 -0.499314 0.395746 179 173 173
0.131696 -0.496903 0.38736 181 172 173
0.144406 -0.500981 0.387043 186 176 177
-0.120581 -0.465473 0.432651 157 150 152
-0.0179443 -0.496371 0.417498 179 168 167
0.0251839 -0.494249 0.405865 176 169 169
0.0482241 -0.495487 0.401168 178 171 171
0.0560027 -0.498682 0.400945 179 173 173
0.0638745 -0.501758 0.400679 178 171 171
0.0793435 -0.501181 0.397157 179 173 173
0.0874709 -0.504799 0.397187 178 171 171
0.0936428 -0.50743 0.397176 179 173 173
0.106717 -0.502388 0.392276 177 170 170
0.116712 -0.503615 0.390957 179 173 173
0.123189 -0.506792 0.391234 181 172 173
0.125146 -0.506627 0.3908 181 172 173
0.126763 -0.504642 0.389586 181 172 173
0.128192 -0.501745 0.387985 181 172 173
0.129243 -0.497033 0.385614 181 172 173
0.133442 -0.498447 0.38552 181 172 173
0.147018 -0.506087 0.386686 182 173 172
0.3126 -0.463347 0.346474 191 184 184
-0.138486 -0.461183 0.434123 153 145 148
-0.119784 -0.474553 0.434183 156 149 149
-0.000732669 -0.498696 0.411921 178 169 167
0.0285168 -0.500038 0.405509 175 168 168
0.0637213 -0.507148 0.400932 177 170 170
0.0896227 -0.511083 0.397374 177 170 170
0.111195 -0.509382 0.392377 179 172 175
0.122119 -0.515065 0.392944 181 171 175
0.128346 -0.505306 0.38733 181 172 173
0.14511 -0.508999 0.386061 181 172 173
0.147277 -0.509648 0.385984 181 172 171
0.185452 -0.506876 0.378545 188 179 178
0.191196 -0.498954 0.374109 186 180 180
0.313057 -0.461649 0.343521 181 174 174
0.352534 -0.5064 0.35892 179 173 171
-0.140322 -0.465269 0.434219 151 146 148
-0.113745 -0.47526 0.430325 158 151 154
-0.111296 -0.474356 0.429176 160 152 155
-0.105414 -0.475783 0.428028 161 154 156
-0.0927863 -0.482513 0.427268 167 158 159
-0.00750643 -0.50389 0.413692 178 166 168
-0.00154372 -0.504023 0.412268 175 166 165
0.0121919 -0.506155 0.409892 179 169 170
0.0280699 -0.502681 0.40455 177 170 170
0.0475862 -0.505329 0.401327 177 170 170
0.0535356 -0.508433 0.401436 177 170 170
0.091613 -0.515546 0.396712 178 171 171
0.100036 -0.518984 0.396613 177 170 172
0.119905 -0.516982 0.39191 178 171 173
0.122213 -0.518649 0.392239 178 171 173
0.145958 -0.515277 0.386464 181 172 173
0.190662 -0.505568 0.374884 189 182 182
0.192603 -0.50513 0.374398 186 180 180
0.199624 -0.507315 0.374332 186 180 180
0.201267 -0.505956 0.373489 186 180 180
0.206402 -0.508523 0.373887 188 181 181
0.216146 -0.505944 0.371372 188 181 181
0.30947 -0.468519 0.344528 189 182 182
-0.138794 -0.471949 0.434341 150 145 149
-0.0622896 -0.501053 0.424531 180 166 166
-0.0539128 -0.500651 0.422049 181 170 169
-0.0459216 -0.501866 0.420431 180 166 166
-0.0344316 -0.506553 0.419484 178 167 166
-0.0225636 -0.509192 0.417589 178 167 166
0.00344034 -0.512135 0.412409 176 167 168
0.0275967 -0.506232 0.40399 175 168 168
0.0393649 -0.509196 0.402639 176 169 169
0.0612214 -0.51422 0.400099 175 168 168
0.0651479 -0.513455 0.398913 176 169 169
0.0749311 -0.511858 0.396132 177 170 170
0.095636 -0.519956 0.39559 177 170 170
0.104913 -0.51411 0.39114 178 171 173
0.210285 -0.509251 0.371353 185 180 180
0.371529 -0.537843 0.365316 172 168 167
-0.107166 -0.479958 0.425801 162 153 156
-0.0908928 -0.488968 0.42495 165 155 156
0.300142 -0.487273 0.34877 185 180 180
0.311415 -0.474257 0.342295 178 171 171
0.363348 -0.535474 0.36251 172 166 166
-0.127263 -0.481235 0.43012 151 146 150
-0.125011 -0.487068 0.431934 151 146 148
-0.122795 -0.487048 0.431252 154 147 149
-0.101086 -0.493824 0.427707 164 154 157
-0.0515732 -0.506912 0.419512 182 168 168
-0.0378641 -0.511314 0.417809 177 166 165
-0.0340219 -0.513141 0.417611 177 166 165
-0.0216787 -0.513068 0.414404 175 166 167
-0.00752479 -0.513942 0.411239 174 165 164
0.303672 -0.474576 0.340962 185 180 180
-0.144049 -0.489326 0.436375 149 143 148
-0.134076 -0.487036 0.432335 150 145 149
-0.122854 -0.49289 0.431412 155 148 150
-0.120623 -0.492857 0.430728 155 148 150
-0.11473 -0.488525 0.427121 157 150 152
-0.11396 -0.492692 0.428669 157 150 152
-0.0928384 -0.501636 0.426333 162 155 155
-0.0818748 -0.500659 0.422795 167 158 159
-0.0693692 -0.510271 0.42346 173 162 161
-0.0478617 -0.519065 0.421464 177 166 165
0.0441791 -0.523117 0.400814 181 174 174
0.0502992 -0.526276 0.400849 181 174 174
0.0584266 -0.526709 0.399274 178 171 171
0.0832156 -0.531826 0.396321 185 178 180
0.100957 -0.525939 0.390207 188 180 183
0.126154 -0.529917 0.387164 189 181 184
0.130564 -0.531377 0.386992 184 175 178
0.138359 -0.528709 0.38443 189 181 184
0.341627 -0.521423 0.353866 178 171 171
0.0131259 -0.528119 0.40775 179 173 173
0.0275299 -0.526162 0.403553 185 178 178
0.0356116 -0.533369 0.404841 183 176 176
0.0953181 -0.534324 0.39261 186 181 183
0.115285 -0.529696 0.386749 186 181 183
0.138894 -0.534118 0.384314 190 183 183
0.146493 -0.530401 0.381378 190 183 183
0.165468 -0.538969 0.381794 193 183 184
0.188265 -0.528084 0.373472 195 188 188
0.189502 -0.518227 0.369107 194 190 189
0.196605 -0.520473 0.368967 195 190 192
0.219374 -0.51756 0.364397 196 192 193
0.238374 -0.520768 0.363107 194 189 191
0.248301 -0.517523 0.360444 186 179 182
0.304923 -0.495534 0.344816 184 179 178
0.305543 -0.480321 0.338663 179 173 173
0.317722 -0.492417 0.342257 178 171 171
-0.167516 -0.483839 0.436692 141 134 134
-0.149208 -0.489984 0.433489 144 139 141
-0.135622 -0.502114 0.434357 150 145 149
-0.133652 -0.502976 0.434122 150 145 149
-0.126518 -0.502133 0.431637 152 147 151
-0.0417035 -0.528996 0.419321 179 170 168
-0.0370306 -0.526373 0.416996 178 168 169
-0.0143825 -0.53016 0.412894 179 169 170
-0.0062442 -0.532528 0.411909 178 171 171
1.75062e-05 -0.532628 0.410435 181 172 173
0.0414022 -0.542069 0.404899 183 176 174
0.0560291 -0.542074 0.401698 184 178 175
0.0580859 -0.541252 0.400902 184 177 177
0.0621769 -0.539582 0.399311 186 180 180
0.0665332 -0.543408 0.400027 184 177 177
0.0709503 -0.547202 0.400724 185 178 178
0.0749763 -0.544509 0.398731 186 179 182
0.0996929 -0.540559 0.392051 184 177 179
0.101886 -0.541405 0.391982 186 181 183
0.10617 -0.542149 0.391467 186 181 183
0.153053 -0.543485 0.383434 190 183 183
0.157647 -0.544728 0.383167 191 184 184
0.159304 -0.542599 0.381983 191 184 184
0.161385 -0.542286 0.381497 191 184 184
0.165542 -0.541637 0.38052 193 183 184
0.243477 -0.523839 0.361345 194 189 191
0.257821 -0.514911 0.35582 196 192 193
0.267303 -0.515451 0.354851 196 192 193
0.268028 -0.512118 0.35341 193 188 190
0.304606 -0.496366 0.342896 185 180 180
0.306014 -0.494626 0.342057 182 178 177
0.366981 -0.560531 0.361826 164 159 159
-0.171398 -0.491961 0.43882 139 132 132
-0.159999 -0.487747 0.433545 141 136 135
-0.0813365 -0.512252 0.420493 168 161 161
-0.048316 -0.528316 0.418345 183 174 173
-0.0318662 -0.53218 0.415735 181 172 173
-0.0190381 -0.531111 0.41206 180 171 171
-0.00874678 -0.533001 0.410325 178 171 171
-0.00286707 -0.537682 0.41088 178 171 171
0.0035071 -0.536825 0.408989 177 170 170
0.00978959 -0.536803 0.40749 179 173 173
0.0221812 -0.540196 0.406041 181 174 174
0.0305604 -0.539235 0.40372 182 175 175
0.0388803 -0.543659 0.403726 182 175 173
0.0513816 -0.540842 0.399779 182 175 173
0.0620056 -0.54595 0.399659 184 177 177
0.0726414 -0.548085 0.398325 184 177 177
0.110452 -0.546463 0.390073 186 181 183
0.123577 -0.536251 0.383292 188 180 183
0.140304 -0.546793 0.384673 190 183 183
0.142402 -0.546555 0.384198 189 182 182
0.156624 -0.552272 0.384096 190 183 183
0.18276 -0.543169 0.375931 195 186 185
0.190934 -0.533827 0.370755 193 187 185
0.196475 -0.530673 0.368587 193 189 188
0.210766 -0.534018 0.367801 194 190 189
0.21592 -0.529752 0.365286 195 190 192
0.219309 -0.526876 0.363613 196 192 193
0.250029 -0.514346 0.354282 195 190 192
0.267048 -0.526421 0.356966 199 194 196
0.268651 -0.524807 0.356115 199 194 196
0.269833 -0.522325 0.354969 195 190 192
-0.103688 -0.513141 0.424751 163 158 159
-0.0793248 -0.520492 0.420978 176 169 169
-0.0693871 -0.524461 0.419921 179 173 171
-0.0371327 -0.536591 0.416507 179 169 170
-0.0226579 -0.540594 0.414532 179 169 170
-0.0203485 -0.539189 0.413371 180 171 171
-0.004167 -0.548549 0.413334 177 170 170
0.0191919 -0.552724 0.409579 179 173 173
0.0384289 -0.555553 0.406405 179 173 171
0.0405689 -0.553878 0.405228 179 173 171
0.0490481 -0.550776 0.402063 178 172 169
0.0511915 -0.551825 0.402036 181 174 172
0.0856264 -0.557315 0.397107 185 178 180
0.102431 -0.554157 0.392438 184 179 180
0.127141 -0.547954 0.38515 187 183 182
0.143117 -0.552905 0.384303 186 182 181
0.147547 -0.553318 0.383687 186 182 181
0.152387 -0.555529 0.383751 186 182 181
0.156852 -0.555867 0.383113 187 183 182
0.160252 -0.551595 0.380759 189 182 182
0.168694 -0.550275 0.378781 193 184 182
0.193311 -0.543695 0.372067 192 186 183
0.213065 -0.536119 0.365947 192 187 189
0.231756 -0.53784 0.363928 196 192 193
0.232086 -0.532802 0.361845 195 190 192
0.234815 -0.533963 0.36193 195 190 192
0.241636 -0.533843 0.360934 193 189 188
0.282696 -0.521032 0.350519 198 193 192
0.283814 -0.518507 0.349388 198 193 192
0.289085 -0.519411 0.349116 198 193 192
0.292398 -0.521119 0.349398 198 193 192
0.295916 -0.518553 0.34798 198 193 192
0.306308 -0.510694 0.343729 189 185 184
0.375944 -0.577995 0.362374 170 165 164
-0.128097 -0.511353 0.428667 156 150 155
-0.0946238 -0.519266 0.422304 167 163 162
-0.0922326 -0.526772 0.424694 171 166 166
-0.0765811 -0.526095 0.42013 177 171 168
-0.0626092 -0.532057 0.418829 181 174 172
-0.0540053 -0.532484 0.416742 182 175 173
-0.0521072 -0.533912 0.416834 182 175 173
-0.0506846 -0.538026 0.418155 182 175 175
-0.035139 -0.550095 0.419147 179 169 170
-0.0263693 -0.550074 0.416941 176 169 169
-0.0153151 -0.548475 0.413554 175 168 168
-0.0130999 -0.547945 0.412794 175 168 168
0.0167343 -0.550546 0.40679 178 171 171
0.0295235 -0.550094 0.40368 179 173 173
0.0465834 -0.557944 0.403143 179 173 171
0.0617529 -0.561494 0.401344 181 174 172
0.0834474 -0.562798 0.39737 185 178 178
0.108775 -0.557485 0.390149 184 179 180
0.111296 -0.560149 0.390763 185 180 182
0.124035 -0.558367 0.387614 186 182 181
0.125869 -0.556347 0.386441 186 182 181
0.159638 -0.560994 0.382288 185 180 180
0.167774 -0.557859 0.379614 190 183 183
0.176065 -0.555507 0.377264 195 181 179
0.183945 -0.5598 0.377714 197 183 183
0.21133 -0.546074 0.367847 193 188 190
0.216633 -0.541789 0.365326 194 189 191
0.225106 -0.546375 0.365918 195 190 192
0.254074 -0.537498 0.358313 193 190 191
0.27973 -0.531157 0.352493 195 191 190
0.291387 -0.525361 0.348807 194 192 190
0.294045 -0.521099 0.346833 194 190 189
0.296029 -0.520235 0.346265 198 193 192
0.298464 -0.52021 0.345971 194 192 190
0.310774 -0.515632 0.342801 174 170 169
0.368861 -0.582425 0.362103 166 162 161
-0.14346 -0.508669 0.429715 155 149 153
-0.142766 -0.51293 0.431195 157 152 156
-0.128374 -0.518112 0.42903 162 156 160
-0.12547 -0.516374 0.427496 160 155 159
-0.0477495 -0.54438 0.41755 181 174 174
-0.0459436 -0.546691 0.418027 179 173 173
-0.0354732 -0.550022 0.416727 173 169 168
-0.0183007 -0.552559 0.413501 173 169 168
0.000963229 -0.555785 0.410183 174 170 169
0.0353849 -0.559817 0.403925 178 172 169
0.0547769 -0.560196 0.399836 178 172 169
0.061358 -0.563259 0.399685 179 173 171
0.0762622 -0.559901 0.39519 181 174 174
0.0851862 -0.563627 0.39489 182 175 175
0.127909 -0.558847 0.384647 186 182 181
0.151209 -0.565767 0.383238 185 178 178
0.155339 -0.564278 0.381909 184 177 177
0.157911 -0.565818 0.382083 185 178 178
0.159448 -0.562756 0.380577 183 176 174
0.176393 -0.559085 0.376216 194 178 177
0.202203 -0.554828 0.370341 195 186 185
0.204609 -0.555245 0.370132 194 185 183
0.205853 -0.55204 0.368659 193 187 187
0.238256 -0.546274 0.361563 194 190 189
0.246931 -0.544572 0.359675 194 190 189
0.265409 -0.543355 0.356695 194 191 192
0.299065 -0.532146 0.348124 195 193 191
0.304678 -0.528627 0.346111 196 194 192
0.311643 -0.527567 0.344902 188 184 183
0.312711 -0.524951 0.343782 180 176 175
0.385779 -0.607001 0.366869 171 166 166
-0.157641 -0.514094 0.433645 153 149 150
-0.144879 -0.51796 0.43136 157 152 156
-0.142856 -0.518855 0.431115 157 152 154
-0.128863 -0.51892 0.427061 160 155 159
-0.123358 -0.516278 0.424434 164 159 163
-0.113918 -0.515132 0.421285 164 159 161
-0.102624 -0.529937 0.423976 167 163 164
-0.0957967 -0.538057 0.425317 170 165 164
-0.0690153 -0.538761 0.418377 181 174 172
-0.02562 -0.555799 0.414141 174 167 167
-0.0168223 -0.555603 0.411908 171 164 164
-0.0124386 -0.55545 0.410784 171 164 164
-0.00616434 -0.558363 0.410455 172 168 167
0.01145 -0.554419 0.404713 174 167 167
0.0198569 -0.559148 0.404693 172 166 166
0.022103 -0.556616 0.403155 174 167 167
0.04361 -0.565947 0.402132 177 171 168
0.050125 -0.565432 0.400505 176 169 167
0.0696993 -0.566203 0.396656 174 167 165
0.08484 -0.565387 0.393211 179 173 173
0.0887412 -0.560694 0.390526 181 174 174
0.115702 -0.568054 0.388216 185 178 180
0.134424 -0.561851 0.38222 184 179 178
0.14411 -0.566472 0.382318 184 177 179
0.148444 -0.565956 0.381335 183 176 176
0.182985 -0.569196 0.3767 196 176 174
0.205088 -0.558795 0.369023 194 185 183
0.216917 -0.552971 0.364908 193 189 188
0.235745 -0.553697 0.362409 194 189 191
0.258812 -0.546371 0.356325 195 190 192
0.260893 -0.545653 0.355766 195 193 191
0.264515 -0.548433 0.356354 196 192 191
0.295812 -0.551894 0.353644 195 193 191
0.29662 -0.548453 0.352229 196 194 192
0.319896 -0.539258 0.345965 177 172 171
-0.18236 -0.508862 0.436677 150 145 147
-0.164275 -0.517982 0.434677 152 147 149
-0.150409 -0.519482 0.431131 156 150 155
-0.144186 -0.528191 0.432675 158 153 155
-0.135013 -0.529146 0.430384 162 156 160
-0.129403 -0.526557 0.427764 162 156 160
-0.125597 -0.52223 0.424988 163 157 161
-0.112926 -0.532978 0.425599 166 161 163
-0.107729 -0.538744 0.426408 166 162 161
-0.0983712 -0.538164 0.423597 170 165 164
-0.0902282 -0.541829 0.422819 172 168 167
-0.0874558 -0.539851 0.421289 172 168 167
-0.0332813 -0.560767 0.415539 172 168 167
-0.0293028 -0.564397 0.416001 172 166 166
-0.00297244 -0.568141 0.411135 171 164 164
0.0519254 -0.569166 0.399139 179 173 173
0.0586527 -0.574128 0.399685 183 176 176
0.0717787 -0.572656 0.396336 184 177 177
0.0761117 -0.571784 0.39509 184 180 176
0.158328 -0.573023 0.379925 182 175 175
0.223815 -0.554821 0.362162 194 190 189
0.233125 -0.561122 0.363224 195 190 192
0.236796 -0.552122 0.359207 193 190 189
0.249797 -0.555093 0.358498 193 189 188
0.258445 -0.5472 0.354269 194 192 190
0.306491 -0.539699 0.345262 201 197 196
0.309216 -0.535318 0.343296 194 192 190
0.316344 -0.543706 0.345592 189 185 184
0.319814 -0.545289 0.345776 182 180 178
-0.192794 -0.51461 0.439582 145 141 140
-0.184797 -0.513759 0.436809 145 140 142
-0.171571 -0.517479 0.434206 148 145 149
-0.118378 -0.53483 0.425383 165 160 162
-0.0979623 -0.544085 0.423325 170 163 163
-0.0788875 -0.550136 0.420558 179 168 165
-0.0744262 -0.550494 0.419519 181 171 167
-0.0666252 -0.556485 0.419822 182 175 173
-0.0538366 -0.560755 0.418204 181 174 174
-0.0120158 -0.565714 0.409818 173 169 168
0.016367 -0.570713 0.405155 188 181 181
0.0472422 -0.579044 0.401578 189 182 180
0.0515884 -0.574643 0.398898 191 184 184
0.0718954 -0.582805 0.397834 190 183 181
0.073896 -0.57911 0.395958 190 183 181
0.0788081 -0.58568 0.397543 190 183 181
0.0810565 -0.585688 0.397086 190 183 181
0.0873891 -0.580995 0.393946 190 183 181
0.108007 -0.585083 0.391474 186 181 183
0.122426 -0.590808 0.390962 177 170 170
0.132312 -0.581538 0.385464 183 176 176
0.139644 -0.572314 0.380496 177 170 170
0.157325 -0.581548 0.380946 177 172 171
0.167769 -0.577165 0.377414 186 182 179
0.177347 -0.569823 0.372923 193 164 160
0.200596 -0.56324 0.366564 196 181 177
0.210045 -0.563972 0.365358 195 184 183
0.214958 -0.557864 0.362244 195 188 188
0.277902 -0.54901 0.349917 194 192 190
0.357174 -0.60407 0.360601 172 170 168
0.377629 -0.629582 0.367618 170 168 167
0.384897 -0.631406 0.367456 164 159 159
-0.214637 -0.496968 0.437372 137 133 132
-0.197731 -0.519197 0.440305 145 141 140
-0.193653 -0.521405 0.439877 145 141 140
-0.182076 -0.529487 0.43938 145 140 142
-0.167492 -0.53663 0.437713 153 148 152
-0.107888 -0.545492 0.424094 165 161 160
-0.0683988 -0.563595 0.420534 182 173 172
-0.046448 -0.554969 0.411581 183 176 176
-0.0191187 -0.566298 0.409255 187 183 182
-0.0169373 -0.56669 0.408883 187 183 182
0.00223555 -0.577223 0.408458 189 185 182
0.0111791 -0.577482 0.40649 192 186 183
0.0133564 -0.578683 0.40646 192 186 183
0.0559478 -0.588741 0.400979 195 188 186
0.106 -0.591617 0.391877 190 183 185
0.124683 -0.594282 0.389326 174 167 167
0.140612 -0.580561 0.381042 170 165 164
0.155465 -0.586384 0.380624 172 168 165
0.223142 -0.563337 0.360639 195 188 188
0.233345 -0.565473 0.359914 195 188 188
0.250838 -0.56119 0.35575 193 189 188
0.283358 -0.55171 0.347763 194 192 190
0.295984 -0.562214 0.350016 195 193 191
0.317675 -0.553985 0.34428 190 188 187
0.345148 -0.594457 0.35577 180 178 176
0.370979 -0.624982 0.363839 169 167 166
0.397971 -0.623362 0.360177 180 178 176
-0.177819 -0.536748 0.438269 149 147 148
-0.173264 -0.537958 0.437369 153 149 150
-0.162105 -0.535193 0.433065 154 151 155
-0.112568 -0.552561 0.425561 164 159 159
-0.104891 -0.55042 0.422655 165 159 159
0.128415 -0.60707 0.390967 146 142 139
0.146604 -0.59111 0.381487 149 145 139
0.175768 -0.55136 0.361238 173 121 118
0.216311 -0.558937 0.357579 185 169 165
0.219676 -0.562004 0.358213 184 171 169
0.232104 -0.570502 0.359511 188 181 181
0.24636 -0.57631 0.359565 191 186 185
0.249689 -0.572288 0.357581 189 185 186
0.255087 -0.561515 0.352802 190 188 187
0.25685 -0.559922 0.351961 193 190 189
0.257858 -0.55655 0.35057 191 189 188
0.257336 -0.549639 0.348083 194 192 190
0.267837 -0.557148 0.349405 193 190 191
0.287178 -0.550878 0.34451 195 193 191
0.300717 -0.557832 0.345303 195 192 193
0.351258 -0.607254 0.35696 177 175 174
0.36341 -0.623976 0.36153 171 166 166
-0.205609 -0.534664 0.443285 146 142 141
-0.185866 -0.542962 0.440378 151 146 148
-0.178707 -0.538394 0.43659 152 147 149
-0.170279 -0.542462 0.435606 155 149 153
-0.162227 -0.541191 0.432795 156 154 155
-0.156348 -0.538857 0.430236 155 153 154
-0.153451 -0.544136 0.431351 158 153 155
-0.151013 -0.544208 0.430679 160 156 157
-0.150802 -0.550263 0.432857 158 155 156
-0.117858 -0.545771 0.421955 161 154 154
-0.108106 -0.544445 0.41879 163 152 151
0.188803 -0.53778 0.35163 169 125 119
0.257623 -0.569445 0.352887 177 175 174
0.39756 -0.664176 0.368906 175 173 171
-0.202741 -0.539392 0.441542 145 141 140
-0.201023 -0.541342 0.441725 148 143 142
-0.195626 -0.541098 0.440026 150 145 145
-0.087205 -0.551371 0.413309 183 135 131
0.178986 -0.543417 0.353018 172 108 105
0.185317 -0.535303 0.348973 171 115 111
0.198253 -0.528415 0.344356 182 145 135
0.281922 -0.581025 0.351159 167 165 163
0.295631 -0.571664 0.345944 168 166 164
0.305129 -0.575099 0.34592 180 178 176
0.35749 -0.638815 0.361852 193 190 189
0.378713 -0.661048 0.367067 166 164 162
0.418177 -0.678522 0.368459 179 177 175
-0.219622 -0.540544 0.444446 142 137 137
-0.206987 -0.542342 0.441276 144 142 140
-0.204072 -0.541843 0.440228 145 143 141
-0.161826 -0.545446 0.429159 155 150 149
-0.155132 -0.547438 0.427968 156 151 150
-0.090107 -0.543662 0.408776 174 127 123
-0.088464 -0.546114 0.409243 178 129 125
-0.0810261 -0.562818 0.41344 187 133 131
0.174241 -0.544037 0.351715 184 125 122
0.184944 -0.536038 0.347011 167 106 101
0.187611 -0.530568 0.344581 166 115 107
0.25303 -0.599457 0.359361 167 165 163
0.266361 -0.582084 0.351177 169 167 166
0.271531 -0.582348 0.350534 165 166 163
0.292172 -0.588175 0.349732 169 167 166
0.303826 -0.579438 0.345072 173 171 169
0.384453 -0.679438 0.369777 168 166 162
-0.20076 -0.545728 0.438024 149 144 143
-0.192217 -0.550144 0.437063 151 147 146
-0.0796502 -0.555486 0.407918 190 129 127
-0.0781248 -0.558816 0.408735 190 133 132
-0.066942 -0.582968 0.41468 165 159 157
-0.0636392 -0.590496 0.416596 165 159 157
0.127488 -0.63217 0.389897 146 142 139
0.141902 -0.616634 0.381517 149 145 139
0.170246 -0.556095 0.35444 182 130 127
0.18307 -0.539038 0.346114 160 90 84
0.186967 -0.530371 0.34235 170 105 97
0.190953 -0.522587 0.338904 174 116 109
0.194296 -0.519814 0.337372 184 129 118
0.249997 -0.600072 0.357429 170 168 167
0.265583 -0.588103 0.350877 169 167 166
0.289534 -0.589851 0.348097 170 168 167
0.294412 -0.589032 0.347138 169 167 166
0.401185 -0.693831 0.369571 172 173 170
0.430618 -0.685694 0.363224 177 175 174
-0.22192 -0.549869 0.443138 141 139 138
-0.156307 -0.55595 0.426242 135 133 132
-0.146425 -0.563135 0.426022 132 130 128
-0.100198 -0.51386 0.395958 154 116 113
-0.0987412 -0.516328 0.396448 163 113 112
-0.0786748 -0.549927 0.403212 191 125 124
-0.0604041 -0.596998 0.415533 169 157 157
-0.0590627 -0.603045 0.417382 167 156 155
-0.0535717 -0.61385 0.419928 167 156 155
0.12785 -0.638651 0.389469 142 138 134
0.149916 -0.624175 0.380131 150 146 141
0.171249 -0.562405 0.35416 175 123 120
0.183394 -0.534722 0.342229 159 91 84
0.194229 -0.521428 0.335741 183 123 113
0.359399 -0.665605 0.362172 173 171 169
-0.21908 -0.549421 0.439513 128 126 125
-0.160952 -0.560943 0.426723 133 131 130
-0.0778962 -0.545244 0.398928 194 117 113
-0.0764232 -0.548568 0.399729 198 121 117
0.0366763 -0.640476 0.405955 219 214 213
0.14137 -0.63447 0.382712 148 144 140
0.14914 -0.636521 0.382006 150 146 141
0.173665 -0.556812 0.349381 176 122 117
0.181004 -0.535859 0.340756 155 93 86
0.238407 -0.592811 0.351488 181 177 176
0.251868 -0.615965 0.357471 182 178 177
-0.218848 -0.54329 0.434774 98 96 95
-0.210914 -0.538262 0.430749 119 117 116
-0.207125 -0.541382 0.430686 126 124 123
-0.209054 -0.562205 0.438267 128 126 125
-0.205535 -0.572311 0.440665 130 128 124
-0.198817 -0.569539 0.437791 131 129 127
-0.182173 -0.574553 0.434756 131 129 127
-0.179085 -0.580043 0.43576 131 129 127
-0.158139 -0.573206 0.42758 127 125 124
-0.0882163 -0.523528 0.391605 178 101 95
-0.0846704 -0.526607 0.391759 186 109 103
-0.0819698 -0.533269 0.393388 190 109 102
0.142181 -0.642818 0.3828 149 145 139
0.176377 -0.569614 0.351023 175 124 118
0.179383 -0.547577 0.342836 157 98 93
0.199192 -0.514423 0.328102 189 134 121
0.254094 -0.624044 0.357245 184 179 178
0.279854 -0.621995 0.352665 180 181 178
0.292373 -0.607311 0.345865 180 181 178
0.298054 -0.602065 0.343287 180 180 180
0.322918 -0.625576 0.34776 181 179 177
0.393039 -0.72233 0.370728 159 157 155
0.410543 -0.72292 0.368636 172 173 170
0.438286 -0.753916 0.375358 172 173 170
-0.215148 -0.546425 0.432149 111 109 109
-0.204621 -0.575927 0.438931 130 128 126
-0.187806 -0.594325 0.440346 131 129 127
-0.166063 -0.586882 0.431786 127 125 124
-0.0931348 -0.509055 0.385606 179 100 95
-0.0907152 -0.515738 0.387271 186 104 100
-0.0785645 -0.536108 0.391158 189 106 100
-0.0721607 -0.546669 0.393183 191 110 106
0.135527 -0.65187 0.384464 142 138 132
0.138013 -0.651649 0.38392 148 144 138
0.143298 -0.653061 0.383421 150 146 141
0.150763 -0.652277 0.381765 153 150 144
0.177432 -0.594417 0.356976 171 129 123
0.185554 -0.52626 0.332181 147 75 67
0.190527 -0.51521 0.327588 173 99 90
0.199527 -0.510924 0.324681 182 132 117
0.272891 -0.619907 0.350301 182 182 180
-0.209336 -0.579772 0.438859 127 125 124
-0.179106 -0.599345 0.436867 128 126 125
-0.170517 -0.591013 0.431717 127 125 124
-0.167255 -0.589406 0.430283 126 124 123
-0.10682 -0.504007 0.385261 143 98 92
-0.0911419 -0.508584 0.382689 184 100 94
-0.0859568 -0.521038 0.385577 185 102 95
-0.084432 -0.523472 0.386012 191 108 99
-0.0757089 -0.531962 0.386679 196 110 105
-0.0728259 -0.548285 0.39152 191 110 108
-0.0726914 -0.603324 0.410297 175 153 149
-0.0709096 -0.606672 0.411001 179 155 152
0.0125763 -0.652232 0.40709 212 207 206
0.0250134 -0.656304 0.405751 208 204 201
0.149455 -0.662799 0.382848 152 151 144
0.151811 -0.661582 0.381995 154 153 146
0.15747 -0.602145 0.360626 171 140 135
0.18202 -0.569839 0.345321 155 104 97
0.228634 -0.564468 0.335896 187 176 173
0.270971 -0.637457 0.353761 182 180 180
0.300929 -0.617845 0.342829 182 182 182
0.388919 -0.738405 0.370089 163 161 160
-0.218693 -0.569694 0.435555 113 111 112
-0.181009 -0.603599 0.436053 125 123 121
-0.108529 -0.495258 0.380574 142 102 95
-0.0974835 -0.493408 0.377042 158 93 88
-0.0888428 -0.499368 0.376782 188 102 95
-0.0757379 -0.530823 0.38399 194 111 105
-0.0760718 -0.58305 0.401667 179 107 102
0.132077 -0.670952 0.38607 140 139 132
0.157466 -0.572832 0.348212 171 135 131
0.175872 -0.565797 0.342621 152 100 95
0.184544 -0.526668 0.328059 138 71 59
0.194821 -0.500307 0.317606 185 121 106
0.201361 -0.501524 0.316966 193 163 155
0.258199 -0.6269 0.349507 181 177 176
0.290749 -0.640775 0.349123 179 179 179
0.293178 -0.639927 0.348485 180 180 180
0.294567 -0.630166 0.345089 180 180 180
0.295402 -0.625735 0.34352 182 182 182
0.302496 -0.623094 0.341629 183 183 183
0.304854 -0.622195 0.340997 182 182 182
-0.118983 -0.487942 0.378777 129 102 97
-0.094963 -0.484223 0.371197 161 93 89
-0.0907722 -0.483735 0.369944 175 96 91
-0.0886845 -0.483477 0.369317 183 99 93
-0.0845107 -0.497658 0.372926 191 106 98
-0.0788751 -0.516072 0.377587 193 110 100
-0.0438778 -0.583086 0.391309 208 150 152
-0.0446012 -0.655697 0.41578 205 198 198
0.00787793 -0.677176 0.410959 198 196 195
0.0132645 -0.67302 0.408368 199 194 194
0.020863 -0.678517 0.408545 194 190 187
0.156629 -0.680881 0.381953 161 160 153
0.169834 -0.528403 0.328914 157 109 98
0.169047 -0.517767 0.325532 162 109 99
0.182534 -0.521765 0.324574 139 72 61
0.195407 -0.497678 0.314554 200 136 121
0.266285 -0.636228 0.348604 182 180 178
0.271818 -0.643631 0.350157 180 181 178
0.277399 -0.643882 0.349382 180 180 180
0.29311 -0.641649 0.346287 178 178 178
0.297678 -0.632793 0.342753 183 183 183
-0.19261 -0.610625 0.435979 124 122 118
-0.181794 -0.611422 0.433286 124 122 120
-0.103264 -0.483913 0.371154 149 93 87
-0.101152 -0.48371 0.370534 150 92 84
-0.0844735 -0.474827 0.363314 186 103 97
-0.059703 -0.555195 0.383436 204 152 152
-0.0432127 -0.561966 0.381687 207 143 144
0.145572 -0.698229 0.38686 152 151 144
0.155678 -0.709717 0.388755 160 157 151
0.160705 -0.544372 0.33352 149 100 94
0.160481 -0.51019 0.322381 159 108 100
0.170038 -0.494473 0.315619 164 98 86
0.194405 -0.490447 0.310299 190 126 109
-0.219132 -0.618545 0.442985 128 126 125
-0.107396 -0.4771 0.367946 155 100 89
-0.0823278 -0.466414 0.358008 186 103 95
-0.0789849 -0.49015 0.364796 190 110 100
-0.0711927 -0.545197 0.380631 187 112 108
-0.0680129 -0.550921 0.381702 185 124 120
0.149742 -0.575876 0.343411 145 92 87
0.155334 -0.470481 0.308366 180 121 107
0.283178 -0.648419 0.344407 180 180 180
0.296094 -0.659426 0.345908 179 179 179
0.503871 -0.854995 0.377254 171 171 171
-0.22517 -0.624927 0.443783 123 124 121
-0.109594 -0.470964 0.364509 149 91 79
-0.101604 -0.471079 0.362451 157 93 80
-0.0849123 -0.461274 0.355035 173 99 90
-0.0799619 -0.463965 0.354622 187 106 97
-0.0773859 -0.475657 0.35768 193 112 103
-0.0706485 -0.512996 0.367881 190 116 109
-0.0558999 -0.543196 0.373924 205 121 119
-0.0408649 -0.586149 0.384117 183 121 124
0.148285 -0.706294 0.383068 149 148 144
0.152774 -0.469511 0.306568 179 115 100
0.189435 -0.484761 0.305235 195 121 103
0.192388 -0.481937 0.303868 197 130 112
0.282049 -0.654563 0.343722 175 175 173
0.00226088 -0.115481 0.222953 191 119 102
-0.232818 -0.648207 0.450116 122 123 120
-0.119324 -0.474788 0.3662 128 89 77
-0.11564 -0.470253 0.363824 135 87 76
-0.107572 -0.46446 0.359907 151 94 81
-0.100275 -0.466307 0.358578 158 94 82
-0.0982347 -0.466081 0.357978 158 94 82
-0.0751712 -0.496713 0.361695 191 112 105
-0.074643 -0.502759 0.363462 184 107 99
-0.0712839 -0.505721 0.363559 182 106 100
-0.0680789 -0.528122 0.369819 185 115 109
-0.0623223 -0.541348 0.372584 194 115 112
-0.0406027 -0.566769 0.37543 193 113 115
0.0478746 -0.724827 0.406036 172 170 166
0.149454 -0.717578 0.383459 156 155 151
0.163528 -0.703443 0.376365 165 163 159
0.146974 -0.557082 0.333209 142 75 68
0.149882 -0.522506 0.321796 142 75 66
0.155854 -0.462454 0.301903 190 122 107
0.273832 -0.642537 0.338512 165 166 163
0.29739 -0.666466 0.342213 164 166 165
-0.00703887 -0.133881 0.230651 111 70 56
-0.00147124 -0.124186 0.226208 176 105 90
-0.216089 -0.643975 0.441324 120 118 117
-0.108798 -0.46166 0.357354 151 92 80
-0.0906111 -0.459618 0.352022 159 88 78
-0.0843752 -0.457865 0.349891 170 97 87
-0.0806864 -0.458149 0.349043 184 108 97
-0.0757601 -0.467701 0.35075 194 118 107
-0.075205 -0.472811 0.35219 194 118 107
-0.0718449 -0.498429 0.359284 184 108 97
-0.0454141 -0.611851 0.388248 184 118 117
0.0473359 -0.727578 0.403968 173 170 164
0.15824 -0.740661 0.386008 162 161 157
0.167386 -0.743501 0.385188 165 163 159
0.151375 -0.460876 0.300301 183 110 96
0.17277 -0.477963 0.301909 163 92 77
0.284677 -0.665232 0.340968 165 167 166
-0.00912831 -0.14034 0.232659 107 66 55
-0.119685 -0.469014 0.360411 125 83 74
-0.109995 -0.458847 0.354817 149 91 79
-0.100178 -0.458716 0.352232 160 93 82
-0.0918837 -0.456833 0.349533 159 90 77
-0.0764184 -0.462222 0.347259 195 121 110
-0.074066 -0.474831 0.350514 198 122 111
-0.0440948 -0.584925 0.377058 198 113 114
0.148704 -0.75788 0.390009 161 159 155
0.159771 -0.753883 0.38669 163 162 158
0.142722 -0.531543 0.321564 142 75 66
0.155364 -0.457527 0.296714 193 118 102
0.157045 -0.457163 0.296313 193 118 102
0.170193 -0.47106 0.298291 180 103 90
0.177141 -0.475345 0.298421 173 103 88
0.189042 -0.471143 0.295184 208 141 120
-0.0748334 -0.462402 0.344959 201 128 114
-0.0743119 -0.467515 0.346366 202 129 115
-0.0666003 -0.526807 0.362339 184 107 99
-0.0661878 -0.53474 0.364636 184 105 100
-0.0636662 -0.54322 0.366592 201 111 107
-0.0452161 -0.561248 0.367673 208 119 121
0.16929 -0.77885 0.389326 167 165 161
0.170042 -0.766133 0.385333 166 164 160
0.184474 -0.464778 0.292106 211 142 117
0.299585 -0.692379 0.340969 168 168 168
0.303658 -0.695119 0.341137 165 165 165
-0.00854848 -0.137851 0.230783 133 80 68
-0.197039 -0.631176 0.423833 120 118 117
-0.084739 -0.456723 0.343799 181 107 96
-0.0815888 -0.458811 0.343626 193 117 106
-0.0796201 -0.458485 0.343038 196 121 110
-0.0766962 -0.461445 0.343186 202 129 115
-0.073316 -0.477376 0.347068 202 126 116
-0.0678844 -0.50362 0.353531 189 108 101
-0.0664319 -0.534413 0.362341 187 105 101
0.161034 -0.788329 0.390459 166 164 160
0.14216 -0.488587 0.30454 138 74 62
0.163118 -0.456645 0.291403 196 117 98
0.0038105 -0.116993 0.221057 197 136 120
-0.0794898 -0.457174 0.340688 200 125 111
-0.0763459 -0.466167 0.342531 204 133 118
-0.0721922 -0.487264 0.347673 197 116 109
-0.0639884 -0.541642 0.36163 200 110 106
-0.0582259 -0.545062 0.361265 204 111 110
-0.0493965 -0.555928 0.362382 209 115 119
-0.0450495 -0.569519 0.365372 202 120 120
-0.0459887 -0.60521 0.376111 191 129 130
0.150216 -0.80278 0.393491 163 162 158
0.152138 -0.794856 0.390787 168 166 162
0.163217 -0.806396 0.392085 169 168 164
0.140663 -0.509921 0.309084 138 76 65
0.141384 -0.487219 0.302299 140 79 65
0.146938 -0.457596 0.292643 191 116 100
0.151208 -0.45375 0.290771 204 128 106
0.166993 -0.459135 0.289612 193 118 100
0.193916 -0.473047 0.289135 212 148 124
0.196643 -0.475288 0.289334 206 150 130
-0.0099758 -0.136381 0.229784 113 72 60
-0.00915353 -0.135762 0.229389 126 78 65
0.000782614 -0.120859 0.222564 195 129 110
0.00664891 -0.112249 0.218592 184 118 104
-0.208304 -0.65799 0.428717 123 119 116
-0.103052 -0.453199 0.343535 167 101 86
-0.0976789 -0.454276 0.34248 164 95 82
-0.0937143 -0.453757 0.341333 165 97 81
-0.0858469 -0.452605 0.339033 184 111 99
-0.0786781 -0.460066 0.339393 202 127 114
-0.0774672 -0.462457 0.339782 205 132 118
-0.0744162 -0.487237 0.346161 200 122 112
-0.0730231 -0.497545 0.348792 193 112 103
-0.0552554 -0.550392 0.359828 206 115 116
0.1495 -0.824993 0.396747 167 165 161
0.17151 -0.804359 0.386577 169 168 164
0.13826 -0.529397 0.313089 136 74 63
0.139007 -0.513606 0.308385 135 76 62
0.139287 -0.505713 0.306052 135 75 64
0.150388 -0.45235 0.288683 204 128 106
0.167786 -0.457343 0.287104 196 119 99
0.171716 -0.458359 0.286726 195 121 101
0.191958 -0.468948 0.286358 218 153 130
0.194337 -0.470276 0.286344 209 149 126
-0.109451 -0.454325 0.343543 154 94 82
-0.106815 -0.452343 0.342317 160 97 82
-0.0797358 -0.456341 0.33667 201 126 112
-0.0788059 -0.459647 0.337376 202 127 114
-0.0734576 -0.490156 0.344715 196 115 108
-0.0717712 -0.535059 0.357069 193 109 106
-0.065452 -0.545603 0.358567 205 114 113
-0.0525543 -0.55758 0.358953 204 110 114
0.154224 -0.840955 0.396986 169 168 164
0.159047 -0.829832 0.39288 169 168 164
0.163545 -0.838147 0.394403 170 169 165
0.139733 -0.492346 0.300122 137 75 64
0.140535 -0.471511 0.294053 151 82 71
0.141367 -0.467413 0.292739 161 90 75
0.143633 -0.462049 0.29081 181 108 94
0.146057 -0.457616 0.289121 194 119 101
0.147488 -0.456337 0.288505 198 119 101
0.161069 -0.45436 0.285569 208 132 110
0.163007 -0.4549 0.285387 208 132 112
0.179631 -0.461701 0.284471 214 146 119
0.191633 -0.469448 0.284639 219 155 131
-0.00772141 -0.134746 0.227778 167 99 83
-0.0737948 -0.533209 0.354794 193 104 102
-0.0712219 -0.540822 0.356314 198 112 111
-0.0537365 -0.550176 0.354827 201 110 113
-0.0494423 -0.550193 0.353833 201 106 111
-0.0444569 -0.559098 0.355188 196 112 113
0.0605559 -0.859911 0.417524 147 146 139
0.0672002 -0.862005 0.416747 151 147 142
0.139084 -0.571441 0.320461 145 107 101
0.139966 -0.542901 0.312279 132 72 62
0.140009 -0.495706 0.299031 133 73 61
0.140862 -0.474843 0.293033 150 81 70
0.151156 -0.451995 0.284814 205 126 108
0.154715 -0.452213 0.28425 204 127 108
0.169622 -0.454651 0.282349 208 135 109
0.171871 -0.456086 0.282362 207 133 110
-0.115962 -0.454959 0.34149 138 86 70
-0.109274 -0.452622 0.339165 156 95 80
-0.0900234 -0.445893 0.332522 180 109 97
-0.086715 -0.447098 0.332034 187 113 102
-0.0744448 -0.534691 0.35313 193 105 100
-0.0495572 -0.548881 0.351218 202 106 109
0.141409 -0.522532 0.304189 125 65 53
0.16513 -0.453149 0.28088 212 136 112
0.183304 -0.464499 0.280874 217 153 126
0.185317 -0.464941 0.280655 218 154 128
-0.010799 -0.140921 0.22927 155 91 76
0.00197949 -0.118862 0.220126 196 133 116
-0.097895 -0.446561 0.332781 175 107 93
-0.0829164 -0.45205 0.330568 199 121 111
-0.0812418 -0.452627 0.330316 203 124 114
-0.0752119 -0.478585 0.335872 207 129 121
-0.0757902 -0.488359 0.338657 202 121 114
-0.0795374 -0.527955 0.350283 188 102 97
-0.0656189 -0.5417 0.350727 208 117 116
-0.0552811 -0.543305 0.348753 199 106 108
-0.0515486 -0.546146 0.348663 206 109 112
-0.0477795 -0.54896 0.348562 205 106 110
0.147217 -0.453601 0.28233 196 117 98
0.149765 -0.450072 0.280922 205 123 105
0.165895 -0.451316 0.278435 214 140 117
0.176533 -0.456603 0.27803 215 147 120
0.195808 -0.469338 0.27819 191 150 134
-0.0172023 -0.151587 0.233203 103 66 56
0.00295377 -0.118428 0.219373 186 124 109
0.000180708 -0.126548 0.222199 198 137 121
0.00416732 -0.123205 0.220307 190 119 106
-0.00333202 -0.142673 0.227304 200 137 119
-0.107801 -0.447307 0.333562 159 97 84
-0.103853 -0.446859 0.332461 167 104 89
-0.084143 -0.44919 0.328226 198 120 110
-0.0813498 -0.45217 0.328338 203 124 114
-0.0766568 -0.461755 0.329752 207 136 124
-0.0754298 -0.471141 0.331955 205 132 120
-0.075481 -0.486081 0.335948 201 120 113
-0.0731043 -0.535409 0.348554 198 107 106
-0.0692992 -0.537438 0.348203 205 112 111
-0.0456896 -0.547132 0.345332 205 113 117
0.143904 -0.520091 0.298874 125 70 59
0.148057 -0.451809 0.279894 195 116 99
0.148947 -0.448623 0.278888 197 118 101
0.169159 -0.451852 0.276204 215 144 117
0.175303 -0.454259 0.275784 216 150 122
0.188389 -0.465811 0.276607 217 156 129
-0.00893575 -0.139044 0.227318 184 113 98
0.00235174 -0.122482 0.220182 190 124 110
0.00553034 -0.119793 0.218683 188 117 107
-0.122205 -0.454186 0.337052 99 62 54
-0.0904527 -0.439394 0.325343 186 115 105
-0.0861425 -0.442999 0.32523 199 123 112
-0.0839659 -0.447812 0.325957 199 123 110
-0.0803126 -0.454104 0.326717 204 129 118
-0.0765672 -0.467368 0.329289 206 135 125
-0.0750319 -0.475849 0.331145 203 127 119
-0.0758783 -0.486562 0.334156 201 120 113
-0.0711215 -0.534627 0.345664 201 107 107
-0.0505447 -0.548644 0.344595 210 109 113
0.146123 -0.562652 0.307592 135 94 90
0.162214 -0.447918 0.274577 215 141 118
0.164695 -0.450325 0.274772 215 141 118
0.176333 -0.453312 0.273539 214 148 120
0.184772 -0.462124 0.274386 216 155 126
-0.0061813 -0.13317 0.224653 193 123 104
0.00622068 -0.111845 0.216117 175 115 103
0.00345784 -0.118937 0.218607 180 119 103
0.00370755 -0.121162 0.219105 184 120 105
-0.0178662 -0.178089 0.238948 195 123 104
-0.121907 -0.452869 0.334714 109 70 58
-0.10403 -0.440809 0.327205 169 105 90
-0.090231 -0.438012 0.323107 190 118 108
-0.0859439 -0.441612 0.322988 199 127 112
-0.0792667 -0.456029 0.325084 206 133 121
-0.0766544 -0.4599 0.325456 206 133 123
-0.0773179 -0.532542 0.344366 192 96 94
-0.0630628 -0.545291 0.344349 203 108 108
0.152339 -0.645035 0.325552 144 110 106
0.146439 -0.536391 0.298463 130 88 82
0.143617 -0.514088 0.293205 124 72 60
0.155124 -0.442931 0.272758 211 134 115
0.19582 -0.473508 0.273554 210 150 125
-0.0154716 -0.143373 0.229101 117 74 59
-0.00831663 -0.137557 0.225827 190 120 102
-0.00426459 -0.130046 0.222938 190 120 100
-0.00188054 -0.137551 0.224194 194 125 112
-0.11589 -0.446761 0.329776 140 87 73
-0.110266 -0.44191 0.327171 154 95 80
-0.0989519 -0.436241 0.322968 179 108 96
-0.0867871 -0.437807 0.320404 201 130 118
-0.0854581 -0.439302 0.320461 204 133 118
-0.069373 -0.533396 0.340532 206 110 110
-0.0610902 -0.544442 0.341436 208 112 113
-0.0577417 -0.549205 0.341884 211 110 115
-0.0555165 -0.548749 0.341259 208 107 111
-0.0541546 -0.553006 0.342036 209 108 112
-0.0522577 -0.554425 0.341966 212 108 113
-0.0948484 -0.894662 0.438671 201 140 138
0.160084 -0.676051 0.329412 145 109 108
0.140059 -0.491312 0.286006 128 73 64
0.144045 -0.454731 0.275975 184 107 92
0.159631 -0.442178 0.270014 219 148 124
0.171203 -0.451341 0.270302 218 149 122
0.179936 -0.45604 0.269975 216 151 125
0.188139 -0.463869 0.270535 215 153 126
0.00291742 -0.119983 0.218234 182 123 106
-0.000945844 -0.130786 0.221841 188 125 110
-0.122263 -0.447699 0.3297 95 60 52
-0.0990025 -0.435756 0.321044 182 111 98
-0.0913748 -0.434616 0.318911 194 120 109
-0.0806322 -0.452656 0.320812 204 129 116
-0.0733478 -0.530942 0.338647 201 107 107
-0.0649994 -0.541109 0.339266 208 113 111
-0.0629823 -0.541623 0.338931 208 112 113
0.13966 -0.459937 0.276276 161 90 77
0.140873 -0.457711 0.275498 168 97 82
0.14207 -0.45548 0.274722 178 102 89
0.147188 -0.44842 0.272034 188 109 92
0.151023 -0.443554 0.270133 200 119 101
0.180642 -0.45412 0.267555 218 154 128
0.193833 -0.470695 0.269383 210 149 122
0.197552 -0.47572 0.269988 207 151 131
-0.100968 -0.435526 0.319655 179 110 97
-0.0990508 -0.435262 0.319126 183 112 99
-0.0856098 -0.4383 0.31663 207 138 125
-0.0837741 -0.444027 0.31759 205 132 120
-0.0763293 -0.462675 0.320391 202 128 119
-0.0717975 -0.53198 0.336364 208 114 114
-0.0624554 -0.537415 0.335557 208 112 113
-0.0588223 -0.540296 0.335439 206 108 109
-0.0522921 -0.550721 0.336531 199 102 109
0.137092 -0.473714 0.278322 134 72 63
0.145977 -0.452025 0.271367 182 105 87
0.153391 -0.441319 0.26741 210 133 111
0.167172 -0.446976 0.266352 222 150 126
0.190534 -0.46277 0.266137 211 147 121
-0.0149195 -0.144201 0.227633 156 93 75
-0.0119305 -0.1415 0.226244 178 106 91
-0.000303049 -0.12608 0.219703 189 130 113
-0.120918 -0.443216 0.324535 113 70 57
-0.109717 -0.438685 0.320722 155 96 82
-0.101011 -0.435026 0.31774 180 111 98
-0.0764904 -0.469199 0.320109 199 126 116
-0.072436 -0.533402 0.334678 209 116 113
-0.0664787 -0.534995 0.333697 209 116 113
-0.0621127 -0.534132 0.332491 207 111 111
-0.0517072 -0.545532 0.332898 190 98 104
-0.0501771 -0.548836 0.333356 173 97 100
0.162191 -0.443514 0.26463 219 148 122
-0.105217 -0.435927 0.317163 178 109 96
-0.103292 -0.435678 0.31664 180 111 98
-0.0934362 -0.433389 0.313739 200 129 117
-0.0870641 -0.43577 0.312782 207 141 129
-0.0852804 -0.441504 0.313711 208 139 126
-0.0828641 -0.445401 0.31406 209 134 121
-0.0809321 -0.45113 0.314958 201 126 112
-0.0748456 -0.533333 0.333034 208 114 114
-0.0712964 -0.536298 0.332926 209 116 113
-0.0547637 -0.537499 0.329456 194 98 101
0.141799 -0.45956 0.270358 162 94 81
0.147618 -0.448313 0.266629 187 107 91
0.159433 -0.441482 0.26289 220 151 126
0.183329 -0.450145 0.260725 214 151 122
0.190569 -0.460289 0.261849 210 146 117
-0.0176004 -0.139692 0.226285 85 55 47
-0.0153959 -0.137681 0.225275 110 68 55
-0.00338039 -0.125842 0.219587 193 123 106
-0.000618494 -0.121904 0.218008 196 130 112
0.00207617 -0.117925 0.216437 185 128 113
0.00512085 -0.117295 0.215543 121 84 78
-0.108776 -0.434991 0.315998 162 98 85
-0.104924 -0.434515 0.314962 180 110 95
-0.0975909 -0.434358 0.313171 196 123 109
-0.0818619 -0.447279 0.312442 203 128 115
-0.083019 -0.506483 0.326476 199 115 109
-0.0796806 -0.534558 0.332251 197 102 100
-0.0691139 -0.534478 0.329818 210 117 116
-0.0576805 -0.529441 0.326048 197 101 104
0.154567 -0.437923 0.261197 219 148 124
0.167082 -0.439761 0.259391 218 152 126
-0.012526 -0.136197 0.223747 159 96 79
0.000549739 -0.125823 0.218201 178 119 105
-0.119212 -0.437292 0.317224 126 76 65
-0.0854278 -0.44044 0.309897 209 140 129
-0.0827534 -0.443416 0.309949 206 130 117
-0.0793921 -0.456728 0.312201 199 126 114
-0.0787502 -0.460985 0.313024 199 126 116
-0.0801359 -0.479731 0.317626 198 121 113
-0.083072 -0.497966 0.322472 198 119 112
-0.0618237 -0.527976 0.324503 198 106 108
0.0545441 -0.992615 0.407182 141 139 138
0.130689 -0.546686 0.288847 110 70 67
0.138158 -0.542637 0.286502 104 68 64
0.143536 -0.538803 0.284611 95 55 50
0.152677 -0.438677 0.259992 215 141 118
0.15956 -0.438994 0.258826 221 152 130
0.161143 -0.438583 0.258449 222 155 132
0.163014 -0.439109 0.258234 225 158 135
0.166476 -0.439193 0.257637 221 154 129
0.186283 -0.450844 0.256791 214 151 122
-0.0791196 -0.461376 0.311326 199 123 114
-0.0852103 -0.50491 0.322495 192 113 108
-0.0570077 -0.522758 0.320111 185 98 102
0.129293 -0.553217 0.288431 102 56 56
0.136323 -0.546286 0.285529 97 54 50
0.140364 -0.458807 0.265048 153 90 75
0.14838 -0.44301 0.260027 190 113 96
0.159251 -0.439359 0.25724 221 154 131
0.160835 -0.438948 0.256864 223 156 133
0.170606 -0.437285 0.254749 216 150 122
0.179474 -0.442893 0.25443 214 151 122
-0.0169689 -0.138332 0.224369 102 63 49
6.81357e-05 -0.12477 0.217276 178 119 103
-0.12315 -0.436612 0.314381 102 64 56
-0.09067 -0.438515 0.307114 211 150 136
-0.0890661 -0.439104 0.306869 210 146 134
-0.0801928 -0.451383 0.307506 199 123 112
-0.0871102 -0.510925 0.322201 193 114 109
-0.0576072 -0.524139 0.318447 179 96 101
0.135928 -0.546733 0.283548 96 51 46
0.137375 -0.543534 0.282565 101 59 55
0.143157 -0.541623 0.28105 98 55 51
0.144537 -0.538401 0.280077 101 59 55
0.141003 -0.455973 0.262512 157 91 79
0.143099 -0.450512 0.260919 174 101 89
0.144482 -0.44921 0.260377 179 104 90
0.152059 -0.439398 0.25683 209 137 114
0.16153 -0.436999 0.25459 221 152 128
0.168721 -0.438094 0.253542 217 151 123
0.172184 -0.438125 0.252931 217 151 123
-0.0212409 -0.144848 0.226303 84 59 47
-0.0213136 -0.148151 0.227008 97 60 50
-0.0213172 -0.151473 0.227703 117 73 54
-0.0168462 -0.145206 0.225292 156 96 77
-0.0147123 -0.161451 0.228197 193 128 109
-0.123514 -0.436978 0.312731 111 67 57
-0.112025 -0.431538 0.308844 164 98 84
-0.0990044 -0.430666 0.305592 199 127 112
-0.0948965 -0.434332 0.305417 204 138 124
-0.0858542 -0.497705 0.31698 193 114 109
-0.0754339 -0.529009 0.321393 199 108 105
0.133882 -0.549401 0.282364 95 43 42
0.141553 -0.546244 0.280223 98 50 46
0.13969 -0.474605 0.265016 132 72 62
0.160935 -0.436404 0.252859 221 154 131
0.164072 -0.435555 0.252111 221 153 126
0.176615 -0.442228 0.2513 216 150 122
0.182043 -0.442626 0.250422 214 148 118
-0.0348523 -0.20737 0.241987 185 115 98
-0.124743 -0.434833 0.310762 95 64 58
-0.0819902 -0.455824 0.305212 198 122 111
-0.0659539 -0.52208 0.315659 185 107 106
0.131814 -0.552059 0.281165 104 54 53
0.139532 -0.548926 0.279028 98 50 46
0.143163 -0.546349 0.277791 99 50 46
0.145941 -0.539886 0.27589 102 52 46
0.13916 -0.458944 0.259933 143 83 74
0.141536 -0.454439 0.258533 162 94 81
0.171257 -0.437884 0.249605 216 150 122
0.173457 -0.439299 0.249509 218 152 124
0.183987 -0.444339 0.248692 207 140 115
-0.0218841 -0.144785 0.225424 95 63 51
-0.0200328 -0.142546 0.224522 100 64 49
-0.020578 -0.145575 0.225263 104 62 51
-0.0139361 -0.13945 0.222414 167 101 86
-0.0121996 -0.137124 0.221524 175 104 89
-0.014756 -0.158556 0.226483 196 128 112
-0.125104 -0.435184 0.309118 101 66 60
-0.11396 -0.430659 0.305569 164 98 84
-0.11204 -0.430437 0.305073 174 106 92
-0.110468 -0.431107 0.304843 183 112 99
-0.0884811 -0.497913 0.313589 196 117 109
-0.0902223 -0.511566 0.316821 196 115 108
0.145959 -0.542235 0.274255 108 56 51
0.146337 -0.525144 0.270614 108 55 48
0.14417 -0.50649 0.267128 118 62 54
0.140262 -0.458004 0.257747 150 86 73
-0.0229728 -0.147656 0.225742 95 63 49
-0.0211832 -0.152052 0.226174 148 89 73
-0.124357 -0.432857 0.306676 113 70 57
-0.0946683 -0.436885 0.300591 208 146 131
0.144586 -0.449293 0.253384 174 101 85
0.147316 -0.446658 0.25234 185 110 94
0.159153 -0.43457 0.247703 217 150 127
0.161001 -0.435098 0.247473 219 150 125
0.162563 -0.434673 0.247102 216 148 121
-0.0226724 -0.151355 0.22586 124 76 58
-0.022192 -0.153854 0.226228 145 89 71
-0.0135385 -0.153028 0.224008 192 122 105
-0.107682 -0.432194 0.300887 191 119 102
-0.105439 -0.43103 0.300139 195 122 108
-0.0874362 -0.447195 0.299226 205 134 121
-0.0885064 -0.518219 0.313629 191 105 100
-0.0851683 -0.52126 0.31349 204 111 108
-0.0747454 -0.512174 0.309348 176 102 104
0.147499 -0.52558 0.26637 109 58 50
0.159131 -0.43584 0.24627 218 152 126
0.160982 -0.436369 0.246036 215 146 122
0.187923 -0.448992 0.24366 196 129 106
-0.026924 -0.182068 0.232183 188 119 99
-0.098852 -0.432051 0.297077 204 138 124
-0.0953671 -0.437543 0.297349 207 148 134
-0.0875778 -0.452733 0.298541 201 123 113
-0.0933269 -0.512131 0.311429 194 113 106
-0.0881652 -0.51579 0.310991 184 98 95
-0.0831795 -0.520336 0.31077 186 102 101
-0.0777239 -0.514847 0.308482 162 99 97
0.155333 -0.667749 0.290782 99 56 53
0.148823 -0.533688 0.265658 106 57 51
0.151763 -0.447138 0.248144 191 121 103
0.152838 -0.444839 0.247496 197 127 107
0.158822 -0.436156 0.244696 215 148 123
0.16879 -0.43543 0.242729 209 136 110
0.173784 -0.434971 0.241731 212 143 116
0.175663 -0.43543 0.241479 211 142 115
0.185924 -0.444651 0.241414 197 127 105
0.190488 -0.447317 0.241109 147 105 94
-0.119343 -0.428108 0.299276 159 95 83
-0.0960255 -0.438781 0.295971 205 146 130
-0.0950419 -0.441222 0.296213 209 147 134
-0.0940416 -0.443662 0.296452 209 145 133
-0.0890085 -0.450631 0.296645 201 125 114
-0.0885042 -0.454917 0.29735 199 121 111
-0.0864253 -0.515806 0.308534 195 106 104
-0.0804696 -0.508465 0.305806 175 98 97
0.151194 -0.546631 0.265612 104 54 51
0.147719 -0.446299 0.247006 182 109 93
0.152258 -0.4442 0.245758 191 121 103
0.154356 -0.439594 0.244487 206 139 116
0.186865 -0.44351 0.239283 184 121 99
-0.0219661 -0.145523 0.223033 117 69 53
-0.0193533 -0.150399 0.223303 163 99 82
-0.0493643 -0.228479 0.244596 169 99 81
-0.109271 -0.429772 0.295533 193 118 102
-0.105808 -0.430161 0.294817 198 128 110
-0.101437 -0.432971 0.294347 206 141 124
-0.0905823 -0.466972 0.298245 192 114 102
-0.0922113 -0.478728 0.300807 191 112 105
-0.0893412 -0.510312 0.306082 173 96 93
-0.0850933 -0.509588 0.305006 184 104 104
0.222077 -0.978287 0.331246 97 52 49
0.213653 -0.916552 0.321224 96 49 45
0.148884 -0.520184 0.258939 115 73 67
0.175959 -0.433681 0.237702 207 138 114
-0.0311609 -0.159275 0.227128 84 53 46
-0.0234997 -0.148129 0.223348 118 70 54
-0.0490652 -0.225616 0.243144 167 99 81
-0.1162 -0.428304 0.295098 175 104 89
-0.109615 -0.430075 0.293925 192 120 103
-0.100227 -0.439096 0.293446 205 141 126
-0.0914566 -0.456833 0.294717 200 122 112
-0.0929259 -0.473811 0.298148 192 114 104
0.143469 -0.452805 0.245554 157 91 79
0.15242 -0.441549 0.241808 187 119 101
0.187866 -0.434128 0.233922 139 101 86
-0.0259934 -0.152417 0.224155 116 71 54
-0.0227124 -0.148756 0.222753 130 79 60
-0.12046 -0.424733 0.293691 160 94 77
-0.117373 -0.426116 0.293236 173 103 88
-0.114276 -0.427474 0.292776 181 108 92
-0.11202 -0.426334 0.292064 188 115 99
-0.0967075 -0.44399 0.291767 207 141 127
0.144286 -0.450822 0.2433 159 90 77
0.155738 -0.436817 0.238636 202 135 112
0.159146 -0.436937 0.238021 201 134 111
0.160998 -0.437461 0.23777 197 127 105
0.161978 -0.435128 0.237171 197 125 104
0.175916 -0.430959 0.233849 205 134 108
0.181538 -0.432263 0.233049 188 119 97
0.186513 -0.431625 0.232026 152 104 90
-0.131453 -0.415707 0.292897 99 64 55
-0.112361 -0.426621 0.290466 189 116 102
-0.107713 -0.428584 0.289764 193 123 106
-0.0989814 -0.444601 0.290601 202 139 124
-0.0944329 -0.447332 0.290068 203 130 116
-0.0993475 -0.493089 0.299144 191 113 101
0.143785 -0.464354 0.244036 137 78 64
0.144259 -0.459176 0.243037 143 79 66
0.152835 -0.439819 0.238023 185 120 101
0.16448 -0.433581 0.234753 191 116 96
0.17035 -0.430801 0.233177 202 128 106
0.171888 -0.430327 0.23281 203 130 105
0.176819 -0.429808 0.231808 198 127 103
-0.0208906 -0.160078 0.223185 176 105 90
-0.131791 -0.415986 0.291316 103 66 56
-0.115787 -0.425563 0.289331 183 112 97
-0.110453 -0.425748 0.28817 194 124 107
0.145123 -0.464285 0.241982 140 78 67
0.149 -0.452205 0.239175 163 97 83
0.153059 -0.442011 0.236663 176 112 95
0.15909 -0.439404 0.235082 192 124 104
0.171581 -0.430602 0.231247 200 126 103
0.177384 -0.427706 0.229678 190 118 97
-0.0287121 -0.155759 0.223706 117 69 51
-0.129503 -0.418615 0.289532 133 78 65
-0.127596 -0.418451 0.289077 143 84 70
-0.123042 -0.420589 0.288409 166 98 82
-0.102259 -0.442098 0.287353 204 138 122
-0.101292 -0.444559 0.287549 203 137 121
-0.096329 -0.463023 0.28953 198 120 110
-0.100852 -0.502753 0.29714 184 103 97
-0.0982669 -0.507733 0.297407 182 102 92
0.148033 -0.485203 0.243144 124 73 65
0.147552 -0.454788 0.238145 154 87 76
0.148929 -0.453445 0.237658 155 91 76
0.152216 -0.446514 0.235875 169 105 92
0.165711 -0.434625 0.231348 184 112 93
0.17036 -0.433235 0.230246 193 119 96
0.186905 -0.42672 0.226091 161 107 91
0.190664 -0.427484 0.225524 132 95 85
-0.135323 -0.410753 0.287865 92 62 54
-0.129051 -0.417102 0.287481 145 83 70
-0.122617 -0.419063 0.286363 173 103 86
-0.0989543 -0.453144 0.286655 200 125 111
-0.101244 -0.503065 0.295269 186 105 96
0.169426 -0.431607 0.228484 191 117 94
0.184379 -0.425653 0.224727 177 112 93
-0.136068 -0.41189 0.286528 91 60 53
-0.132274 -0.411615 0.285641 117 74 59
-0.119169 -0.418911 0.283881 183 113 95
-0.115712 -0.423653 0.283864 191 121 103
-0.101888 -0.455583 0.285877 198 125 111
0.154233 -0.444322 0.231714 166 104 91
0.155273 -0.441997 0.231146 174 111 96
0.171875 -0.429965 0.226098 196 124 103
-0.1345 -0.412008 0.284515 119 73 61
-0.124752 -0.414585 0.282758 171 101 86
-0.120633 -0.417575 0.282309 183 112 97
-0.098677 -0.473787 0.28618 199 114 106
0.150852 -0.458668 0.232881 142 82 73
0.166631 -0.435889 0.226345 171 101 84
0.167879 -0.434476 0.225891 177 107 87
0.174841 -0.424976 0.22311 185 113 94
-0.134008 -0.410483 0.282502 120 75 58
-0.132526 -0.411223 0.282286 137 82 68
-0.115284 -0.421436 0.280037 192 121 107
-0.113764 -0.4221 0.279805 194 126 110
-0.108671 -0.436954 0.280923 198 137 121
-0.106227 -0.445297 0.281645 200 134 120
-0.100208 -0.460128 0.282574 196 121 110
-0.0981975 -0.477467 0.284752 200 110 104
-0.0981931 -0.483682 0.285687 189 104 94
-0.0988889 -0.49895 0.288137 177 94 83
0.148953 -0.466452 0.232664 134 72 61
0.149762 -0.456037 0.230935 137 77 68
0.161936 -0.438443 0.225948 160 99 81
0.17094 -0.429511 0.222891 190 118 97
0.191053 -0.419384 0.217579 139 102 92
-0.129081 -0.41114 0.279851 165 97 81
-0.122751 -0.413079 0.278754 183 110 96
-0.111047 -0.423649 0.277753 193 128 111
-0.108442 -0.440594 0.279664 199 135 122
-0.100256 -0.459456 0.280662 198 120 110
-0.0988451 -0.504535 0.286971 168 106 97
0.149792 -0.464386 0.230412 135 75 66
0.151066 -0.455889 0.228916 135 77 67
0.158873 -0.44668 0.226061 166 105 87
0.160185 -0.44529 0.225605 162 101 83
0.167568 -0.430697 0.222054 175 108 87
0.169682 -0.426911 0.221096 186 117 95
0.184487 -0.416622 0.216785 190 127 103
0.18744 -0.415531 0.216069 162 109 88
-0.0597113 -0.227676 0.237264 126 77 59
-0.137617 -0.409454 0.279804 113 72 58
-0.132772 -0.410803 0.278942 151 93 76
-0.129004 -0.410479 0.278079 167 99 81
-0.126045 -0.411905 0.277639 177 104 90
-0.124954 -0.413505 0.277629 184 111 97
-0.120097 -0.414687 0.276746 190 118 101
-0.118227 -0.414465 0.27631 195 122 106
-0.10596 -0.448268 0.27847 195 129 114
-0.104985 -0.450744 0.278614 194 123 111
0.149458 -0.464633 0.228735 132 72 62
0.150618 -0.462309 0.228178 132 75 65
0.168167 -0.42856 0.21998 179 109 90
0.172943 -0.422849 0.218254 180 111 91
0.174114 -0.421412 0.217827 180 111 89
0.177103 -0.420404 0.217114 170 105 84
0.188979 -0.416129 0.214251 156 104 85
-0.145123 -0.409237 0.279734 70 47 45
-0.132687 -0.410139 0.277169 156 93 75
-0.116685 -0.414457 0.274319 192 122 105
-0.111612 -0.437944 0.276471 196 135 119
-0.0999091 -0.462421 0.277365 197 119 109
-0.0984108 -0.487889 0.280579 166 85 76
0.150285 -0.462547 0.226508 130 73 60
0.157454 -0.450452 0.223437 147 91 76
0.16293 -0.434433 0.220157 153 94 75
0.166026 -0.428303 0.218712 167 105 83
0.175306 -0.42113 0.215938 174 107 86
0.179093 -0.417717 0.214742 171 106 87
-0.14545 -0.409456 0.278161 84 55 49
-0.131127 -0.410195 0.275183 167 99 81
-0.117382 -0.415577 0.272963 194 121 103
-0.112893 -0.41756 0.272271 196 130 112
-0.111567 -0.427717 0.27335 198 134 117
-0.108934 -0.449951 0.275774 194 125 112
0.149794 -0.476125 0.226671 127 69 57
0.158184 -0.44833 0.221287 149 95 79
0.164798 -0.430882 0.217655 164 101 81
0.16541 -0.427569 0.217091 167 105 85
0.177308 -0.418445 0.213573 167 102 80
0.178447 -0.416991 0.213159 169 106 86
-0.133333 -0.410566 0.274047 162 98 81
-0.127809 -0.414346 0.273361 180 107 93
-0.102288 -0.462281 0.274201 195 119 109
0.151272 -0.462601 0.22279 129 72 59
0.158136 -0.449507 0.219737 146 91 76
0.164795 -0.426828 0.215477 163 103 84
0.170202 -0.423034 0.213935 179 111 91
-0.14479 -0.407244 0.274405 95 60 52
-0.136181 -0.408406 0.272723 151 93 76
-0.134713 -0.409146 0.272505 155 94 76
-0.130699 -0.412224 0.272042 175 104 87
-0.12853 -0.415447 0.271988 180 107 91
-0.122925 -0.419152 0.27127 191 121 101
-0.119156 -0.418709 0.270419 192 122 103
-0.108328 -0.451957 0.272339 188 120 106
-0.106675 -0.457854 0.272739 191 118 106
0.152079 -0.460483 0.220598 128 74 60
0.155402 -0.453457 0.219056 131 79 65
0.169576 -0.422289 0.212341 175 110 91
0.176362 -0.41791 0.210471 164 99 78
0.178283 -0.414061 0.209612 171 106 87
0.18269 -0.408203 0.20802 190 121 94
-0.12736 -0.416356 0.270187 184 114 96
-0.115692 -0.422728 0.268517 196 130 112
-0.114186 -0.437242 0.269977 198 137 121
-0.101587 -0.475769 0.272071 192 102 96
0.155034 -0.459859 0.218186 126 73 59
0.155875 -0.456548 0.217614 128 78 63
0.157485 -0.449924 0.216483 132 82 67
0.182392 -0.408392 0.206529 190 121 94
0.18456 -0.409711 0.20627 188 120 95
0.18674 -0.411019 0.206007 184 115 92
0.198208 -0.418307 0.204675 130 87 72
-0.146572 -0.40257 0.270918 87 54 45
-0.142803 -0.40237 0.270104 110 68 55
-0.139318 -0.406412 0.26985 138 84 66
-0.133683 -0.405981 0.268618 160 97 80
-0.120557 -0.420914 0.26764 190 120 102
-0.108369 -0.455791 0.269237 187 118 105
0.153057 -0.460483 0.216896 126 73 59
0.160098 -0.436865 0.212701 143 86 71
0.178024 -0.415375 0.206638 159 98 80
0.179145 -0.413913 0.206245 173 111 87
0.181359 -0.410979 0.205465 195 129 103
0.186804 -0.412134 0.20454 184 115 92
0.193425 -0.415987 0.203706 157 99 78
0.198994 -0.416969 0.202739 128 89 75
-0.133371 -0.408673 0.267229 168 100 84
-0.127606 -0.415836 0.26685 183 111 92
0.147111 -0.473337 0.217798 122 64 54
0.163557 -0.427596 0.20929 160 99 81
0.171322 -0.420924 0.206996 166 103 84
0.176589 -0.417013 0.205513 159 96 77
-0.0913045 -0.269956 0.241595 83 51 41
-0.146395 -0.397782 0.267084 95 63 49
-0.142656 -0.397576 0.266287 112 69 54
-0.141233 -0.398338 0.266076 120 73 55
-0.120821 -0.420375 0.264292 190 120 100
-0.112005 -0.453982 0.266197 183 117 103
0.148702 -0.474103 0.215768 126 66 56
0.15316 -0.463763 0.213734 125 74 64
0.15541 -0.459059 0.212766 122 72 57
0.176284 -0.417187 0.203994 156 93 75
0.177074 -0.414788 0.203573 159 96 79
-0.145804 -0.396205 0.265181 99 63 48
-0.139987 -0.402659 0.264671 142 85 70
-0.130659 -0.409572 0.263491 177 106 91
-0.115031 -0.427521 0.262202 196 133 116
-0.0964226 -0.450674 0.260871 158 93 88
0.147392 -0.470416 0.213831 120 64 58
0.153335 -0.465877 0.212162 125 74 64
0.158331 -0.452163 0.2097 125 77 61
0.161661 -0.434588 0.207157 150 92 73
0.167722 -0.422247 0.204634 167 105 85
0.175641 -0.416413 0.202441 155 94 76
0.17935 -0.412964 0.201338 170 107 87
0.186985 -0.41116 0.199635 177 107 87
0.190633 -0.411876 0.19899 173 106 83
0.202885 -0.416565 0.197071 142 101 88
-0.155035 -0.39587 0.265428 81 55 48
-0.144245 -0.396264 0.263263 110 66 54
-0.138267 -0.406089 0.263051 158 95 77
-0.136389 -0.405942 0.262653 160 97 80
-0.130562 -0.408842 0.261762 177 106 91
-0.115718 -0.428607 0.260769 198 138 119
-0.115135 -0.436339 0.261446 189 130 113
-0.114443 -0.444087 0.262103 183 124 107
-0.109084 -0.454693 0.262105 185 119 105
0.173195 -0.415203 0.201209 155 94 76
0.182696 -0.409635 0.198747 180 111 89
0.184866 -0.410948 0.198451 178 108 89
-0.149245 -0.394959 0.262548 103 65 50
-0.147377 -0.394872 0.262161 104 63 49
-0.139303 -0.400331 0.261062 145 89 71
-0.121396 -0.41997 0.259375 192 122 105
-0.120271 -0.421552 0.259304 193 125 107
0.171423 -0.415862 0.200042 158 97 79
0.189278 -0.410336 0.195929 169 104 83
0.19293 -0.411023 0.195269 167 105 81
-0.145817 -0.394924 0.260253 114 68 54
-0.135136 -0.406095 0.259164 166 100 83
-0.119079 -0.422376 0.257479 197 130 112
-0.11591 -0.432335 0.257788 193 134 118
-0.113861 -0.445991 0.258676 179 117 104
-0.112258 -0.446633 0.258414 179 117 104
0.147998 -0.463349 0.207681 119 72 63
0.160176 -0.444596 0.20345 129 79 64
0.163192 -0.432232 0.201667 153 94 77
0.167736 -0.425562 0.20012 159 98 80
0.16946 -0.420788 0.199319 160 99 81
0.172254 -0.414562 0.198166 153 92 76
0.174838 -0.412596 0.19746 150 92 73
0.181377 -0.408067 0.195717 172 104 84
0.18425 -0.406966 0.195036 169 102 82
0.198411 -0.408764 0.192367 155 101 83
-0.149407 -0.390986 0.259018 112 66 52
-0.148012 -0.391769 0.258811 113 68 51
-0.135444 -0.406241 0.257617 167 101 84
-0.123464 -0.415284 0.256045 190 120 100
-0.121261 -0.418454 0.255893 189 122 103
0.154256 -0.461834 0.204527 124 75 64
0.161638 -0.433799 0.20048 144 87 72
0.173077 -0.413251 0.196299 148 89 73
0.180362 -0.406338 0.1942 169 102 82
0.191183 -0.408536 0.19222 162 98 72
-0.148777 -0.389384 0.25717 112 65 47
-0.130152 -0.405851 0.25491 176 106 88
-0.124467 -0.412931 0.254399 187 117 100
-0.121574 -0.418595 0.254319 190 123 105
-0.12084 -0.421087 0.254391 193 128 109
-0.0974204 -0.419037 0.249546 147 96 88
0.15037 -0.461866 0.203562 116 72 62
0.156677 -0.452962 0.20151 120 74 62
0.177194 -0.407543 0.19339 155 95 74
0.190793 -0.404385 0.19036 162 98 74
0.19584 -0.404441 0.189343 161 101 78
0.196867 -0.402913 0.189001 161 101 80
-0.147678 -0.386905 0.255172 114 67 49
-0.137354 -0.398094 0.254072 158 95 77
-0.132737 -0.407064 0.253912 173 105 87
-0.126647 -0.413281 0.253229 185 115 98
-0.118766 -0.446981 0.254489 177 118 102
0.159198 -0.445029 0.198618 122 76 62
0.16033 -0.437406 0.197752 131 81 66
0.168729 -0.416915 0.194336 155 94 80
0.172913 -0.410176 0.192923 146 90 73
0.18547 -0.404385 0.189885 157 95 70
0.188689 -0.404168 0.189212 153 91 67
0.1998 -0.402723 0.186829 143 98 81
0.20304 -0.402375 0.18614 143 104 92
-0.155376 -0.387325 0.255152 93 54 42
-0.145161 -0.395352 0.253795 129 78 59
-0.13907 -0.397481 0.252771 158 95 77
-0.119917 -0.430669 0.251662 194 131 114
0.159433 -0.447079 0.197045 120 77 62
0.159596 -0.441826 0.196594 123 78 63
0.164669 -0.425637 0.194273 151 93 74
0.167585 -0.419428 0.193184 151 93 76
0.1681 -0.416092 0.192813 151 92 78
0.169241 -0.414648 0.192466 149 90 76
0.179103 -0.405785 0.189746 154 94 73
0.180172 -0.404308 0.18941 155 92 72
0.182648 -0.402275 0.188741 156 93 71
0.201104 -0.398846 0.184691 140 98 87
-0.140339 -0.395973 0.251316 154 93 77
-0.129798 -0.411235 0.250425 182 110 91
-0.119864 -0.429877 0.249902 192 129 111
-0.120073 -0.439471 0.250671 178 121 106
0.163743 -0.423852 0.192711 149 92 75
0.16462 -0.421469 0.192351 151 93 76
0.168934 -0.414765 0.19096 150 93 78
0.172306 -0.410413 0.18994 141 82 66
0.176287 -0.407907 0.188933 139 83 66
0.181983 -0.401458 0.187274 152 89 70
0.1922 -0.39836 0.184939 167 102 80
0.196791 -0.397462 0.183926 159 98 78
-0.121338 -0.428415 0.248398 194 131 114
-0.120398 -0.439592 0.249022 178 121 104
-0.117444 -0.446179 0.248921 174 117 102
-0.106593 -0.427058 0.245429 130 89 80
0.164 -0.42063 0.190819 149 90 76
0.183094 -0.401009 0.185476 151 90 70
0.197886 -0.396952 0.182125 166 106 83
-0.11951 -0.44129 0.247245 171 114 99
0.153097 -0.440638 0.192826 120 78 67
0.160012 -0.435505 0.191055 126 77 69
0.163997 -0.421687 0.189297 147 88 73
0.17203 -0.411568 0.18695 143 86 71
0.188414 -0.398825 0.182686 157 94 74
0.158718 -0.437986 0.189831 120 77 66
