ply
format ascii 1.0
comment Created by Open3D
element vertex 2000
property double x
property double y
property double z
property uchar red
property uchar green
property uchar blue
end_header
0.0232338 -0.631233 0.431643 169 155 159
0.0254414 -0.630359 0.430695 173 158 163
0.0276414 -0.629476 0.429748 174 159 164
0.0690759 -0.630004 0.420953 198 186 188
0.100165 -0.633454 0.416549 180 164 165
-0.0162815 -0.631282 0.43864 184 170 173
0.0065381 -0.63003 0.432264 200 186 189
0.00882737 -0.630123 0.43175 200 186 189
0.031622 -0.629638 0.426127 205 193 197
0.0620253 -0.633291 0.421235 207 195 197
0.0802038 -0.631069 0.416448 207 195 199
0.0965922 -0.631213 0.41335 220 203 208
-0.0191373 -0.630333 0.436118 201 190 191
-0.00309234 -0.631513 0.432583 202 192 196
0.0128986 -0.631328 0.428565 206 194 198
0.0265526 -0.630675 0.425024 206 194 198
0.0332094 -0.628864 0.42262 206 194 198
0.0451962 -0.633198 0.422027 206 194 198
0.0591009 -0.633564 0.419201 207 195 199
0.0635416 -0.632406 0.417711 207 195 199
0.065985 -0.633168 0.417569 206 194 198
0.0911617 -0.630989 0.411506 208 197 198
0.0959272 -0.63137 0.410782 210 195 200
-0.0653518 -0.625478 0.443714 192 178 181
0.0123902 -0.632366 0.426408 205 193 195
0.0169743 -0.632488 0.42537 205 193 197
0.0304351 -0.629907 0.420995 206 194 198
0.0374894 -0.631663 0.420234 206 194 198
0.042062 -0.631578 0.419173 207 195 199
0.0559062 -0.632004 0.416365 207 195 197
0.060623 -0.632674 0.415685 208 197 198
0.100864 -0.635454 0.409021 169 151 148
-0.102856 -0.62441 0.451695 179 168 167
-0.0614551 -0.629056 0.441498 189 175 177
-0.0591196 -0.628525 0.440579 187 176 177
-0.0454302 -0.631421 0.438112 193 181 183
-0.0224841 -0.632196 0.432307 199 187 189
-0.0179503 -0.629883 0.430028 200 188 190
-0.0156677 -0.63007 0.429527 201 190 191
0.021135 -0.634508 0.422576 206 194 198
0.0232628 -0.63272 0.421232 206 194 198
0.0298429 -0.630023 0.418435 206 194 198
0.0367813 -0.630874 0.417263 207 195 197
0.0849146 -0.629932 0.406718 209 197 201
0.0875647 -0.631504 0.406938 209 197 201
0.0923178 -0.631908 0.406212 209 197 201
0.0999842 -0.634693 0.406063 173 155 155
-0.093999 -0.624863 0.44636 185 171 174
-0.091727 -0.62536 0.445899 184 170 173
-0.0390368 -0.630608 0.43319 195 184 185
0.00438031 -0.632344 0.422805 206 194 196
0.0452908 -0.630773 0.412586 209 198 199
0.0522499 -0.63143 0.411381 209 198 199
0.0774452 -0.63069 0.405814 211 198 203
0.0993127 -0.63482 0.403492 176 161 159
-0.0575996 -0.624607 0.432762 188 177 178
-0.0441956 -0.632854 0.432867 192 180 182
-0.0281332 -0.631973 0.428138 197 185 187
-0.0121158 -0.633347 0.424627 201 192 192
0.00615582 -0.633445 0.420132 207 195 199
0.0308356 -0.629297 0.412401 209 197 201
0.0468319 -0.629881 0.409108 211 198 203
0.0630059 -0.630918 0.406139 212 200 204
0.0743602 -0.630077 0.403427 211 198 203
-0.100171 -0.611998 0.436786 190 178 182
-0.0977276 -0.610731 0.435456 188 176 180
0.0349849 -0.631153 0.409597 211 198 203
0.0419181 -0.631926 0.408405 212 200 202
0.0463454 -0.630873 0.406953 212 200 204
0.0782503 -0.629762 0.399794 212 200 204
0.0928055 -0.632871 0.398364 213 201 205
-0.112709 -0.587907 0.42711 191 182 185
0.00964978 -0.634677 0.414367 206 194 196
0.0505312 -0.632593 0.404114 213 201 205
0.0573533 -0.632257 0.402506 211 202 205
0.0683904 -0.629686 0.399051 213 201 205
0.0919454 -0.632046 0.395445 212 203 206
-0.104513 -0.58921 0.422522 208 198 203
-0.100527 -0.592018 0.422543 203 193 199
-0.0755461 -0.604662 0.420721 197 185 189
0.0203393 -0.63314 0.408421 208 197 198
0.0429782 -0.631989 0.40278 212 200 202
0.0654968 -0.629912 0.397056 213 201 205
0.0964269 -0.634291 0.392885 197 185 187
-0.115157 -0.584747 0.421297 216 206 212
-0.10886 -0.586393 0.420042 212 202 210
-0.0904101 -0.595351 0.418351 211 201 207
-0.084095 -0.597598 0.417463 211 198 205
-0.079807 -0.598454 0.416579 208 196 202
-0.0628375 -0.605152 0.414664 203 193 197
-0.0542801 -0.609212 0.414074 201 189 195
-0.0324295 -0.618335 0.412222 198 186 188
-0.0212512 -0.624866 0.412218 197 185 187
-0.0031966 -0.627909 0.409026 195 184 185
0.0265795 -0.633214 0.404306 206 194 196
0.0352494 -0.629449 0.400673 209 198 199
0.0559686 -0.63145 0.397045 214 202 206
0.0650204 -0.630874 0.394897 212 200 204
0.0672814 -0.630707 0.394358 213 201 205
0.0853373 -0.629036 0.390011 214 202 206
0.0877811 -0.629698 0.389827 212 203 206
-0.107019 -0.586038 0.416747 215 205 210
-0.0986176 -0.588072 0.415052 212 202 208
-0.0945218 -0.589934 0.414624 212 202 208
-0.0925216 -0.591302 0.41462 212 202 210
-0.0776764 -0.59436 0.411564 211 201 209
-0.0458721 -0.605862 0.407671 207 195 201
-0.0415576 -0.607316 0.407145 205 193 197
-0.0372397 -0.60965 0.407018 204 192 196
-0.0262986 -0.616258 0.407052 201 189 193
-0.0240833 -0.617372 0.40697 200 188 192
-0.0218599 -0.618478 0.406884 200 188 192
-0.0151649 -0.620828 0.406212 199 187 189
0.0525461 -0.627932 0.393556 209 197 201
0.0948879 -0.633493 0.387436 202 191 192
-0.117864 -0.583299 0.4164 198 188 194
-0.0989012 -0.587164 0.412191 213 206 210
-0.0968031 -0.587649 0.411764 214 204 209
-0.0948192 -0.589025 0.41176 212 202 208
-0.0202394 -0.614072 0.401914 207 195 199
-0.00462187 -0.620594 0.400839 204 192 196
0.00209034 -0.621813 0.399731 202 190 194
0.0110543 -0.623006 0.398103 202 190 194
0.0178944 -0.624956 0.397343 204 190 194
0.0335381 -0.624891 0.39374 204 192 196
0.0889123 -0.630421 0.384587 205 193 197
-0.120969 -0.586268 0.416098 164 152 158
-0.107948 -0.586905 0.412304 215 205 210
-0.0912425 -0.591732 0.409305 215 205 210
-0.0849989 -0.593968 0.408415 215 205 210
-0.0828784 -0.594396 0.407977 215 205 210
-0.0721044 -0.594589 0.404941 214 204 209
-0.0679303 -0.596238 0.404461 214 204 209
-0.0509644 -0.600685 0.401651 212 202 208
-0.0424143 -0.602706 0.400208 211 201 207
-0.0295159 -0.608695 0.399382 211 201 207
0.0328448 -0.623966 0.390865 205 192 199
0.0463287 -0.624477 0.388115 205 193 197
-0.124431 -0.591002 0.41663 117 106 105
-0.103888 -0.586111 0.408187 215 205 210
-0.101799 -0.586612 0.407763 215 205 210
-0.0997077 -0.587105 0.407338 216 206 212
-0.095521 -0.588064 0.406483 215 205 210
-0.093653 -0.590335 0.406886 215 205 210
-0.0876433 -0.594404 0.406827 216 206 212
-0.0723906 -0.592729 0.401693 215 205 210
-0.0682377 -0.594376 0.401213 215 205 210
-0.0147282 -0.613588 0.395117 210 200 206
-0.00169236 -0.612464 0.391419 211 198 205
0.0117409 -0.617484 0.390338 209 197 203
0.0207931 -0.620345 0.389445 207 195 201
0.0230043 -0.620345 0.388937 207 195 201
0.0275209 -0.621242 0.388288 206 194 198
0.0365958 -0.622926 0.386968 206 193 200
-0.121401 -0.584432 0.410376 174 162 168
-0.0878577 -0.592548 0.403569 216 206 212
-0.0624543 -0.597191 0.398249 216 206 212
-0.0603297 -0.597522 0.397798 215 205 210
-0.0582559 -0.59876 0.397744 215 205 210
-0.0539944 -0.599379 0.396834 215 205 210
-0.00879918 -0.611174 0.390047 211 201 207
0.0178551 -0.618451 0.38673 208 198 203
0.024639 -0.620302 0.385948 209 197 203
0.0535921 -0.621211 0.379965 204 191 198
0.0580105 -0.62093 0.378918 201 188 197
0.0647904 -0.621364 0.377694 193 180 189
0.0809728 -0.623586 0.375362 141 129 133
-0.0984203 -0.587482 0.402073 216 206 212
-0.0819506 -0.593766 0.399828 216 206 212
-0.0502737 -0.601736 0.394276 216 206 212
-0.0374606 -0.605128 0.392271 215 205 208
-0.0310108 -0.60671 0.391245 214 204 207
-0.0245403 -0.607291 0.389823 214 204 209
-0.0223607 -0.609316 0.39011 214 204 209
-0.00502428 -0.610411 0.386248 211 201 207
0.00611665 -0.615443 0.385654 211 201 207
0.0104918 -0.615541 0.38466 210 200 206
0.017211 -0.617475 0.383894 210 200 206
0.0284743 -0.62021 0.382454 211 198 205
0.0394951 -0.61994 0.379891 209 197 203
-0.117047 -0.580078 0.402213 216 206 212
-0.10687 -0.58363 0.40054 216 206 210
-0.0966141 -0.586979 0.398827 217 207 213
-0.0821868 -0.591872 0.396604 218 208 214
-0.0591704 -0.598621 0.392889 216 206 212
-0.0485722 -0.601021 0.390995 216 206 212
-0.0336517 -0.605503 0.388895 216 206 210
-0.0163584 -0.610648 0.386601 214 204 209
0.0186766 -0.615564 0.380204 210 200 206
0.0233117 -0.618341 0.380281 210 200 206
0.0321949 -0.619143 0.378606 211 198 205
0.0522333 -0.620189 0.374673 207 195 201
0.0699841 -0.61978 0.370828 185 170 180
-0.117575 -0.580897 0.400226 216 206 212
-0.111094 -0.580711 0.398162 215 205 210
-0.0679643 -0.595362 0.391488 217 207 213
-0.0637425 -0.596046 0.390592 217 207 213
-0.0489704 -0.599089 0.387803 217 207 213
-0.0426244 -0.600794 0.386805 216 206 210
-0.031997 -0.605628 0.385992 216 206 212
-0.0234056 -0.606382 0.384099 216 206 212
-0.00824801 -0.61015 0.381853 215 205 210
0.0136758 -0.614531 0.378394 211 201 207
0.0335933 -0.61716 0.37493 212 199 206
0.0538225 -0.619988 0.371692 209 197 203
0.0580683 -0.618763 0.370307 206 193 200
0.0649604 -0.620105 0.369421 198 185 192
-0.107638 -0.583455 0.395741 216 206 210
-0.0851224 -0.591277 0.392221 218 209 212
-0.0810256 -0.59301 0.391738 217 207 213
-0.0705853 -0.595827 0.389913 218 209 212
-0.0452547 -0.601366 0.385231 217 207 211
-0.0367627 -0.604176 0.384127 216 206 212
-0.0217515 -0.607379 0.381567 216 206 210
-0.0108722 -0.611801 0.380635 216 206 210
-0.00873956 -0.610986 0.379783 215 205 208
-0.00224793 -0.611277 0.378323 214 204 209
0.00218726 -0.613289 0.378066 215 205 210
0.00889692 -0.616242 0.377661 212 202 208
0.0266433 -0.619071 0.374706 211 201 207
0.037492 -0.617872 0.37181 210 200 206
0.0551197 -0.617907 0.368035 209 197 203
-0.116101 -0.580351 0.394619 215 205 210
-0.107737 -0.581539 0.39255 217 207 213
-0.0916913 -0.588968 0.390728 217 207 211
-0.0689861 -0.596994 0.38744 218 209 212
-0.0626463 -0.598007 0.38609 218 209 212
-0.060531 -0.598327 0.385638 217 207 211
-0.0563461 -0.599866 0.385109 218 209 212
-0.0542691 -0.601086 0.385032 218 209 212
-0.022247 -0.608201 0.379508 215 205 210
0.012706 -0.616206 0.374217 214 204 209
0.0191641 -0.615299 0.372366 214 204 209
0.0324273 -0.616978 0.370037 212 202 208
0.0724739 -0.619134 0.362413 179 167 171
-0.110313 -0.581818 0.390983 216 206 210
-0.10195 -0.582899 0.388904 216 206 212
-0.100275 -0.586107 0.389658 217 207 213
-0.0818681 -0.592785 0.386928 217 207 211
-0.0629723 -0.59604 0.382924 218 209 212
-0.0461364 -0.599278 0.379661 217 207 211
-0.0140802 -0.61146 0.376247 216 206 212
-0.00551374 -0.610034 0.373593 216 206 212
0.00555725 -0.615055 0.372914 215 205 210
0.0142531 -0.615179 0.370928 215 205 210
0.0297667 -0.617857 0.368446 212 202 208
0.0341329 -0.617741 0.36743 210 200 206
-0.123133 -0.579361 0.391491 208 198 201
-0.100665 -0.585979 0.38727 217 207 211
-0.0966492 -0.587823 0.386802 217 207 211
-0.0844764 -0.59317 0.385351 218 209 212
-0.0551423 -0.599909 0.379834 218 209 212
-0.0445475 -0.601252 0.377537 217 207 211
-0.0403453 -0.603589 0.377344 218 209 212
-0.0360972 -0.604963 0.376774 217 207 211
-0.0339713 -0.606104 0.376669 218 209 212
-0.0275488 -0.607613 0.375614 217 207 213
-0.0253981 -0.608721 0.375499 218 209 212
-0.0232583 -0.607954 0.374663 217 207 213
0.0530074 -0.615729 0.360057 210 200 206
0.0618424 -0.616004 0.35832 208 196 202
-0.114998 -0.579604 0.38667 215 205 208
-0.08043 -0.591067 0.380939 218 209 212
-0.0724017 -0.596251 0.380672 218 209 212
-0.0108044 -0.611434 0.370425 217 207 211
-0.00222395 -0.610867 0.368133 216 206 212
0.0110402 -0.615842 0.366904 215 205 208
0.015308 -0.614931 0.365567 212 202 208
0.028709 -0.618546 0.363906 214 204 209
0.03926 -0.615381 0.36037 212 202 208
0.0662115 -0.619228 0.356141 204 195 198
-0.113322 -0.579978 0.383885 216 206 210
-0.103367 -0.584299 0.38255 216 206 210
-0.066329 -0.594351 0.375825 219 210 213
-0.0516661 -0.59645 0.372666 218 209 212
-0.0453688 -0.597222 0.371297 218 209 212
-0.0391391 -0.601651 0.37135 218 209 212
-0.0178043 -0.60998 0.369103 217 207 213
-0.0156554 -0.610112 0.368623 216 206 212
-0.00709452 -0.609612 0.366345 216 206 212
0.0104191 -0.614759 0.364136 216 206 212
0.0190807 -0.614777 0.362147 215 205 210
0.0387879 -0.616176 0.358277 214 204 209
0.058138 -0.614045 0.353353 211 201 207
0.0652614 -0.617226 0.353075 207 195 199
0.0694349 -0.615874 0.35172 196 186 190
0.0716011 -0.615652 0.351199 189 180 183
0.0739432 -0.616354 0.350991 180 170 173
-0.0493384 -0.126527 0.194957 145 64 55
-0.123852 -0.57712 0.383591 216 206 210
-0.0812613 -0.590746 0.376178 218 209 212
-0.0772797 -0.593355 0.376036 217 207 211
-0.0710152 -0.594434 0.374704 218 209 212
-0.0584034 -0.595431 0.371647 218 209 212
-0.0542168 -0.596005 0.370741 218 209 212
-0.0332859 -0.603976 0.368265 218 209 212
-0.0247791 -0.605624 0.366731 217 207 211
-0.00761911 -0.609449 0.363938 217 207 213
-0.00547546 -0.609536 0.363454 216 206 210
-0.00109131 -0.611564 0.363161 216 206 210
0.0294277 -0.615384 0.357553 212 202 208
0.0530671 -0.613281 0.351652 213 200 207
-0.109977 -0.580665 0.378324 216 206 210
-0.103992 -0.583048 0.377435 216 206 210
-0.100152 -0.585823 0.377333 216 206 210
-0.0671994 -0.594003 0.371068 218 209 212
-0.0588493 -0.59525 0.369271 218 209 212
-0.0188602 -0.607768 0.363596 218 209 212
-0.0167244 -0.607899 0.363118 218 209 212
-0.012452 -0.608134 0.362159 217 207 211
-0.00162483 -0.611392 0.360753 216 206 210
0.00470406 -0.609667 0.35862 216 206 212
0.0244346 -0.614373 0.355818 215 205 210
0.0309094 -0.614215 0.354313 214 204 209
0.0504468 -0.614204 0.350074 212 202 208
0.0744789 -0.613942 0.345031 182 175 175
0.0822695 -0.619712 0.345586 118 119 110
-0.0942488 -0.586064 0.373311 217 207 211
-0.0920784 -0.585573 0.372512 217 207 211
-0.090136 -0.586919 0.372448 216 206 210
-0.0257841 -0.603379 0.361261 218 209 212
-0.015125 -0.606893 0.359906 218 209 212
-0.0021572 -0.611209 0.358349 217 207 211
0.0172358 -0.612388 0.354257 216 206 212
0.0652289 -0.614672 0.3447 209 199 205
0.0816213 -0.619552 0.343164 132 133 123
-0.124367 -0.573855 0.375398 215 205 208
-0.118332 -0.575481 0.374165 215 205 208
-0.11274 -0.579782 0.374036 215 205 208
-0.110709 -0.580286 0.373617 215 205 208
-0.106641 -0.581269 0.372776 216 206 210
-0.104467 -0.580828 0.371985 216 206 210
-0.100397 -0.58176 0.371138 216 206 210
-0.0885848 -0.588059 0.370019 217 207 211
-0.0804275 -0.590563 0.368631 217 207 211
-0.078358 -0.590937 0.368191 219 210 213
-0.0762871 -0.591302 0.36775 219 210 213
-0.0701424 -0.593279 0.366775 218 209 212
-0.0618795 -0.595491 0.365336 218 209 212
-0.0241719 -0.602391 0.358074 218 209 212
0.0531118 -0.610709 0.34334 214 202 208
0.0598333 -0.612065 0.342421 212 202 208
0.0642811 -0.61261 0.341699 210 200 206
-0.0512977 -0.131081 0.196131 100 40 31
-0.049725 -0.129814 0.195157 141 85 81
-0.0910396 -0.587435 0.368096 216 206 210
-0.0746351 -0.591447 0.364948 218 209 212
-0.0644018 -0.594971 0.36342 218 209 212
-0.0622582 -0.594343 0.362622 218 209 212
-0.0497632 -0.596002 0.359907 218 209 212
-0.0372707 -0.599239 0.357832 218 209 212
-0.0118373 -0.608589 0.354836 217 207 213
0.0161218 -0.61199 0.349467 215 205 210
0.033261 -0.611606 0.34549 214 204 209
0.0503716 -0.610664 0.341466 212 202 208
0.0700847 -0.611756 0.337773 204 195 198
-0.0500621 -0.126711 0.193971 144 66 56
-0.0519385 -0.131898 0.196345 72 30 22
-0.115324 -0.577933 0.369401 215 205 208
-0.0709941 -0.592844 0.362054 218 209 212
-0.0669156 -0.594434 0.361508 218 209 212
-0.0398381 -0.598807 0.355934 218 209 212
-0.0230746 -0.600208 0.352211 218 209 212
-0.0102237 -0.608466 0.351971 218 209 212
0.017707 -0.611757 0.346585 215 205 210
0.0220767 -0.612643 0.345906 214 204 209
0.0369583 -0.611209 0.342107 214 204 209
0.06288 -0.611263 0.336637 213 200 207
0.0812742 -0.615912 0.334541 142 143 136
-0.0915959 -0.585128 0.362691 217 207 211
-0.079318 -0.587472 0.360084 218 209 212
-0.0714175 -0.592611 0.359701 217 207 211
-0.0277539 -0.600615 0.35112 217 207 211
-0.0129233 -0.606247 0.349429 217 207 211
0.0405207 -0.609819 0.33843 214 204 209
0.0554113 -0.608786 0.334911 213 200 207
0.0598153 -0.609356 0.334191 213 200 207
-0.125535 -0.572059 0.365723 214 204 207
-0.110129 -0.579891 0.363839 215 205 208
-0.108106 -0.580375 0.363417 215 205 208
-0.0797243 -0.587224 0.357749 217 207 211
-0.0757134 -0.588874 0.357214 217 207 211
-0.0698466 -0.593634 0.357246 217 207 211
-0.0489345 -0.592706 0.351405 218 209 212
-0.0427598 -0.594333 0.35037 218 209 212
-0.0303345 -0.600205 0.349233 218 209 212
-0.0219673 -0.599856 0.347041 217 207 211
-0.0156203 -0.603057 0.346584 217 207 211
0.0143063 -0.609413 0.341705 215 205 210
0.0271651 -0.610128 0.33905 215 205 210
0.0332208 -0.60705 0.336666 214 204 209
0.0484357 -0.609044 0.33406 212 202 208
0.0505595 -0.608888 0.333558 212 202 208
-0.0525991 -0.131913 0.195727 95 39 29
-0.0493469 -0.591499 0.348747 217 207 211
-0.011922 -0.602997 0.343283 217 207 211
-0.00553348 -0.605128 0.342474 216 206 210
0.00937077 -0.607269 0.339708 216 206 210
0.015801 -0.608194 0.338547 215 205 210
0.0395898 -0.611231 0.334287 214 204 209
0.0709465 -0.605662 0.325872 209 199 203
-0.0538853 -0.130314 0.195395 60 22 14
-0.12456 -0.573934 0.361399 215 205 208
-0.0744029 -0.587753 0.351777 217 207 211
-0.0642312 -0.590286 0.349893 217 207 211
-0.0518928 -0.591924 0.347201 218 209 212
-0.0477384 -0.591458 0.345973 218 209 212
-0.0292082 -0.59889 0.34376 218 209 212
-0.0271233 -0.599043 0.343294 217 207 211
-0.020852 -0.6004 0.342204 216 206 210
-0.00385766 -0.606823 0.340254 216 206 210
0.000423152 -0.607869 0.339594 216 206 212
0.00237436 -0.60505 0.338201 215 205 208
0.00460021 -0.606979 0.338323 216 206 210
0.0320725 -0.606533 0.331966 215 203 209
0.0641649 -0.607051 0.325326 213 200 207
0.0704962 -0.606351 0.323808 210 200 206
-0.0519418 -0.12834 0.193834 131 62 51
-0.098964 -0.580949 0.353985 216 206 210
-0.0948019 -0.580872 0.352792 216 206 210
-0.0688302 -0.590334 0.348788 217 207 211
-0.0585012 -0.59086 0.34623 217 207 211
-0.0543926 -0.591388 0.345331 217 207 211
-0.0522936 -0.590694 0.344559 218 209 212
-0.000157709 -0.606643 0.336937 215 205 208
0.00178936 -0.60382 0.335557 216 206 210
0.00605213 -0.604815 0.334892 215 205 208
0.0529904 -0.607777 0.3255 214 202 208
-0.111094 -0.576047 0.353533 215 205 208
-0.101081 -0.578359 0.351427 216 206 210
-0.0971912 -0.58016 0.350913 216 206 210
-0.0851912 -0.58351 0.348667 217 207 211
-0.0752216 -0.58718 0.347142 217 207 211
-0.0507263 -0.591588 0.342114 217 207 211
-0.0445618 -0.592267 0.340754 217 207 211
-0.0280929 -0.596565 0.338015 218 209 212
-0.0197549 -0.599946 0.337067 216 206 212
0.00551725 -0.604527 0.332553 215 205 208
0.0206605 -0.609177 0.330601 215 203 209
0.0268159 -0.607089 0.328554 216 204 210
0.0352523 -0.606729 0.326582 214 202 208
0.0438099 -0.607183 0.324879 212 202 208
0.0587151 -0.606928 0.321655 213 200 207
0.0609825 -0.607671 0.321424 213 200 207
-0.131121 -0.569607 0.355021 191 179 181
-0.117092 -0.572417 0.351806 214 204 207
-0.0937789 -0.582569 0.348418 216 206 210
-0.0916413 -0.582039 0.347658 217 207 211
-0.069592 -0.588798 0.343829 217 207 211
-0.0181488 -0.600707 0.334571 216 206 212
-0.0160632 -0.600809 0.3341 216 206 212
-0.0139773 -0.600903 0.333629 216 206 210
-0.00559017 -0.602147 0.332029 215 205 208
-0.00359081 -0.600288 0.330965 215 205 208
0.00498358 -0.604228 0.33022 215 205 208
0.0114933 -0.607093 0.329635 215 205 210
0.0200148 -0.607929 0.32797 215 203 209
0.0283572 -0.606717 0.325725 215 203 209
0.0324597 -0.605583 0.324462 214 202 208
0.0345614 -0.60548 0.32397 212 202 208
0.0387632 -0.605249 0.322984 212 202 208
-0.133796 -0.570581 0.353823 163 151 153
-0.121384 -0.571087 0.350346 212 203 206
-0.0879873 -0.582515 0.344497 216 206 210
-0.0838469 -0.582328 0.343309 216 206 210
-0.0817311 -0.581751 0.342553 216 206 210
-0.0721261 -0.589113 0.342282 217 207 211
-0.0658574 -0.588148 0.340318 216 206 210
-0.035246 -0.595463 0.334771 216 206 212
-0.0290506 -0.594989 0.333086 216 206 210
-0.0249125 -0.597175 0.332758 216 206 210
0.0129803 -0.605814 0.326529 214 204 209
0.0151611 -0.606744 0.326326 216 204 210
0.0589637 -0.602326 0.315441 212 199 206
0.0681674 -0.606172 0.314747 213 200 207
0.0721871 -0.604715 0.313481 211 198 205
-0.0525651 -0.129478 0.193321 124 60 48
-0.117428 -0.569938 0.346575 214 204 205
-0.0882596 -0.581253 0.341883 215 205 208
-0.0743223 -0.58563 0.339472 217 207 211
-0.0683104 -0.587523 0.338463 216 206 210
-0.0459168 -0.591314 0.333842 216 206 212
-0.0315962 -0.596419 0.331839 216 206 210
-0.00471149 -0.597734 0.325764 214 204 207
-0.00259455 -0.598734 0.325577 215 205 208
0.00397882 -0.604554 0.325851 214 204 207
0.0461093 -0.605018 0.316634 213 200 207
0.0500147 -0.602777 0.315116 213 200 207
0.0561177 -0.601262 0.313369 214 202 208
0.058355 -0.60201 0.313134 212 199 206
0.0736498 -0.604141 0.310662 211 198 205
-0.0985319 -0.577963 0.341419 215 205 208
-0.0946576 -0.579733 0.340886 216 206 210
-0.0886401 -0.580919 0.339597 216 206 210
-0.0787713 -0.584624 0.338057 217 207 211
-0.0625651 -0.58711 0.334531 216 206 210
-0.060594 -0.588334 0.334391 216 206 210
-0.0565233 -0.588857 0.333498 217 207 211
0.00541687 -0.602316 0.322491 215 203 207
0.00958699 -0.602308 0.321532 215 203 207
0.0116718 -0.602291 0.321051 214 202 208
0.038991 -0.603215 0.315271 214 202 208
0.0599875 -0.602425 0.310593 212 199 206
0.0622344 -0.603157 0.31035 212 199 206
0.0665764 -0.60364 0.309605 211 198 205
-0.123787 -0.566809 0.342949 212 203 206
-0.102741 -0.575823 0.339671 214 204 205
-0.0731898 -0.58622 0.334762 216 206 210
-0.0508513 -0.589231 0.329864 216 206 210
-0.0488154 -0.589456 0.329414 216 206 210
-0.0222728 -0.593534 0.324059 215 205 208
-0.0140152 -0.595836 0.322767 215 205 208
-0.0119254 -0.596871 0.322582 216 204 208
0.0467422 -0.602282 0.311003 213 200 207
-0.0793719 -0.58203 0.332878 216 206 210
-0.0330124 -0.59538 0.324937 215 205 208
-0.0227452 -0.594132 0.322059 216 206 210
-0.00830653 -0.596638 0.319354 215 205 208
-0.00418604 -0.596731 0.318413 214 204 207
0.00844638 -0.600651 0.316653 214 202 206
0.0105214 -0.600634 0.316174 214 202 206
0.0479497 -0.599848 0.307712 213 200 207
0.0582911 -0.598877 0.305257 212 197 205
0.062754 -0.60034 0.304764 209 197 203
-0.122289 -0.56569 0.337717 212 203 206
-0.118563 -0.56763 0.337215 212 203 206
-0.116609 -0.568123 0.336803 211 202 203
-0.111047 -0.571427 0.336191 214 204 207
-0.109078 -0.57189 0.335774 214 204 205
-0.105137 -0.572791 0.334937 214 204 205
-0.0855571 -0.578711 0.331301 216 206 210
-0.0476313 -0.587983 0.324119 215 205 208
-0.0129265 -0.596143 0.318007 214 204 207
0.0141281 -0.60021 0.312924 213 201 205
0.0287256 -0.600701 0.30981 212 199 206
0.0350579 -0.601332 0.308609 212 199 206
0.0370127 -0.600246 0.307869 213 200 207
0.0538571 -0.600846 0.304453 211 198 207
0.0623053 -0.600939 0.302724 209 197 203
-0.116597 -0.565882 0.333933 215 205 208
-0.101678 -0.574227 0.332151 214 204 205
-0.0997015 -0.57465 0.331729 215 206 206
-0.0879246 -0.577965 0.329474 216 206 210
-0.0581265 -0.58549 0.323802 215 205 208
-0.0359316 -0.589676 0.319422 215 205 208
-0.0217031 -0.590603 0.31622 214 204 207
-0.00115145 -0.595078 0.312648 212 203 206
0.0469055 -0.600075 0.303399 211 198 205
0.0489732 -0.599898 0.30291 211 198 205
0.0510402 -0.599713 0.30242 212 197 205
0.0553249 -0.600275 0.301681 209 197 205
0.0680719 -0.600793 0.299195 209 197 203
0.0813296 -0.613692 0.300183 202 190 194
0.0854339 -0.622905 0.301977 175 168 168
-0.130853 -0.563766 0.335183 211 202 205
-0.126603 -0.562973 0.333743 211 202 205
-0.122554 -0.563075 0.332617 211 202 205
-0.111243 -0.567859 0.330772 214 204 207
-0.0823337 -0.578653 0.325931 215 205 208
-0.0706116 -0.583448 0.324195 216 206 210
-0.0646519 -0.585265 0.323161 215 205 208
-0.0606217 -0.5858 0.322274 215 205 208
-0.0485854 -0.589126 0.320156 215 205 208
-0.0323332 -0.589588 0.316251 215 205 208
-0.00584572 -0.5927 0.310792 212 203 206
0.00441411 -0.593748 0.308712 213 201 205
0.00863854 -0.595652 0.308284 213 201 205
0.0128161 -0.596558 0.307592 213 201 205
0.0171763 -0.599357 0.307401 213 201 205
0.044116 -0.598902 0.30137 209 197 203
0.0588512 -0.599466 0.298424 209 197 203
-0.0537303 -0.126366 0.191046 109 54 38
-0.130955 -0.562451 0.332637 210 200 204
-0.12479 -0.562171 0.330801 212 203 206
-0.111729 -0.568403 0.328846 214 204 207
-0.107976 -0.570254 0.328316 212 203 206
-0.0906504 -0.576806 0.325405 215 205 208
-0.0809239 -0.580499 0.323835 215 205 208
-0.0670028 -0.58363 0.32106 216 206 210
-0.0630528 -0.585136 0.32046 215 205 208
-0.0610403 -0.5854 0.320017 215 205 208
-0.0529822 -0.58637 0.318234 215 205 208
-0.0490628 -0.589686 0.318171 215 205 208
-0.0267173 -0.589581 0.312626 214 204 207
-0.00431468 -0.59233 0.308071 211 202 205
0.00383168 -0.592381 0.306201 213 201 205
0.0100843 -0.594262 0.305297 212 200 204
0.0329993 -0.597295 0.301041 213 200 207
0.0561815 -0.599297 0.296647 208 196 202
0.0732013 -0.600179 0.293391 208 196 202
0.0829328 -0.616476 0.295918 177 170 172
-0.134692 -0.559102 0.330602 197 185 187
-0.132775 -0.559651 0.3302 211 202 205
-0.109953 -0.567516 0.325903 214 204 207
-0.108158 -0.568908 0.325786 212 203 206
-0.0969454 -0.575231 0.324444 215 206 206
-0.087057 -0.577138 0.322306 215 205 208
-0.0372869 -0.587503 0.312385 212 203 206
-0.0292123 -0.589042 0.310835 214 204 207
-0.00892596 -0.590875 0.306495 213 201 205
0.0574772 -0.597719 0.293667 208 196 202
0.0720165 -0.596915 0.290459 207 195 201
-0.136679 -0.55721 0.328484 136 124 126
-0.129231 -0.560317 0.327181 210 200 204
-0.0756286 -0.579696 0.317759 215 205 208
-0.0736396 -0.580005 0.317323 214 204 207
-0.0478794 -0.5881 0.312935 214 204 207
-0.0417934 -0.587704 0.311314 214 204 207
0.015217 -0.594271 0.299627 211 198 203
0.0253143 -0.592933 0.297016 209 197 203
0.0546662 -0.596564 0.291677 210 195 202
0.0567141 -0.596347 0.29119 208 196 202
0.0608068 -0.595887 0.290216 210 195 202
-0.127798 -0.561358 0.324869 211 202 203
-0.116752 -0.567167 0.3233 212 203 206
-0.114975 -0.568582 0.323179 212 203 206
-0.112705 -0.567163 0.322178 212 203 206
-0.108666 -0.567124 0.321055 212 203 206
-0.0993499 -0.572089 0.319827 214 204 207
-0.095429 -0.572887 0.31898 214 204 207
-0.0422141 -0.586307 0.30881 214 204 207
-0.0381738 -0.585678 0.307647 214 204 207
-0.0179751 -0.591702 0.304369 212 200 204
-0.0159921 -0.589842 0.303403 212 200 204
-0.00793804 -0.589089 0.301308 212 200 204
0.00842645 -0.592028 0.298317 212 200 204
0.0357454 -0.598686 0.294015 209 197 203
0.0397291 -0.597428 0.292821 208 196 202
0.0556402 -0.593038 0.288284 208 196 202
-0.0543807 -0.126368 0.190262 93 46 30
-0.124439 -0.562892 0.322144 211 202 203
-0.0704533 -0.579725 0.311992 215 205 208
-0.0685434 -0.580969 0.311825 215 205 208
-0.066625 -0.582205 0.311655 215 205 208
-0.0625696 -0.581774 0.310506 214 204 207
-0.042658 -0.585862 0.306579 212 203 206
-0.0386232 -0.585232 0.30542 212 203 206
-0.0225261 -0.590118 0.302799 211 202 205
0.0306243 -0.594642 0.291815 209 197 203
0.0350542 -0.597286 0.291538 208 196 202
0.0388995 -0.595061 0.290127 209 197 203
0.0409392 -0.594904 0.289647 208 196 202
0.0611253 -0.591907 0.28461 206 193 200
0.0631519 -0.591659 0.284127 206 193 200
-0.0561322 -0.129788 0.191399 91 44 26
-0.115279 -0.565824 0.318174 212 203 206
-0.105743 -0.569007 0.316376 214 204 207
-0.103798 -0.569431 0.315957 214 204 207
-0.0884134 -0.57445 0.313122 214 204 207
-0.0688657 -0.579556 0.309335 214 204 207
-0.0410486 -0.583646 0.303393 212 203 206
-0.0290585 -0.586438 0.301191 214 202 206
-0.0130195 -0.586157 0.297297 211 198 203
-0.00481715 -0.590184 0.296418 211 198 203
0.00737545 -0.591131 0.293861 209 197 201
0.0237568 -0.592578 0.290557 208 196 202
0.038199 -0.593648 0.287675 207 195 201
0.0402318 -0.593491 0.287196 208 196 202
0.0643888 -0.589997 0.281218 206 193 200
-0.0557706 -0.127918 0.190581 83 40 25
-0.102188 -0.569391 0.313333 212 203 206
-0.0906171 -0.572675 0.311067 214 204 207
-0.0788586 -0.574722 0.308496 214 204 207
-0.067503 -0.582256 0.307469 212 203 206
-0.0435127 -0.583976 0.30188 212 203 206
-0.0275172 -0.586087 0.298521 212 200 204
-0.0175117 -0.585566 0.296003 212 200 204
0.00470458 -0.588751 0.291645 209 197 201
0.00880219 -0.589665 0.290944 209 197 201
0.0597434 -0.590046 0.279973 206 193 200
0.0678041 -0.589008 0.27805 205 192 199
0.0701852 -0.590651 0.277974 205 193 197
0.0755651 -0.596789 0.278411 207 193 200
-0.138047 -0.555032 0.317524 167 156 157
-0.128766 -0.558646 0.315798 212 200 202
-0.109804 -0.564374 0.31198 212 203 206
-0.100444 -0.56838 0.310442 212 203 206
-0.0698133 -0.580547 0.30543 212 203 206
-0.0459117 -0.582354 0.299868 212 203 206
-0.0279819 -0.58561 0.29631 212 200 204
-0.0199739 -0.585986 0.294492 212 200 202
-0.0139377 -0.587154 0.293357 211 198 203
-0.0098883 -0.588216 0.292673 211 198 203
0.00619753 -0.588251 0.288974 209 197 201
0.0225608 -0.590676 0.285902 207 195 201
0.0286165 -0.590357 0.284487 208 196 202
0.032882 -0.592042 0.283972 207 195 201
0.0609827 -0.58837 0.277089 205 192 199
0.0651754 -0.588817 0.276332 205 192 199
-0.0561116 -0.128998 0.190421 85 39 27
-0.127341 -0.55963 0.313493 212 200 204
-0.119528 -0.56066 0.311583 213 201 203
-0.106429 -0.565712 0.309238 212 203 206
-0.0991154 -0.570208 0.308368 212 203 206
-0.0720219 -0.577858 0.303145 212 203 206
-0.0682266 -0.580342 0.302781 212 203 206
-0.0423703 -0.582217 0.296774 213 201 205
-0.0304398 -0.584039 0.29432 212 200 204
0.0381263 -0.58918 0.279923 206 193 200
0.0481759 -0.58828 0.277554 206 193 200
-0.0548832 -0.126527 0.189219 107 57 42
-0.134393 -0.553307 0.311818 212 200 202
-0.132716 -0.554777 0.311696 212 200 202
-0.117747 -0.559704 0.308728 212 203 206
-0.106601 -0.564274 0.306791 212 203 206
-0.103045 -0.567011 0.306489 212 203 206
-0.076254 -0.575816 0.301562 212 203 206
-0.0724097 -0.577366 0.300947 212 203 206
-0.0704402 -0.577648 0.300511 212 203 206
-0.0209689 -0.582084 0.289402 211 199 201
-0.0149617 -0.584225 0.288499 208 196 200
-0.00290579 -0.586345 0.286203 208 196 200
0.0110197 -0.585203 0.282754 207 195 199
0.0231848 -0.586688 0.280393 206 193 200
0.0654177 -0.584695 0.270897 205 191 196
-0.136325 -0.551344 0.309785 215 203 207
-0.120302 -0.560632 0.307511 213 201 203
-0.101446 -0.566919 0.303892 212 203 206
-0.0920303 -0.57074 0.302298 212 203 206
-0.0881417 -0.571449 0.301446 212 203 206
-0.064995 -0.578909 0.297254 212 203 206
-0.0412137 -0.579433 0.291472 209 200 201
-0.0273851 -0.580335 0.288345 209 197 201
-0.0154438 -0.583718 0.286314 209 197 201
-0.00744429 -0.584839 0.284712 207 195 199
0.0184626 -0.584423 0.278724 206 193 200
0.0391183 -0.588999 0.275272 205 190 198
0.0470034 -0.587294 0.273183 205 190 198
0.0546866 -0.584493 0.270903 205 192 199
0.0687813 -0.583638 0.267778 204 190 194
-0.0632891 -0.57671 0.294146 211 202 205
-0.0455897 -0.578587 0.290184 212 200 202
-0.0376895 -0.57824 0.288177 211 199 201
-0.0140226 -0.580324 0.283023 208 196 200
-0.00797834 -0.583347 0.282315 205 196 199
0.0138681 -0.583085 0.277271 206 194 198
0.0179265 -0.583907 0.276554 206 193 200
0.0199142 -0.583819 0.276091 206 193 200
0.0259793 -0.584478 0.274902 206 193 200
0.0736615 -0.590258 0.266118 204 191 200
-0.137059 -0.55128 0.305764 214 202 204
-0.126007 -0.555327 0.303618 212 200 202
-0.124123 -0.555818 0.303213 212 200 202
-0.122421 -0.557249 0.303069 213 201 203
-0.113115 -0.560508 0.301281 211 202 205
-0.100043 -0.565334 0.298882 211 202 205
-0.094405 -0.56743 0.297871 214 202 206
-0.0906678 -0.569111 0.297274 212 203 206
-0.0848605 -0.570134 0.295996 212 203 206
-0.0830279 -0.571423 0.295815 212 203 206
-0.0751588 -0.571682 0.293854 211 202 205
-0.0557357 -0.575157 0.289751 210 200 204
-0.0499075 -0.576727 0.288666 212 200 202
-0.0381109 -0.576737 0.285786 209 197 201
-0.03421 -0.57895 0.285347 211 198 203
-0.026339 -0.577433 0.283118 208 196 200
-0.00257065 -0.581869 0.278566 206 194 198
0.0034289 -0.582798 0.277404 206 194 198
0.0113588 -0.582623 0.275569 205 193 197
-0.135661 -0.552241 0.303489 211 199 201
-0.124216 -0.554351 0.30081 212 200 204
-0.120457 -0.555306 0.299999 212 200 204
-0.0870372 -0.568308 0.294018 212 203 206
-0.0169492 -0.579207 0.279156 206 194 198
0.0148762 -0.582927 0.272692 205 193 197
0.0507691 -0.582194 0.264713 203 188 195
0.0665648 -0.580162 0.260962 201 189 195
-0.122433 -0.553352 0.298016 212 200 204
-0.0968689 -0.565033 0.293736 213 201 205
-0.079775 -0.570013 0.290397 212 203 206
-0.0331454 -0.578961 0.280801 208 197 198
-0.0135217 -0.577769 0.275899 206 194 198
0.00228999 -0.57976 0.272689 205 193 197
0.00629473 -0.580666 0.271978 205 193 197
0.016239 -0.581325 0.269885 204 192 196
0.0320205 -0.580397 0.266201 202 190 196
0.0501806 -0.581656 0.262569 204 189 196
0.0712066 -0.585809 0.259077 200 188 194
-0.124771 -0.55328 0.296548 212 200 204
-0.122713 -0.552811 0.295892 212 200 204
-0.121026 -0.554233 0.295737 213 201 205
-0.0838897 -0.567872 0.288869 211 202 205
-0.0782069 -0.569762 0.28782 211 202 205
-0.0413685 -0.574949 0.279779 209 197 201
0.00979337 -0.580985 0.269115 204 191 198
0.0275285 -0.580123 0.264986 202 190 196
0.0373634 -0.579364 0.262681 201 189 195
0.0433953 -0.579786 0.261472 201 189 195
0.0452189 -0.578612 0.260832 201 189 195
0.0574737 -0.580159 0.258565 200 188 194
0.0653382 -0.579082 0.256697 200 188 194
-0.0583669 -0.131701 0.189583 71 30 19
-0.11381 -0.555492 0.291985 211 202 205
-0.101346 -0.56317 0.290292 211 202 205
-0.0897622 -0.564392 0.287536 212 203 206
-0.0840252 -0.565378 0.286268 210 200 204
-0.0632468 -0.573263 0.282673 212 200 204
-0.0475994 -0.572929 0.278746 209 198 199
-0.043715 -0.573254 0.277869 208 196 200
-0.03207 -0.576973 0.275848 207 195 199
-0.0222822 -0.577412 0.273618 205 193 197
-0.020324 -0.577476 0.273171 205 193 197
-0.0164308 -0.576601 0.272075 205 193 197
-0.00665594 -0.576722 0.269831 204 192 196
-0.000791263 -0.5767 0.26848 204 192 196
0.0288335 -0.578446 0.262215 202 190 196
0.0348364 -0.578969 0.261015 201 189 195
0.0647265 -0.578528 0.254573 199 186 193
0.0725159 -0.58732 0.254787 199 186 195
-0.0584274 -0.130642 0.189135 65 30 19
-0.123454 -0.552651 0.291905 210 200 204
-0.0674414 -0.571234 0.281181 209 199 203
-0.0422252 -0.573805 0.27551 208 197 198
-0.0383367 -0.574082 0.274629 208 197 198
-0.0344579 -0.575307 0.273951 206 194 198
-0.0305548 -0.574542 0.272861 205 193 197
-0.0266541 -0.576684 0.272377 206 194 198
-0.0169024 -0.576023 0.269947 205 193 197
-0.0129992 -0.576095 0.269052 205 193 197
0.0164408 -0.577585 0.262655 201 189 195
0.0242644 -0.577157 0.260832 201 189 195
0.0379344 -0.576102 0.25763 200 188 194
0.0521946 -0.578552 0.255079 202 187 194
0.065707 -0.575736 0.251672 199 186 193
0.075626 -0.595162 0.253571 193 185 195
-0.131164 -0.550128 0.29141 212 200 204
-0.129308 -0.550628 0.291008 212 200 204
-0.125783 -0.552556 0.290441 213 201 205
-0.123727 -0.552083 0.289795 211 202 205
-0.117953 -0.552515 0.288339 213 201 205
-0.108934 -0.556589 0.286764 211 202 205
-0.103587 -0.559719 0.285988 210 200 204
-0.0923438 -0.562901 0.283708 211 202 205
-0.0828159 -0.56454 0.281597 210 200 206
-0.0695932 -0.568455 0.279048 209 199 203
-0.0522997 -0.571412 0.275365 208 196 200
-0.0135056 -0.574527 0.266741 204 192 196
-0.0095791 -0.575548 0.266037 204 192 196
0.00405794 -0.57544 0.262892 202 190 194
0.00809625 -0.5773 0.262354 201 189 193
0.00997535 -0.576256 0.26172 201 189 193
0.0452981 -0.575719 0.253858 202 187 194
0.0494959 -0.577232 0.253265 200 186 193
-0.139038 -0.548427 0.291151 211 198 203
-0.12811 -0.552446 0.288976 211 198 203
-0.0869736 -0.563318 0.280329 212 200 204
-0.0849583 -0.562669 0.279687 210 200 204
-0.0757232 -0.567064 0.278215 211 198 203
-0.0718876 -0.567604 0.277358 211 198 203
-0.0699685 -0.567863 0.276929 211 198 203
-0.0643462 -0.570542 0.276058 209 197 201
-0.0605477 -0.571967 0.2754 208 196 200
-0.041138 -0.572765 0.270825 206 194 198
-0.0236555 -0.576635 0.267428 202 190 194
-0.0158962 -0.574879 0.265264 202 190 194
0.00348953 -0.573862 0.260606 201 189 195
0.00938472 -0.574679 0.259434 201 189 193
0.0229807 -0.574018 0.256272 200 188 194
0.0508614 -0.576414 0.2507 199 184 192
-0.131679 -0.548971 0.287207 211 198 203
-0.112934 -0.552656 0.282923 212 200 204
-0.0627375 -0.569193 0.273301 208 196 200
-0.0609408 -0.571366 0.273278 209 197 201
-0.0589489 -0.570602 0.27264 208 196 200
-0.0511837 -0.570394 0.270699 207 195 197
-0.0453651 -0.569909 0.269193 206 194 198
-0.0182879 -0.575215 0.263786 201 189 193
-0.00277483 -0.574331 0.26003 201 189 193
-0.00088813 -0.573325 0.259404 201 189 193
0.00498995 -0.574191 0.258235 200 188 192
0.0128324 -0.574906 0.256607 200 188 192
0.018568 -0.573642 0.255083 200 188 194
0.0379249 -0.572188 0.250557 199 186 193
0.0462336 -0.575294 0.249365 198 185 192
0.0483277 -0.576048 0.249062 200 188 194
0.0520631 -0.574605 0.247989 199 184 192
-0.146205 -0.550345 0.289337 119 106 103
-0.141363 -0.546725 0.287351 207 195 199
-0.139744 -0.548207 0.287188 211 198 203
-0.118608 -0.549788 0.28183 210 200 204
-0.107639 -0.553295 0.279608 210 200 204
-0.0950959 -0.559796 0.277583 210 200 204
-0.0839698 -0.563713 0.275485 211 198 203
-0.0744464 -0.565154 0.273359 209 197 201
-0.0284636 -0.570353 0.263156 204 192 196
-0.0168589 -0.572674 0.260873 201 189 193
0.0140836 -0.572241 0.253729 199 186 193
0.0296407 -0.572251 0.250288 199 186 193
0.0432889 -0.571966 0.247272 198 185 192
0.0629086 -0.571437 0.243011 197 184 193
0.0673247 -0.573761 0.242523 197 184 191
-0.132184 -0.547777 0.283029 211 198 203
-0.119064 -0.550137 0.279975 212 200 204
-0.0955522 -0.560149 0.275702 210 200 204
-0.0919002 -0.561808 0.275074 210 200 204
-0.0767118 -0.564262 0.271688 209 197 201
-0.0654242 -0.567734 0.269521 208 196 200
-0.0558894 -0.569769 0.267556 206 194 198
-0.0500739 -0.56933 0.266059 206 194 196
-0.0405067 -0.572038 0.264255 205 193 197
-0.0366267 -0.5713 0.26319 204 192 196
-0.0192565 -0.572009 0.259223 202 190 194
0.0153173 -0.569557 0.250877 199 186 193
0.0228941 -0.568124 0.24893 199 186 193
0.0403789 -0.568614 0.245201 197 184 191
0.0444999 -0.570157 0.244598 199 186 193
-0.146435 -0.548211 0.284895 129 118 117
-0.143895 -0.545928 0.283805 177 163 168
-0.134271 -0.546664 0.28135 209 197 201
-0.130388 -0.54671 0.280322 211 198 203
-0.120622 -0.546199 0.277645 212 200 204
-0.11731 -0.549003 0.277275 211 198 203
-0.113617 -0.549863 0.276463 212 200 204
-0.09964 -0.558808 0.274446 210 200 204
-0.0600002 -0.566781 0.265939 206 194 198
-0.0580889 -0.566984 0.265508 205 193 197
-0.0370579 -0.570667 0.261098 202 190 194
-0.00242054 -0.570464 0.252979 199 186 193
0.00334976 -0.570348 0.251646 199 186 193
0.00520537 -0.56931 0.251038 199 186 193
0.00719554 -0.570232 0.250755 199 186 193
0.0261836 -0.567218 0.245981 199 186 193
0.0479158 -0.570061 0.241776 197 184 193
0.0535135 -0.568356 0.240277 197 184 191
0.0632567 -0.567963 0.238151 197 184 191
0.0678378 -0.571251 0.23778 197 184 191
-0.134515 -0.546046 0.279276 211 198 203
-0.0924294 -0.559581 0.270688 209 199 203
-0.0624284 -0.56789 0.264663 205 193 197
-0.0585386 -0.567323 0.263611 205 193 197
-0.0470181 -0.567394 0.26083 202 190 194
-0.00296147 -0.568834 0.250747 199 187 191
0.000753372 -0.566795 0.249541 199 186 193
0.0351741 -0.565762 0.241703 197 184 191
0.0407439 -0.564201 0.240222 197 184 191
0.0446849 -0.564756 0.23947 197 184 191
0.074984 -0.589428 0.237377 191 183 192
-0.131093 -0.546414 0.276405 211 198 203
-0.123552 -0.547356 0.274577 212 200 204
-0.110656 -0.550388 0.271732 210 200 204
-0.106958 -0.551187 0.270913 210 200 204
-0.101695 -0.554264 0.270087 209 199 203
-0.0963751 -0.557283 0.269246 209 199 203
-0.0722692 -0.565096 0.264535 207 195 199
-0.0607719 -0.565491 0.261775 205 193 197
-0.0569623 -0.565887 0.260914 204 192 196
-0.051243 -0.566424 0.25962 202 190 196
-0.03786 -0.566419 0.256409 200 188 192
-0.00727534 -0.568218 0.249571 198 186 190
-0.00536206 -0.568203 0.249129 198 186 190
0.0290305 -0.566604 0.241144 197 184 191
-0.125644 -0.546252 0.272924 212 200 204
-0.11977 -0.545696 0.271295 210 200 204
-0.0982775 -0.554339 0.267197 208 199 199
-0.0965527 -0.555662 0.26698 211 198 203
-0.0911996 -0.558618 0.266119 208 198 201
-0.0835691 -0.558889 0.264246 207 197 200
-0.0555038 -0.566397 0.258591 202 190 194
-0.0439924 -0.565385 0.255647 201 189 193
-0.00584457 -0.56754 0.247076 197 185 189
0.015063 -0.565878 0.242068 197 184 191
0.0206711 -0.564546 0.240596 197 184 191
0.0244658 -0.564277 0.239712 197 184 191
0.0490658 -0.561776 0.233946 197 184 191
0.055058 -0.562969 0.232867 197 184 191
0.0609072 -0.563111 0.231653 195 183 189
0.0627988 -0.562817 0.231205 195 183 189
-0.138876 -0.543118 0.273891 208 196 200
-0.137276 -0.544584 0.273703 209 197 201
-0.120032 -0.545042 0.269252 212 200 204
-0.114548 -0.546331 0.268038 210 200 204
-0.0948667 -0.554373 0.264313 208 198 201
-0.091397 -0.556984 0.263863 207 197 200
-0.0784774 -0.561032 0.261292 206 194 198
-0.0673021 -0.564497 0.259101 205 193 197
-0.0425328 -0.565831 0.253325 199 187 191
-0.0272987 -0.565621 0.249686 198 186 190
-0.0139814 -0.565894 0.246629 197 185 189
-0.0101015 -0.567878 0.246061 197 184 191
-0.00441931 -0.566845 0.244588 197 184 191
-0.00256554 -0.565827 0.243998 197 185 189
0.0126456 -0.565306 0.240475 197 184 191
0.0277179 -0.563307 0.236802 197 184 191
0.0406663 -0.560053 0.233447 195 183 189
0.0543024 -0.561327 0.230727 194 182 188
0.0580694 -0.560781 0.229839 195 183 189
-0.124324 -0.545404 0.268424 211 198 203
-0.114995 -0.546631 0.2662 210 200 204
-0.0917183 -0.556314 0.261808 207 197 200
-0.0898508 -0.556635 0.261389 207 197 200
-0.0824783 -0.558821 0.259895 206 194 198
-0.0675154 -0.56186 0.256684 202 190 194
-0.0581273 -0.563883 0.254719 201 189 195
-0.0353316 -0.564614 0.249376 198 186 190
-0.014475 -0.564225 0.244438 197 185 189
0.00434228 -0.561985 0.239778 197 185 189
0.0253987 -0.563766 0.235359 195 183 187
0.0593547 -0.559825 0.227391 194 182 188
-0.137739 -0.543272 0.269603 209 197 201
-0.118916 -0.545107 0.264977 211 198 203
-0.0990505 -0.551361 0.260864 208 196 200
-0.013014 -0.56453 0.242119 195 183 187
0.0266412 -0.561939 0.232775 194 184 187
0.0286421 -0.562763 0.232462 195 183 189
0.0340508 -0.560266 0.230889 195 183 189
0.0395459 -0.558688 0.229448 195 183 189
0.0527997 -0.558014 0.226489 195 183 189
-0.130486 -0.54362 0.265759 209 197 201
-0.113882 -0.546655 0.261923 211 198 203
-0.090243 -0.553315 0.256942 205 196 199
-0.0866518 -0.554907 0.256286 206 194 198
-0.0811751 -0.556753 0.255205 205 193 197
-0.0756665 -0.558535 0.254114 204 192 196
-0.0738844 -0.559769 0.253862 202 190 194
-0.0646289 -0.562886 0.252071 200 188 192
-0.0493623 -0.561378 0.248156 198 186 190
-0.0455942 -0.561662 0.247298 197 185 189
-0.0173334 -0.560839 0.240529 195 183 187
0.00711224 -0.560448 0.234886 197 184 191
0.0111113 -0.563238 0.234409 197 184 191
0.0166872 -0.561929 0.232963 195 183 189
0.0259938 -0.560256 0.230646 194 184 189
0.0352469 -0.558395 0.228334 195 183 189
0.0369836 -0.557214 0.227777 195 183 189
0.0425795 -0.556576 0.226466 193 183 188
0.052217 -0.557322 0.224504 194 182 188
0.0557769 -0.555802 0.223515 194 182 188
0.0763165 -0.590708 0.224397 185 179 188
-0.13572 -0.539562 0.264541 208 196 200
-0.112498 -0.547339 0.259677 209 197 201
-0.107 -0.548515 0.25845 209 197 201
-0.0853507 -0.556461 0.254182 205 193 197
-0.0553969 -0.560189 0.247409 198 186 190
-0.0516858 -0.561505 0.246711 197 185 189
-0.0479571 -0.562791 0.246009 197 185 189
-0.0441796 -0.563061 0.245148 195 183 187
-0.0422625 -0.562196 0.244564 197 185 189
-0.0158842 -0.561135 0.238228 194 182 186
0.0161691 -0.561222 0.230961 195 183 189
0.029208 -0.559223 0.227778 194 184 189
0.0480621 -0.558112 0.223511 194 182 188
0.0611227 -0.556192 0.220438 193 181 187
-0.139994 -0.539774 0.263707 209 197 201
-0.134145 -0.539365 0.262126 209 197 201
-0.11969 -0.543041 0.258914 212 200 204
-0.110942 -0.547038 0.257248 208 196 200
-0.100093 -0.550248 0.254962 204 195 198
-0.0801956 -0.55758 0.251057 201 189 193
-0.0690522 -0.560053 0.24868 198 186 190
-0.0635576 -0.562666 0.24772 197 185 189
-0.0200969 -0.560377 0.237085 194 182 186
-0.00143175 -0.558288 0.232499 194 184 187
0.000437604 -0.558235 0.232066 195 183 187
0.0100166 -0.560826 0.230274 194 184 187
0.0137742 -0.560621 0.229402 194 184 187
0.0210808 -0.558143 0.227419 195 183 187
0.0265714 -0.556702 0.225997 193 183 188
0.0583098 -0.553825 0.218704 192 179 186
0.0726713 -0.577642 0.21903 186 178 186
-0.134152 -0.537709 0.259929 208 196 200
-0.113039 -0.545932 0.255641 205 196 199
-0.1074 -0.546132 0.254241 207 195 197
-0.103904 -0.547847 0.253596 204 195 198
-0.100241 -0.548561 0.252774 206 194 198
-0.0931628 -0.551854 0.251461 204 192 196
-0.0769005 -0.558371 0.248347 200 188 192
-0.0639299 -0.561947 0.245685 195 183 187
-0.0411507 -0.558893 0.239807 194 182 186
-0.0373889 -0.55811 0.238809 194 182 186
-0.0336512 -0.558285 0.237953 193 181 185
0.0223173 -0.556287 0.224893 193 183 188
0.0260381 -0.555978 0.224026 193 183 188
0.0518352 -0.551985 0.217853 191 178 185
-0.141985 -0.536908 0.25989 206 194 198
-0.130793 -0.537959 0.257133 209 197 201
-0.127204 -0.538887 0.256333 208 196 200
-0.0880617 -0.553039 0.248364 199 187 191
-0.0750917 -0.554947 0.245433 197 185 189
-0.0733263 -0.556173 0.245167 197 185 189
-0.0565453 -0.558021 0.241357 194 182 186
-0.0546773 -0.558189 0.240932 194 182 186
-0.0098835 -0.555967 0.23013 194 182 186
-0.000704554 -0.553799 0.227742 193 183 186
0.0125826 -0.557183 0.2252 193 183 186
0.0252833 -0.553269 0.221844 191 181 187
0.0309493 -0.553738 0.220658 194 182 186
-0.13102 -0.537241 0.25514 208 196 200
-0.104473 -0.546399 0.249589 206 194 198
-0.0886251 -0.554266 0.246671 198 186 190
-0.0846862 -0.552888 0.245521 197 185 189
-0.0699571 -0.5559 0.242316 194 182 186
-0.0645958 -0.559496 0.241489 193 181 185
-0.05506 -0.557449 0.238928 193 181 185
-0.0531446 -0.55662 0.238362 192 180 184
-0.0437676 -0.555323 0.235961 192 180 184
-0.0104229 -0.553238 0.227916 193 181 185
-0.142399 -0.535478 0.255895 205 193 197
-0.122101 -0.537806 0.250983 202 187 192
-0.0793674 -0.551977 0.242117 195 183 187
-0.0685354 -0.55636 0.240038 193 181 185
-0.0648135 -0.556777 0.239192 192 180 184
-0.0478324 -0.553332 0.234691 191 179 183
-0.0385861 -0.553897 0.232577 191 179 183
-0.0164173 -0.552504 0.227234 193 181 185
-0.00728357 -0.550447 0.224876 193 181 185
0.00955405 -0.553812 0.221485 194 182 186
0.0534273 -0.547268 0.211002 191 178 185
0.0572526 -0.547674 0.210231 190 177 184
0.0664817 -0.556213 0.209329 188 178 186
-0.149702 -0.532636 0.25549 156 124 124
-0.12234 -0.537067 0.249008 189 172 178
-0.105033 -0.544916 0.245609 199 187 191
-0.0995788 -0.545968 0.244379 199 185 190
-0.0924206 -0.548247 0.242885 194 182 186
-0.0688079 -0.554619 0.237899 192 180 184
-0.0501111 -0.553427 0.233272 190 178 182
-0.0445321 -0.55282 0.231875 191 179 183
-0.00774783 -0.549683 0.222935 193 181 185
-0.00596227 -0.548654 0.222401 193 181 185
-0.00413312 -0.548609 0.221978 193 181 185
0.00515008 -0.550262 0.220075 193 181 185
0.0161554 -0.549616 0.217523 193 181 187
0.0178907 -0.548493 0.216998 193 181 185
0.0198202 -0.549342 0.216672 190 180 186
0.0365522 -0.549711 0.213019 189 179 185
0.0583055 -0.545645 0.207807 190 177 184
-0.139019 -0.534068 0.250962 205 193 197
-0.13747 -0.535521 0.250734 205 193 197
-0.130121 -0.536465 0.24897 206 194 198
-0.114356 -0.542266 0.245666 184 152 156
-0.103653 -0.545496 0.243373 199 185 188
-0.0800275 -0.550463 0.238145 192 180 184
-0.017336 -0.549975 0.223223 192 180 184
0.00840225 -0.550298 0.217395 193 181 185
0.0157389 -0.549838 0.215694 190 180 186
-0.114434 -0.540536 0.243537 172 135 139
-0.0945703 -0.544451 0.23905 190 178 182
-0.0820757 -0.548447 0.236446 191 179 183
-0.0783144 -0.547978 0.235478 190 178 182
-0.0712677 -0.551879 0.234218 187 175 179
-0.065741 -0.55251 0.232959 187 175 179
-0.0141808 -0.547201 0.22023 191 179 183
-0.0104977 -0.548159 0.219495 192 180 184
0.000456711 -0.547873 0.216965 193 181 185
0.0441182 -0.544066 0.206817 190 177 186
0.0529876 -0.541755 0.204629 187 174 183
-0.149238 -0.526607 0.248895 176 142 144
-0.145743 -0.527663 0.248112 204 192 196
-0.118275 -0.538964 0.242381 149 108 108
-0.109298 -0.540922 0.240355 185 143 146
-0.102245 -0.543335 0.238871 197 183 185
-0.0255292 -0.54833 0.221041 191 179 183
-0.0128099 -0.546397 0.217892 192 179 186
0.00908334 -0.546643 0.212942 190 180 186
0.0215987 -0.543734 0.209818 189 179 185
0.0365943 -0.546188 0.20677 188 176 184
0.0486475 -0.540544 0.203516 187 174 183
0.0708965 -0.568164 0.20173 184 174 184
-0.154996 -0.532371 0.249053 145 70 57
-0.12922 -0.535606 0.242836 164 145 149
-0.1171 -0.540539 0.240315 149 99 98
-0.0933494 -0.543204 0.234726 187 172 177
-0.0808938 -0.547144 0.232108 184 172 176
-0.0716837 -0.547347 0.229905 184 172 176
-0.0571402 -0.549857 0.226691 186 174 178
-0.0405569 -0.54802 0.222576 189 174 181
-0.038732 -0.54811 0.222158 187 175 181
-0.0369068 -0.548192 0.221739 190 178 182
-0.00958918 -0.546543 0.21524 191 178 185
-0.00604726 -0.544475 0.214211 191 178 185
-0.00418461 -0.545418 0.213886 191 178 185
0.00300497 -0.544146 0.212118 190 180 186
0.0139469 -0.544503 0.20969 188 178 184
0.0190737 -0.541111 0.208182 189 179 185
0.0284188 -0.543241 0.20633 187 177 182
0.0429967 -0.542496 0.203041 187 174 183
0.0534539 -0.538922 0.200387 186 173 182
0.0615509 -0.542608 0.199025 186 174 180
-0.171998 -0.548905 0.253117 81 30 20
-0.164571 -0.54412 0.250733 128 55 45
-0.138294 -0.532483 0.242878 194 177 183
-0.134981 -0.534406 0.242235 185 168 173
-0.0973906 -0.542765 0.233732 187 172 175
-0.0852012 -0.548776 0.231371 183 169 173
-0.0832593 -0.54806 0.230827 184 172 176
-0.0775761 -0.546847 0.229328 184 170 175
-0.0738396 -0.546327 0.228375 185 171 176
-0.055679 -0.549213 0.224329 185 173 177
-0.0537444 -0.547378 0.223682 186 174 178
-0.0518734 -0.546527 0.223152 186 174 178
-0.037293 -0.546393 0.219707 188 176 180
-0.0191639 -0.543819 0.215232 191 179 183
-0.00126319 -0.540511 0.210796 189 179 185
0.00426136 -0.54226 0.209722 189 179 185
0.0061371 -0.543159 0.20939 189 179 185
0.037033 -0.542403 0.202422 187 174 183
0.0437754 -0.538492 0.200545 186 174 180
0.0473495 -0.537975 0.199712 186 173 182
-0.108291 -0.538933 0.2341 176 124 126
-0.104709 -0.539646 0.233287 191 165 171
-0.0904623 -0.543192 0.230148 182 168 170
-0.0869714 -0.544746 0.229451 182 167 172
-0.0835758 -0.547258 0.228874 180 168 172
-0.0686408 -0.545177 0.225076 184 170 175
-0.0540618 -0.545576 0.221644 185 173 177
-0.046762 -0.5451 0.219873 186 174 178
-0.0196183 -0.542009 0.213243 190 178 182
-0.0178177 -0.54201 0.212828 190 177 184
0.00737679 -0.54125 0.20701 189 179 185
-0.17445 -0.547705 0.249602 96 41 30
-0.13846 -0.529953 0.238844 164 145 149
-0.110853 -0.540692 0.232969 167 99 97
-0.0889572 -0.542671 0.227802 180 165 168
-0.0801456 -0.545974 0.225981 179 167 171
-0.0653609 -0.544753 0.222322 183 171 175
-0.0398814 -0.543684 0.216201 186 174 178
-0.0182539 -0.541187 0.210944 188 176 182
0.00495182 -0.538541 0.205399 188 178 184
0.0302975 -0.539437 0.199805 186 175 183
0.0390961 -0.537358 0.197666 186 173 182
0.0478346 -0.535103 0.195537 185 172 181
0.0496083 -0.534828 0.195124 185 172 181
0.0613697 -0.538909 0.192946 183 170 177
-0.166045 -0.538378 0.244639 137 56 47
-0.131376 -0.538253 0.235898 89 46 40
-0.1298 -0.539671 0.235631 97 48 40
-0.126213 -0.540553 0.234818 97 43 34
-0.115233 -0.542049 0.232236 151 74 70
-0.105403 -0.539009 0.229551 200 177 180
-0.0947883 -0.541954 0.227224 180 163 167
-0.0729287 -0.543119 0.222055 182 167 172
-0.0548519 -0.544924 0.217918 184 172 176
-0.0439452 -0.544661 0.215326 185 173 177
-0.0348254 -0.540089 0.212782 186 174 178
-0.0258498 -0.542302 0.210897 187 175 181
-0.0151309 -0.539339 0.208158 187 175 179
-0.00980348 -0.538257 0.206839 187 177 182
0.0474319 -0.535268 0.193753 183 170 177
0.0490392 -0.534008 0.193289 185 172 179
0.0524022 -0.532454 0.192415 183 170 177
-0.168275 -0.537942 0.243205 135 57 47
-0.16016 -0.530219 0.240507 146 67 59
-0.149304 -0.525331 0.23736 180 158 163
-0.105993 -0.540148 0.227872 194 171 174
-0.104041 -0.539514 0.227341 188 165 168
-0.100458 -0.540182 0.226525 182 161 164
-0.0843961 -0.543817 0.222946 176 162 166
-0.0733522 -0.543278 0.22025 180 168 172
-0.0370501 -0.541177 0.211496 186 174 178
-0.0280696 -0.539442 0.209259 187 175 181
-0.00490844 -0.537268 0.203747 187 175 181
0.0181171 -0.534873 0.198336 186 176 181
0.0216603 -0.53455 0.197515 183 173 179
0.0255498 -0.537172 0.196871 186 174 180
0.0484714 -0.53318 0.191461 181 169 173
0.0534108 -0.530349 0.190139 181 166 171
0.0799288 -0.596569 0.189985 171 159 163
-0.174959 -0.539083 0.243026 127 56 45
-0.142766 -0.527524 0.234005 126 105 108
-0.131729 -0.544828 0.232647 98 45 35
-0.129291 -0.542369 0.231847 99 44 35
-0.115549 -0.539437 0.228227 155 77 67
-0.110174 -0.540564 0.227003 150 86 87
-0.0611952 -0.545764 0.215643 183 171 175
-0.041084 -0.542169 0.210618 185 173 177
-0.0392617 -0.541254 0.210117 186 174 178
-0.0125484 -0.534613 0.203393 186 174 180
0.019381 -0.533871 0.196094 184 171 178
0.0251439 -0.537322 0.195086 184 171 178
0.0335038 -0.532352 0.19282 181 169 175
0.0389332 -0.532652 0.191642 180 168 174
0.0426123 -0.533143 0.190869 179 167 173
0.058837 -0.532517 0.187261 174 162 168
0.0808628 -0.593402 0.187382 157 140 143
-0.184011 -0.535059 0.243051 83 33 22
-0.178063 -0.535138 0.241547 108 48 39
-0.115977 -0.539582 0.226419 155 76 69
-0.0974306 -0.539153 0.221874 174 158 161
-0.0957844 -0.540444 0.221576 172 155 159
-0.0919284 -0.539069 0.220539 171 157 160
-0.086439 -0.538916 0.219205 174 160 162
-0.0829792 -0.540422 0.218492 177 163 166
-0.077494 -0.540158 0.217158 179 167 171
-0.0757023 -0.540385 0.216748 180 168 172
-0.059673 -0.544085 0.213229 183 171 175
-0.0486964 -0.541917 0.210475 185 173 177
-0.0396303 -0.539405 0.208158 185 173 177
-0.0217946 -0.535821 0.203742 186 174 178
0.0243939 -0.534489 0.193148 180 168 174
0.0364847 -0.531053 0.19019 174 164 170
0.0501691 -0.526996 0.186857 171 157 162
0.0580621 -0.530696 0.185412 170 158 162
0.0899828 -0.563824 0.181023 100 46 42
0.103586 -0.569696 0.178552 91 43 39
-0.184944 -0.53079 0.241025 88 36 24
-0.178728 -0.529937 0.239391 106 46 35
-0.166958 -0.536141 0.236866 142 66 57
-0.158332 -0.52646 0.234016 128 58 52
-0.137998 -0.535525 0.229609 88 42 33
-0.137125 -0.53986 0.229706 90 41 33
-0.104672 -0.536026 0.221487 180 157 160
-0.102896 -0.536361 0.221081 177 156 159
-0.0813832 -0.538831 0.216084 177 165 169
-0.0690328 -0.542347 0.2134 181 169 173
-0.0490702 -0.541058 0.208596 185 173 177
-0.0418044 -0.538464 0.206704 185 173 177
-0.00461395 -0.532647 0.197693 185 172 179
0.00229794 -0.530328 0.195949 184 171 178
0.0358033 -0.529208 0.188343 171 159 163
0.0376969 -0.529962 0.187978 169 157 161
0.0513393 -0.525854 0.184665 166 154 158
0.0551761 -0.527216 0.183922 168 153 158
0.0887137 -0.54463 0.177896 90 39 33
0.0948998 -0.546163 0.176677 90 40 37
0.102462 -0.552434 0.175507 86 37 33
0.112394 -0.566276 0.174377 81 37 29
-0.190647 -0.528893 0.240397 75 29 20
-0.183129 -0.524372 0.238197 95 39 29
-0.159033 -0.527542 0.232362 119 52 45
-0.156747 -0.526189 0.231701 94 33 31
-0.105094 -0.536154 0.219697 181 155 159
-0.10154 -0.536817 0.218884 176 155 160
-0.099762 -0.537138 0.218477 173 155 157
-0.080126 -0.54019 0.213978 178 166 170
-0.0475698 -0.538308 0.206153 184 172 176
-0.043936 -0.536512 0.205178 185 173 177
-0.0421593 -0.536599 0.20477 185 173 177
-0.0403568 -0.535682 0.204285 185 173 177
-0.0244331 -0.531087 0.200271 185 173 177
-0.0174096 -0.531074 0.198652 185 172 179
-0.0156537 -0.531053 0.198247 184 171 178
-0.00682849 -0.53184 0.196281 184 171 178
0.0121421 -0.526768 0.19162 179 167 171
0.0333822 -0.527582 0.186915 167 155 161
0.0469675 -0.523598 0.183627 160 145 152
0.0507694 -0.524995 0.182885 160 148 155
-0.179592 -0.518585 0.235031 102 45 32
-0.118099 -0.534705 0.220854 157 79 67
-0.109063 -0.535584 0.21872 185 155 158
-0.105515 -0.536276 0.217907 178 152 157
-0.100031 -0.536277 0.216585 172 154 155
-0.0982551 -0.53659 0.216178 170 151 153
-0.0946998 -0.537194 0.215363 169 153 156
-0.089229 -0.537059 0.214043 174 160 162
-0.0804358 -0.539322 0.212091 177 165 169
-0.0641678 -0.539175 0.208224 181 169 173
-0.0178372 -0.530195 0.196839 184 172 176
0.00644472 -0.52627 0.191038 179 167 171
0.00818195 -0.526151 0.190637 179 167 171
0.0116551 -0.525891 0.189835 178 166 172
0.0277501 -0.528339 0.186376 166 156 159
0.0312402 -0.527921 0.185568 163 151 155
0.0429563 -0.523273 0.182659 152 137 144
0.0555707 -0.5242 0.179933 148 134 139
0.0576769 -0.525845 0.179576 148 134 137
0.120846 -0.55018 0.16747 93 46 39
-0.17023 -0.518035 0.230773 128 61 52
-0.152524 -0.52177 0.226601 87 52 46
-0.138124 -0.531064 0.223615 106 48 38
-0.135058 -0.533925 0.223037 120 61 47
-0.124026 -0.534591 0.220386 151 77 66
-0.111081 -0.534363 0.217234 185 155 158
-0.0859663 -0.536716 0.211349 176 162 164
-0.0734117 -0.537351 0.208404 179 167 171
-0.0554705 -0.537068 0.204156 183 171 175
-0.0519636 -0.538318 0.203411 183 171 175
-0.0446895 -0.534751 0.20149 184 172 176
-0.0429202 -0.534838 0.201083 184 172 176
-0.0393339 -0.532995 0.200134 185 173 177
-0.00947957 -0.530132 0.193069 183 171 175
0.0077037 -0.525266 0.188857 177 165 169
0.0605574 -0.524315 0.177001 142 123 127
0.0732399 -0.516523 0.173753 77 26 23
0.0768727 -0.516704 0.172973 62 17 14
0.112085 -0.52986 0.166159 88 37 29
-0.168344 -0.516846 0.228366 127 61 49
-0.151221 -0.522401 0.224443 86 46 39
-0.137383 -0.526341 0.221271 114 55 39
-0.125803 -0.532337 0.218788 150 80 65
-0.124043 -0.532751 0.218384 154 81 67
-0.100563 -0.534531 0.212822 169 150 152
-0.0970246 -0.535147 0.212009 169 153 156
-0.0951112 -0.534458 0.211512 169 153 156
-0.0645334 -0.533431 0.204195 181 169 173
-0.00657369 -0.526126 0.190326 180 168 172
-0.00136619 -0.525895 0.189125 178 168 171
0.000369073 -0.525804 0.188724 179 167 171
0.0262217 -0.522603 0.182697 157 147 152
0.0423229 -0.524475 0.179206 140 126 128
0.0535017 -0.517535 0.176332 127 108 110
0.0660363 -0.509945 0.173143 75 24 18
0.0772434 -0.512513 0.170836 65 20 14
0.0824746 -0.505021 0.169278 64 16 14
0.0852715 -0.502218 0.168514 56 11 8
0.105267 -0.515205 0.164918 81 27 23
0.107259 -0.515636 0.164514 85 31 26
0.108958 -0.515104 0.16412 85 31 26
0.121768 -0.514021 0.161322 94 43 33
-0.181317 -0.509194 0.229328 93 41 26
-0.175652 -0.509209 0.227921 113 53 42
-0.164803 -0.522483 0.225914 92 33 28
-0.157072 -0.521861 0.223979 79 27 22
-0.147679 -0.521607 0.221662 91 44 37
-0.104351 -0.533003 0.211762 170 149 152
-0.10243 -0.532345 0.211267 170 149 152
-0.0971475 -0.533276 0.210052 168 152 153
-0.0864272 -0.533955 0.207534 177 163 168
-0.0830116 -0.535443 0.206801 178 166 170
-0.0738519 -0.533588 0.204534 179 167 171
-0.0702323 -0.532991 0.203647 180 168 172
-0.0649442 -0.53353 0.20243 181 169 173
-0.0507192 -0.532659 0.199048 184 172 176
-0.034792 -0.528379 0.195112 183 171 175
-0.0260745 -0.527525 0.193049 183 171 175
-0.0156566 -0.526466 0.190594 181 169 173
0.0101168 -0.522219 0.184488 169 160 163
0.0120181 -0.524071 0.184156 168 159 162
0.0742464 -0.50912 0.16951 59 18 16
0.0884487 -0.502382 0.166064 40 0 2
0.0986467 -0.506739 0.164079 72 19 19
0.120464 -0.500664 0.159081 97 47 32
-0.188404 -0.506665 0.229121 80 34 22
-0.15893 -0.520453 0.222493 82 26 20
-0.155226 -0.52058 0.221592 84 40 32
-0.146375 -0.522199 0.219507 99 46 36
-0.134633 -0.519253 0.216509 137 76 58
-0.122117 -0.528476 0.213927 169 101 97
-0.108289 -0.532423 0.210795 175 149 151
-0.104441 -0.531129 0.209811 169 148 151
-0.091996 -0.532259 0.206897 174 160 162
-0.0815411 -0.534783 0.20454 178 166 170
-0.0777902 -0.533255 0.203577 179 167 171
-0.0759249 -0.532479 0.203098 179 167 171
-0.0741651 -0.532687 0.202693 179 167 171
-0.0564071 -0.532384 0.198504 183 171 175
-0.0510294 -0.530756 0.197167 183 171 175
-0.0404528 -0.529296 0.194631 184 172 176
-0.00755953 -0.522319 0.186702 178 166 170
-0.000614524 -0.522997 0.18515 174 164 168
0.00972212 -0.522308 0.182766 169 160 163
0.0148843 -0.521869 0.181575 164 154 159
0.0286232 -0.520392 0.178404 141 129 133
0.0644234 -0.506218 0.169743 63 18 15
0.0774287 -0.502165 0.166689 54 15 15
0.100613 -0.496707 0.161382 80 28 23
0.102239 -0.496197 0.161006 80 28 23
0.106489 -0.492727 0.159925 83 32 24
0.108723 -0.494094 0.159507 86 35 27
-0.172994 -0.515926 0.223874 114 55 43
-0.171601 -0.517472 0.223599 107 50 37
-0.13774 -0.515526 0.215253 126 67 50
-0.134348 -0.516433 0.214472 142 79 61
-0.129689 -0.519683 0.213489 159 91 75
-0.114609 -0.525208 0.210106 182 149 153
-0.109761 -0.528238 0.20908 174 148 152
-0.0938841 -0.530089 0.205377 173 158 161
-0.0902484 -0.529653 0.204494 175 161 163
0.048055 -0.513483 0.171929 96 69 69
0.0609188 -0.507981 0.168826 75 32 28
0.0720283 -0.510656 0.16649 57 19 16
0.0744518 -0.505972 0.165749 55 22 19
0.0939913 -0.499718 0.161196 63 15 13
0.0971656 -0.492503 0.160191 69 17 14
0.099495 -0.488638 0.159517 77 28 24
0.108393 -0.488887 0.157601 85 36 28
0.111905 -0.488741 0.156836 90 40 27
-0.176887 -0.509459 0.222713 114 57 44
-0.175531 -0.511016 0.222441 114 57 44
-0.140084 -0.516102 0.214012 126 67 48
-0.131131 -0.516418 0.211864 159 91 75
-0.118284 -0.52356 0.209066 182 148 150
-0.106516 -0.528013 0.206434 168 147 150
-0.10303 -0.528663 0.20563 168 149 151
-0.101286 -0.528978 0.205228 168 149 153
-0.0819053 -0.530981 0.200717 178 166 170
-0.0463452 -0.525228 0.192146 183 171 175
-0.0342186 -0.525674 0.18935 183 171 175
-0.0238169 -0.525782 0.186952 181 169 173
-0.0169077 -0.524715 0.185318 180 168 172
-0.00667845 -0.521408 0.182836 178 166 170
0.012192 -0.520188 0.178486 166 154 158
0.0139048 -0.520035 0.178091 165 155 158
0.0546 -0.513312 0.168671 94 65 61
0.0607371 -0.509034 0.167132 72 30 26
0.0636596 -0.506372 0.166376 64 22 16
0.0714175 -0.509757 0.164796 56 20 14
-0.175624 -0.510144 0.220589 115 56 42
-0.106757 -0.5271 0.204599 168 147 150
-0.0996413 -0.527385 0.202919 169 153 154
-0.0960141 -0.526989 0.202044 171 157 160
-0.0890559 -0.528085 0.200438 176 162 166
-0.0838266 -0.528833 0.199231 178 166 170
-0.0747886 -0.526959 0.197034 179 167 171
-0.071406 -0.528343 0.196291 180 168 172
-0.0555756 -0.527758 0.192564 181 169 173
-0.0414929 -0.523532 0.189129 183 171 175
-0.0380429 -0.523652 0.188334 183 171 175
-0.0328569 -0.52278 0.187101 181 169 173
-0.0311349 -0.522809 0.186703 181 169 173
-0.0242359 -0.523852 0.18515 181 169 173
-0.00887959 -0.519547 0.181461 178 166 170
0.0134174 -0.519108 0.176361 165 155 158
0.0237771 -0.519042 0.174011 149 137 141
0.0477912 -0.516581 0.168519 87 46 46
0.0588768 -0.510424 0.165817 92 51 47
0.0727059 -0.509431 0.162709 60 27 22
0.0769674 -0.49809 0.161356 56 18 15
0.0783512 -0.496703 0.161001 54 17 16
0.087781 -0.499341 0.159018 66 21 14
0.0921299 -0.496014 0.157943 69 20 14
0.0949847 -0.487854 0.157026 74 25 16
0.120368 -0.4845 0.151378 120 64 44
-0.166542 -0.51565 0.216718 94 36 28
-0.151578 -0.515217 0.213086 114 55 41
-0.11699 -0.522112 0.205016 178 146 150
-0.108729 -0.525845 0.203172 168 145 148
-0.0945398 -0.526349 0.199826 173 158 161
-0.0875926 -0.527414 0.198221 178 164 169
-0.0785568 -0.525611 0.196035 179 167 171
-0.0680636 -0.525783 0.193578 180 168 172
-0.0574634 -0.523704 0.191032 181 169 173
-0.0470643 -0.523361 0.188599 183 171 175
-0.0418619 -0.522594 0.187366 184 172 176
-0.019516 -0.520874 0.182146 181 169 173
-0.0110228 -0.51867 0.180122 178 166 170
-0.000788082 -0.518196 0.177764 176 164 168
0.0390358 -0.519019 0.168762 100 48 45
0.0443214 -0.519192 0.167579 84 32 34
0.0575825 -0.514746 0.164463 88 48 43
0.0959166 -0.486464 0.155059 81 30 22
0.100369 -0.484002 0.154004 72 25 18
0.11039 -0.47743 0.151606 93 43 28
0.112826 -0.474429 0.150982 113 56 39
-0.191291 -0.499167 0.220421 79 35 22
-0.18431 -0.49556 0.218624 96 48 32
-0.182691 -0.4962 0.218247 106 53 39
-0.164568 -0.50811 0.214182 103 46 35
-0.0543551 -0.523007 0.188467 181 169 173
-0.0526861 -0.524117 0.188111 183 171 175
-0.0233644 -0.518962 0.181171 180 168 172
0.00378668 -0.515925 0.174857 172 160 166
0.0140519 -0.516077 0.172523 164 154 157
0.0192484 -0.516555 0.171357 160 148 152
0.0818539 -0.499831 0.156829 55 17 12
0.0942438 -0.487964 0.153756 86 35 25
0.100301 -0.485007 0.152339 73 26 19
0.107232 -0.479521 0.150665 79 35 22
0.14331 -0.527938 0.144088 128 74 56
-0.14743 -0.510562 0.208309 132 71 55
-0.138553 -0.518226 0.206372 151 82 69
-0.129131 -0.516528 0.204086 174 129 128
-0.103847 -0.523977 0.198274 168 149 153
-0.0914661 -0.524032 0.195358 176 162 166
-0.0844332 -0.524043 0.193705 178 166 170
-0.0807493 -0.522518 0.192803 179 167 171
-0.0773081 -0.522946 0.192007 179 167 171
-0.0596395 -0.518688 0.187772 181 169 173
-0.0579997 -0.519818 0.187418 181 169 173
-0.0477759 -0.521464 0.185082 183 171 175
-0.0357071 -0.518908 0.182222 181 169 173
-0.0305865 -0.518993 0.18104 181 169 173
-0.00163303 -0.517298 0.174343 176 164 168
3.2766e-06 -0.516197 0.173942 174 162 166
0.00486383 -0.512856 0.172747 172 160 164
0.0306011 -0.514164 0.166929 122 110 112
0.0325661 -0.515911 0.166528 119 103 104
0.0537772 -0.517472 0.161783 87 40 33
0.057522 -0.509603 0.160748 88 38 32
0.0629494 -0.510511 0.159553 84 40 30
0.0654646 -0.514056 0.159077 84 40 30
-0.125493 -0.514467 0.201358 177 145 149
-0.090008 -0.523344 0.193169 177 163 168
-0.082749 -0.521342 0.191425 178 166 170
-0.0792046 -0.52079 0.190583 180 168 172
-0.0190722 -0.516988 0.176547 181 169 173
0.0110291 -0.510345 0.169513 167 155 159
0.0163581 -0.512841 0.168351 164 152 156
0.0216366 -0.514275 0.16718 157 143 148
0.035135 -0.512492 0.16408 112 69 67
0.0744233 -0.516044 0.155307 76 34 25
0.0814242 -0.508098 0.153579 70 28 19
0.0830928 -0.507656 0.153198 69 25 17
0.0868373 -0.495223 0.152112 87 34 25
0.0903467 -0.49525 0.151331 92 37 26
0.1015 -0.480248 0.148556 82 38 26
0.102445 -0.477825 0.148299 82 38 26
-0.176592 -0.486342 0.211266 113 59 43
-0.143455 -0.513044 0.20378 148 82 68
-0.133325 -0.515754 0.201421 176 132 133
-0.122305 -0.514312 0.19879 171 141 144
-0.115929 -0.51776 0.197342 169 144 145
-0.107582 -0.520459 0.19542 166 145 147
-0.0954257 -0.521587 0.192582 174 159 164
-0.0602868 -0.516767 0.18429 181 169 173
-0.0568266 -0.516025 0.183473 181 169 173
-0.0551315 -0.516143 0.183081 181 169 173
-0.0279637 -0.516087 0.176792 181 170 171
-0.0245996 -0.513082 0.175965 180 168 172
-0.00602547 -0.513561 0.171704 178 166 170
-0.0043389 -0.513472 0.171315 177 165 169
0.0329227 -0.511781 0.162788 118 86 85
0.0488841 -0.514242 0.159215 93 45 36
0.0538567 -0.494963 0.157771 90 41 33
0.0834717 -0.497129 0.151154 86 35 25
0.112243 -0.462558 0.1442 129 73 51
-0.179621 -0.478923 0.210162 100 50 35
-0.176301 -0.484494 0.209433 113 58 45
-0.167763 -0.490837 0.20747 114 55 41
-0.129217 -0.511766 0.198581 173 140 144
-0.121015 -0.514721 0.196683 169 141 146
-0.107633 -0.518519 0.193583 165 147 148
-0.105929 -0.518841 0.193187 169 150 154
-0.0955293 -0.519638 0.190759 175 160 165
-0.0848849 -0.518196 0.18825 178 166 170
-0.0762539 -0.518281 0.186236 179 167 171
-0.0606076 -0.515796 0.182561 180 168 172
-0.0589135 -0.515927 0.182169 181 169 173
-0.053828 -0.516279 0.180993 181 169 173
-0.0471245 -0.51865 0.17947 181 169 173
-0.0453813 -0.517728 0.179054 183 171 175
-0.0368325 -0.516007 0.177054 181 169 173
-0.0266765 -0.512113 0.174659 181 170 171
-0.0149133 -0.511926 0.171948 179 167 171
-0.0132333 -0.511872 0.171561 179 167 171
-0.0115925 -0.510813 0.17117 179 167 171
0.00333276 -0.507967 0.167711 174 162 166
0.0083272 -0.507563 0.166563 171 159 163
0.0222008 -0.511155 0.163443 157 143 148
0.0577198 -0.491038 0.155129 92 45 38
0.0734967 -0.507911 0.151782 83 39 29
0.0839759 -0.487572 0.149177 100 46 32
0.0973992 -0.475109 0.146021 92 44 33
0.100413 -0.463556 0.145211 96 46 31
0.103277 -0.457253 0.144498 111 57 39
-0.152538 -0.480378 0.202026 135 72 54
-0.149419 -0.481377 0.201295 141 77 64
-0.148418 -0.48378 0.201078 143 79 66
-0.14526 -0.50347 0.200493 150 84 70
-0.109735 -0.51821 0.192258 166 145 147
-0.107856 -0.517555 0.191812 166 148 152
-0.0763265 -0.515319 0.184425 179 167 171
-0.065994 -0.514384 0.182013 180 168 172
-0.0591668 -0.513951 0.180423 180 168 172
-0.00360121 -0.510426 0.167568 177 165 169
-0.000382683 -0.508221 0.16681 176 163 170
0.0533609 -0.487813 0.154381 95 46 37
0.0547517 -0.486501 0.154055 95 46 37
0.0563363 -0.486163 0.153693 95 46 37
0.0579195 -0.485819 0.153332 96 47 38
0.0617232 -0.488039 0.152491 92 45 38
0.0812435 -0.478918 0.14801 110 53 38
0.0993357 -0.456429 0.143766 103 53 38
0.112001 -0.459221 0.140956 128 75 54
-0.182764 -0.475846 0.207467 91 44 26
-0.177436 -0.475832 0.206203 105 53 36
-0.172584 -0.481963 0.205077 115 58 45
-0.145425 -0.490032 0.198695 151 87 75
-0.129784 -0.510825 0.195108 170 137 144
-0.126434 -0.511635 0.194325 169 138 142
-0.097417 -0.515441 0.187551 175 160 165
-0.0851668 -0.514262 0.184689 178 166 170
-0.0781856 -0.513145 0.183058 179 167 171
-0.0749224 -0.51453 0.182306 179 167 171
-0.057737 -0.512091 0.178304 181 169 173
-0.0341854 -0.513101 0.17286 180 168 172
-0.0258032 -0.507138 0.170897 181 169 173
-0.0157761 -0.508958 0.168596 179 167 171
-0.014074 -0.509904 0.16821 179 167 171
-0.00581996 -0.507537 0.166301 178 166 170
0.000831737 -0.50712 0.164772 174 162 168
0.0330171 -0.508622 0.157417 127 100 102
0.0434302 -0.489683 0.154956 98 47 44
0.0598637 -0.481217 0.151184 93 46 39
0.0712654 -0.480501 0.148598 91 43 32
0.123507 -0.477083 0.136821 132 76 57
-0.187431 -0.464336 0.206867 58 30 19
-0.186584 -0.475511 0.206665 82 39 24
-0.156121 -0.473151 0.199479 125 69 54
-0.147591 -0.472791 0.197473 145 83 70
-0.121791 -0.512804 0.191442 168 140 147
-0.115248 -0.51524 0.189914 165 142 145
-0.110169 -0.516262 0.188729 168 147 152
-0.0975013 -0.513472 0.185772 175 160 165
-0.0958167 -0.513748 0.18538 176 162 166
-0.094131 -0.514016 0.184988 176 162 166
-0.0890678 -0.514782 0.18381 178 164 169
-0.0854305 -0.513276 0.182962 178 166 170
-0.0716415 -0.511916 0.179757 180 168 172
-0.03456 -0.512106 0.171174 181 169 173
-0.0128961 -0.50685 0.166176 179 167 171
0.00354786 -0.503886 0.162395 174 162 168
0.0136342 -0.504975 0.160083 171 159 163
0.0203602 -0.505231 0.158543 163 151 155
0.0268488 -0.503393 0.157057 145 130 135
0.0340127 -0.506398 0.155423 125 99 103
0.0358205 -0.50713 0.15501 120 93 95
0.0408403 -0.496172 0.153857 106 65 65
0.0698484 -0.463234 0.147238 106 52 38
0.0808335 -0.462211 0.144748 124 68 50
0.0828772 -0.463683 0.144286 122 65 48
0.0852131 -0.466102 0.143758 123 65 48
0.1167 -0.464627 0.13665 126 74 53
-0.189238 -0.476716 0.205578 79 35 22
-0.177835 -0.474903 0.202903 111 58 44
-0.174756 -0.476099 0.202174 112 57 44
-0.168245 -0.477472 0.20064 120 63 48
-0.154656 -0.472713 0.197469 138 77 61
-0.151008 -0.471813 0.196618 144 80 68
-0.14671 -0.474226 0.195602 150 86 73
-0.146014 -0.477575 0.195427 153 89 77
-0.123654 -0.511445 0.190082 166 138 143
-0.108334 -0.513638 0.186504 170 151 155
-0.0997369 -0.514174 0.184501 174 159 164
-0.0943751 -0.513026 0.183258 176 162 166
-0.0907268 -0.511563 0.182415 177 163 168
-0.0737083 -0.511736 0.178464 180 168 172
-0.0702563 -0.51109 0.177665 180 168 172
-0.0500117 -0.510611 0.17298 181 169 173
-0.0433463 -0.511897 0.171435 181 169 173
-0.0332352 -0.509125 0.169109 180 168 172
-0.0149078 -0.507908 0.164889 179 167 171
-0.00184665 -0.503246 0.161899 177 165 169
0.033057 -0.50244 0.153897 130 109 111
0.0454871 -0.477979 0.151136 96 49 45
0.0530345 -0.475413 0.149422 91 47 39
0.0647668 -0.463433 0.146789 94 43 33
0.072618 -0.450987 0.145046 123 64 50
0.0994412 -0.445445 0.13898 118 64 46
0.108216 -0.451743 0.136969 125 71 51
0.113906 -0.458088 0.135657 124 73 52
0.118196 -0.464965 0.134659 127 75 58
-0.173247 -0.475742 0.200128 115 58 45
-0.167633 -0.474638 0.198824 121 64 47
-0.156241 -0.471242 0.196187 134 73 57
-0.144045 -0.506346 0.193075 148 79 71
-0.105184 -0.513275 0.18398 173 157 160
-0.099969 -0.513179 0.18277 174 159 164
-0.0979719 -0.511487 0.182319 175 160 165
-0.096142 -0.510774 0.181899 176 162 166
-0.0944678 -0.511041 0.181509 176 162 166
-0.0755593 -0.509555 0.177135 179 167 171
-0.0636149 -0.507709 0.174383 179 167 171
-0.0619521 -0.507845 0.173998 180 168 172
-0.050348 -0.509603 0.171302 181 169 173
-0.0469646 -0.508761 0.170526 180 168 172
-0.0203056 -0.50704 0.164387 180 168 172
-0.0169832 -0.506954 0.163622 180 168 172
-0.00557568 -0.502445 0.161028 179 167 171
0.0109388 -0.502147 0.157233 173 161 167
0.0284425 -0.495989 0.15326 147 131 136
0.0430449 -0.47532 0.150065 96 56 51
0.0595034 -0.469768 0.146341 91 42 34
0.0772455 -0.446406 0.142466 125 69 54
0.0997501 -0.447322 0.137335 119 65 47
-0.156298 -0.470279 0.194552 137 75 60
-0.148394 -0.471813 0.192695 150 86 73
-0.146468 -0.476595 0.192192 153 86 75
-0.145023 -0.483291 0.191779 150 86 73
-0.137553 -0.507167 0.18977 159 120 121
-0.134467 -0.508998 0.189032 168 135 139
-0.131131 -0.509833 0.188248 165 135 138
-0.105404 -0.512275 0.182252 173 157 160
-0.0963771 -0.509771 0.180188 177 163 168
-0.0844094 -0.509511 0.17742 178 166 170
-0.08095 -0.508947 0.176625 178 166 170
-0.0759457 -0.509539 0.175461 179 167 171
-0.0356243 -0.506081 0.166183 181 169 173
-0.0157347 -0.505886 0.161599 180 168 172
-0.0092437 -0.502609 0.160141 179 167 171
0.0071033 -0.500452 0.156402 174 162 168
0.0442278 -0.475009 0.148159 94 53 53
0.0473077 -0.474398 0.14746 87 48 45
0.0528488 -0.470167 0.146237 87 47 42
0.0617939 -0.447513 0.144445 104 46 39
0.0710306 -0.441888 0.142395 126 67 52
0.0741278 -0.442021 0.141685 128 69 55
0.0931582 -0.457947 0.13715 118 62 45
0.0954936 -0.455043 0.13665 116 62 43
0.0969608 -0.454532 0.13632 118 64 46
0.0981094 -0.45307 0.136075 119 65 47
0.113278 -0.453754 0.132604 126 74 55
-0.176019 -0.471721 0.197449 111 61 46
-0.174494 -0.47231 0.197086 115 63 49
-0.124832 -0.511399 0.184974 163 137 141
-0.114367 -0.511616 0.182549 169 148 153
-0.11269 -0.511954 0.182156 170 151 155
-0.0985926 -0.510462 0.178917 176 162 166
-0.0950946 -0.510015 0.178115 174 162 166
-0.0814565 -0.509918 0.174964 178 166 170
-0.07093 -0.506068 0.172591 178 166 170
-0.0657864 -0.504541 0.171426 179 167 171
-0.060982 -0.506939 0.17028 179 167 171
-0.0443259 -0.506854 0.166436 181 169 173
-0.0359719 -0.504059 0.164551 181 170 171
-0.0343224 -0.50408 0.16417 181 170 171
-0.0211061 -0.505004 0.161108 180 168 172
-0.0129496 -0.501741 0.159277 180 168 172
0.00174036 -0.499851 0.155921 178 166 170
0.0149042 -0.499602 0.152893 169 160 163
0.0299503 -0.488549 0.149599 145 126 135
0.0482977 -0.473083 0.145616 84 51 48
0.0553282 -0.46849 0.14407 85 44 40
0.0691322 -0.436094 0.141397 127 68 54
0.0707893 -0.436651 0.141008 128 69 55
0.0724524 -0.4372 0.140617 129 70 56
0.0760718 -0.439232 0.139755 127 68 54
0.0802954 -0.44314 0.138726 126 67 52
0.0977606 -0.45305 0.134565 120 66 50
0.100032 -0.450117 0.13409 121 67 49
0.103037 -0.444753 0.133484 124 70 50
-0.172308 -0.470052 0.194946 124 67 52
-0.166424 -0.467983 0.193626 128 71 56
-0.163077 -0.468129 0.19285 132 73 56
-0.160369 -0.47014 0.192186 134 73 57
-0.147142 -0.488044 0.188784 150 84 74
-0.144331 -0.509638 0.187717 148 79 71
-0.0900441 -0.507775 0.17522 177 162 170
-0.0546618 -0.506359 0.167083 181 169 173
-0.0430149 -0.505881 0.164405 181 169 173
-0.0117661 -0.499642 0.157317 179 167 171
-0.00517905 -0.500285 0.155786 179 167 171
0.0308866 -0.486298 0.147741 144 125 134
0.0490883 -0.470777 0.143845 83 49 49
0.0504169 -0.469473 0.143564 83 49 49
0.0532518 -0.467829 0.142943 85 49 47
0.0547655 -0.467488 0.142601 83 40 34
0.0707852 -0.432374 0.139589 128 69 55
0.0882469 -0.444605 0.13533 122 63 49
-0.155556 -0.469759 0.18943 144 80 68
-0.0901461 -0.50576 0.173529 178 164 171
-0.0884911 -0.505996 0.173142 178 164 171
-0.0516741 -0.505507 0.164667 180 168 172
-0.0450525 -0.505791 0.163133 181 169 173
-0.0334102 -0.502031 0.160536 181 169 173
-0.0301261 -0.502038 0.159778 180 168 172
-0.00397852 -0.499147 0.153813 178 166 170
0.0124169 -0.498724 0.150038 172 162 167
0.0546175 -0.468431 0.140998 78 40 37
0.0555027 -0.465157 0.14087 75 30 25
0.0607671 -0.435075 0.140354 115 58 45
0.0948615 -0.446381 0.132209 125 69 54
0.11083 -0.449948 0.128434 126 72 54
0.116915 -0.45715 0.126859 126 72 52
-0.17455 -0.469401 0.192142 126 72 56
-0.160454 -0.468174 0.188945 139 76 61
-0.146258 -0.507166 0.184629 154 82 76
-0.130796 -0.509137 0.181025 162 134 139
-0.128903 -0.508563 0.180606 161 135 139
-0.127237 -0.508955 0.180213 162 136 140
-0.114366 -0.505625 0.177347 172 153 157
-0.109584 -0.507587 0.176195 173 158 163
-0.106259 -0.508208 0.175413 175 160 165
-0.0818755 -0.503857 0.169924 178 166 170
-0.0801081 -0.503066 0.169539 178 166 170
-0.0437425 -0.504804 0.161115 180 168 172
-0.0337762 -0.50099 0.158921 181 169 173
0.0133723 -0.495523 0.148184 172 162 167
0.0240589 -0.489147 0.145887 163 150 157
0.0531478 -0.470688 0.139658 79 48 47
0.0557691 -0.453703 0.139514 81 27 23
0.0563462 -0.449459 0.139496 85 31 24
0.0588134 -0.434439 0.139334 108 51 38
0.0619805 -0.429461 0.138736 118 61 49
0.0638491 -0.43101 0.13826 121 64 49
0.10444 -0.446926 0.128407 129 72 55
0.141943 -0.503602 0.118158 124 73 52
-0.153238 -0.470673 0.185571 151 87 75
-0.144987 -0.507579 0.182535 152 83 74
-0.135696 -0.505908 0.180461 164 133 139
-0.127626 -0.508905 0.178519 162 136 140
-0.125959 -0.50929 0.178125 161 138 143
-0.116603 -0.506216 0.176078 172 153 157
-0.111441 -0.506235 0.174893 173 156 162
-0.102636 -0.50481 0.172918 173 161 165
-0.0839026 -0.5036 0.168655 178 166 172
-0.063761 -0.501673 0.164084 179 167 171
-0.0457751 -0.504702 0.159847 180 168 172
-0.0374292 -0.500907 0.158043 180 168 172
-0.0276079 -0.497932 0.15587 180 168 172
-0.0259874 -0.496913 0.155529 180 168 172
0.00822428 -0.496982 0.14762 175 165 171
0.0266115 -0.486661 0.143686 160 148 157
0.0320598 -0.479747 0.14264 149 130 136
0.0362561 -0.475992 0.141785 132 110 118
0.0391778 -0.474447 0.141156 120 96 102
0.0503161 -0.474248 0.138576 77 50 50
0.0539615 -0.461175 0.138139 59 18 16
0.0549931 -0.451714 0.138195 76 24 21
0.0587207 -0.435366 0.137839 106 48 36
0.0605303 -0.43076 0.137562 113 55 43
0.0797149 -0.430215 0.133114 123 65 48
0.0864136 -0.432157 0.131493 126 67 52
-0.192242 -0.472126 0.19273 90 47 30
-0.178654 -0.469061 0.189753 128 74 58
-0.134188 -0.505299 0.17836 162 135 137
-0.124247 -0.507659 0.176006 166 145 147
-0.116787 -0.50518 0.174388 171 154 157
-0.109797 -0.504534 0.172812 173 158 163
-0.0993884 -0.503343 0.170471 174 162 168
-0.0926511 -0.503392 0.168926 177 162 170
-0.0788699 -0.500177 0.165878 178 166 170
-0.0722273 -0.499889 0.164363 178 166 170
-0.0607075 -0.499871 0.161716 180 168 172
-0.0590742 -0.499985 0.161336 179 167 171
-0.0494102 -0.50352 0.158987 180 168 172
-0.0102256 -0.494309 0.150272 179 167 171
-0.00216072 -0.493789 0.148424 179 167 171
0.00282282 -0.49539 0.147214 178 166 172
0.0140381 -0.493251 0.144691 174 164 170
0.0186419 -0.49068 0.143715 173 160 169
0.0218427 -0.490258 0.142987 166 153 162
0.030423 -0.481924 0.14129 148 127 134
0.0538312 -0.454933 0.136798 61 16 15
0.0550086 -0.446452 0.136823 79 25 21
0.0638135 -0.427646 0.135431 117 60 45
0.0757908 -0.428194 0.132614 122 60 45
0.0837982 -0.42974 0.130688 124 62 49
0.0851691 -0.429269 0.130384 127 68 52
0.0990047 -0.438005 0.126839 138 77 59
-0.18693 -0.466873 0.190039 121 69 52
-0.18131 -0.465938 0.188806 127 73 57
-0.179447 -0.465608 0.188397 130 75 59
-0.172734 -0.466073 0.186862 139 79 65
-0.166878 -0.463989 0.185617 144 82 69
-0.155167 -0.469115 0.182765 152 88 76
-0.148284 -0.497396 0.180101 148 83 73
-0.134334 -0.504265 0.176659 162 134 139
-0.132685 -0.504674 0.176268 161 135 139
-0.101245 -0.502019 0.1692 174 162 168
-0.0946758 -0.503081 0.167656 177 162 170
-0.0725002 -0.498833 0.162743 178 166 170
-0.062556 -0.497697 0.160504 179 167 171
-0.0529694 -0.501308 0.158158 179 167 171
-0.0480961 -0.502527 0.156988 180 168 172
-0.020284 -0.494658 0.150884 179 167 171
-0.000921423 -0.493604 0.146445 180 168 172
0.0225766 -0.486016 0.141292 157 138 144
0.0314789 -0.480623 0.139433 142 116 123
0.0536964 -0.455851 0.135227 51 10 10
0.0557297 -0.437924 0.135455 87 30 26
0.0578296 -0.434298 0.135106 102 44 34
0.0751828 -0.427188 0.131318 122 60 45
0.0966906 -0.432326 0.126067 137 79 60
0.1316 -0.480354 0.115988 127 76 52
0.159599 -0.535265 0.107268 127 82 63
0.171624 -0.559232 0.103508 139 96 79
-0.194497 -0.471347 0.189882 98 51 33
-0.156414 -0.466648 0.181505 152 88 76
-0.155522 -0.46905 0.181201 153 91 80
-0.154613 -0.471451 0.180893 152 88 76
-0.149938 -0.489659 0.179055 143 80 74
-0.129994 -0.506377 0.173813 167 141 145
-0.128337 -0.506767 0.173419 167 144 147
-0.120642 -0.503371 0.171817 172 155 161
-0.11879 -0.502745 0.171423 172 155 161
-0.111826 -0.502121 0.169864 174 159 164
-0.0999833 -0.502226 0.16716 174 162 168
-0.0983416 -0.502495 0.166773 174 162 168
-0.0827607 -0.498663 0.163379 175 165 171
-0.0778731 -0.499241 0.162235 178 166 170
-0.0710458 -0.496935 0.160771 178 166 170
-0.0517071 -0.50132 0.15614 180 168 172
-0.0418035 -0.499664 0.153932 180 168 172
-0.0287307 -0.493753 0.151175 180 168 172
-0.0190414 -0.494539 0.148902 179 167 171
-0.00794262 -0.490004 0.146531 177 165 169
-0.00634507 -0.489901 0.146165 176 164 168
0.00330908 -0.490142 0.143915 171 160 166
0.012992 -0.490145 0.141666 167 155 159
0.0492312 -0.474073 0.133912 67 38 39
0.0579437 -0.430006 0.133775 101 43 33
0.0726641 -0.424697 0.130544 119 60 43
0.0926995 -0.426216 0.125756 140 79 63
0.108095 -0.442608 0.121419 139 80 63
-0.163934 -0.463047 0.181725 147 86 72
-0.149042 -0.503493 0.17648 146 83 77
-0.106555 -0.499042 0.167062 172 160 164
-0.103468 -0.500608 0.166286 173 161 167
-0.101833 -0.50089 0.1659 174 162 168
-0.0967614 -0.500707 0.164754 174 162 168
-0.0846312 -0.497391 0.162143 176 163 170
-0.0748776 -0.498525 0.159859 178 166 170
-0.0696997 -0.496018 0.158793 178 166 170
-0.0566677 -0.495998 0.155805 179 167 171
-0.0438123 -0.499549 0.15268 179 167 171
-0.0307127 -0.493692 0.149939 179 167 171
-0.0290994 -0.491682 0.149662 179 167 171
-0.0114664 -0.491116 0.145611 174 162 166
0.0523409 -0.47528 0.131483 57 22 25
0.0620915 -0.424586 0.131581 107 52 41
0.0974442 -0.427409 0.123087 143 79 64
-0.0667433 -0.495226 0.156448 179 167 171
-0.0651274 -0.495358 0.156071 178 166 170
-0.0490372 -0.49831 0.152226 179 167 171
-0.0359161 -0.493611 0.149447 176 164 168
-0.0310717 -0.491615 0.148433 174 162 166
-0.021452 -0.491442 0.146218 172 160 164
-0.00559747 -0.487647 0.14274 170 158 162
0.130254 -0.47051 0.111589 138 82 62
0.148763 -0.506735 0.105347 134 83 61
