ply
format ascii 1.0
comment Created by Open3D
element vertex 2000
property double x
property double y
property double z
property uchar red
property uchar green
property uchar blue
end_header
0.977985 0.0849254 0.241 181 123 127
0.965779 0.0942824 0.239314 181 124 123
0.967017 0.0942621 0.23826 189 127 127
0.981737 0.0823461 0.237552 190 133 134
0.958981 0.0981704 0.238607 176 122 117
0.963105 0.0996518 0.233534 202 126 129
0.955559 0.102796 0.234306 180 119 117
0.96393 0.100257 0.229546 215 137 138
0.979275 0.0891911 0.227307 206 137 140
0.980921 0.0884357 0.226653 209 143 147
0.952042 0.0972324 0.24024 163 120 117
0.952803 0.103489 0.233392 194 122 119
0.962334 0.1009 0.227641 223 139 140
0.974348 0.0937756 0.224304 209 126 131
0.978395 0.0931056 0.221523 216 140 143
0.950783 0.102591 0.233417 202 127 125
0.961129 0.100752 0.226194 230 143 145
0.965497 0.0991501 0.223987 207 110 116
0.967881 0.0967482 0.22427 204 112 116
0.969483 0.0959632 0.223659 209 121 126
0.975902 0.0953478 0.218794 220 140 142
0.976685 0.0962081 0.217305 217 141 144
0.944789 0.102709 0.235969 158 113 110
0.948887 0.104073 0.231024 208 126 124
0.958729 0.100623 0.225775 232 150 152
0.960306 0.0998062 0.225198 233 148 149
0.965452 0.0965835 0.223867 211 105 111
0.977464 0.0945015 0.21564 224 140 143
1.23287 -0.0284984 0.134233 166 161 167
1.2431 -0.036895 0.134293 180 175 181
0.948546 0.104715 0.228113 215 126 124
0.950187 0.106256 0.225194 227 141 140
0.953655 0.103769 0.224558 234 149 152
0.957528 0.100494 0.224332 236 153 156
0.96739 0.0924071 0.223556 185 76 83
0.967813 0.0940476 0.221629 210 107 114
0.97102 0.0949533 0.218032 211 115 120
0.941431 0.104906 0.231631 189 114 112
0.945703 0.103087 0.229596 213 122 123
0.946896 0.103033 0.228597 217 123 123
0.956704 0.0995635 0.223337 238 155 158
0.959408 0.0963048 0.224088 234 147 149
0.962134 0.0930518 0.224817 229 138 139
0.965718 0.0906257 0.224027 207 98 105
0.969383 0.0931557 0.218498 208 105 110
0.984192 0.108606 0.191667 214 158 168
1.23395 -0.0301465 0.12758 71 65 74
0.964031 0.0888511 0.224496 213 113 113
0.966913 0.0905238 0.220449 197 91 97
0.975768 0.090016 0.213388 221 124 129
0.976556 0.0908971 0.211903 163 62 69
0.980479 0.110806 0.190217 196 118 124
0.96995 -0.0475353 0.345452 7 7 7
0.948105 0.102711 0.222715 230 141 143
0.965548 0.0854604 0.223697 189 88 91
0.974933 0.0865589 0.214662 213 116 121
0.977946 0.0951715 0.204183 176 89 91
0.97697 0.106171 0.194902 193 111 109
0.948269 0.0274428 0.290599 7 7 7
0.92814 0.106226 0.234595 150 103 96
0.933612 0.109707 0.226428 198 117 115
0.945267 0.101071 0.224186 228 132 134
0.952653 0.0976359 0.220923 235 148 152
0.963075 0.0853216 0.223295 200 102 101
0.970819 0.0846422 0.217277 188 85 88
0.97689 0.110529 0.18854 204 122 125
0.979544 0.109978 0.186849 224 153 158
0.981997 0.107674 0.186913 234 166 175
0.986037 0.104719 0.186267 247 183 196
0.988529 0.102439 0.186284 249 186 196
0.992418 0.0977274 0.187351 215 153 160
0.926634 0.110137 0.229776 154 93 86
0.935139 0.108677 0.22354 220 129 130
0.936978 0.106966 0.223495 223 132 133
0.940345 0.10438 0.222914 230 141 143
0.946684 0.097666 0.223543 222 126 129
0.96828 0.0819845 0.219227 174 72 81
0.972807 0.0880133 0.209877 182 87 94
0.971239 0.103163 0.197457 156 74 75
0.971226 0.110009 0.191283 186 103 97
0.980744 0.107605 0.185559 231 161 171
1.13064 -0.0269127 0.18532 245 203 210
0.92373 0.111846 0.228327 155 86 78
0.927851 0.109881 0.226442 188 107 98
0.929016 0.109784 0.225488 200 117 111
0.929858 0.110515 0.224064 210 127 123
0.935495 0.107737 0.22161 225 136 139
0.947749 0.0950813 0.222421 219 120 124
0.949661 0.0934019 0.222285 220 123 126
0.952429 0.0925307 0.220666 225 133 136
0.962838 0.080148 0.222918 205 106 110
0.96408 0.0801563 0.221839 185 88 93
0.968629 0.0987419 0.201148 128 49 46
0.970917 0.112641 0.186763 195 109 102
0.97398 0.111239 0.185472 212 131 129
0.975516 0.110548 0.184817 220 147 147
1.13209 -0.0292165 0.182722 209 156 160
1.13471 -0.0302207 0.181591 221 188 197
0.924628 0.112418 0.224541 189 108 101
0.926413 0.110669 0.224542 199 115 109
0.932199 0.110241 0.219777 225 136 139
0.942273 0.09679 0.223117 231 137 139
0.946749 0.0917432 0.223766 228 130 133
0.958375 0.0816875 0.22273 220 127 129
0.968924 0.0776578 0.217269 159 62 72
0.970615 0.079392 0.214267 160 63 71
0.968696 0.0885773 0.207672 142 55 61
0.964624 0.101905 0.199207 117 42 40
0.963735 0.106099 0.196213 129 52 46
0.963634 0.108647 0.194024 136 59 53
0.96708 0.113215 0.187064 191 106 98
0.969265 0.113431 0.18505 202 114 107
0.980237 0.105999 0.182534 234 164 174
1.11889 -0.0239629 0.184911 189 109 107
1.12698 -0.02496 0.179564 215 149 151
1.12958 -0.0259754 0.178447 202 143 145
0.918849 0.116033 0.224015 175 96 89
0.925819 0.1122 0.22124 211 129 127
0.933208 0.107666 0.21877 230 142 147
0.944343 0.0917148 0.223332 226 128 129
0.953234 0.0849264 0.221655 220 123 126
0.959469 0.0790996 0.221461 215 117 120
0.964687 0.0758113 0.219893 142 48 55
0.96743 0.0859564 0.208506 133 46 48
0.964179 0.116497 0.184225 196 108 102
0.978537 0.106776 0.180833 237 167 174
0.986137 0.0972167 0.18293 232 151 156
1.11754 -0.0222959 0.181144 194 117 116
0.910017 0.11617 0.229498 71 33 30
0.916023 0.117806 0.222566 174 98 90
0.959897 0.101697 0.198479 112 39 38
0.955538 0.120202 0.185906 168 88 78
0.971375 0.11128 0.18044 222 145 141
1.04437 -0.0035851 0.219863 190 132 138
0.915757 -0.0533009 0.37517 10 12 12
0.909536 0.117674 0.226188 107 53 47
0.911533 0.118211 0.22389 147 78 70
0.918334 0.11747 0.218413 204 113 109
0.929126 0.109366 0.215999 231 147 150
0.956101 0.0780884 0.22 219 120 124
0.963225 0.0815158 0.21084 108 35 37
0.952614 0.119254 0.186905 161 83 73
0.955427 0.120296 0.183616 187 99 92
0.958622 0.120555 0.180701 205 114 111
0.963493 0.117542 0.17923 212 122 116
0.972098 0.109745 0.178802 227 148 143
1.11182 -0.00688247 0.166099 183 112 97
1.11434 -0.00791677 0.165025 193 125 109
1.11573 -0.00735147 0.163499 190 131 116
0.918369 0.117386 0.216097 211 125 122
0.922679 0.114605 0.214702 224 144 143
0.936052 0.0974995 0.217909 228 134 139
0.938568 0.0941078 0.218671 230 136 140
0.953973 0.0771851 0.220014 218 119 125
0.958057 0.076338 0.217209 196 100 105
0.958571 0.0889563 0.205779 92 23 28
0.97456 0.104897 0.178544 228 149 146
1.00977 0.0483474 0.197699 201 124 132
1.03577 0.00300176 0.214905 202 124 128
1.10764 -0.00621558 0.165529 171 105 91
1.12392 -0.0139332 0.159377 184 141 140
1.2146 -0.0650922 0.13282 72 66 73
0.900822 -0.0379189 0.368163 14 21 19
0.910235 0.118956 0.219696 174 93 86
0.915855 0.118355 0.215157 205 117 113
0.916975 0.118251 0.214243 211 125 122
0.921881 0.113794 0.213762 226 144 145
0.947633 0.0805278 0.220025 180 77 82
0.949558 0.0788263 0.21982 209 107 114
0.958043 0.0762726 0.214657 174 86 91
0.950194 0.107358 0.194596 111 42 43
0.947048 0.119153 0.187139 153 77 71
0.957302 0.120714 0.177114 219 133 130
0.961504 0.116752 0.176966 216 128 123
0.989549 0.0785766 0.186033 226 144 145
1.01192 0.0415417 0.198873 194 122 130
1.03381 0.00355206 0.212926 192 125 131
1.04829 -0.0202838 0.221122 225 185 194
1.10982 -0.0253202 0.176166 150 102 104
1.10482 0.000109566 0.15936 186 118 100
1.21841 -0.0782594 0.136625 70 64 72
0.905128 0.114733 0.225692 77 33 23
0.906006 0.115406 0.224302 105 49 43
0.911123 0.119576 0.216022 193 107 104
0.916186 0.117456 0.213315 211 123 121
0.936871 0.0923855 0.21666 224 128 131
0.953083 0.0762039 0.216408 206 105 112
0.955197 0.0770406 0.213854 185 89 91
0.947143 0.109017 0.193427 112 46 43
0.948586 0.122777 0.180465 204 119 111
0.952546 0.121325 0.178342 215 132 124
0.984875 0.0825139 0.184034 227 146 144
1.10207 -0.00881099 0.165508 137 85 82
1.10235 -0.00158032 0.159461 160 103 91
1.10474 0.00247625 0.154361 182 124 102
1.11847 -0.0093453 0.153324 207 149 130
0.912931 -0.0527859 0.362364 0 0 0
0.920793 0.113782 0.210047 226 139 143
0.936673 0.089851 0.216515 224 125 129
0.950952 0.0753197 0.216417 205 104 109
0.950504 0.0879328 0.206069 135 59 65
0.953228 0.119788 0.176809 224 148 140
0.958861 0.115044 0.176045 224 141 135
0.966683 0.106171 0.176917 227 143 137
1.10179 -0.00862736 0.162373 133 84 78
1.10316 -0.00297621 0.156793 152 100 86
0.910831 -0.0661654 0.372305 0 0 0
0.912527 -0.0658417 0.370408 0 0 0
0.905911 0.11924 0.216406 167 91 83
0.94152 0.0804739 0.21771 213 113 113
0.946554 0.0769993 0.21624 199 100 106
0.944995 0.098039 0.199828 122 49 49
0.942901 0.105642 0.195234 102 39 35
0.939193 0.124293 0.182744 178 100 92
0.93987 0.125173 0.181424 195 112 106
0.9477 0.122136 0.177283 218 142 134
0.94954 0.120526 0.177065 222 148 139
0.960787 0.110998 0.175507 226 142 138
1.10509 -0.0243249 0.169098 176 136 143
1.10179 -0.0062694 0.157316 135 89 79
1.11708 -0.00283538 0.142849 198 151 142
0.906789 -0.0713195 0.376816 0 0 0
0.901308 0.113355 0.223304 58 25 18
0.904849 0.119308 0.215015 167 91 83
0.915146 0.117437 0.207342 218 131 131
0.922991 0.107828 0.208477 219 130 133
0.937408 0.120938 0.184862 159 83 75
0.940526 0.123613 0.179954 208 125 117
0.943004 0.122869 0.178452 214 133 124
0.944052 0.122927 0.177509 217 138 128
0.950607 0.118148 0.175894 228 155 144
0.967965 0.0986511 0.177349 222 138 135
1.10038 -0.00442671 0.153793 130 85 78
1.10055 0.00288913 0.147926 159 104 91
1.10152 0.00644028 0.144397 182 121 103
1.1 0.0110269 0.141978 187 124 105
1.10562 0.0103965 0.138161 197 130 108
0.902846 -0.0594322 0.366592 0 2 1
0.908771 0.120451 0.208237 195 109 104
0.916267 0.117342 0.204142 221 131 134
0.925391 0.104362 0.206904 225 138 140
0.938671 0.0846342 0.211659 209 118 117
0.939211 0.0862955 0.209803 188 100 98
0.939066 0.0896578 0.207132 173 82 85
0.93411 0.115882 0.189671 138 63 59
0.946148 0.120608 0.175421 226 155 142
0.956615 0.110043 0.175213 228 150 142
1.10564 -0.0255919 0.163098 189 160 170
1.10437 -0.0209811 0.160484 91 54 57
1.10415 -0.0179967 0.158318 93 52 52
1.09977 -0.00119682 0.148617 140 90 77
1.09944 0.00178791 0.146546 156 98 86
1.09761 0.0093691 0.142073 182 116 100
1.09553 0.0147645 0.139493 186 121 102
0.899861 -0.0796078 0.382843 0 2 1
0.899441 -0.0678324 0.373256 0 2 1
0.901894 -0.0622975 0.366223 0 2 1
0.898935 0.114324 0.219997 66 31 25
0.920947 0.110421 0.203461 225 138 140
0.93217 0.0923679 0.20849 205 107 108
0.934378 0.0956505 0.203839 146 64 64
0.932664 0.105798 0.196971 138 62 56
0.93016 0.120213 0.187284 150 78 71
0.938609 0.122957 0.177733 215 134 125
0.941832 0.12051 0.17697 220 144 133
0.947197 0.118229 0.174253 233 167 155
0.952461 0.111612 0.175166 232 160 150
0.954728 0.109161 0.175237 230 156 145
1.09316 0.0131323 0.139584 181 113 95
0.900605 -0.0822456 0.380498 1 3 2
0.904718 0.120025 0.207734 179 101 93
0.915784 0.115743 0.201363 214 128 127
0.917799 0.113119 0.201732 218 131 131
0.92977 0.12373 0.182541 184 101 90
0.932918 0.123779 0.179774 203 117 110
0.945739 0.116548 0.174632 228 162 150
0.972068 0.0799619 0.181794 222 134 129
0.977337 0.0716116 0.184063 213 127 122
1.10346 -0.022716 0.156059 233 212 228
1.10271 -0.018899 0.153713 176 147 159
1.09369 0.00229277 0.14448 132 85 81
1.09405 0.0236069 0.127921 221 163 142
1.09828 0.0224115 0.125585 225 165 142
1.10834 0.0132871 0.124786 190 144 132
0.891554 -0.0812258 0.384452 1 3 2
0.897306 -0.0930947 0.388835 3 3 3
0.89972 -0.0961459 0.389069 3 3 3
0.903527 -0.0595759 0.355024 0 0 0
0.896186 0.112968 0.219021 49 20 14
0.896579 0.115338 0.216712 78 36 30
0.905573 0.12075 0.204135 189 107 98
0.910728 0.121115 0.199225 212 126 121
0.912404 0.119329 0.199189 216 129 127
0.914689 0.115843 0.2 213 127 124
0.922056 0.110413 0.197896 211 119 120
0.922849 0.111219 0.196541 186 98 93
0.924145 0.127262 0.182398 170 92 84
0.925526 0.126404 0.181888 177 97 88
0.929348 0.124714 0.179932 200 115 105
0.938475 0.120669 0.175317 223 149 138
0.943887 0.115726 0.174648 228 162 150
0.945711 0.11409 0.174401 231 164 153
0.958614 0.0956867 0.178147 226 153 141
1.09149 0.00284843 0.142723 130 83 80
1.08585 0.0256683 0.129786 207 147 121
0.905361 -0.104915 0.387004 3 5 5
0.88585 0.119463 0.220893 2 3 0
0.879354 0.148 0.203535 0 0 0
0.896157 0.116974 0.213491 101 50 38
0.898214 0.120772 0.208531 148 81 72
0.914391 0.116733 0.197301 209 122 120
0.918893 0.119016 0.191478 168 87 82
0.94091 0.117478 0.173583 228 162 150
0.948656 0.107432 0.174945 233 167 155
1.08983 0.00260299 0.141163 122 75 70
1.09988 0.0222179 0.118652 233 169 152
0.888654 -0.093844 0.389899 5 5 5
0.892316 -0.0933878 0.386026 3 5 5
0.897247 -0.111364 0.39602 5 5 5
0.899852 -0.115275 0.396735 6 6 6
0.90189 -0.115863 0.395277 6 6 6
0.903174 -0.112288 0.391136 4 7 6
0.905195 -0.112854 0.389681 4 7 6
0.892802 0.0794074 0.244715 3 3 3
0.891696 0.0884742 0.238382 9 7 5
0.893843 0.114013 0.215738 60 27 20
0.898837 0.122329 0.204498 166 92 81
0.900453 0.120494 0.204517 172 96 87
0.901545 0.120371 0.203633 177 99 89
0.914989 0.115072 0.195875 205 117 113
0.915948 0.118381 0.19238 187 103 100
0.918509 0.128445 0.182096 160 84 76
0.921612 0.128402 0.179416 192 107 97
0.936179 0.120916 0.172732 225 153 143
0.971368 0.0651155 0.186611 219 139 130
0.976584 0.0593708 0.186696 211 123 121
0.986414 0.0496886 0.185978 189 90 92
1.09577 -0.0143015 0.146144 199 138 138
1.0865 0.0314119 0.119259 227 167 144
1.09411 0.0253863 0.117843 229 171 150
0.901189 -0.121324 0.396329 8 8 8
0.901162 -0.110248 0.38739 5 8 7
0.888352 0.0881482 0.239265 0 0 0
0.884471 0.117149 0.219537 5 5 3
0.881422 0.133082 0.209547 1 1 1
0.893824 0.118061 0.210254 104 54 41
0.894786 0.122025 0.20621 132 72 58
0.911122 0.117053 0.195509 204 119 111
0.914317 0.12869 0.183462 160 81 73
0.91575 0.130346 0.180893 167 88 82
0.921547 0.128555 0.177233 195 107 100
0.943362 0.109202 0.173565 229 160 147
0.963396 0.0743399 0.183655 225 150 139
0.976437 0.0567872 0.186236 207 117 113
1.08113 0.0177126 0.130731 158 102 84
0.890352 -0.112721 0.395675 6 6 6
0.899516 -0.0995492 0.376409 6 6 6
0.886347 0.101329 0.228161 2 3 0
0.891681 0.118354 0.20975 91 44 35
0.905653 0.120876 0.195165 206 116 108
0.911476 0.128078 0.184332 158 82 71
0.916723 0.130471 0.177842 195 109 104
0.925563 0.128772 0.171467 215 135 123
0.937843 0.114362 0.172066 226 155 142
0.981651 0.0539088 0.181444 203 100 107
0.984928 0.0497802 0.181853 211 112 118
0.999412 0.0252811 0.188467 214 130 140
1.08186 0.00905302 0.133633 131 85 78
1.07897 0.0183502 0.129061 161 107 91
1.07872 0.0235476 0.125431 181 121 98
1.07897 0.0279355 0.122016 195 128 105
1.08207 0.0304785 0.117736 215 148 123
1.08328 0.0310682 0.116362 214 150 124
1.0874 0.029846 0.114045 226 166 143
0.896661 -0.125829 0.396117 7 7 7
0.879434 0.137496 0.203655 0 0 0
0.895969 0.121907 0.200873 164 95 82
0.897308 0.120919 0.20044 171 98 86
0.90566 0.120943 0.192937 202 115 105
0.914623 0.130669 0.177442 195 109 102
0.930678 0.121266 0.170736 222 144 134
0.960334 0.0699216 0.184709 223 149 138
0.969184 0.0554555 0.188233 214 131 125
0.97337 0.0576392 0.183 187 90 96
0.982748 0.0514794 0.179763 211 112 118
1.09439 -0.0403968 0.157051 106 48 54
1.09793 -0.0431963 0.156289 112 41 45
1.104 -0.0470885 0.154308 150 64 63
1.08077 0.00804313 0.132285 141 92 86
1.07656 0.0242057 0.123795 179 116 96
1.08531 0.0349471 0.109158 224 164 141
0.894073 -0.108445 0.38084 6 6 6
0.883068 0.101752 0.226166 0 0 0
0.889382 0.119503 0.206539 97 48 40
0.893019 0.121477 0.201706 144 82 69
0.897086 0.121818 0.197774 179 104 90
0.900299 0.124833 0.192554 197 112 102
0.91007 0.129251 0.180458 177 98 91
0.915584 0.130822 0.174405 202 116 109
0.941657 0.102597 0.173377 225 147 137
0.97854 0.0547625 0.178225 208 106 113
1.08427 0.0339928 0.107868 227 167 144
1.10407 0.0133385 0.10726 173 111 89
0.894374 -0.108568 0.376758 6 6 6
0.897337 -0.0933475 0.362114 5 5 5
0.89139 0.120063 0.20211 134 76 64
0.896597 0.1236 0.194693 180 104 93
0.904243 0.125451 0.186441 183 103 93
0.913104 0.129315 0.17566 200 115 109
0.915841 0.130139 0.172633 205 120 112
0.919875 0.127537 0.17109 212 128 122
0.920895 0.127547 0.170194 213 135 125
0.939018 0.103533 0.172689 222 144 134
0.948828 0.0854572 0.177897 222 141 134
0.965155 0.0526926 0.188594 215 134 125
0.969861 0.0566847 0.181569 170 73 78
0.97271 0.0560741 0.179604 181 78 85
1.08446 -0.00830296 0.135239 125 82 78
1.07412 0.0178758 0.124598 154 99 86
1.07977 0.0356788 0.107411 227 164 142
1.10827 0.00737607 0.105282 209 149 126
0.884722 0.117757 0.207764 39 18 11
0.888189 0.120537 0.202487 111 61 48
0.89475 0.123033 0.194657 173 102 90
0.906187 0.128867 0.180024 183 105 95
0.909874 0.126995 0.178184 196 116 106
0.912341 0.128645 0.174766 202 119 111
0.924883 0.122586 0.168383 224 150 141
0.934985 0.107964 0.170611 222 141 132
0.969195 0.0522609 0.182876 155 63 67
0.97338 0.0545056 0.177641 194 90 98
0.977423 0.0513361 0.176566 209 113 118
1.07011 0.0262664 0.118938 177 113 96
1.07529 0.0374028 0.10695 227 165 140
1.10079 0.0152489 0.102613 201 139 115
1.11694 0.0051025 0.0971749 229 166 146
0.884975 -0.10507 0.375217 7 7 7
0.888514 -0.103692 0.370824 6 6 6
0.895118 -0.078061 0.345042 2 2 2
0.896788 -0.0501107 0.322157 0 0 0
0.885495 0.0928516 0.223777 0 0 0
0.890518 0.123601 0.195915 154 93 79
0.895066 0.1256 0.190314 183 105 95
0.895858 0.126364 0.189029 185 107 97
0.899226 0.128603 0.184333 186 105 96
0.900261 0.128524 0.18347 184 104 93
0.901296 0.12845 0.182606 183 103 93
0.905713 0.127332 0.179527 190 110 98
0.907478 0.128109 0.177384 198 118 109
0.91086 0.127134 0.175135 206 123 114
0.911885 0.127109 0.174252 205 122 113
0.914637 0.127936 0.17122 210 127 121
0.916297 0.126188 0.171074 213 129 123
0.917319 0.126188 0.170181 215 134 125
0.922402 0.123624 0.167664 223 149 140
0.924104 0.121907 0.167465 225 154 141
0.968857 0.046962 0.184503 152 61 64
0.972814 0.0528025 0.176817 187 88 95
1.0051 -0.00272425 0.1903 167 102 99
1.09806 -0.0529435 0.150022 126 83 81
1.07124 0.0145806 0.123509 128 81 74
1.06986 0.0289157 0.114473 197 125 104
1.06942 0.0319484 0.112682 203 126 106
1.07139 0.0383464 0.106619 216 144 121
1.07891 0.0366682 0.101887 239 179 156
1.10912 0.0059552 0.099683 235 178 152
1.11706 0.00482913 0.0942868 223 163 140
0.869884 -0.118844 0.396135 10 10 10
0.871412 -0.115335 0.392019 12 12 12
0.873723 -0.103224 0.380638 13 13 13
0.875026 -0.0988112 0.376057 14 14 14
0.88382 -0.107953 0.374671 10 10 10
0.889533 -0.0966753 0.360755 5 5 5
0.892755 -0.0732361 0.340005 1 1 1
0.895945 -0.0813731 0.343177 1 1 1
0.887689 0.119018 0.19979 128 74 60
0.889144 0.12133 0.196742 147 88 73
0.889495 0.123799 0.194577 153 91 78
0.890558 0.123668 0.193717 156 92 77
0.891374 0.124411 0.192426 160 94 80
0.892731 0.126784 0.189431 172 101 89
0.894825 0.12657 0.187714 184 108 97
0.896385 0.128118 0.185163 186 108 98
0.909786 0.127345 0.173856 205 125 116
0.911831 0.1273 0.172092 209 128 121
0.934393 0.103925 0.169707 220 135 125
1.07491 -0.0502744 0.16362 133 63 73
1.06783 0.0147544 0.123252 123 81 77
1.06717 0.0304691 0.112749 198 123 103
1.06745 0.0371056 0.107885 203 124 103
1.07673 0.0373816 0.100367 237 177 154
1.09232 0.0245031 0.0970469 225 165 140
0.866801 -0.14125 0.411972 16 16 16
0.87157 -0.129969 0.398958 12 12 12
0.889895 -0.0861337 0.348792 2 2 2
0.892908 -0.0828697 0.343531 1 1 1
0.89457 -0.0449445 0.3136 0 0 0
0.885483 0.0736791 0.233394 0 0 0
0.890105 0.12549 0.190673 158 94 82
0.902572 0.127817 0.17782 198 118 107
0.915775 0.124864 0.168372 220 147 137
0.918141 0.124003 0.166936 225 153 143
0.925253 0.116216 0.166444 228 155 144
0.934949 0.099717 0.170089 219 136 127
0.958442 0.050055 0.186002 214 129 121
0.966195 0.0407052 0.186134 176 84 86
0.973329 0.0395356 0.180872 170 78 82
0.974604 0.0396704 0.179686 165 81 82
0.983089 0.029659 0.179708 194 102 108
1.01761 -0.0368226 0.198447 174 99 97
1.07517 -0.0508868 0.160572 145 69 74
1.07864 -0.050795 0.157665 77 15 16
1.08558 -0.0505057 0.151804 109 43 43
1.09204 -0.0523055 0.14783 152 77 73
1.09391 -0.0464432 0.142198 140 95 94
1.07465 -0.00397667 0.127996 123 87 86
1.06967 0.00659621 0.124612 121 83 82
1.06532 0.0259644 0.114605 170 109 93
1.0646 0.0342512 0.109422 198 123 105
1.06766 0.0390023 0.103698 218 151 128
1.06994 0.0379448 0.102622 226 161 140
1.10413 0.0126672 0.0930801 234 182 152
0.861805 -0.128399 0.403077 16 16 16
0.863878 -0.129114 0.401637 16 16 16
0.878179 -0.117588 0.379518 10 10 10
0.887568 -0.104099 0.360675 2 2 2
0.889716 -0.0834974 0.343378 0 0 0
0.892993 -0.0622783 0.324592 0 0 0
0.876176 0.0952481 0.223537 0 0 0
0.878485 0.0898231 0.225425 0 0 0
0.879687 0.0895863 0.224497 0 0 0
0.883072 0.0847988 0.224932 0 0 0
0.883289 0.0889096 0.2217 0 0 0
0.88371 0.114671 0.202324 96 52 42
0.886864 0.122611 0.193628 147 88 73
0.903115 0.126237 0.176444 203 123 113
0.90459 0.127896 0.173929 205 127 117
0.930629 0.105096 0.167713 220 140 131
0.950277 0.0640611 0.180374 214 126 119
0.974588 0.0334452 0.181541 179 87 91
1.06998 -0.0511504 0.161758 142 63 69
1.07148 -0.0507007 0.16021 145 67 73
1.08434 -0.0515742 0.150298 96 34 34
1.0883 -0.0522246 0.147526 121 53 51
1.09025 -0.0494571 0.144014 142 75 70
1.06857 0.00564534 0.123267 116 80 79
1.09717 0.0174857 0.092373 199 142 114
1.1126 0.00816139 0.0865967 206 144 119
0.861109 -0.117749 0.391916 16 16 16
0.870683 -0.133109 0.394156 14 14 14
0.887448 -0.101527 0.355156 2 2 2
0.887199 -0.0883806 0.345727 0 0 0
0.892094 -0.0560425 0.317426 0 0 0
0.874646 0.102955 0.216997 0 0 0
0.881802 0.11417 0.202268 86 45 32
0.882686 0.11487 0.200954 101 56 41
0.917226 0.120935 0.165818 228 162 152
0.937366 0.0877567 0.172119 217 131 124
0.960232 0.0423578 0.184847 209 118 119
0.961698 0.0451742 0.181571 165 68 74
0.982984 0.0171139 0.183326 148 73 75
1.06929 -0.0500405 0.158303 139 62 70
1.08553 -0.0476682 0.143362 114 48 47
1.06195 0.0161396 0.118512 109 69 64
1.06057 0.0208582 0.116385 120 78 69
1.0612 0.029695 0.109826 182 114 98
1.06333 0.0383051 0.102247 212 149 127
1.07996 0.0347464 0.0914522 234 176 153
1.09089 0.0238582 0.0901672 205 150 123
0.871765 -0.139227 0.393631 12 12 12
0.886451 -0.105234 0.355082 1 1 1
0.873369 0.0990241 0.218777 0 0 0
0.878862 0.083791 0.224782 0 0 0
0.882541 0.115786 0.198282 114 64 49
0.888336 0.125175 0.186283 150 88 73
0.894847 0.127113 0.179064 188 113 100
0.914069 0.121149 0.166355 226 157 149
0.920442 0.115032 0.165148 226 154 144
0.928232 0.102793 0.167074 221 145 136
0.939209 0.0799895 0.173746 216 130 125
0.961978 0.0444599 0.179262 186 89 95
1.016 -0.0516418 0.200821 163 81 82
1.07837 -0.0538454 0.150227 92 32 34
1.08374 -0.0447818 0.139607 93 34 31
1.08462 -0.0403048 0.135832 93 34 31
1.05908 0.0304768 0.108273 185 115 100
1.06346 0.0380072 0.0996662 221 160 137
1.06633 0.0383528 0.0971377 229 171 150
1.07091 0.0385188 0.0933747 235 180 155
1.07493 0.0395759 0.0894781 236 182 159
1.10153 0.016 0.0842225 221 166 137
0.857067 -0.108315 0.381199 16 16 16
0.873888 -0.106413 0.363968 7 7 7
0.886514 -0.0598255 0.318609 0 0 0
0.870651 0.102044 0.216843 0 0 0
0.878722 0.0954606 0.214182 0 0 0
0.878875 0.113892 0.200837 76 37 28
0.882173 0.117598 0.195196 125 70 57
0.885335 0.121402 0.189622 143 84 70
0.886841 0.127176 0.184146 148 89 75
0.902725 0.127709 0.169623 210 136 127
0.903738 0.127674 0.168753 214 142 135
0.91964 0.114374 0.164211 225 151 142
0.949326 0.0537291 0.18111 209 123 118
0.957557 0.0424865 0.181889 192 99 101
0.959923 0.0462941 0.177177 193 95 98
1.05072 -0.0476865 0.165618 77 63 63
1.06484 -0.0517027 0.156659 115 53 60
1.07317 -0.0541525 0.151459 115 55 59
1.08195 -0.0418725 0.135892 75 23 22
1.05686 0.021581 0.113346 117 66 56
1.05934 0.0323726 0.104074 187 119 103
1.06364 0.0399653 0.0955375 233 175 153
1.0682 0.0401168 0.0917947 241 188 165
1.06934 0.0407315 0.0904719 242 189 166
1.09516 0.0200333 0.0837233 229 176 148
0.855405 -0.106926 0.378005 15 15 15
0.863266 -0.127575 0.385351 13 13 13
0.866392 -0.120406 0.377281 7 7 7
0.870228 -0.0896161 0.351677 5 5 5
0.872402 -0.0787635 0.34189 5 5 5
0.887713 -0.0656146 0.318263 0 0 0
0.885815 -0.00957596 0.280098 0 0 0
0.869977 0.100491 0.216337 0 0 0
0.877076 0.0823421 0.222738 0 0 0
0.877068 0.0932337 0.215008 0 0 0
0.878337 0.116566 0.197296 91 48 33
0.885831 0.127431 0.182843 151 92 78
0.886864 0.127317 0.181997 160 96 84
0.888928 0.127104 0.180299 179 108 96
0.894069 0.126657 0.176023 197 119 109
0.898908 0.127219 0.17133 212 139 129
0.900941 0.127124 0.169598 213 142 132
0.90224 0.1262 0.169099 214 143 133
0.908208 0.12342 0.165791 228 164 153
0.928866 0.0952383 0.16744 219 140 135
0.955876 0.043449 0.1801 185 89 91
1.01448 -0.0338842 0.18346 63 48 56
1.03551 -0.0374448 0.168162 59 48 47
1.07591 -0.0497797 0.142999 55 10 9
1.0563 0.0198534 0.112194 115 64 54
1.05472 0.0298642 0.106785 158 94 80
1.06601 0.0386489 0.0918546 237 187 163
1.09987 0.0133282 0.0815729 224 169 142
1.10053 0.0172209 0.0784956 190 131 112
0.852237 -0.10991 0.379368 14 14 14
0.866312 -0.0561527 0.328086 6 6 6
0.868288 -0.0583893 0.327821 6 6 6
0.876931 -0.0715959 0.329099 0 0 0
0.879529 -0.0549193 0.314906 0 0 0
0.875757 0.114523 0.198968 64 32 17
0.882178 0.126301 0.184897 133 79 63
0.891241 0.126201 0.176844 192 116 105
0.924323 0.101605 0.16478 221 144 138
0.954309 0.0408016 0.180724 167 78 79
0.956361 0.0454905 0.175719 184 90 95
0.960635 0.0412733 0.174934 200 103 111
1.01408 -0.036605 0.182585 64 50 55
1.06188 -0.0528789 0.153476 89 45 46
1.07418 -0.0499391 0.141325 74 28 28
1.07613 -0.0471978 0.137886 34 1 0
1.07948 -0.0438944 0.132926 52 11 11
1.08092 -0.0433483 0.131384 54 11 9
1.05419 0.0206628 0.110614 115 64 54
1.05351 0.0267838 0.107109 130 73 60
1.05617 0.0323207 0.101283 173 110 93
1.0701 0.0394464 0.0853895 240 187 164
1.07521 0.0366242 0.0831585 235 184 160
1.09768 0.0187408 0.0769343 175 123 106
0.864932 -0.0563004 0.326141 6 6 6
0.875135 -0.0691794 0.32565 0 0 0
0.878657 -0.0585136 0.314922 0 0 0
0.88323 -0.0663511 0.316168 0 0 0
0.884006 -0.0315448 0.291136 0 0 0
0.884722 -0.0267029 0.287096 0 0 0
0.880967 0.010936 0.264278 0 0 0
0.869602 0.0980229 0.213955 0 0 0
0.874046 0.113189 0.199339 48 22 13
0.881762 0.128206 0.181929 137 80 67
0.892767 0.128007 0.172224 203 130 118
0.907234 0.120393 0.164677 230 167 159
0.908259 0.120382 0.163783 233 171 162
0.91817 0.109764 0.162393 227 150 144
0.94844 0.0460788 0.179643 197 117 115
0.962326 0.0370496 0.173794 190 103 107
0.997886 -0.0247234 0.185268 63 49 50
1.02844 -0.0432974 0.171859 55 43 43
1.03586 -0.0484746 0.169081 119 110 113
1.06683 -0.0899152 0.170897 109 98 99
1.06407 -0.0538483 0.149098 85 44 44
1.06904 -0.050223 0.142563 71 23 23
1.07918 -0.043494 0.129741 52 11 11
1.07912 -0.0403826 0.127739 54 11 9
1.05393 0.0158794 0.111227 102 52 46
1.05459 0.0323099 0.0998937 169 108 92
1.06397 0.0392147 0.0878116 239 186 163
1.06511 0.0398275 0.0864946 243 192 169
1.06907 0.0408812 0.0826271 239 186 163
1.07246 0.0405262 0.0801436 232 179 154
1.08385 0.0287601 0.078661 207 145 118
1.09134 0.0228147 0.0765257 187 133 112
0.861486 -0.100511 0.356689 7 7 7
0.884776 -0.0538673 0.302747 0 0 0
0.883543 -0.0368411 0.292109 0 0 0
0.879882 0.0100862 0.263041 0 0 0
0.875938 0.0394952 0.246342 0 0 0
0.868408 0.099105 0.212076 0 0 0
0.875586 0.120658 0.190688 105 57 42
0.876443 0.121379 0.189417 112 62 47
0.87893 0.127862 0.182714 129 77 61
0.880319 0.130256 0.179819 139 84 71
0.883607 0.129018 0.177718 175 108 97
0.954855 0.0393921 0.176086 162 77 80
1.06449 -0.100068 0.176184 101 89 91
1.07162 -0.103211 0.172279 109 98 99
1.06327 -0.0557158 0.147788 73 34 31
1.07168 -0.024898 0.120568 49 6 5
1.05326 0.0194599 0.106673 135 78 63
1.05447 0.0395924 0.0925962 194 136 115
1.05736 0.0421685 0.0885921 222 167 142
0.835448 -0.133479 0.40021 13 13 13
0.843104 -0.127248 0.388691 12 12 12
0.848724 -0.0994734 0.364313 13 13 13
0.852803 -0.103348 0.363144 10 10 10
0.869148 -0.0585939 0.317172 3 3 3
0.870889 -0.0590819 0.315891 2 2 2
0.87215 -0.0560932 0.312674 1 1 1
0.880915 -0.0592272 0.306719 0 0 0
0.88195 -0.0552966 0.303074 0 0 0
0.883802 -0.0565869 0.302252 0 0 0
0.868728 0.109198 0.202682 0 0 0
0.873248 0.117731 0.192751 86 42 29
0.875884 0.124149 0.185992 121 69 52
0.880571 0.129538 0.178105 161 99 88
0.886612 0.125441 0.175476 196 121 110
0.88919 0.126953 0.172149 202 128 117
0.897842 0.124673 0.166008 220 153 144
0.900705 0.121923 0.165337 225 163 154
0.915174 0.109353 0.161094 228 156 149
0.953601 0.0358513 0.176991 137 66 69
1.0166 -0.0460347 0.177491 64 53 52
1.05642 -0.0948901 0.17608 150 140 141
1.06365 -0.0802862 0.160377 64 53 52
1.07236 -0.0532902 0.135448 49 13 11
1.07431 -0.0536313 0.134059 47 10 9
1.07529 -0.052242 0.132343 39 7 6
1.07673 -0.0485872 0.128771 30 1 0
1.07862 -0.0457694 0.125379 46 7 7
1.05182 0.0292361 0.0987953 152 95 80
1.0664 0.0377506 0.0815003 235 180 153
1.07091 0.0357258 0.0791592 237 187 161
1.07713 0.031281 0.0769844 224 170 140
1.08967 0.0178833 0.0754448 200 140 112
0.819754 -0.14139 0.416581 15 15 15
0.841402 -0.124984 0.384925 12 12 12
0.843134 -0.121465 0.380901 12 12 12
0.84811 -0.0875331 0.353149 12 12 12
0.873695 -0.0653626 0.314262 0 0 0
0.873343 -0.0510309 0.304864 0 0 0
0.87987 -0.0510218 0.298838 0 0 0
0.877939 0.0151049 0.25581 0 0 0
0.877965 0.0226995 0.250645 0 0 0
0.876165 0.0399858 0.24059 0 0 0
0.873601 0.121202 0.188028 105 57 42
0.876349 0.126802 0.18177 129 78 59
0.877167 0.127552 0.180528 133 81 64
0.88082 0.128828 0.176386 182 113 102
0.887641 0.125549 0.172489 199 126 114
0.90094 0.121286 0.163546 229 166 158
0.903548 0.119452 0.162471 231 169 160
0.905148 0.117648 0.162268 234 172 164
0.917257 0.103379 0.161164 227 150 146
1.05715 -0.0607912 0.149794 140 128 130
1.05312 0.0438801 0.0857248 215 159 137
1.07269 0.0353823 0.0752791 231 178 151
1.07777 0.0302895 0.0743974 207 147 121
0.81824 -0.143389 0.415407 15 15 15
0.844248 -0.104355 0.364572 12 12 12
0.850716 -0.0924087 0.350474 10 10 10
0.852599 -0.0930309 0.349134 9 9 9
0.861666 -0.0616282 0.31957 3 3 3
0.870302 -0.0632547 0.312663 1 1 1
0.880448 -0.0532616 0.296602 0 0 0
0.880601 -0.0440213 0.290263 0 0 0
0.880827 -0.035635 0.28443 0 0 0
0.882455 -0.0360109 0.28319 0 0 0
0.876901 0.0295271 0.244341 0 0 0
0.869321 0.112628 0.195607 42 20 14
0.873268 0.123102 0.185032 112 65 47
0.876991 0.128609 0.178001 147 90 78
0.87925 0.127467 0.176732 171 107 94
0.890434 0.126435 0.167428 209 138 128
0.898108 0.12075 0.164396 227 162 154
0.909493 0.110752 0.16098 228 163 155
0.981262 -0.0213283 0.185464 130 77 79
0.996068 -0.0429966 0.186894 64 51 51
1.06333 -0.109438 0.172806 58 49 47
1.06014 -0.0533891 0.139313 50 20 19
1.06068 -0.0511738 0.137436 55 25 24
1.07006 -0.0311412 0.116823 33 1 0
1.05055 0.0107275 0.106246 78 38 29
1.04867 0.0217044 0.100818 118 70 56
1.04747 0.0287318 0.0973385 125 75 62
1.04918 0.0284276 0.0961352 132 82 67
1.05096 0.0424977 0.085774 201 143 122
1.07274 0.032902 0.0741262 233 180 155
0.824368 -0.124346 0.392964 12 12 12
0.83934 -0.110014 0.369317 10 10 10
0.879619 -0.0365437 0.283056 0 0 0
0.876617 0.0319923 0.240324 0 0 0
0.868148 0.113787 0.193822 48 24 16
0.870087 0.11945 0.188316 88 45 28
0.873356 0.127548 0.180007 130 78 62
0.874381 0.127406 0.179178 138 83 70
0.880293 0.127545 0.173776 194 125 114
0.884589 0.126246 0.17079 198 127 116
0.887633 0.125993 0.168242 204 135 125
0.893957 0.124724 0.163458 222 157 150
0.999691 -0.0480089 0.18396 63 49 50
1.04701 -0.0943328 0.173423 60 53 51
1.04657 -0.0895539 0.170717 60 53 51
1.06089 -0.0516503 0.134418 49 17 17
1.06235 -0.0511595 0.132888 46 14 11
1.07439 -0.0509565 0.122728 36 7 5
1.05111 0.0445506 0.0817885 202 140 116
1.0683 0.0347291 0.0739175 232 175 146
0.862559 -0.05025 0.304681 1 1 1
0.87678 -0.0370609 0.282917 0 0 0
0.869289 0.118854 0.187403 87 47 29
0.869597 0.122245 0.184903 99 54 37
0.87298 0.125184 0.179927 134 80 64
0.874011 0.12504 0.179092 138 81 68
0.875862 0.125661 0.177021 154 98 83
0.876676 0.126427 0.175789 167 105 92
0.877698 0.126303 0.174952 172 110 97
0.879518 0.126967 0.172887 194 125 114
0.880535 0.126858 0.172048 197 129 118
0.881323 0.12765 0.170825 197 129 118
0.889388 0.126999 0.16406 216 148 141
0.8909 0.125144 0.163925 218 151 142
0.914279 0.0996627 0.159845 222 150 145
0.937501 0.0485979 0.172563 202 127 123
0.950184 0.0199664 0.179996 147 97 96
0.977959 -0.0324384 0.189645 100 59 57
0.978865 -0.0268007 0.185228 100 59 57
1.07216 -0.0501851 0.120945 43 7 3
1.04755 0.0259491 0.0936953 105 59 45
1.04629 0.0330047 0.090338 135 90 73
1.06948 0.0329178 0.0714255 229 169 144
0.845347 -0.0799428 0.336808 7 7 7
0.850511 -0.0782663 0.330913 5 5 5
0.868834 -0.0464577 0.293251 0 0 0
0.877749 -0.00437667 0.25771 0 0 0
0.872197 0.124607 0.179031 138 83 70
0.877509 0.127403 0.172448 188 121 109
0.878304 0.128187 0.171229 193 124 113
0.880323 0.127976 0.169558 197 129 118
0.884351 0.127612 0.166196 203 134 123
0.891384 0.123612 0.162521 221 155 145
0.899341 0.11708 0.159684 229 164 157
0.907616 0.107116 0.158794 225 158 151
0.909539 0.104417 0.158836 225 156 150
0.919813 0.0864741 0.161329 218 138 136
1.06043 -0.0641333 0.13632 73 57 58
1.04648 0.0121713 0.100445 102 53 42
1.04693 0.0166712 0.0972856 98 52 40
1.04662 0.0197799 0.0956114 100 54 42
1.04651 0.0350304 0.0862854 153 104 86
1.04685 0.0440886 0.0804335 183 125 103
1.05349 0.0453957 0.0741861 221 164 138
0.827 -0.105155 0.36681 6 6 6
0.832594 -0.103034 0.360205 7 7 7
0.846064 -0.0630454 0.321839 3 3 3
0.856559 -0.050237 0.303858 3 0 2
0.857574 -0.0446061 0.29929 0 0 0
0.867884 -0.0261816 0.27793 0 0 0
0.876842 -0.0155092 0.262865 0 0 0
0.876477 -0.00431002 0.255993 0 0 0
0.870854 0.0525502 0.224544 0 0 0
0.866786 0.122147 0.183519 91 49 29
0.877314 0.12852 0.169961 194 125 114
0.886588 0.126824 0.162768 215 150 143
0.893396 0.120237 0.160927 225 158 149
0.910929 0.100206 0.158207 220 148 143
0.923681 0.0750348 0.163 200 123 119
1.01224 -0.054938 0.168298 65 54 53
1.03784 -0.0710385 0.156513 70 58 58
1.05563 -0.0549659 0.13147 77 63 66
1.06766 -0.0422939 0.113562 56 18 13
1.05222 -0.0060853 0.104149 64 18 8
1.04489 0.0251993 0.0910353 101 58 42
1.04454 0.0283123 0.0894185 115 74 61
1.04366 0.0322771 0.0877218 121 80 67
1.04534 0.0464349 0.077694 185 129 105
1.06237 0.0388038 0.0683612 215 153 128
0.833869 -0.119378 0.365898 7 7 7
0.850109 -0.0665289 0.317054 3 3 3
0.85129 -0.0609631 0.312408 3 3 3
0.871993 -0.0214952 0.268206 0 0 0
0.863963 0.110694 0.191369 47 23 15
0.864933 0.116564 0.186758 76 40 25
0.866314 0.124988 0.180157 105 59 43
0.874941 0.126392 0.171504 185 119 107
0.879782 0.126751 0.166943 198 127 116
0.888803 0.122525 0.16158 220 153 144
0.909015 0.0995848 0.158179 222 150 145
0.916938 0.0851637 0.160286 213 139 134
0.940694 0.0283701 0.175142 173 108 105
0.961582 -0.0119142 0.18216 58 45 45
0.976459 -0.028351 0.179506 57 46 45
1.03459 -0.0714624 0.15633 80 69 68
1.053 -0.0532614 0.129501 67 56 55
1.04323 0.0176312 0.094358 102 58 46
1.04431 0.0456777 0.0764683 188 133 110
1.04488 0.0471082 0.0751291 200 144 122
1.04872 0.0480607 0.0713957 222 167 142
0.843061 -0.0596848 0.315982 3 3 3
0.84668 -0.0625445 0.314441 2 2 2
0.848344 -0.0622183 0.312696 2 2 2
0.850482 -0.0671287 0.313824 3 3 3
0.852235 -0.0676637 0.312544 2 2 2
0.856289 -0.0578044 0.302581 0 0 0
0.873516 -0.00147436 0.251272 0 0 0
0.879226 0.125292 0.166421 204 132 122
0.885512 0.123896 0.161691 216 152 142
0.888261 0.121056 0.161024 221 155 145
0.89079 0.11914 0.159976 223 152 144
0.903026 0.105323 0.157779 224 155 148
0.914071 0.0872264 0.15933 215 140 136
0.916932 0.0818126 0.160187 210 135 131
1.05564 -0.0652154 0.131427 67 56 55
1.05716 -0.0450565 0.117902 44 13 10
1.05811 -0.0436625 0.11626 46 12 10
1.05309 -0.0192474 0.105687 86 41 33
1.04813 -0.00743704 0.102702 135 83 76
1.04035 0.0225385 0.0911142 112 71 57
1.04 0.0332933 0.0849294 120 81 67
1.04179 0.0352604 0.0822608 127 82 65
1.04157 0.0429225 0.0778535 156 102 84
1.05861 0.0444045 0.0629058 185 135 120
0.839601 -0.053927 0.312368 3 3 3
0.864588 -0.00820679 0.260827 0 0 0
0.864734 0.0623364 0.216696 3 3 3
0.860754 0.112413 0.189104 40 21 14
0.86151 0.114005 0.187429 57 29 18
0.862089 0.116501 0.18535 76 39 27
0.873584 0.124379 0.170099 192 123 112
0.874602 0.12426 0.169261 194 125 114
0.875409 0.12505 0.168048 195 126 115
0.877433 0.124837 0.166369 202 131 121
0.880913 0.122744 0.164559 205 134 123
0.888975 0.118626 0.159935 222 153 144
0.895102 0.114791 0.156876 225 153 145
1.05308 -0.0312752 0.109997 55 17 14
1.0403 0.00926922 0.0964295 119 69 58
1.03905 0.0195008 0.0913555 84 41 28
1.03863 0.0280047 0.0866335 95 56 42
1.03971 0.0362115 0.080845 126 83 68
1.04044 0.0399013 0.0780466 138 90 72
1.04001 0.043027 0.0765483 155 101 83
1.03961 0.0484255 0.0736702 184 126 105
1.04289 0.050185 0.069909 210 155 130
0.811505 -0.0968608 0.361872 10 10 10
0.856665 -0.02701 0.276861 0 0 0
0.860263 -0.0314037 0.276281 0 0 0
0.864961 -0.00936914 0.258381 0 0 0
0.867302 0.022874 0.23635 2 3 0
0.860649 0.0882874 0.202045 7 7 5
0.866015 0.122996 0.17581 143 86 71
0.871781 0.123954 0.170039 193 124 111
0.877878 0.123283 0.164994 207 136 126
0.87911 0.122282 0.164508 207 136 126
0.881364 0.1212 0.163161 209 135 126
0.885898 0.119092 0.160417 219 152 145
0.889442 0.117107 0.158485 223 151 146
0.897929 0.108722 0.156099 221 149 142
0.92179 0.0633068 0.162802 189 121 117
0.927665 0.0487983 0.166488 166 109 106
0.931556 0.0406601 0.168033 147 97 96
1.00272 -0.0477344 0.159786 63 51 51
1.05095 -0.0335357 0.110159 51 17 13
1.03861 0.00396329 0.0982668 129 71 63
1.03701 0.0150733 0.0930284 129 78 66
1.03506 0.0315503 0.084912 95 56 44
1.03723 0.0403024 0.0779298 122 75 61
1.03866 0.0522535 0.0697063 199 143 121
1.04136 0.0525896 0.067276 215 159 137
1.04458 0.0544111 0.0635395 221 164 140
0.804344 -0.121052 0.379881 12 12 12
0.806301 -0.102251 0.36654 12 12 12
0.829911 -0.0823102 0.332378 2 2 2
0.833623 -0.054549 0.311951 3 3 3
0.844389 -0.0640537 0.307837 1 1 1
0.845903 -0.0619544 0.30516 1 1 1
0.850317 -0.0384108 0.286703 3 0 2
0.855374 -0.0269482 0.275059 0 0 0
0.862125 0.0576908 0.217198 5 5 5
0.858469 0.0957528 0.197288 11 9 5
0.860882 0.11879 0.181056 89 46 31
0.863165 0.122772 0.176569 121 71 56
0.872013 0.123285 0.168305 197 129 118
0.873232 0.122259 0.167837 201 130 118
0.874046 0.123051 0.166626 201 130 120
0.882603 0.120495 0.160539 212 140 132
0.886357 0.117569 0.158976 219 150 144
0.887618 0.116602 0.158441 219 150 142
0.906462 0.0908084 0.157379 215 140 134
0.90949 0.0844366 0.15856 212 138 133
0.912838 0.07716 0.160007 209 134 130
1.00521 -0.0537406 0.158207 82 74 70
1.04813 -0.0506138 0.119642 71 58 58
1.05155 -0.0442065 0.112961 76 51 48
1.03634 0.00804286 0.0950392 129 76 67
1.03566 0.0174281 0.0901015 112 65 56
1.033 0.0325295 0.0834819 97 58 47
1.04035 0.0541631 0.0647246 222 167 142
1.043 0.0568364 0.0609646 227 171 149
0.833745 -0.0507533 0.306392 3 3 3
0.835771 -0.0565741 0.308048 3 3 3
0.858091 -0.0218999 0.266593 1 1 1
0.859109 -0.0178424 0.263211 1 1 1
0.860538 -0.0173381 0.261603 1 1 1
0.858858 0.0722923 0.208978 6 6 4
0.856609 0.0944963 0.19761 10 8 6
0.856189 0.104151 0.192162 19 13 8
0.860475 0.121671 0.177718 110 62 46
0.8704 0.121961 0.168616 201 132 121
0.872242 0.122625 0.166567 202 134 120
0.874273 0.122401 0.164883 207 136 124
0.877314 0.122102 0.162346 208 137 129
0.890619 0.113175 0.155868 218 142 134
0.894981 0.108518 0.154795 218 142 134
0.978429 -0.0458569 0.173704 58 47 46
0.980262 -0.0342593 0.165218 60 49 46
1.03131 0.00887182 0.0960831 124 69 58
1.03283 0.0116282 0.0931977 134 81 69
1.03304 0.0246666 0.0854352 90 49 35
1.03826 0.0551481 0.0634285 222 168 145
1.0388 0.0565958 0.0621509 230 176 153
1.04145 0.0569726 0.0597267 227 174 151
1.04674 0.0578153 0.054845 229 172 146
0.842772 -0.056653 0.298518 0 0 0
0.848152 -0.0263583 0.275454 1 1 1
0.849646 -0.0259192 0.273825 0 0 0
0.851314 -0.0272488 0.273096 0 0 0
0.861968 0.0168348 0.237026 5 5 5
0.855662 0.114865 0.184183 52 26 16
0.858073 0.118786 0.179664 97 54 37
0.868775 0.120645 0.168925 193 124 111
0.890542 0.109882 0.155911 218 140 130
0.896481 0.103366 0.154514 216 140 134
0.926902 0.0357755 0.167687 159 102 101
0.9316 0.0248463 0.170015 133 89 83
0.960225 -0.0200398 0.171409 58 47 46
0.981111 -0.0405324 0.165257 59 48 45
0.990913 -0.0458452 0.159864 91 83 81
1.02876 -0.0554675 0.132862 58 48 51
1.02977 -0.0368966 0.121204 70 58 58
1.03658 -0.0408908 0.117711 107 96 95
1.05238 -0.0624854 0.116774 143 132 131
1.04447 -0.0402613 0.110629 65 49 48
1.03108 -0.00215329 0.0999481 78 36 28
1.02957 0.00360829 0.0979024 92 43 35
1.03124 0.0117398 0.0917925 135 84 74
1.03175 0.0216579 0.085649 93 52 39
1.04254 0.0575205 0.0560613 223 168 143
0.834917 -0.0588647 0.303918 0 2 1
0.836969 -0.0647076 0.305493 0 0 0
0.84123 -0.0539718 0.295226 0 0 0
0.842915 -0.0544892 0.293988 0 0 0
0.852809 -0.0244498 0.267162 1 1 1
0.854533 -0.0127631 0.258675 1 1 1
0.857995 -0.00495211 0.250904 4 1 4
0.857849 0.120778 0.176735 115 64 52
0.866954 0.120247 0.168859 194 124 109
0.873706 0.12123 0.162234 212 141 130
0.875941 0.120122 0.160889 212 144 133
0.88168 0.116976 0.157624 215 146 137
0.888683 0.109373 0.155866 215 139 130
0.927857 0.0286863 0.168539 148 98 97
0.961885 -0.0290436 0.172403 59 48 47
0.961748 -0.0243549 0.169787 59 48 47
0.986375 -0.0462099 0.161041 103 94 93
1.06343 -0.184095 0.174283 77 65 67
1.02542 -0.0447675 0.126504 56 48 46
1.02434 -0.0257067 0.116454 134 126 124
1.03133 -0.0368452 0.116883 137 128 126
1.0304 0.0132478 0.0889677 117 73 61
1.03017 0.0217899 0.0842842 85 46 34
1.03101 0.0408488 0.072724 135 88 72
1.0318 0.0468349 0.068661 171 114 97
1.03296 0.0496945 0.0660679 191 133 114
1.03571 0.0569038 0.0596819 219 166 145
1.04084 0.0646153 0.0510327 217 157 132
0.80073 -0.0897592 0.350423 5 5 5
0.845401 -0.0417195 0.281149 2 2 2
0.851714 -0.0261285 0.266261 1 1 1
0.856244 0.0424175 0.222042 8 9 6
0.852351 0.0887253 0.198495 9 10 7
0.861712 0.122128 0.170537 164 100 87
0.862734 0.121974 0.169708 172 103 90
0.867732 0.116848 0.168213 197 126 113
0.869419 0.118415 0.165787 205 134 121
0.871078 0.120005 0.163375 212 141 130
0.876581 0.117673 0.159818 212 143 135
0.882345 0.114544 0.156502 214 145 134
0.889618 0.106034 0.154987 213 136 130
0.897131 0.0976421 0.153202 206 129 125
0.914605 0.0563615 0.161699 179 111 109
0.951551 -0.00705869 0.165905 60 49 48
0.963562 -0.0210741 0.163483 68 54 56
0.976202 -0.0396103 0.163132 65 54 51
0.977327 -0.0385135 0.16152 77 65 65
1.01554 -0.0479088 0.133797 62 53 54
1.02131 -0.0463994 0.127976 57 51 48
1.0188 -0.0206802 0.11546 144 135 135
1.03811 -0.0474356 0.114155 81 67 67
1.03953 -0.0469583 0.112672 50 37 37
1.04095 -0.0464736 0.111188 56 44 44
1.025 0.00649047 0.0947188 98 44 37
1.02713 0.0137472 0.0888007 125 77 63
1.02834 0.0142559 0.0874824 117 73 61
1.02833 0.0250739 0.0813741 85 46 34
1.02775 0.0313574 0.0783243 95 62 46
1.02792 0.0336301 0.0768989 104 68 53
1.02934 0.0387281 0.0728207 128 82 68
1.03017 0.044714 0.06875 160 103 89
1.03363 0.0556227 0.0597145 209 154 131
0.84495 -0.0331913 0.273633 3 3 3
0.848614 -0.0229065 0.264339 3 3 3
0.849745 0.100792 0.19174 13 11 10
0.852288 0.112548 0.182645 59 31 24
0.85595 0.121543 0.174144 127 73 57
0.858873 0.121931 0.171288 153 92 74
0.868617 0.117889 0.164875 207 136 126
0.874552 0.118154 0.159416 211 142 132
0.875778 0.117147 0.158903 209 140 129
0.880731 0.113162 0.156783 214 144 136
0.890795 0.101776 0.154386 208 130 122
0.960667 -0.0210658 0.163213 63 51 51
0.969124 -0.0325199 0.162353 72 61 58
1.01426 -0.0636985 0.140858 60 53 51
1.01413 -0.0557696 0.136478 63 54 55
1.0156 -0.0554143 0.135007 63 54 55
1.01429 -0.0487334 0.13235 63 54 55
1.01999 -0.0543016 0.130588 62 53 56
1.03425 -0.0429194 0.111909 62 48 48
1.03565 -0.0424473 0.110442 64 53 52
1.03705 -0.041968 0.108975 66 55 54
1.0245 0.010253 0.0903431 123 72 62
1.02834 0.0526109 0.0634192 186 128 109
1.03941 0.0601072 0.0499333 224 169 142
1.04189 0.0652117 0.0450341 156 109 91
0.830443 -0.0498963 0.293527 0 0 0
0.838952 -0.0325676 0.275824 2 2 2
0.845959 -0.0241387 0.26461 6 6 6
0.853552 0.0254793 0.229315 9 10 7
0.849462 0.111546 0.183794 41 22 15
0.854416 0.119392 0.174839 121 69 52
0.856031 0.121759 0.172033 143 86 69
0.863359 0.11973 0.166606 191 120 105
0.870054 0.116215 0.162614 210 142 128
0.881385 0.110728 0.155631 213 141 134
0.887138 0.10407 0.154304 209 135 128
0.948522 -0.00199855 0.160291 57 46 45
1.00284 -0.0518995 0.141049 60 51 52
1.00577 -0.0512666 0.138156 62 53 54
1.00455 -0.0445919 0.135465 63 54 55
1.01304 -0.0495506 0.130903 62 53 54
1.01686 -0.0546048 0.130432 63 54 55
1.02309 -0.0468286 0.120704 141 134 134
1.02147 -0.0329976 0.114375 49 41 39
1.02242 -0.0316717 0.112814 64 53 52
1.02655 -0.00835921 0.09628 60 25 21
1.02693 -0.00609934 0.0946979 75 28 26
1.02523 0.00599212 0.0894324 114 61 51
1.0268 0.0527998 0.0621799 184 125 109
1.03055 0.0559851 0.057261 210 150 127
1.03579 0.0590264 0.0511673 217 159 133
1.0404 0.0630567 0.0450707 221 161 133
0.83191 -0.0411299 0.284186 0 0 0
0.839731 -0.0391784 0.275945 3 3 3
0.852058 0.0170084 0.232938 13 11 10
0.848389 0.112833 0.182058 51 28 20
0.849452 0.112613 0.181224 68 36 26
0.854502 0.119604 0.172719 138 81 66
0.857989 0.122569 0.167908 173 105 89
0.86137 0.120278 0.166167 191 118 104
0.86273 0.118302 0.166062 195 122 108
0.863929 0.117246 0.165584 199 127 112
0.866162 0.116062 0.164251 209 135 124
0.867373 0.115018 0.163755 211 139 129
0.869435 0.114779 0.162045 212 144 131
0.881001 0.10836 0.155343 208 137 129
0.88375 0.105476 0.154521 203 129 122
0.88676 0.10169 0.153976 204 131 119
0.895703 0.0876977 0.153908 186 115 105
0.904955 0.070142 0.155578 149 95 90
0.947858 -0.00834359 0.161764 57 46 45
0.956733 -0.0265136 0.164138 66 57 53
0.998644 -0.0533119 0.142488 60 51 52
0.997606 -0.0317675 0.131414 67 58 57
1.00207 -0.0387067 0.131401 65 56 54
1.01323 -0.0499942 0.128 63 51 51
1.01745 -0.0559499 0.127653 67 56 55
1.02286 -0.0534569 0.121598 140 131 130
1.02532 -0.00596175 0.0932504 70 22 20
1.02349 0.00929519 0.0864204 120 72 61
1.02574 0.0134681 0.0821999 96 58 43
1.02469 0.0392589 0.0689507 125 82 67
1.02444 0.0447009 0.0661855 140 88 71
1.03528 0.0598401 0.0487471 218 159 131
1.03684 0.0596245 0.0475422 220 163 135
1.03729 0.0634371 0.0450915 227 170 144
1.03939 0.0623989 0.0438862 222 162 135
1.04149 0.0613725 0.0426699 219 155 129
1.03816 0.068747 0.0414778 160 111 93
0.846696 0.0182744 0.234519 12 12 12
0.845071 0.0987399 0.190975 13 11 10
0.848505 0.113002 0.179898 81 42 30
0.860571 0.119772 0.165261 196 123 109
0.861927 0.117793 0.16515 200 125 111
0.863976 0.117517 0.163468 205 132 118
0.875603 0.109982 0.157278 214 148 138
0.885085 0.10028 0.154238 200 124 115
0.893727 0.0871627 0.153861 187 111 102
0.90683 0.0593974 0.157683 134 87 82
0.932342 0.00606294 0.164748 54 45 44
0.9397 -0.000123426 0.161694 49 37 37
0.995374 -0.0337612 0.131587 72 61 60
1.0225 0.0054229 0.0867166 107 54 44
1.02443 0.0159171 0.079358 94 57 44
1.02468 0.0181997 0.0779003 84 48 35
1.02219 0.0334702 0.0717322 110 72 57
1.02236 0.0357537 0.0703486 114 75 59
1.0229 0.044902 0.0649241 133 84 66
1.0226 0.0503489 0.062234 174 117 102
1.02693 0.054937 0.0560687 195 134 116
1.02904 0.0561216 0.0536377 205 145 124
1.03322 0.0585625 0.048776 210 148 124
0.825894 -0.0354074 0.280586 3 3 3
0.829432 -0.0426904 0.281392 2 2 2
0.849271 0.0087555 0.234899 14 12 11
0.843667 0.11158 0.183097 25 16 15
0.849285 0.115714 0.175744 109 59 44
0.850066 0.117337 0.174142 120 68 51
0.851105 0.117141 0.173316 131 76 61
0.857574 0.120493 0.16565 185 112 102
0.866419 0.115713 0.160363 216 147 136
0.869213 0.1118 0.160024 216 149 137
0.873096 0.107803 0.15876 214 150 139
0.874338 0.106786 0.158211 214 148 138
0.882115 0.0998622 0.155096 202 126 120
0.883616 0.0979547 0.154811 197 123 116
0.89042 0.087598 0.154464 191 114 108
0.934557 -0.00571609 0.166663 54 45 44
0.994161 -0.0621663 0.14525 59 49 52
0.995304 -0.0609729 0.143602 58 49 47
0.994533 -0.0354363 0.130365 74 63 62
0.997215 -0.0308275 0.125525 102 91 88
1.02255 -0.00654682 0.0904657 58 17 15
1.02368 0.00888281 0.08117 91 50 36
1.02115 0.0528569 0.0597018 186 125 107
1.02222 0.0534212 0.0584895 187 126 108
1.02378 0.0531281 0.0573101 183 122 104
1.02798 0.0531602 0.0537136 197 137 114
0.834705 -0.045489 0.275178 7 7 7
0.844982 0.0124127 0.234177 14 14 14
0.847525 0.0144222 0.230778 16 14 12
0.843894 0.0727638 0.202156 14 12 13
0.846501 0.114717 0.176868 86 45 32
0.847427 0.115418 0.175651 99 54 37
0.850163 0.117556 0.17202 137 80 65
0.851333 0.116449 0.171572 144 85 71
0.877666 0.101395 0.156212 208 139 130
0.884707 0.0936676 0.154153 196 117 109
0.902998 0.0609864 0.155692 115 74 72
0.929625 0.00186711 0.164245 55 43 43
0.990882 -0.0495729 0.138297 62 50 50
0.986119 -0.0258283 0.129654 60 49 48
1.02364 -0.0180649 0.0929428 80 63 59
1.02042 -0.00232758 0.0873042 56 15 13
1.02087 0.00855338 0.0811092 88 42 31
1.01918 0.0284307 0.0719684 81 47 34
1.02225 0.0533508 0.0560895 186 123 103
1.02386 0.0553716 0.0536404 192 129 109
1.02545 0.0574109 0.0512025 206 143 121
1.02702 0.0617867 0.0475508 203 141 117
1.03318 0.0632043 0.0415554 219 160 132
1.03467 0.0653415 0.0391586 217 156 127
0.824822 -0.0320855 0.273956 3 3 3
0.838056 -0.0220196 0.256495 9 9 9
0.843726 0.0135596 0.232121 14 14 14
0.844182 0.0364595 0.219327 14 12 11
0.842513 0.0652144 0.205289 16 13 16
0.841153 0.108982 0.182859 27 18 17
0.844751 0.113522 0.177162 83 45 31
0.848321 0.117257 0.17193 139 79 65
0.85039 0.11687 0.170279 153 90 75
0.853204 0.118164 0.167052 175 104 91
0.854084 0.118913 0.165858 181 108 94
0.860532 0.116154 0.161566 206 130 117
0.863946 0.113913 0.159718 215 144 132
0.87039 0.106879 0.157752 211 144 133
0.875961 0.100031 0.156472 212 145 136
0.881473 0.09418 0.154713 202 128 119
0.890695 0.0781633 0.155133 183 109 100
0.954685 -0.0425549 0.163359 45 36 32
0.969739 -0.0176089 0.13679 60 50 54
0.980797 -0.0313372 0.134443 63 49 50
0.986942 -0.0241363 0.125236 136 126 127
1.02406 -0.0318974 0.0971078 68 54 54
1.01883 0.00963297 0.0796515 83 41 30
1.02222 0.0509838 0.0549561 186 123 103
1.02394 0.059956 0.0487735 203 141 119
1.026 0.0611607 0.0463779 205 141 117
1.02755 0.0609167 0.0451853 205 141 117
1.03058 0.0651245 0.0403965 217 158 130
0.825467 -0.0396025 0.274525 6 6 6
0.828506 -0.0370327 0.270392 7 7 7
0.831443 -0.0335185 0.265848 8 8 8
0.833285 -0.0137365 0.253601 9 9 9
0.834553 -0.0105682 0.250759 10 10 10
0.839248 -0.0145484 0.248636 10 10 10
0.847512 0.116768 0.171015 131 75 57
0.850613 0.116194 0.168534 167 99 85
0.852398 0.117677 0.16614 178 108 93
0.86091 0.114603 0.160151 213 140 128
0.872794 0.10062 0.156986 208 144 132
0.875506 0.0976616 0.156143 209 145 135
0.882745 0.0889535 0.154331 199 123 114
0.88667 0.0814172 0.154851 187 112 108
0.894773 0.0617856 0.158093 170 103 96
0.910871 0.0366042 0.157197 45 34 31
0.914141 0.0291864 0.158241 63 51 51
0.972556 -0.0459486 0.146567 67 56 55
0.980968 -0.0278525 0.129635 78 66 68
0.984493 -0.0330814 0.12931 103 94 95
0.988372 -0.0352447 0.12706 140 131 132
0.985277 -0.0199734 0.121714 77 69 67
1.02317 -0.0367187 0.0975424 51 38 38
1.02038 -0.0145614 0.0883445 72 60 62
1.01654 0.0225248 0.0722629 84 50 34
1.01534 0.0329198 0.067868 100 64 51
1.01588 0.0397899 0.0638273 109 71 54
1.01629 0.0466719 0.0598858 130 85 70
1.02011 0.0497791 0.0549785 186 122 107
1.02225 0.0509318 0.0525439 187 124 107
1.02231 0.0532472 0.0512883 191 128 108
1.02756 0.0609142 0.0428089 205 141 117
1.02851 0.0662086 0.0392446 213 151 124
1.03198 0.0696325 0.0345125 201 133 104
1.03179 0.0743201 0.0322457 173 121 105
0.833806 -0.0175812 0.252434 8 8 8
0.840685 0.0062579 0.23362 14 14 14
0.841394 0.0140717 0.228852 16 13 14
0.838041 0.0905084 0.191504 20 17 21
0.838166 0.100271 0.186236 21 16 15
0.842779 0.115284 0.174153 95 50 31
0.84761 0.117006 0.168901 150 86 73
0.851591 0.117194 0.165227 183 112 97
0.852616 0.117023 0.164398 188 115 101
0.884872 0.0800016 0.155092 193 116 110
0.894272 0.0593563 0.157593 156 94 86
0.926313 0.00455349 0.157979 63 57 54
0.976602 -0.02029 0.126719 144 135 133
1.02134 -0.0501607 0.103218 132 123 124
1.01711 -0.0338788 0.0984422 62 51 48
1.01847 -0.0334212 0.0970233 71 60 57
1.01483 -0.018973 0.0926803 70 58 58
1.01537 0.0163996 0.0738926 62 29 22
1.014 0.0354475 0.065232 93 54 40
1.01418 0.0377393 0.0638936 94 54 45
1.01653 0.0512014 0.0549167 161 105 86
1.02022 0.0520424 0.0513101 186 123 105
1.0255 0.0620125 0.0416386 205 141 117
1.02545 0.0666768 0.0392854 205 141 115
1.02687 0.0711244 0.0357896 210 144 116
1.0265 0.0804641 0.0313229 195 133 111
0.816431 0.0231788 0.244135 1 1 1
0.829848 -0.0218951 0.255525 8 8 8
0.83869 0.0325556 0.219106 17 15 13
0.835949 0.102769 0.184926 23 19 18
0.856921 0.115766 0.159308 212 141 128
0.8596 0.111782 0.158987 213 140 128
0.860794 0.110721 0.158472 217 149 135
0.864579 0.106639 0.157215 217 148 137
0.867375 0.1027 0.156769 210 142 128
0.875836 0.0919082 0.154839 201 132 123
0.877711 0.0881085 0.155145 200 128 121
0.879408 0.0852433 0.155124 197 123 116
0.883061 0.0785946 0.155331 189 115 108
0.889505 0.0700096 0.154062 150 92 84
0.894491 0.0587585 0.15548 120 76 70
0.916551 0.0111761 0.160623 101 95 91
0.929207 -0.00535633 0.157996 55 48 46
0.959221 -0.0468585 0.153 61 52 51
0.95927 -0.0333627 0.145969 63 51 51
0.976453 -0.035616 0.132024 87 76 75
0.978845 -0.0222733 0.123036 46 35 34
0.984628 -0.0219897 0.117823 74 63 62
1.02006 -0.050917 0.101759 55 44 41
1.01931 -0.0386728 0.096127 69 57 57
1.01859 -0.0336878 0.0941924 67 56 55
1.01344 0.0284566 0.0668097 83 48 35
1.01319 0.031635 0.0653994 94 60 47
1.01328 0.0394037 0.0613514 104 66 51
1.02294 0.0639806 0.0404843 202 137 113
1.02738 0.0703206 0.0334425 202 136 108
0.818318 0.0162384 0.243512 9 9 9
0.820649 -0.010308 0.255103 7 7 7
0.823724 -0.0130642 0.253743 8 8 8
0.825762 -0.0252648 0.258196 7 7 7
0.835935 0.0529288 0.208666 18 16 14
0.834861 0.0799928 0.195673 21 19 20
0.843698 0.118293 0.167971 146 84 71
0.854212 0.114663 0.160414 209 136 122
0.86133 0.108254 0.157346 218 149 139
0.885146 0.0696118 0.155986 179 109 103
0.913248 0.0189441 0.157049 65 59 57
0.949012 -0.0196749 0.145213 61 52 51
0.960272 -0.0318469 0.141514 66 55 54
0.957571 -0.0195884 0.137622 72 61 60
0.964671 -0.0234017 0.133321 64 53 52
0.980846 -0.0352411 0.125151 47 34 31
1.0023 -0.0319484 0.104673 127 115 115
1.01723 -0.0375933 0.0945003 70 59 56
1.01125 -0.011332 0.0863793 91 82 83
1.01252 0.0191582 0.0698115 71 39 24
1.01233 0.0223413 0.0683631 81 47 36
1.01052 0.0313668 0.0653653 83 46 34
1.01073 0.0336592 0.064022 93 58 47
1.01046 0.0368377 0.0626452 91 55 40
1.02193 0.0633848 0.0393199 198 134 110
1.02243 0.0648606 0.0381462 198 134 110
1.02292 0.0663393 0.0369784 203 138 115
1.02382 0.0716441 0.0335319 207 143 117
0.812794 0.027788 0.240091 10 10 10
0.827344 -0.0205534 0.251591 10 10 10
0.828819 -0.0200993 0.250028 12 12 12
0.829931 -0.0132832 0.24555 13 13 13
0.832633 -0.00959021 0.241229 13 13 13
0.840839 0.118242 0.16869 131 74 59
0.846206 0.115394 0.165325 179 108 96
0.85946 0.107904 0.15727 219 155 142
0.86082 0.105914 0.157067 216 147 136
0.885927 0.0764059 0.149684 102 67 63
0.949691 -0.0172474 0.140681 61 52 51
0.96 -0.0353322 0.140735 69 57 57
0.97169 -0.0265934 0.126018 46 37 36
0.970325 0.00701115 0.110254 77 63 63
1.01163 -0.0355937 0.0955198 72 61 60
1.01148 -0.0283393 0.0920063 74 63 62
1.01517 -0.0100886 0.0796098 77 70 72
1.00961 0.0220825 0.0683211 69 34 25
1.01521 0.0560201 0.0464761 190 124 108
0.810246 0.0366283 0.235487 12 12 12
0.819472 -0.00127707 0.24625 13 13 13
0.824288 -0.0126105 0.247613 14 14 14
0.831659 0.0819903 0.193324 19 16 19
0.832074 0.104312 0.181709 22 18 15
0.835073 0.117066 0.172592 68 38 27
0.849241 0.116069 0.160383 199 123 110
0.850262 0.115903 0.159553 203 130 116
0.853892 0.111717 0.15841 215 146 133
0.865689 0.0965702 0.155483 204 137 126
0.868706 0.0916922 0.155241 202 133 122
0.870505 0.0878583 0.155563 200 134 122
0.877739 0.0734909 0.156331 186 115 107
0.905727 0.0186354 0.158967 37 31 31
0.910876 0.0186588 0.154381 57 51 48
0.95746 -0.0108241 0.127926 95 84 83
0.970786 -0.0321682 0.126843 52 41 40
1.00432 -0.0330446 0.0978062 75 61 61
1.00932 -0.0104126 0.0821684 86 74 78
1.0129 0.00382236 0.0719752 26 0 0
1.01216 0.0566022 0.0464771 176 110 94
1.01271 0.0580471 0.0452836 185 122 104
1.01384 0.0655905 0.0405778 190 126 109
1.0313 0.0708548 0.0228384 186 134 118
0.806516 0.0396765 0.234946 8 8 8
0.815223 0.00715433 0.243272 12 12 12
0.816853 -0.000541978 0.245631 13 13 13
0.818395 -0.00372413 0.245825 14 14 14
0.826963 -0.001855 0.237174 17 15 13
0.829916 0.0772054 0.195181 19 17 15
0.838098 0.118464 0.167308 135 77 65
0.83912 0.11825 0.166497 144 86 69
0.842075 0.118562 0.163692 178 107 95
0.847408 0.115783 0.160296 201 128 114
0.854386 0.109243 0.157303 219 155 142
0.855568 0.108167 0.15678 217 153 141
0.859457 0.103099 0.155822 219 155 142
0.870329 0.0836197 0.155791 197 130 121
0.879871 0.0635324 0.157255 184 107 99
0.881812 0.0597139 0.157421 184 110 103
0.882153 0.0791609 0.147466 79 51 51
0.937471 -0.000325529 0.137757 84 72 72
0.938203 0.00168074 0.136117 81 70 69
0.978902 -0.0299697 0.115823 72 58 61
0.98013 -0.0216419 0.110633 133 124 123
0.990287 -0.032265 0.106932 79 66 66
0.99721 -0.02003 0.0948198 77 65 65
1.01077 -0.0301797 0.0879126 96 85 86
1.01757 -0.0383082 0.0859474 93 83 84
1.01892 -0.0378181 0.0845181 87 75 79
1.00856 0.0213398 0.0645357 71 36 25
1.00727 0.0295102 0.0616612 79 44 33
1.00634 0.0367801 0.0589113 90 53 41
1.01096 0.0513838 0.0477253 151 94 79
1.0112 0.0583415 0.0441124 179 116 98
1.0263 0.0699569 0.0252995 205 141 113
1.03143 0.0662132 0.0226673 197 128 103
0.801401 0.0316124 0.241156 6 6 6
0.805489 0.0346152 0.235991 10 10 10
0.811127 0.015608 0.240251 13 13 13
0.814226 0.00111197 0.244584 13 13 13
0.823346 -0.0116334 0.242636 17 15 13
0.825964 -0.00521845 0.237128 17 15 13
0.828034 0.0094728 0.228046 18 16 14
0.828699 0.0218789 0.221351 20 18 19
0.828412 0.067847 0.199018 19 17 15
0.82841 0.10116 0.182648 16 14 12
0.830566 0.114134 0.174336 47 26 19
0.833279 0.118 0.170002 91 50 36
0.842286 0.117919 0.161967 188 118 105
0.858765 0.101695 0.155191 220 155 145
0.878923 0.0630057 0.156185 182 106 98
0.921695 0.0218087 0.138344 72 61 60
0.945172 -0.0115771 0.133874 133 126 126
0.953817 -0.0123274 0.126592 70 56 57
0.951965 0.00903012 0.117798 65 56 54
1.01974 -0.0430528 0.0834838 76 67 70
1.02205 -0.0411352 0.0805238 87 77 80
1.00598 0.0454049 0.0526011 114 73 58
1.00944 0.0516824 0.0465331 147 95 78
1.00969 0.0586445 0.0429461 174 113 97
1.01333 0.0665133 0.0359575 185 120 101
1.01677 0.0721605 0.0302297 200 136 110
1.01813 0.0766206 0.0268828 215 153 128
1.02118 0.0738479 0.0255691 210 146 117
1.02545 0.0780027 0.0198444 204 150 134
0.795174 0.0437959 0.238441 3 3 3
0.80037 0.0328248 0.239082 10 10 10
0.815909 0.00318127 0.23948 17 17 17
0.819134 -0.00863485 0.242316 15 16 13
0.825751 0.00469985 0.229895 19 17 15
0.826155 0.0694869 0.198084 19 17 15
0.826164 0.0884241 0.188884 18 16 14
0.829601 0.115525 0.172646 60 32 23
0.833411 0.118244 0.167909 118 68 53
0.834347 0.118939 0.166732 128 76 59
0.841477 0.117475 0.161056 197 124 110
0.852726 0.108325 0.15543 214 148 134
0.879516 0.0605337 0.154685 186 110 101
0.882239 0.0585261 0.153231 158 95 89
0.92777 0.0054607 0.138436 76 64 63
0.934753 -0.00450942 0.137062 77 69 67
0.937782 -0.0100029 0.137031 103 96 96
0.939882 -0.00784224 0.134125 134 127 127
0.948044 -0.0204641 0.132992 75 66 67
0.979084 -0.0226372 0.10659 70 56 57
0.992672 -0.0343535 0.100246 72 61 60
0.992153 -0.0293693 0.0983024 75 61 61
0.991956 -0.0180906 0.0930454 79 68 67
0.994038 -0.0195231 0.0919003 81 70 69
1.01983 -0.0432482 0.0806011 73 63 66
1.02149 -0.0297939 0.0726742 74 64 68
1.01289 -0.00530723 0.0684706 110 102 105
1.00738 0.0151146 0.0635096 59 31 24
1.00722 0.0482313 0.0477647 143 93 78
1.00974 0.0609829 0.0394412 180 119 99
1.01077 0.0615668 0.0382683 185 122 104
1.01332 0.0665593 0.0336448 185 122 102
1.01482 0.066303 0.0324557 186 123 103
0.804734 0.0203784 0.238723 13 13 13
0.810293 0.0184721 0.234638 15 15 15
0.824134 0.0150776 0.22383 24 22 20
0.824569 0.0998818 0.18279 19 17 15
0.839754 0.116301 0.161313 191 118 106
0.840773 0.116106 0.160494 197 124 110
0.846106 0.113337 0.15705 211 140 127
0.848405 0.11114 0.156047 217 149 135
0.849563 0.110047 0.155535 218 150 137
0.856013 0.1009 0.154152 217 153 141
0.857364 0.0988941 0.153907 215 151 139
0.865429 0.0823505 0.154628 197 131 117
0.867201 0.0784879 0.154896 193 124 111
0.875679 0.0629878 0.154753 177 104 92
0.919415 -0.00800306 0.149776 62 53 52
0.924324 -0.00106674 0.142099 71 60 59
0.929094 -0.00359712 0.139072 70 58 58
0.941399 -0.00814886 0.130326 67 55 59
0.945544 -0.0124926 0.128725 63 54 57
0.945556 0.000237418 0.122638 68 54 54
0.964436 -0.0182311 0.114727 88 77 74
0.976283 -0.0307346 0.110205 72 61 60
0.992839 -0.020173 0.0905448 96 85 86
1.02431 -0.0460099 0.0750739 73 66 71
1.0173 -0.0209053 0.0693257 91 84 86
1.008 0.0109098 0.0624024 58 29 23
1.00655 0.0168158 0.0608738 62 31 25
1.00398 0.0387388 0.052736 89 52 40
1.00417 0.0488821 0.0477547 137 92 75
1.00722 0.0607254 0.0394635 170 109 93
1.01231 0.0660088 0.0324958 185 122 102
1.0133 0.0666175 0.0313322 184 121 101
1.01421 0.0742702 0.0269146 199 137 112
1.01806 0.0768159 0.0223334 205 141 117
0.80077 0.0108875 0.244319 12 12 12
0.803596 0.00445461 0.244824 14 14 14
0.815167 -0.00121743 0.237119 19 19 19
0.816637 -0.00258203 0.236445 19 19 19
0.819262 0.00475424 0.230617 19 17 15
0.821848 0.0103195 0.225663 21 19 18
0.822845 0.0733931 0.194914 20 17 21
0.830767 0.117605 0.16689 124 74 57
0.840064 0.114738 0.159926 195 122 106
0.841997 0.115294 0.157934 204 133 120
0.84783 0.108827 0.155779 216 149 137
0.848862 0.108668 0.154931 219 155 140
0.851194 0.106491 0.153877 217 153 141
0.864691 0.0809292 0.153915 195 128 116
0.877602 0.0595031 0.152528 184 107 99
0.915834 0.000813447 0.146213 67 56 55
0.916909 0.0018115 0.144786 70 58 60
0.923738 0.00124738 0.138981 88 79 77
0.931381 -0.00196903 0.133708 87 78 76
0.934571 -0.00358161 0.131636 79 67 69
0.969758 -0.00940057 0.103177 78 65 65
0.969509 -0.00135178 0.0996067 78 65 65
1.00212 -0.0278469 0.0832321 106 94 96
1.01936 -0.0352867 0.0714965 73 63 66
1.0148 -0.0188462 0.0677962 79 69 74
1.00219 0.0422619 0.0502392 90 52 38
1.00144 0.0463545 0.0489745 103 65 48
1.00625 0.0625062 0.0371648 172 110 95
1.01949 0.0767353 0.0188572 199 130 103
0.789669 0.0485474 0.234173 3 3 3
0.790808 0.0435606 0.235481 5 5 5
0.794433 0.0294626 0.238814 8 8 8
0.802491 0.00657252 0.242279 14 14 14
0.813941 0.0027445 0.233798 19 17 17
0.816677 0.00642491 0.229625 23 18 22
0.820238 0.0234904 0.218458 24 22 20
0.820885 0.0405341 0.209914 23 21 19
0.830978 0.116941 0.16517 149 90 74
0.833106 0.115557 0.163913 175 109 95
0.837392 0.11284 0.161349 198 125 111
0.840477 0.112248 0.158868 203 130 116
0.846876 0.109324 0.154514 215 146 135
0.849063 0.108074 0.153144 218 151 140
0.878029 0.069192 0.145453 95 63 62
0.907116 0.00951083 0.147391 56 50 47
0.910052 0.0133909 0.142968 59 47 51
0.937603 -0.032831 0.140014 114 107 107
0.939269 -0.0190884 0.132127 85 73 75
0.96625 0.0107428 0.0942851 77 63 63
1.0141 -0.0375022 0.0743434 80 70 73
1.01602 -0.0314136 0.0698124 76 67 70
1.00572 0.00969744 0.0598288 57 28 22
1.00093 0.0393844 0.0502819 85 48 38
1.00009 0.0490028 0.046564 118 77 63
0.9999 0.0545207 0.0441717 140 93 75
1.00386 0.0692544 0.0338419 180 117 100
1.00976 0.0728299 0.0269814 186 123 103
1.00973 0.0751741 0.0259223 193 133 108
1.01019 0.0766551 0.02483 198 139 111
1.01788 0.0794238 0.0167715 204 135 110
1.02501 0.0722727 0.0138014 195 123 102
1.02755 0.070424 0.01242 186 126 103
0.781099 0.0338474 0.246352 10 10 10
0.782616 0.0359388 0.244025 12 12 12
0.808572 -0.00191757 0.238222 15 15 15
0.818963 0.0638947 0.198554 23 20 21
0.830165 0.116516 0.164255 158 100 83
0.832289 0.115131 0.162994 177 111 97
0.843643 0.112034 0.154276 212 144 131
0.846165 0.107953 0.153905 211 143 130
0.847444 0.105917 0.153702 216 149 137
0.848608 0.104823 0.153167 218 151 140
0.861774 0.0800927 0.152816 192 121 111
0.867369 0.0665668 0.15406 179 110 97
0.875934 0.0510141 0.15359 180 106 99
0.904974 0.00228575 0.150163 58 52 50
0.9125 0.00914713 0.140299 80 70 71
0.923236 -0.0113473 0.14018 139 132 132
0.933048 -0.0318157 0.140874 110 101 102
0.93398 -0.0249715 0.136893 73 63 64
0.9325 -0.00085852 0.127107 77 65 67
0.959747 0.00275326 0.101226 75 61 61
0.953224 0.0346268 0.0923592 64 53 50
0.974271 -0.00272837 0.0908516 142 131 130
0.994309 -0.023588 0.082659 109 98 99
1.00423 -0.0222312 0.073239 93 81 83
1.01153 -0.0183103 0.0649632 75 65 69
0.999998 0.0245539 0.0555063 60 32 23
1.00027 0.0268687 0.0542067 66 34 22
0.99964 0.0309808 0.0528733 76 41 30
0.999655 0.0365089 0.0503234 78 44 30
0.998588 0.049347 0.0453784 120 81 65
0.999448 0.0554127 0.041834 138 90 74
1.00224 0.0626186 0.0360575 154 100 80
1.00182 0.0658261 0.0349581 163 105 86
1.0019 0.0704816 0.0327597 179 116 96
1.01533 0.0814624 0.0158481 205 136 111
1.0239 0.0741281 0.0116374 197 125 104
0.78969 0.0321064 0.237069 9 9 9
0.793102 0.00802651 0.244979 10 10 10
0.794579 0.00929422 0.24308 14 14 14
0.803144 0.00986552 0.235153 16 16 16
0.817874 0.0980549 0.181814 21 20 16
0.837801 0.111586 0.157842 207 139 123
0.843042 0.109734 0.154004 214 150 135
0.85221 0.0945383 0.152736 213 148 138
0.870546 0.0554935 0.154147 176 104 94
0.89589 0.0196988 0.147836 48 39 38
0.904929 0.00837823 0.14493 61 52 51
0.91527 0.00878532 0.135531 66 60 58
0.928636 -0.0259287 0.139415 60 49 48
0.932024 -0.0178991 0.132746 77 69 67
0.95941 -0.0157666 0.107402 68 55 52
0.961714 -0.0182982 0.106503 67 56 53
0.957163 0.00992425 0.0977252 77 63 66
0.950192 0.0325863 0.0936271 72 61 60
0.967741 0.00341462 0.0912769 143 134 132
0.988103 -0.0340704 0.0902044 108 96 98
0.991946 -0.0214515 0.0810578 102 93 93
0.998892 0.0239849 0.0542626 60 32 23
0.997827 0.0455968 0.0454033 92 53 39
0.996914 0.055226 0.0418454 138 90 74
1.00529 0.0761307 0.0249432 179 114 97
1.00621 0.0790837 0.0227876 190 130 109
1.03057 0.065692 0.00726039 126 89 79
0.772542 0.0227455 0.254242 5 5 5
0.777873 0.0368989 0.243112 12 12 12
0.779636 0.042551 0.238995 13 13 13
0.781132 0.0446634 0.236708 14 14 14
0.786278 0.0398102 0.234287 13 13 13
0.793416 0.00692175 0.242686 16 16 16
0.802031 0.00839273 0.234324 16 16 16
0.80628 0.00422136 0.2324 20 20 20
0.821422 0.116505 0.168404 77 43 29
0.822398 0.117167 0.167235 91 50 34
0.836881 0.112103 0.156577 208 140 124
0.848707 0.098159 0.152285 213 147 135
0.862885 0.0677112 0.153314 185 114 102
0.896508 0.0229472 0.143434 65 55 56
0.898139 0.0267617 0.140267 82 75 73
0.90107 0.0249129 0.138483 130 126 125
0.903685 0.0192586 0.138692 130 126 125
0.922353 -0.00760244 0.134116 73 64 62
0.942113 -0.0142078 0.119472 100 91 87
0.948328 -0.0162065 0.114832 69 60 59
0.950985 -0.0157506 0.112261 77 63 63
0.95339 -0.00230823 0.104083 70 59 56
0.956271 -0.00270668 0.101696 76 64 63
0.956817 0.00346666 0.0984388 76 64 66
0.958071 0.00375564 0.097192 73 62 63
0.953386 0.02394 0.0923037 144 135 133
0.986622 -0.0192123 0.0820792 103 92 93
1.00207 -0.0276219 0.0720994 87 75 77
1.00639 -0.0270686 0.0680051 91 79 81
1.014 -0.0337278 0.0642256 90 81 82
0.99683 0.0395221 0.0466459 84 48 35
0.995289 0.0532725 0.0418503 129 88 77
0.999183 0.0610079 0.0349189 141 89 72
0.999323 0.0656706 0.0327045 158 102 82
0.999917 0.0717889 0.029434 172 111 93
1.00284 0.0712109 0.0270933 177 113 96
1.00284 0.0735522 0.0260401 175 115 94
1.00382 0.0741512 0.0249091 174 113 95
0.770357 0.026361 0.25215 0 0 0
0.771453 0.0221981 0.253017 5 5 5
0.775071 0.031625 0.245605 10 10 10
0.78658 0.00854716 0.245564 14 14 14
0.802266 -0.00268165 0.236539 17 17 17
0.805161 0.000917045 0.232358 19 19 19
0.815742 0.109184 0.174892 29 23 20
0.81855 0.11664 0.169078 59 33 23
0.838297 0.109431 0.154651 212 146 132
0.841594 0.107014 0.152781 210 146 134
0.842736 0.105903 0.152254 216 154 141
0.855998 0.0771916 0.153154 200 136 121
0.862393 0.0644017 0.15312 183 111 101
0.863848 0.0623965 0.152711 180 109 99
0.868925 0.0526187 0.152518 177 104 94
0.872983 0.0495156 0.150273 159 91 86
0.892069 0.0376071 0.138527 100 93 93
0.896705 0.0224252 0.141123 97 93 92
0.918054 -0.00646503 0.134891 65 59 57
0.919445 -0.00154021 0.131466 74 65 63
0.922284 -0.00712333 0.131409 74 65 63
0.927539 -0.0163667 0.13082 75 66 65
0.934417 -0.00683314 0.120458 102 91 88
0.952063 -0.0189215 0.11008 76 62 62
0.960122 0.00192015 0.0936509 150 141 139
0.98333 -0.0256498 0.0851789 93 81 83
0.983548 -0.0224738 0.0835758 89 78 79
0.986336 -0.0257752 0.082554 89 77 81
0.999264 -0.0245696 0.0704917 81 72 70
1.00889 -0.0326652 0.0655017 94 82 84
1.0033 -0.000421095 0.056189 76 63 68
0.996673 0.0228664 0.051773 58 31 24
0.994878 0.0407811 0.0454325 82 46 31
0.9929 0.0554311 0.0407019 126 85 71
0.997458 0.0715902 0.0294763 169 110 93
0.77524 0.0287253 0.244348 10 10 10
0.781899 0.0222656 0.241239 15 15 15
0.785462 0.00799333 0.244307 17 17 17
0.786341 -0.00519267 0.249294 17 17 17
0.813873 0.108148 0.175141 29 22 22
0.819787 0.11569 0.166566 99 57 39
0.822865 0.114907 0.164164 146 90 73
0.832078 0.112825 0.156857 208 138 123
0.83737 0.10996 0.15339 209 146 129
0.838493 0.108836 0.15288 212 148 133
0.839622 0.107716 0.152363 212 148 133
0.864357 0.059922 0.151214 177 106 93
0.868484 0.0558381 0.149319 169 100 92
0.873526 0.0470535 0.148665 123 71 68
0.891017 0.0200071 0.144894 41 32 31
0.896627 0.0285893 0.13613 62 55 53
0.900393 0.0334824 0.130627 62 53 52
0.907279 0.0155416 0.132333 67 56 55
0.929554 -0.00393436 0.120975 98 90 86
0.934164 -0.015135 0.121763 109 98 95
0.934663 -0.0121294 0.120002 139 130 129
0.937956 -0.0185761 0.119884 136 127 125
0.952646 0.00393547 0.0969106 101 91 92
0.956473 0.000758366 0.0948843 153 144 145
0.960672 -0.00331692 0.0929189 110 101 102
0.964658 -0.0104792 0.0924951 92 80 82
1.00671 -0.0347105 0.0655438 98 89 92
1.00961 -0.0206195 0.0567777 80 68 72
0.995088 0.0320022 0.0467059 73 35 25
1.00181 0.0755038 0.0216424 168 107 89
1.00881 0.0837432 0.0117701 216 151 125
0.777103 0.0297173 0.239879 17 17 17
0.787454 -0.0240903 0.253896 24 24 24
0.790807 -0.0161551 0.247484 16 16 16
0.800097 0.00534061 0.229929 16 16 16
0.801544 0.00852299 0.227266 17 17 17
0.807032 0.0333519 0.211658 19 19 19
0.810152 0.0883885 0.185116 24 21 22
0.813032 0.107737 0.174196 35 24 21
0.819993 0.115024 0.164846 126 76 61
0.822044 0.114507 0.163242 155 96 80
0.824094 0.11401 0.16163 178 110 94
0.828256 0.112137 0.158728 197 126 113
0.833296 0.112015 0.154288 211 140 125
0.846474 0.0940449 0.150296 210 146 134
0.848139 0.0891654 0.150918 205 141 128
0.854827 0.0715555 0.152557 193 124 111
0.858053 0.0646599 0.152657 184 118 106
0.862382 0.0586126 0.151406 179 108 96
0.868036 0.0590804 0.146159 144 91 84
0.886605 0.0413675 0.137235 69 62 62
0.887048 0.0556481 0.13067 63 55 53
0.930855 -0.0179147 0.123324 107 98 96
0.930038 -0.0101765 0.12071 141 133 131
0.936332 0.000528467 0.110458 83 70 67
0.939073 -0.00399412 0.109962 82 68 66
0.942332 -0.00145549 0.105952 78 65 65
0.945738 -0.00782615 0.105661 77 66 63
0.953992 -0.020264 0.103659 73 62 61
0.969536 -0.0238138 0.0912936 102 91 92
0.9804 -0.0218046 0.0807064 94 82 84
1.00779 -0.0301117 0.0597891 96 86 90
1.01194 -0.0359735 0.0586106 94 84 87
0.998756 0.00946595 0.0507478 43 23 21
0.991869 0.0549505 0.0372251 122 79 61
0.994721 0.0621481 0.0315535 135 85 68
1.00364 0.0792146 0.0161668 199 134 113
1.00508 0.0789757 0.0149804 197 130 108
1.01552 0.0814715 0.00454223 200 126 103
1.01956 0.0770657 0.00283228 176 107 82
0.773678 -0.00304253 0.254512 15 15 15
0.789437 -0.022178 0.248651 15 15 15
0.794598 0.00080683 0.234271 12 12 12
0.804655 0.0167175 0.218547 16 16 16
0.850647 0.0789724 0.151063 196 132 120
0.854286 0.0682623 0.15238 185 119 107
0.857647 0.0604067 0.152728 186 115 105
0.867167 0.0510924 0.148203 143 85 77
0.867552 0.0557631 0.145869 127 78 74
0.892409 0.0371061 0.131624 60 51 50
0.917443 0.00664198 0.122238 91 82 83
0.927277 -0.00503606 0.118425 73 64 60
0.930973 -0.00851061 0.116601 74 63 62
0.928846 0.00795023 0.111482 73 62 61
0.930789 0.0102066 0.10878 79 68 65
0.939219 -0.00433257 0.107441 81 70 67
0.947169 -0.0078945 0.101845 56 45 42
0.953597 -0.00655906 0.0955201 115 105 106
0.960073 -0.0172444 0.0942825 71 59 61
0.977233 -0.0136226 0.0773636 91 79 83
0.996954 -0.0406945 0.0712523 94 84 87
0.992636 0.0286149 0.0454986 65 32 25
0.992473 0.0318489 0.0442615 67 32 24
0.989454 0.0492692 0.0395202 89 51 36
0.9911 0.0591097 0.0338323 130 85 68
1.00354 0.0817259 0.0129749 199 135 111
1.0039 0.0855863 0.0109964 199 132 105
1.00381 0.0879476 0.0100619 203 137 109
1.01194 0.0852496 0.00390964 195 124 98
0.779043 -0.0210598 0.254767 29 29 29
0.793541 0.00300915 0.231781 12 12 12
0.802195 0.0157268 0.218748 14 14 14
0.859844 0.054001 0.151339 178 109 98
0.861163 0.0529345 0.15061 176 108 97
0.886927 0.0165772 0.142892 30 26 25
0.926665 -0.00747762 0.117474 79 70 68
0.929279 -0.00715687 0.114999 76 64 63
0.948224 -0.0110204 0.0996543 136 126 127
0.957912 -0.0149868 0.0926396 95 84 85
0.961173 -0.0203167 0.0919617 94 82 84
0.969116 -0.034684 0.090893 87 75 77
0.969127 -0.0305917 0.0891582 75 66 67
0.998752 -0.0412718 0.0670703 91 82 85
1.0104 -0.0324368 0.0528735 79 67 71
0.989508 0.043742 0.0394815 83 44 35
0.988403 0.0487718 0.0383498 88 49 37
0.988461 0.0566491 0.0349673 106 65 49
0.991849 0.0652872 0.0282658 135 85 68
0.991926 0.0676246 0.0272075 141 87 71
0.991067 0.0717334 0.0262438 147 93 77
0.992579 0.0760925 0.0230376 162 103 84
0.999205 0.0826118 0.0143091 197 130 110
1.00063 0.0823629 0.0131319 193 124 100
1.00365 0.0904918 0.00696785 209 144 118
1.01277 0.0861471 0.000581218 184 115 88
0.776384 -0.0201084 0.25409 24 24 24
0.787596 -0.00963758 0.239811 12 12 12
0.793862 0.00289334 0.22906 12 12 12
0.882803 0.0494766 0.130558 65 56 54
0.915582 -0.00606267 0.12428 137 131 131
0.920015 -0.00762141 0.120957 65 54 53
0.92209 -0.0103493 0.120231 67 56 55
0.925505 -0.0129236 0.11824 70 58 58
0.927593 -0.00579168 0.113407 76 64 63
0.945153 -0.0099298 0.0993795 151 141 142
0.954471 -0.0130131 0.0922977 88 77 78
0.966557 -0.0315049 0.0891352 86 74 76
0.971565 -0.0291662 0.0836633 106 94 96
0.97686 -0.0276532 0.078274 115 103 105
0.979135 -0.0259226 0.0755087 87 75 77
0.992321 -0.0404975 0.0697189 72 65 66
0.999138 -0.0497487 0.0674397 74 62 66
1.00553 -0.0538048 0.0633781 84 74 80
1.00381 -0.0459179 0.0616381 75 67 72
0.988441 0.0432447 0.0382965 81 42 30
0.988898 0.0558068 0.0326392 115 71 56
0.990627 0.0601331 0.0292726 127 80 64
0.993509 0.0791367 0.0187268 165 103 88
0.997281 0.0815373 0.0143152 185 120 99
1.00002 0.0857567 0.0100753 194 125 103
1.01035 0.0858483 0.000693154 200 126 101
1.00921 0.0899377 1.78552e-05 192 121 95
1.00855 0.0931694 -0.000745819 195 129 103
0.786082 -0.0183866 0.242171 10 10 10
0.787938 -0.00980205 0.23702 12 12 12
0.789436 -0.00942022 0.235536 10 10 10
0.879868 0.0347298 0.137034 34 32 31
0.921437 -0.0127884 0.119272 72 61 60
0.920331 0.015577 0.108641 82 71 70
0.939513 -0.00929081 0.101619 162 153 154
0.949456 -0.010353 0.0931211 85 73 75
0.953947 -0.0113721 0.0895017 87 75 77
0.962705 -0.0204544 0.0853534 98 89 92
0.97179 -0.017939 0.0761432 93 79 82
0.99017 -0.0350554 0.0666225 58 48 49
0.997327 -0.0452311 0.0643567 77 65 69
1.0004 -0.0451706 0.0615567 64 57 61
0.986484 0.0501262 0.0348745 89 51 34
0.985951 0.0565882 0.0326911 101 60 47
0.987689 0.0608971 0.029342 126 80 66
0.918456 -0.0115365 0.11889 74 63 62
0.931374 -1.70908e-05 0.102634 153 144 143
0.942997 -0.0159833 0.0986425 72 60 62
0.950753 -0.0184468 0.092662 86 74 76
0.957571 -0.0219732 0.0879522 93 81 83
0.967764 -0.0347634 0.0839521 99 87 91
0.969774 -0.0362859 0.0827576 89 77 81
0.968741 -0.0252314 0.0792082 85 73 75
0.9721 -0.0304835 0.0783088 91 79 81
0.973769 -0.0310373 0.0770282 95 80 83
0.980369 -0.0290135 0.0702545 89 78 79
0.985166 -0.0337374 0.0678417 101 89 91
0.988912 -0.0356252 0.0652266 55 43 47
0.996463 -0.0392807 0.059891 48 39 42
1.00027 -0.0410475 0.0571707 73 61 65
1.00331 -0.0409314 0.054371 54 46 49
1.00596 -0.0398633 0.051542 38 28 31
0.99252 0.0109469 0.0430419 90 76 78
0.967539 -0.0298993 0.0794861 80 68 72
0.984994 -0.0370916 0.0665949 96 85 86
0.985961 -0.0357125 0.0651682 95 84 85
0.989712 -0.0375827 0.0625248 76 63 68
0.994059 -0.0370716 0.0583865 66 55 54
