ply
format ascii 1.0
comment Created by Open3D
element vertex 2000
property double x
property double y
property double z
property uchar red
property uchar green
property uchar blue
end_header
0.615257 0.442589 -0.0408629 218 202 207
0.688995 0.304902 0.179789 143 138 142
0.739474 0.26539 0.236628 120 118 121
0.691411 0.294284 0.192202 88 85 86
0.714215 0.284137 0.203286 231 222 232
0.741636 0.260984 0.236581 199 193 202
0.69242 0.300862 0.176982 192 184 191
0.727528 0.266802 0.226766 235 227 237
0.757263 0.258526 0.233047 132 127 133
0.693477 0.293904 0.18601 155 147 156
0.728766 0.263303 0.229043 233 225 234
0.734879 0.259514 0.233881 238 229 239
0.763112 0.25782 0.22918 124 119 125
0.692647 0.28944 0.191099 121 116 120
0.720196 0.270869 0.21494 232 223 233
0.73152 0.259905 0.230629 236 228 238
0.692343 0.290266 0.186687 148 138 146
0.69689 0.291571 0.18295 203 194 204
0.72217 0.266371 0.218768 229 221 231
0.740419 0.257068 0.229415 238 229 239
0.74622 0.256026 0.229572 238 229 239
0.754699 0.255932 0.227448 231 222 232
0.771081 0.254908 0.225062 170 162 171
0.775052 0.254411 0.224952 145 140 146
0.74746 0.254686 0.227989 238 229 239
0.753986 0.254923 0.22583 239 230 240
0.755508 0.255123 0.225093 239 230 240
0.774308 0.253373 0.223335 198 190 199
0.779813 0.253169 0.222392 155 147 156
0.694567 0.281401 0.195163 124 116 121
0.713082 0.273268 0.203138 231 222 232
0.749113 0.25284 0.227145 238 229 239
0.750224 0.25354 0.225671 240 230 240
0.764587 0.252647 0.223412 239 230 240
0.775081 0.252607 0.220927 211 202 212
0.69861 0.284109 0.186185 206 198 207
0.704901 0.279039 0.192766 220 212 221
0.713175 0.271379 0.203113 233 223 233
0.743806 0.251327 0.227668 238 229 239
0.747989 0.252369 0.22477 239 228 239
0.749095 0.253072 0.223301 239 228 239
0.763853 0.251642 0.22179 239 230 240
0.698459 0.278454 0.192744 182 171 182
0.699823 0.278529 0.192178 196 185 196
0.753783 0.25164 0.220974 239 230 240
0.76903 0.249814 0.220041 239 230 240
0.770091 0.250581 0.218538 239 230 240
0.774513 0.249553 0.219131 240 232 241
0.788062 0.250317 0.21479 206 198 207
0.790559 0.249612 0.215369 197 188 198
0.702331 0.275179 0.193917 205 197 206
0.724817 0.253395 0.222998 238 227 238
0.74657 0.250428 0.221515 240 230 240
0.77376 0.248551 0.217507 240 232 241
0.778776 0.248854 0.21583 240 232 241
0.731725 0.248587 0.225426 239 230 240
0.73937 0.249322 0.221974 239 230 240
0.741698 0.248424 0.222765 239 230 240
0.763161 0.248923 0.216157 240 232 241
0.765122 0.248638 0.216116 240 232 241
0.770568 0.248342 0.215233 240 232 241
0.792514 0.247707 0.211158 227 219 228
0.69779 0.26514 0.205816 99 93 97
0.698597 0.277393 0.185455 212 204 211
0.703447 0.274339 0.188895 224 215 225
0.710991 0.265303 0.201254 228 220 230
0.75832 0.246749 0.217525 240 232 241
0.768307 0.247113 0.214387 243 232 242
0.79223 0.246185 0.210232 242 233 246
0.794237 0.245998 0.210083 241 233 242
0.699685 0.264995 0.202301 142 135 139
0.726122 0.245803 0.224915 238 227 238
0.736842 0.246759 0.220144 242 231 241
0.737968 0.247454 0.218704 240 232 241
0.740288 0.246542 0.219489 240 232 241
0.757586 0.245794 0.215891 240 232 241
0.762573 0.245947 0.214347 243 232 242
0.773472 0.245348 0.212548 241 233 242
0.779496 0.246472 0.209355 242 234 244
0.781477 0.246241 0.209249 241 233 242
0.782977 0.246541 0.208436 241 233 242
0.793449 0.244998 0.20846 242 233 246
0.809519 0.245649 0.204091 221 210 218
0.733095 0.245539 0.219883 239 230 240
0.796164 0.244163 0.20583 244 233 246
0.799671 0.244342 0.204802 242 233 246
0.804743 0.242989 0.205784 242 233 246
0.809237 0.244123 0.203145 235 224 234
0.814785 0.244278 0.201806 222 211 219
0.690306 0.272073 0.187984 115 110 112
0.724389 0.24452 0.220861 239 228 239
0.739275 0.24416 0.216947 240 232 241
0.749207 0.244164 0.214121 242 231 241
0.765602 0.244793 0.208789 243 232 242
0.778913 0.243491 0.207506 242 233 246
0.782882 0.243025 0.207278 244 233 246
0.795876 0.242655 0.204888 242 233 246
0.806929 0.242738 0.202406 243 235 247
0.810979 0.242471 0.201975 246 235 248
0.816535 0.242641 0.200612 233 222 235
0.82376 0.241329 0.201161 221 209 215
0.695472 0.27105 0.184975 194 183 193
0.727131 0.243322 0.218625 242 231 241
0.74089 0.242328 0.216068 242 231 241
0.761231 0.242054 0.210877 243 232 240
0.79107 0.24014 0.206477 244 233 246
0.793579 0.241338 0.204108 244 233 246
0.803125 0.240998 0.20253 243 235 247
0.815708 0.241635 0.19899 247 236 249
0.822922 0.240306 0.199535 235 224 234
0.715945 0.246289 0.214259 222 214 222
0.726442 0.242434 0.216974 242 231 241
0.752902 0.240017 0.212988 243 232 242
0.760928 0.240588 0.209951 243 232 242
0.761994 0.241371 0.208477 244 233 244
0.764551 0.242408 0.206238 243 232 242
0.776815 0.240237 0.20644 244 233 244
0.782291 0.240049 0.2054 244 233 246
0.802314 0.240019 0.200901 245 234 247
0.826737 0.23861 0.198003 239 228 239
0.834404 0.238889 0.19616 223 208 215
0.695243 0.267957 0.184134 197 187 195
0.734508 0.240599 0.214136 243 232 242
0.753686 0.239319 0.210599 243 232 242
0.843593 0.239754 0.190015 201 182 187
0.721655 0.241004 0.214254 242 231 241
0.739861 0.240382 0.209691 243 232 242
0.747975 0.238354 0.210438 244 233 244
0.755325 0.237533 0.209635 244 233 244
0.758989 0.239321 0.205957 244 233 244
0.776768 0.238671 0.202364 244 233 246
0.785708 0.238572 0.200354 245 234 247
0.78969 0.238144 0.200052 245 234 247
0.798166 0.238802 0.197166 246 235 248
0.81633 0.237509 0.195173 246 235 248
0.825601 0.236071 0.195384 246 235 248
0.741058 0.239133 0.208061 243 232 242
0.742977 0.238758 0.208071 244 233 244
0.757612 0.237089 0.206483 244 233 244
0.797355 0.237862 0.195536 246 235 248
0.806966 0.235594 0.1967 246 235 248
0.822151 0.235695 0.19339 247 236 249
0.83091 0.234859 0.192853 246 235 248
0.838003 0.235714 0.190299 249 237 250
0.843024 0.236684 0.188016 241 228 239
0.695354 0.260124 0.187519 188 176 184
0.76783 0.237396 0.200174 245 234 245
0.79208 0.235877 0.19645 246 235 248
0.799576 0.235671 0.195038 246 235 248
0.812754 0.23368 0.195009 247 236 249
0.821856 0.234186 0.192397 247 236 249
0.8239 0.234095 0.192113 247 236 249
0.855161 0.235201 0.184739 225 212 221
0.85871 0.235791 0.18332 216 199 205
0.677597 0.277436 0.164531 102 98 97
0.69472 0.259418 0.185934 190 177 186
0.722618 0.238723 0.207973 243 232 242
0.740428 0.236293 0.2062 244 233 244
0.746197 0.235168 0.206196 244 233 244
0.772939 0.235678 0.198244 245 234 245
0.776401 0.235706 0.197333 245 234 247
0.793269 0.23476 0.194636 246 235 246
0.799792 0.233652 0.194722 246 235 248
0.806804 0.234088 0.192543 247 236 249
0.825651 0.232502 0.19082 247 236 249
0.69236 0.251581 0.195626 90 88 84
0.736286 0.235665 0.205236 244 233 244
0.777586 0.234565 0.195569 246 235 248
0.782536 0.234942 0.19381 246 235 248
0.78699 0.233932 0.194176 246 235 248
0.792459 0.23385 0.192997 246 235 248
0.804486 0.232768 0.191784 247 236 249
0.805973 0.233157 0.190906 247 236 249
0.853105 0.231582 0.18369 247 237 247
0.853976 0.232647 0.182083 250 239 249
0.857522 0.233231 0.180665 250 237 248
0.701325 0.249521 0.192752 210 200 208
0.720828 0.23524 0.207516 244 231 242
0.723109 0.236646 0.204732 244 231 240
0.724987 0.236206 0.204793 245 233 242
0.734061 0.234666 0.204276 245 233 242
0.751605 0.233163 0.20137 245 234 245
0.757429 0.232144 0.201226 247 233 245
0.762997 0.2337 0.197483 247 233 245
0.770823 0.232522 0.197114 245 234 245
0.772321 0.232806 0.196323 246 235 246
0.774288 0.232534 0.196208 248 234 248
0.775308 0.233389 0.19473 248 234 248
0.804707 0.230749 0.191444 247 236 249
0.808219 0.230988 0.190327 247 236 249
0.816331 0.230454 0.189307 249 237 252
0.835671 0.230702 0.185005 250 237 250
0.847171 0.229508 0.184433 249 237 250
0.693322 0.246071 0.197632 95 93 91
0.698319 0.23973 0.20527 115 110 112
0.718539 0.231879 0.210093 244 231 240
0.731448 0.234261 0.20259 245 233 242
0.73485 0.234013 0.201924 245 232 244
0.739062 0.232638 0.20266 247 233 245
0.747846 0.231893 0.201184 247 233 245
0.751286 0.231749 0.200415 247 233 245
0.757111 0.230722 0.200264 245 234 245
0.78192 0.23207 0.191871 246 235 248
0.789352 0.231718 0.190556 247 236 249
0.801862 0.230002 0.190023 247 236 249
0.821037 0.229729 0.186191 249 237 250
0.856934 0.230177 0.178591 250 237 248
0.717759 0.223167 0.21992 223 212 221
0.722829 0.233306 0.203592 245 233 242
0.763863 0.231128 0.194789 248 235 246
0.810046 0.229415 0.185905 249 237 250
0.817209 0.227924 0.186377 249 237 250
0.819246 0.22781 0.186095 250 237 250
0.820732 0.22825 0.185176 249 237 250
0.839188 0.227614 0.182253 251 238 251
0.845679 0.229132 0.178955 251 238 249
0.848341 0.228594 0.17917 251 238 251
0.856636 0.228657 0.177546 251 238 249
0.866636 0.231074 0.172571 250 237 248
0.869346 0.230633 0.172686 250 237 248
0.874153 0.2303 0.17231 251 239 245
0.876884 0.22989 0.172392 255 245 251
0.719114 0.232259 0.203251 245 233 242
0.738011 0.230428 0.200046 247 233 245
0.74335 0.229835 0.199314 247 233 245
0.751721 0.229735 0.197054 247 233 245
0.753223 0.229963 0.19631 247 233 245
0.76504 0.229985 0.193045 248 235 246
0.773895 0.229685 0.191139 248 234 248
0.790217 0.229193 0.187745 247 236 249
0.800202 0.228209 0.18673 247 236 249
0.853653 0.227649 0.176324 251 238 249
0.863638 0.230013 0.171395 250 237 248
0.877401 0.229501 0.169694 248 233 243
0.879494 0.229619 0.169192 235 222 231
0.710025 0.229657 0.206917 219 209 217
0.713617 0.226213 0.21066 229 218 226
0.714117 0.228083 0.207822 237 224 233
0.716112 0.230066 0.20434 244 231 240
0.71763 0.230181 0.203686 245 233 242
0.71842 0.231478 0.201584 245 233 242
0.735776 0.229447 0.199085 247 234 243
0.756953 0.229861 0.192404 247 233 245
0.758443 0.230109 0.191648 248 235 246
0.837996 0.225167 0.179567 251 238 249
0.844189 0.225073 0.178454 251 238 249
0.848329 0.225049 0.177675 251 238 249
0.858112 0.225661 0.175013 250 237 248
0.859812 0.22787 0.17181 250 237 248
0.866864 0.229169 0.168851 250 237 248
0.877104 0.227972 0.168625 250 237 248
0.695263 0.240372 0.19363 156 143 152
0.712931 0.225418 0.208968 230 219 228
0.717294 0.228813 0.202735 245 233 242
0.718088 0.230117 0.200637 245 233 242
0.741184 0.226859 0.198102 247 234 243
0.745293 0.228048 0.195239 247 233 245
0.747214 0.227674 0.195204 247 234 243
0.7547 0.228811 0.191501 248 235 246
0.763944 0.227759 0.190415 248 235 246
0.77475 0.227165 0.188372 249 236 247
0.806565 0.225772 0.182491 249 237 250
0.814099 0.225756 0.180806 251 238 251
0.820181 0.2254 0.179941 251 238 251
0.822771 0.224741 0.180256 251 238 251
0.824811 0.224645 0.179944 251 238 251
0.831516 0.223852 0.179574 250 238 251
0.883088 0.226813 0.16601 251 238 249
0.698299 0.227005 0.208642 102 98 97
0.697608 0.231245 0.202878 133 124 127
0.696222 0.236684 0.195661 159 146 155
0.719261 0.228884 0.199027 245 233 242
0.735511 0.226102 0.197861 247 234 243
0.776442 0.227534 0.184452 249 235 249
0.794741 0.224855 0.1835 250 237 250
0.812304 0.223884 0.180683 250 237 250
0.815263 0.224743 0.178877 251 238 251
0.817287 0.22462 0.178589 251 238 251
0.840916 0.222668 0.176131 251 238 249
0.862113 0.226039 0.167646 251 238 249
0.864811 0.225564 0.167759 251 238 249
0.875861 0.225456 0.165912 250 237 248
0.8954 0.22623 0.161627 255 242 253
0.694413 0.235316 0.195332 136 126 129
0.694285 0.23838 0.191077 162 149 156
0.71053 0.225658 0.203412 232 222 230
0.744635 0.225293 0.193292 248 235 244
0.752556 0.225813 0.190298 248 235 246
0.757031 0.226544 0.188044 248 235 246
0.758964 0.226211 0.187961 248 235 246
0.770652 0.224348 0.187317 248 235 246
0.773159 0.225526 0.185063 249 236 247
0.778568 0.225297 0.183965 249 236 247
0.782509 0.22479 0.183638 249 235 249
0.789932 0.224434 0.182255 250 237 250
0.817522 0.222613 0.178175 251 238 251
0.821587 0.222387 0.177569 251 238 251
0.830319 0.221467 0.176874 251 238 251
0.844144 0.221682 0.173711 251 238 251
0.84828 0.221654 0.172914 251 238 249
0.860972 0.223423 0.168174 251 238 249
0.719728 0.226913 0.195736 247 234 243
0.734052 0.224554 0.194513 247 234 243
0.740473 0.224705 0.192375 247 234 243
0.751795 0.225033 0.188635 248 235 246
0.754775 0.225514 0.18714 248 235 246
0.759083 0.224245 0.187649 248 235 246
0.791599 0.222808 0.181041 250 237 250
0.799586 0.222001 0.180158 250 237 250
0.811129 0.221574 0.177998 250 237 250
0.812609 0.222001 0.177099 250 237 248
0.828867 0.221127 0.174615 251 238 251
0.853224 0.222931 0.167274 251 238 249
0.863573 0.223116 0.165046 251 238 249
0.881672 0.224492 0.160021 250 237 248
0.69078 0.232607 0.194649 91 86 85
0.695726 0.234661 0.190107 188 176 182
0.709302 0.226683 0.196527 245 233 239
0.712658 0.226291 0.195963 245 233 242
0.717524 0.226045 0.194722 248 233 243
0.725389 0.226145 0.192095 247 234 243
0.756375 0.223803 0.186073 248 235 246
0.807719 0.221442 0.175994 251 238 251
0.829453 0.220723 0.172019 251 238 251
0.830922 0.221212 0.171074 251 238 249
0.851089 0.223107 0.164482 252 239 251
0.861187 0.221582 0.164429 251 238 249
0.873482 0.220303 0.163708 251 238 249
0.898593 0.220247 0.15932 250 237 248
0.906395 0.221588 0.15637 240 226 238
0.70896 0.225355 0.195566 245 233 242
0.740484 0.223392 0.188319 248 235 244
0.758423 0.221501 0.185659 249 236 247
0.763349 0.221706 0.184017 248 235 246
0.774194 0.223171 0.179157 249 235 249
0.779582 0.222957 0.178029 250 237 250
0.784985 0.222799 0.176849 250 237 250
0.787959 0.221395 0.177931 250 237 250
0.806863 0.220603 0.17434 251 238 251
0.823584 0.218984 0.172574 251 238 249
0.827095 0.219364 0.171306 251 238 249
0.830603 0.219771 0.170018 251 238 251
0.832645 0.219702 0.169662 251 238 249
0.835268 0.219079 0.16989 251 238 249
0.850776 0.22165 0.163414 251 238 249
0.873349 0.220518 0.16045 251 238 249
0.8872 0.220164 0.158359 251 238 249
0.890617 0.219254 0.158871 250 237 248
0.903965 0.219833 0.155858 243 232 242
0.913971 0.226901 0.145668 202 190 194
0.69581 0.227738 0.1939 171 159 165
0.697623 0.227192 0.19402 186 174 180
0.710467 0.223523 0.194673 247 232 242
0.745463 0.22147 0.186524 248 235 244
0.750991 0.222991 0.182904 248 235 246
0.755712 0.22108 0.184083 248 235 246
0.76655 0.22238 0.179361 249 236 247
0.803472 0.220522 0.172332 251 238 251
0.822142 0.218695 0.170316 251 238 249
0.831749 0.218829 0.168009 252 239 251
0.863459 0.21983 0.160206 251 238 249
0.875923 0.22031 0.157235 250 237 248
0.902976 0.218826 0.154206 243 232 242
0.904416 0.219561 0.153071 239 228 239
0.698879 0.222809 0.196661 187 175 181
0.707439 0.221381 0.195687 242 229 238
0.731521 0.220975 0.188503 247 234 243
0.747687 0.221178 0.183389 248 235 244
0.755377 0.219725 0.18308 249 236 247
0.76074 0.219303 0.182116 248 235 246
0.765757 0.221623 0.177703 249 236 247
0.771586 0.220724 0.177291 249 236 247
0.790257 0.219346 0.174203 250 237 250
0.806213 0.21779 0.172259 251 238 251
0.811708 0.217905 0.170804 251 238 251
0.81979 0.217385 0.169582 251 238 249
0.825318 0.217645 0.167996 251 238 251
0.853646 0.219329 0.159828 252 239 251
0.862517 0.218916 0.15856 252 239 251
0.866659 0.219036 0.1576 251 238 249
0.874164 0.218188 0.157191 251 238 249
0.915321 0.216875 0.151416 219 209 217
0.916761 0.217652 0.150248 212 202 210
0.713582 0.222459 0.189375 248 233 243
0.723654 0.221439 0.187495 247 234 243
0.729677 0.219469 0.188206 248 235 244
0.751186 0.219094 0.182245 248 235 246
0.769307 0.219663 0.176424 249 236 247
0.78105 0.21799 0.175439 250 237 248
0.791401 0.218338 0.172326 250 237 250
0.813942 0.215776 0.170059 251 238 249
0.821491 0.215856 0.168196 251 238 251
0.835188 0.215839 0.165132 251 238 249
0.87049 0.217721 0.155508 251 238 251
0.574547 0.438364 -0.0514127 242 229 238
0.703862 0.202623 0.216032 134 125 128
0.707411 0.217498 0.195137 244 232 238
0.719577 0.221062 0.186465 247 234 243
0.730445 0.218931 0.185832 249 234 244
0.738722 0.218647 0.18367 248 235 244
0.742119 0.218451 0.182906 248 235 244
0.744028 0.218054 0.182852 248 235 244
0.752337 0.217997 0.18049 248 235 246
0.754263 0.217637 0.1804 249 236 247
0.767496 0.218014 0.176196 249 236 247
0.772872 0.217723 0.175103 249 236 247
0.775306 0.216836 0.175579 250 237 248
0.795554 0.215942 0.171447 251 238 251
0.800065 0.214951 0.171568 251 238 251
0.840421 0.214836 0.162307 252 239 251
0.850947 0.216436 0.158095 252 239 251
0.857124 0.216488 0.156749 252 239 251
0.864761 0.217225 0.154307 251 238 249
0.872247 0.216343 0.153891 251 238 249
0.877051 0.215988 0.153384 251 238 251
0.886717 0.215394 0.152254 251 238 249
0.898563 0.215144 0.150367 246 235 246
0.901346 0.214803 0.150269 243 232 242
0.909813 0.215669 0.147743 223 212 221
0.910634 0.220598 0.141795 203 193 201
0.574922 0.43266 -0.0443988 131 116 121
0.722589 0.219432 0.18483 248 233 243
0.731205 0.218409 0.183458 247 234 243
0.744759 0.217561 0.180447 248 235 244
0.764756 0.21759 0.174668 249 236 247
0.80522 0.213606 0.1691 251 238 251
0.85535 0.214461 0.156662 252 239 253
0.858862 0.215079 0.155186 252 239 251
0.892693 0.214371 0.149389 250 237 248
0.90949 0.214154 0.146586 223 212 221
0.911609 0.21439 0.145934 218 208 216
0.911009 0.218574 0.141146 205 192 201
0.908944 0.221975 0.137535 194 183 191
0.894214 0.236572 0.123061 169 157 161
0.691388 0.217339 0.195167 100 93 93
0.706531 0.2181 0.188995 248 233 243
0.710342 0.219681 0.185679 248 233 243
0.715532 0.218804 0.185119 247 234 243
0.720378 0.218601 0.183821 248 233 243
0.727868 0.216744 0.183843 248 235 244
0.733843 0.217468 0.181058 248 235 244
0.738301 0.218067 0.178934 248 235 244
0.750163 0.215085 0.179209 248 235 244
0.751655 0.21533 0.178461 248 235 244
0.761459 0.215684 0.175199 249 236 247
0.764878 0.215644 0.17429 249 236 247
0.770718 0.214714 0.173846 250 237 248
0.772199 0.215026 0.173047 250 237 248
0.778076 0.214175 0.172524 250 237 248
0.783001 0.214594 0.170687 250 237 250
0.791874 0.214609 0.168357 250 237 250
0.836245 0.211511 0.161492 251 238 249
0.849444 0.212439 0.157458 252 239 251
0.86744 0.213279 0.152677 252 239 251
0.891704 0.213431 0.147732 251 238 249
0.905685 0.21349 0.145069 229 218 226
0.911283 0.212878 0.144771 218 207 218
0.911339 0.214714 0.142626 211 201 209
0.909306 0.218137 0.139012 204 194 202
0.697107 0.216286 0.19175 199 186 195
0.705338 0.215444 0.190037 245 233 242
0.732005 0.215971 0.180754 248 235 244
0.756215 0.214152 0.175827 249 236 247
0.762599 0.214636 0.173399 249 236 247
0.782169 0.213849 0.169021 251 238 251
0.791537 0.21325 0.167307 250 237 250
0.794991 0.213418 0.166212 251 238 251
0.811521 0.211371 0.164595 251 238 249
0.817027 0.211541 0.163054 251 238 249
0.87207 0.21318 0.148951 251 238 251
0.876869 0.212815 0.148418 251 238 251
0.902568 0.212323 0.144043 232 221 232
0.573991 0.438739 -0.0536059 242 229 240
0.694856 0.218802 0.18652 200 187 196
0.702804 0.215319 0.188269 242 230 236
0.716326 0.216354 0.18247 248 233 243
0.750532 0.213302 0.17576 248 235 244
0.799152 0.211047 0.165244 251 238 249
0.80262 0.211267 0.164098 251 238 249
0.815218 0.209698 0.162887 251 238 249
0.849629 0.210735 0.153694 251 238 249
0.866149 0.210959 0.149897 251 238 251
0.881355 0.211032 0.146708 251 238 251
0.888944 0.210329 0.146025 250 237 248
0.902237 0.210837 0.142882 224 213 224
0.906588 0.216779 0.135242 199 186 195
0.889817 0.235028 0.117403 156 142 145
0.707104 0.216985 0.18196 248 233 243
0.725314 0.212662 0.181501 249 234 244
0.7287 0.212372 0.180795 249 234 244
0.748267 0.212368 0.174824 248 235 244
0.750615 0.211362 0.175382 248 235 246
0.759526 0.212946 0.170827 249 236 247
0.764869 0.21257 0.169773 249 236 247
0.769758 0.212867 0.168039 250 237 248
0.777562 0.211705 0.167324 250 237 248
0.782465 0.21213 0.16548 250 237 250
0.806284 0.209545 0.162452 251 238 249
0.818727 0.210306 0.158475 250 237 248
0.841085 0.209413 0.154312 251 238 249
0.841945 0.210541 0.15278 251 238 249
0.862294 0.208856 0.150302 251 238 251
0.864367 0.208903 0.149805 251 238 251
0.867889 0.209589 0.14826 251 238 249
0.894247 0.209894 0.142575 250 237 248
0.908237 0.209998 0.139781 255 255 255
0.702932 0.214124 0.184244 248 233 243
0.731261 0.214163 0.175014 248 235 246
0.746004 0.211451 0.173882 248 235 244
0.749405 0.211305 0.173049 248 235 244
0.758279 0.212884 0.168515 249 236 247
0.760203 0.212541 0.168384 249 236 247
0.797946 0.20894 0.162504 251 238 249
0.814908 0.208601 0.158637 250 237 248
0.836657 0.208112 0.154029 251 238 249
0.890485 0.209376 0.141012 251 238 249
0.9018 0.218943 0.127948 207 195 197
0.700932 0.206794 0.19137 225 215 223
0.745653 0.21015 0.172849 248 235 244
0.774434 0.209957 0.164792 250 237 248
0.835731 0.207314 0.152362 251 238 249
0.839225 0.207798 0.150984 251 238 249
0.87217 0.208096 0.143364 251 238 251
0.879698 0.207257 0.142751 251 238 251
0.889485 0.208484 0.139351 251 238 251
0.904881 0.211085 0.13338 255 255 255
0.570854 0.443851 -0.0606192 240 227 236
0.701881 0.21223 0.181539 247 232 242
0.719016 0.212319 0.175764 247 234 243
0.732436 0.21116 0.172934 248 235 244
0.74041 0.208804 0.173355 248 235 244
0.772137 0.208938 0.163923 250 237 248
0.783867 0.209491 0.160043 252 236 248
0.815684 0.20634 0.155541 250 237 248
0.830738 0.20667 0.151492 251 238 249
0.834805 0.206527 0.150695 251 238 249
0.844418 0.206895 0.148033 251 238 251
0.875983 0.206856 0.141131 250 237 250
0.889807 0.206482 0.138687 250 237 250
0.903203 0.21259 0.129161 181 169 175
0.743262 0.210116 0.16819 248 235 244
0.744737 0.210354 0.167458 248 235 244
0.76937 0.208565 0.16243 249 236 247
0.779608 0.206478 0.162065 250 237 248
0.780589 0.207455 0.160634 250 237 248
0.789927 0.206818 0.158863 251 238 249
0.805837 0.20517 0.156636 250 237 248
0.853103 0.206643 0.14355 251 238 251
0.860509 0.205547 0.143145 251 238 251
0.876427 0.206678 0.138406 249 237 250
0.90205 0.206105 0.133772 221 210 220
0.699523 0.200231 0.19165 221 208 217
0.709784 0.211038 0.175002 247 234 243
0.719046 0.211247 0.171721 249 234 244
0.723134 0.209633 0.172361 248 233 243
0.747757 0.20893 0.165584 248 235 246
0.764138 0.206966 0.163122 249 236 247
0.780238 0.206145 0.159564 250 237 248
0.790084 0.204874 0.15838 251 238 249
0.797504 0.204605 0.156719 250 237 248
0.80602 0.203213 0.15612 251 238 249
0.80749 0.203653 0.155229 250 237 248
0.814437 0.204246 0.152769 250 237 248
0.842533 0.205323 0.144705 250 237 248
0.845173 0.204702 0.144799 251 238 251
0.886477 0.205873 0.134368 249 237 250
0.69438 0.195384 0.196568 149 136 143
0.700705 0.19566 0.194031 219 209 217
0.709074 0.210443 0.17331 247 234 243
0.712395 0.210055 0.17268 247 234 243
0.737433 0.205378 0.170297 248 235 244
0.757999 0.206705 0.162526 249 236 247
0.769135 0.20534 0.160923 251 235 247
0.805666 0.201875 0.155018 250 237 248
0.826205 0.202161 0.149481 251 238 249
0.842781 0.20336 0.144114 250 237 248
0.844825 0.20333 0.143667 250 237 250
0.851578 0.202696 0.14281 250 238 251
0.866012 0.202894 0.13931 251 238 251
0.874446 0.205013 0.135084 250 238 251
0.897155 0.202834 0.132681 229 221 231
0.902871 0.207742 0.126116 197 187 195
0.869437 0.241634 0.0957211 133 126 128
0.698916 0.20712 0.178087 248 233 243
0.705397 0.209614 0.172901 248 233 243
0.708712 0.209202 0.172288 248 233 243
0.713876 0.208298 0.171665 248 233 243
0.739232 0.205844 0.166517 248 235 244
0.750424 0.206259 0.16263 249 236 247
0.761494 0.204728 0.161161 249 236 247
0.764901 0.204695 0.160212 249 236 247
0.770252 0.204372 0.159055 249 236 247
0.777572 0.203819 0.157633 250 237 248
0.810257 0.201261 0.151796 251 238 249
0.813731 0.201567 0.150553 249 238 248
0.824717 0.20203 0.147252 249 238 248
0.860281 0.202585 0.138161 249 237 250
0.864403 0.202673 0.13713 250 237 250
0.898231 0.20215 0.130371 224 215 225
0.90033 0.202341 0.129725 221 210 220
0.901804 0.20499 0.126528 205 195 205
0.698374 0.196364 0.188469 225 212 219
0.701724 0.208818 0.172472 248 233 243
0.708001 0.208626 0.170594 248 233 243
0.744152 0.203982 0.164547 248 235 244
0.745634 0.204226 0.163809 248 235 244
0.755809 0.203869 0.161172 249 236 247
0.786997 0.203461 0.15276 250 237 248
0.78998 0.201955 0.153675 250 237 248
0.810277 0.201631 0.148651 250 237 248
0.813736 0.201943 0.147406 250 237 248
0.846166 0.200575 0.14093 250 237 250
0.893017 0.200943 0.129968 236 225 237
0.89578 0.200544 0.129815 231 220 231
0.696349 0.205214 0.175967 247 232 242
0.710598 0.207662 0.16827 247 234 243
0.719452 0.205777 0.167586 248 235 244
0.721309 0.205285 0.167562 248 235 244
0.804997 0.199583 0.149656 250 237 248
0.80846 0.199854 0.148437 249 238 248
0.856278 0.201 0.135331 249 237 250
0.875463 0.200934 0.131022 249 237 250
0.885731 0.199656 0.130142 247 236 249
0.887818 0.199796 0.129534 246 235 248
0.893603 0.214023 0.112945 157 147 152
0.695292 0.188252 0.193668 184 171 178
0.719086 0.204542 0.166543 247 234 243
0.732086 0.204053 0.162952 248 235 244
0.741523 0.201877 0.162527 248 235 244
0.744485 0.202361 0.161058 248 235 244
0.745962 0.202611 0.160318 248 235 244
0.763361 0.201513 0.156383 249 236 247
0.778942 0.201307 0.152144 250 237 248
0.782359 0.2014 0.15108 250 237 248
0.790727 0.199754 0.150627 250 237 248
0.80864 0.197912 0.14788 249 238 248
0.818489 0.199504 0.143534 249 238 248
0.826553 0.199044 0.141993 249 238 248
0.853046 0.198419 0.136194 249 237 250
0.855304 0.200239 0.133664 249 237 250
0.894397 0.198285 0.126939 229 221 231
0.898027 0.203016 0.121083 207 196 206
0.896706 0.207947 0.116093 198 188 196
0.696561 0.19045 0.187908 215 202 211
0.696995 0.206288 0.169295 247 234 243
0.698478 0.206387 0.168674 245 233 242
0.70029 0.205822 0.168715 247 234 243
0.742221 0.201525 0.160102 248 235 246
0.751924 0.20176 0.156875 249 236 247
0.753394 0.202038 0.156117 248 235 246
0.755752 0.201013 0.156579 248 235 246
0.773234 0.202547 0.149733 249 236 247
0.809741 0.197058 0.145856 249 238 248
0.838369 0.197249 0.138318 249 238 248
0.855563 0.198286 0.133012 249 237 250
0.683981 0.198983 0.179734 131 121 127
0.688501 0.195715 0.181926 176 163 172
0.693095 0.202796 0.172118 246 231 240
0.705843 0.20508 0.165139 247 234 243
0.726521 0.201647 0.162304 248 235 244
0.728001 0.201842 0.161608 248 235 244
0.758778 0.199689 0.154568 249 236 247
0.789492 0.197818 0.147839 249 236 247
0.802845 0.196929 0.145174 249 238 248
0.808836 0.196383 0.144172 249 238 248
0.817766 0.196877 0.141274 249 238 248
0.835384 0.196592 0.137081 249 237 250
0.862794 0.197656 0.129264 249 237 250
0.870884 0.196045 0.1291 249 237 250
0.883993 0.19606 0.126075 247 236 249
0.88296 0.217931 0.103129 172 165 170
0.729503 0.200148 0.160479 248 235 244
0.754575 0.199172 0.153812 248 235 246
0.758411 0.198439 0.153484 249 236 247
0.773472 0.198733 0.148735 249 236 247
0.845807 0.194412 0.134155 247 236 249
0.893304 0.194083 0.123305 228 220 230
0.892887 0.202311 0.114741 200 192 202
0.691061 0.181626 0.19186 152 137 144
0.720199 0.200664 0.160332 247 234 243
0.732091 0.199342 0.157999 247 234 243
0.733969 0.198889 0.157912 248 235 244
0.73922 0.198237 0.156993 248 235 246
0.76923 0.198103 0.148075 249 236 247
0.784323 0.196426 0.145586 249 236 247
0.789711 0.196315 0.144193 250 237 248
0.797088 0.196044 0.142442 249 236 247
0.823392 0.195657 0.135826 247 238 250
0.842201 0.194347 0.132435 247 236 249
0.863318 0.193751 0.127889 249 237 250
0.881176 0.193184 0.124271 247 236 249
0.691391 0.182449 0.188092 181 165 175
0.695181 0.202168 0.164475 245 233 242
0.699622 0.202479 0.162605 245 233 242
0.704727 0.201479 0.162004 248 233 243
0.725404 0.197982 0.159108 247 234 243
0.745172 0.197333 0.153587 248 235 246
0.811554 0.194548 0.137517 247 237 247
0.819007 0.194605 0.135473 249 237 250
0.832253 0.192711 0.134048 247 236 249
0.834283 0.192634 0.133608 247 236 249
0.835729 0.193189 0.132644 249 237 250
0.856153 0.19293 0.127801 247 236 249
0.867077 0.192505 0.125596 247 236 249
0.877429 0.192902 0.122715 246 237 249
0.86538 0.229758 0.087142 142 135 137
0.692457 0.19943 0.165975 245 233 242
0.705831 0.200418 0.160306 247 234 243
0.713919 0.199786 0.158314 247 234 243
0.717602 0.198757 0.158247 247 234 243
0.719451 0.198251 0.158203 247 234 243
0.726512 0.196966 0.157337 247 234 243
0.748173 0.195967 0.151614 248 235 246
0.778207 0.194088 0.144707 249 236 247
0.785043 0.194298 0.142516 249 236 247
0.849024 0.192216 0.127649 247 236 249
0.870203 0.191894 0.122784 247 236 249
0.878483 0.192249 0.120437 247 236 249
0.881978 0.193074 0.118755 243 235 247
0.887077 0.206174 0.104051 178 167 175
0.694109 0.200486 0.16172 245 233 242
0.703636 0.199786 0.159246 245 233 242
0.708407 0.199508 0.157951 247 234 243
0.709881 0.199654 0.157297 247 234 243
0.741469 0.194382 0.152889 247 233 245
0.767648 0.195049 0.144189 248 235 246
0.777345 0.193502 0.143018 248 235 246
0.807363 0.191689 0.136493 247 236 249
0.865068 0.191041 0.122233 246 237 249
0.873965 0.190709 0.120416 246 237 249
0.890757 0.197483 0.109483 198 190 199
0.692825 0.159835 0.204616 103 91 95
0.692345 0.17734 0.185411 206 193 202
0.689586 0.191296 0.170953 231 219 228
0.695209 0.199411 0.160046 245 233 242
0.699969 0.19905 0.158815 245 233 242
0.733144 0.195616 0.151646 247 233 245
0.735425 0.194484 0.152152 247 234 243
0.746134 0.195557 0.147627 248 235 246
0.763887 0.193826 0.144088 248 235 246
0.780846 0.194053 0.138856 249 236 247
0.799037 0.191202 0.136723 247 236 249
0.80049 0.191646 0.135846 247 236 249
0.814082 0.188622 0.135301 247 236 249
0.814437 0.190402 0.133326 247 236 249
0.854415 0.189573 0.123739 246 237 249
0.863259 0.189053 0.122065 246 237 249
0.89106 0.195554 0.108715 199 191 200
0.686173 0.18221 0.179584 180 164 174
0.692801 0.174 0.18625 210 195 204
0.704355 0.197562 0.15648 245 233 242
0.706175 0.197007 0.156472 245 233 242
0.714263 0.196388 0.154445 247 234 243
0.720169 0.194158 0.15492 247 234 243
0.726084 0.19493 0.152155 247 234 243
0.730895 0.19488 0.150659 247 234 243
0.738407 0.193073 0.150218 247 233 245
0.744293 0.194087 0.147277 248 235 246
0.756294 0.193364 0.144351 248 235 246
0.776587 0.193395 0.13826 248 235 246
0.791787 0.189539 0.137957 247 237 247
0.811694 0.187507 0.134519 247 236 249
0.826128 0.188349 0.129722 247 236 249
0.838294 0.18785 0.127022 246 237 249
0.854854 0.189511 0.121045 246 237 249
0.857521 0.188906 0.120994 246 235 248
0.882267 0.18976 0.114021 238 229 241
0.692337 0.198368 0.157251 245 233 242
0.694129 0.197771 0.15728 244 231 240
0.722371 0.194035 0.15184 247 234 243
0.726789 0.194636 0.149757 247 234 243
0.72865 0.19416 0.149667 247 234 243
0.751661 0.193596 0.143018 248 235 246
0.753562 0.193211 0.142842 248 235 246
0.764129 0.192394 0.140499 248 235 246
0.784497 0.190383 0.136608 248 235 246
0.810768 0.186889 0.132824 247 236 249
0.81423 0.187216 0.131528 247 236 249
0.849559 0.186963 0.12238 246 237 249
0.862675 0.188308 0.117665 245 236 248
0.877096 0.18881 0.113575 246 235 248
0.886299 0.198411 0.101684 186 178 186
0.867921 0.218275 0.0861242 151 144 147
0.709838 0.195106 0.152365 245 233 242
0.721611 0.193546 0.150137 247 234 243
0.749822 0.192111 0.142671 248 235 246
0.762291 0.190857 0.140172 248 235 246
0.779223 0.191045 0.134926 246 235 246
0.807303 0.187113 0.130978 247 236 249
0.811296 0.186766 0.130224 247 236 249
0.859615 0.187587 0.116539 245 236 248
0.888536 0.190804 0.106138 206 198 207
0.866792 0.219556 0.0826998 132 128 129
0.696313 0.195674 0.153901 245 233 242
0.707981 0.193791 0.151942 245 233 242
0.714592 0.193037 0.150534 245 233 242
0.723461 0.19118 0.14958 247 234 243
0.724939 0.191381 0.148884 247 234 243
0.733496 0.190393 0.147158 247 233 245
0.740626 0.189296 0.14604 247 233 245
0.765292 0.18964 0.13804 248 235 246
0.788162 0.186735 0.134279 246 235 248
0.79013 0.186483 0.133969 246 235 246
0.800954 0.186448 0.130898 246 235 248
0.810366 0.186169 0.128533 246 235 248
0.812364 0.186004 0.128146 247 236 249
0.818933 0.184902 0.127454 247 236 249
0.846142 0.185029 0.12 245 236 248
0.853707 0.185614 0.117433 246 235 248
0.856562 0.186893 0.115407 245 236 248
0.86128 0.186322 0.11477 245 236 248
0.876327 0.186171 0.111119 243 235 247
0.878125 0.204354 0.0926048 169 161 168
0.695606 0.195228 0.152194 245 233 242
0.703619 0.194448 0.150284 245 233 242
0.712731 0.191705 0.150115 245 233 242
0.739825 0.1888 0.144335 247 233 245
0.752862 0.188944 0.140087 247 233 245
0.761068 0.189139 0.137359 247 233 245
0.770226 0.188123 0.135635 247 233 245
0.782353 0.188058 0.132094 246 235 246
0.791204 0.185676 0.131956 246 235 248
0.793176 0.185436 0.131631 246 235 248
0.859642 0.186282 0.112623 243 235 247
0.862945 0.185066 0.112985 243 235 247
0.876706 0.18619 0.108372 241 232 244
0.686064 0.1906 0.157974 243 230 239
0.688707 0.195094 0.152316 243 230 239
0.696691 0.194202 0.150494 245 233 242
0.713459 0.191417 0.147738 245 233 242
0.7164 0.191769 0.146392 245 233 242
0.731924 0.18943 0.14375 247 234 243
0.74721 0.188267 0.140087 247 233 245
0.75394 0.188059 0.138199 247 233 245
0.76984 0.186923 0.134499 247 233 245
0.786884 0.184961 0.131431 246 235 248
0.790817 0.184453 0.130798 248 234 248
0.824201 0.182002 0.123797 246 235 248
0.854549 0.185588 0.112047 245 236 248
0.856588 0.185604 0.111499 245 236 248
0.858629 0.185627 0.110944 243 235 247
0.862555 0.183775 0.11176 245 236 248
0.880333 0.183141 0.107839 236 228 240
0.88448 0.183384 0.106557 226 218 227
0.886555 0.183519 0.105905 217 211 220
0.700706 0.19344 0.147517 245 233 242
0.731537 0.188264 0.142641 247 234 243
0.733408 0.187799 0.142516 247 233 245
0.771388 0.185404 0.133104 247 233 245
0.773326 0.185087 0.132841 248 235 246
0.783533 0.18537 0.129504 246 235 248
0.800318 0.182082 0.12792 246 235 248
0.821228 0.18153 0.122536 246 235 248
0.823243 0.181405 0.1221 246 235 248
0.847238 0.183066 0.113905 245 235 250
0.872942 0.180211 0.109971 243 235 247
0.877088 0.180386 0.108734 243 235 247
0.880589 0.181215 0.107029 236 228 238
0.886988 0.185555 0.101179 205 197 206
0.685142 0.173055 0.171678 216 204 212
0.698853 0.192179 0.14707 245 233 242
0.723385 0.186715 0.144463 245 233 242
0.726338 0.187135 0.143062 247 234 243
0.729281 0.187577 0.141649 245 233 242
0.736365 0.186421 0.140539 247 234 243
0.741185 0.186492 0.138921 247 233 245
0.746862 0.185221 0.138415 247 233 245
0.757542 0.18664 0.133626 247 233 245
0.872543 0.178912 0.108719 243 235 247
0.882919 0.179404 0.105563 230 224 233
0.885323 0.187469 0.0971444 192 184 191
0.682349 0.181948 0.160967 225 215 223
0.70535 0.189468 0.145258 245 233 242
0.70682 0.18962 0.144604 245 233 242
0.710463 0.188518 0.144503 245 233 242
0.717441 0.187096 0.143621 245 233 242
0.725946 0.185981 0.141947 245 233 242
0.733694 0.186421 0.138974 245 232 244
0.747939 0.184336 0.136528 247 233 245
0.769656 0.184402 0.129713 245 234 245
0.821325 0.180242 0.118708 245 235 250
0.846449 0.180545 0.111467 243 235 247
0.849092 0.179879 0.111402 243 235 247
0.849913 0.181153 0.109937 243 235 247
0.871504 0.178248 0.10702 243 235 247
0.882517 0.178099 0.104297 230 224 233
0.69204 0.146152 0.191691 196 181 190
0.684496 0.189706 0.149837 243 230 239
0.688313 0.191408 0.146763 243 230 239
0.735174 0.18481 0.13771 245 232 244
0.740402 0.184171 0.136668 245 232 244
0.756311 0.185 0.130797 247 233 245
0.812561 0.17775 0.121133 245 236 248
0.884958 0.178297 0.100857 217 212 218
0.688227 0.189578 0.146298 243 230 239
0.698817 0.189661 0.14255 244 231 240
0.711504 0.185706 0.142225 244 231 240
0.716286 0.185531 0.140798 245 233 242
0.725157 0.183687 0.139704 245 232 244
0.744828 0.183134 0.133872 245 232 244
0.753007 0.18321 0.131201 245 234 245
0.777579 0.181865 0.124936 245 234 247
0.830027 0.177884 0.113512 245 236 248
0.848292 0.177369 0.108937 243 235 247
0.856034 0.179945 0.104355 243 235 247
0.866731 0.177529 0.103793 243 235 247
0.869424 0.176953 0.103624 243 235 247
0.870849 0.177658 0.102572 243 235 247
0.691925 0.189505 0.14274 244 231 240
0.711464 0.18386 0.141708 244 231 240
0.73398 0.183228 0.134875 245 233 242
0.739196 0.182578 0.133828 245 233 242
0.744007 0.182691 0.132169 245 233 242
0.746494 0.183973 0.130107 244 233 242
0.758428 0.183341 0.12696 244 233 244
0.774758 0.181689 0.123535 245 234 245
0.79282 0.178527 0.121174 245 234 247
0.796763 0.178059 0.120456 245 234 247
0.819566 0.177236 0.114601 245 236 248
0.828471 0.177984 0.111341 245 236 248
0.845849 0.176148 0.108237 242 235 247
0.865062 0.177543 0.101661 243 234 249
0.882833 0.176975 0.0974662 216 211 217
0.68774 0.18664 0.144724 243 230 241
0.694455 0.188639 0.140399 243 230 239
0.701627 0.186276 0.140282 244 231 240
0.722126 0.182634 0.136979 245 232 244
0.733583 0.182092 0.133741 245 232 244
0.735048 0.182344 0.133016 245 232 244
0.736511 0.1826 0.132288 245 232 244
0.747552 0.183128 0.128216 244 233 244
0.74944 0.182721 0.128014 244 233 244
0.755129 0.181539 0.127368 244 233 244
0.76902 0.178322 0.126164 245 234 245
0.776785 0.179523 0.122604 245 234 247
0.824619 0.176315 0.11154 245 236 248
0.836136 0.176429 0.108159 243 235 247
0.844241 0.176222 0.106084 243 235 247
0.88046 0.177591 0.0949377 214 208 217
0.88055 0.1796 0.0930315 209 204 210
0.880623 0.181609 0.0911316 202 194 201
0.679314 0.174707 0.157183 225 214 225
0.679369 0.186578 0.1454 242 229 240
0.696169 0.186215 0.139883 243 230 241
0.699761 0.185029 0.139816 244 231 240
0.737987 0.181016 0.130983 244 233 244
0.739865 0.18057 0.130809 245 232 244
0.740908 0.181558 0.129508 245 233 242
0.749043 0.181584 0.12687 244 233 244
0.750935 0.181181 0.126659 245 232 244
0.754284 0.181104 0.12567 244 233 244
0.766219 0.178203 0.124731 244 233 244
0.793986 0.175916 0.118436 245 234 247
0.812757 0.175273 0.113486 245 236 248
0.820201 0.175355 0.11124 245 234 247
0.828238 0.174885 0.10937 243 235 247
0.829676 0.175456 0.108417 243 235 247
0.834555 0.176537 0.106004 243 235 247
0.843834 0.174993 0.104844 243 234 249
0.879486 0.178976 0.091352 188 179 189
0.861579 0.205874 0.0711236 255 255 255
0.707735 0.182508 0.137226 244 231 240
0.709558 0.18195 0.137151 244 231 240
0.719105 0.181629 0.134249 244 231 242
0.739465 0.179439 0.129663 244 233 244
0.740509 0.18043 0.128364 244 233 244
0.746757 0.180864 0.125929 244 233 244
0.775983 0.1772 0.120255 244 233 246
0.807822 0.175109 0.11263 243 235 247
0.81235 0.174078 0.112271 243 235 247
0.82783 0.173675 0.108141 243 235 247
0.871409 0.174688 0.0949759 236 230 241
0.876167 0.174224 0.0941122 246 236 244
0.876518 0.182277 0.0865673 188 180 187
0.676986 0.180591 0.147467 240 227 236
0.677368 0.183595 0.1444 241 228 237
0.68094 0.18602 0.140769 242 229 238
0.687406 0.184918 0.139569 242 229 240
0.688874 0.185022 0.138955 243 230 241
0.697164 0.183426 0.137626 243 230 239
0.705173 0.1827 0.135581 244 231 242
0.71174 0.181927 0.134098 244 231 240
0.742597 0.180589 0.125179 244 233 244
0.748244 0.179325 0.12457 244 233 244
0.770256 0.176299 0.12049 244 233 246
0.782864 0.175569 0.117281 245 234 247
0.799099 0.17287 0.114902 245 236 248
0.832308 0.173532 0.104502 243 234 249
0.843842 0.17384 0.100917 243 235 247
0.852578 0.173106 0.0991324 241 234 248
0.8587 0.173142 0.0973855 241 234 248
0.701498 0.182029 0.135172 243 230 239
0.706584 0.181038 0.134385 244 231 240
0.752068 0.176673 0.12351 244 233 244
0.758793 0.176559 0.121471 244 233 244
0.764542 0.175471 0.120682 244 233 244
0.778074 0.175699 0.116234 242 233 246
0.791306 0.171945 0.115699 245 234 247
0.820414 0.172312 0.106633 243 235 247
0.83046 0.171747 0.104222 243 235 247
0.835588 0.174789 0.0999192 243 235 247
0.844853 0.173261 0.0986798 242 235 247
0.873274 0.17164 0.092197 231 225 236
0.865832 0.195394 0.072561 168 160 165
0.675619 0.179885 0.143986 241 228 237
0.687765 0.183603 0.136128 242 229 238
0.707998 0.179381 0.133173 243 230 241
0.71606 0.178842 0.130952 243 232 242
0.735149 0.178709 0.124725 243 232 240
0.738885 0.1778 0.124361 243 232 242
0.741794 0.178364 0.122878 243 232 242
0.819439 0.17181 0.104935 243 235 247
0.852555 0.171993 0.0951687 241 234 246
0.857246 0.171353 0.0944234 241 234 246
0.872854 0.170403 0.0909102 250 242 254
0.877085 0.172623 0.0877219 255 255 255
0.875292 0.178614 0.0827861 255 255 255
0.675873 0.181098 0.140438 241 228 237
0.682962 0.182235 0.136843 242 229 240
0.693525 0.182263 0.133119 242 229 238
0.702495 0.179275 0.132851 243 230 241
0.703964 0.179434 0.132197 243 230 239
0.705775 0.17886 0.132119 243 230 241
0.722649 0.17639 0.128738 242 231 239
0.738065 0.177421 0.122657 243 232 242
0.746004 0.174947 0.122387 243 232 242
0.779691 0.172411 0.114032 244 233 246
0.791425 0.170776 0.111915 244 233 246
0.794844 0.170991 0.110666 245 234 247
0.808708 0.169527 0.107807 245 234 247
0.813591 0.170395 0.105541 243 235 247
0.827614 0.169463 0.102231 242 233 246
0.856207 0.170801 0.0927286 242 233 246
0.863583 0.169574 0.0917469 241 234 248
0.681086 0.18108 0.136327 241 228 239
0.710478 0.176824 0.13013 243 230 239
0.72371 0.17552 0.126881 242 231 239
0.726642 0.175985 0.125464 242 231 239
0.732478 0.176981 0.122595 243 232 242
0.767163 0.171376 0.116558 244 233 244
0.776358 0.172998 0.112155 244 233 246
0.789046 0.169881 0.111072 242 233 246
0.793911 0.170542 0.108963 242 233 246
0.811183 0.169393 0.104755 243 235 247
0.820043 0.170012 0.101531 242 233 246
0.833243 0.167996 0.0994535 243 235 247
0.838721 0.168461 0.0974234 242 233 246
0.849684 0.169593 0.0932142 241 234 246
0.859862 0.169641 0.0902484 241 234 248
0.862531 0.169018 0.0900484 241 234 248
0.874832 0.169423 0.0862041 219 211 220
0.673237 0.171303 0.146029 229 216 225
0.673424 0.175101 0.142398 240 226 238
0.674114 0.177405 0.139989 240 226 238
0.67717 0.181353 0.135198 241 228 237
0.681858 0.180857 0.134003 241 228 237
0.685086 0.180303 0.133383 241 228 237
0.688016 0.180518 0.132153 242 229 238
0.689479 0.180633 0.131533 242 229 238
0.690939 0.180754 0.13091 242 229 238
0.696286 0.178911 0.130771 242 229 240
0.706429 0.176871 0.129176 243 230 241
0.713007 0.176121 0.127629 243 230 239
0.735795 0.174956 0.121072 243 232 242
0.785214 0.168566 0.111078 242 233 246
0.799933 0.168005 0.107031 243 235 247
0.810217 0.168928 0.103053 242 233 246
0.819062 0.169536 0.0998341 242 233 246
0.843779 0.167803 0.0940762 241 234 246
0.845807 0.16777 0.0935136 241 234 248
0.872351 0.168116 0.0855665 221 215 224
0.676763 0.180302 0.134077 241 228 237
0.679983 0.179714 0.13348 241 228 237
0.692626 0.178328 0.130323 242 229 238
0.695877 0.177849 0.129636 242 229 238
0.70127 0.176052 0.129432 242 229 238
0.70455 0.17563 0.128692 242 229 240
0.74204 0.173531 0.118019 243 232 242
0.779899 0.169431 0.10958 242 233 246
0.808355 0.167256 0.102724 242 233 246
0.812334 0.166906 0.101827 243 235 247
0.813224 0.168135 0.10045 242 233 246
0.827214 0.167199 0.0970744 242 233 246
0.832395 0.165634 0.0969293 242 233 246
0.850867 0.1672 0.0900849 241 234 246
0.872375 0.177156 0.0750859 165 154 164
0.676197 0.148681 0.161242 196 180 192
0.672928 0.163056 0.149135 218 208 216
0.678104 0.178582 0.132951 241 228 239
0.681041 0.178755 0.13175 239 229 237
0.692217 0.177273 0.129187 241 228 237
0.700859 0.174987 0.128284 242 229 238
0.702666 0.174398 0.128201 242 229 238
0.710361 0.174528 0.125438 242 229 238
0.742049 0.171707 0.117375 243 232 242
0.744961 0.172309 0.11587 243 232 242
0.749749 0.172519 0.114112 243 232 242
0.766436 0.169843 0.111138 243 232 242
0.77705 0.169329 0.108218 242 234 244
0.781427 0.168016 0.108018 242 233 246
0.787207 0.16977 0.104621 242 233 246
0.816227 0.16737 0.0978201 242 233 246
0.824783 0.166147 0.096321 242 233 246
0.826789 0.166035 0.0958161 242 233 246
0.840901 0.165484 0.0920893 241 234 246
0.851859 0.166683 0.0877969 241 234 246
0.856543 0.166027 0.0870059 240 233 244
0.676418 0.135348 0.170936 141 126 136
0.674865 0.145225 0.162438 173 157 169
0.672602 0.174985 0.135973 240 227 236
0.692953 0.177107 0.126838 241 228 239
0.694413 0.177244 0.126204 241 228 239
0.696197 0.176633 0.12614 241 228 237
0.712129 0.172158 0.124722 242 229 240
0.718372 0.172235 0.122526 240 230 240
0.72938 0.172397 0.118667 243 230 241
0.738298 0.170781 0.117156 243 232 242
0.73934 0.171807 0.115883 243 232 242
0.749772 0.170698 0.113448 243 232 242
0.758368 0.170192 0.111102 243 232 242
0.787804 0.167222 0.104363 242 234 244
0.792748 0.165282 0.104543 242 233 246
0.826934 0.164185 0.094993 242 233 246
0.845347 0.165554 0.0882688 241 234 246
0.852845 0.166179 0.0855036 240 233 246
0.870276 0.163099 0.0831024 227 220 232
0.87212 0.17209 0.0747301 175 166 176
0.870879 0.17546 0.0721543 157 146 156
0.673526 0.151713 0.154556 202 189 200
0.670244 0.170789 0.138388 236 223 232
0.672862 0.176278 0.13246 240 227 236
0.678751 0.176584 0.130083 240 227 236
0.697574 0.174981 0.124923 241 228 237
0.702632 0.17395 0.124103 241 228 239
0.714654 0.171495 0.122189 242 229 238
0.716121 0.171704 0.1215 242 229 238
0.758405 0.16837 0.110413 243 232 242
0.779596 0.167229 0.104609 242 233 246
0.782532 0.165494 0.105215 242 233 246
0.791809 0.164872 0.102834 242 233 246
0.809067 0.163642 0.0985356 242 233 246
0.833395 0.164034 0.0907538 241 234 246
0.865098 0.162447 0.0827008 240 233 246
0.869202 0.162567 0.0813951 228 221 233
0.87096 0.169507 0.0748706 193 181 194
0.669587 0.165879 0.140793 223 212 221
0.678338 0.17555 0.128944 240 227 236
0.681273 0.175735 0.127736 240 227 236
0.688893 0.175527 0.125236 241 228 237
0.690354 0.175653 0.12461 241 228 237
0.69716 0.173939 0.123773 241 228 237
0.700418 0.173494 0.12304 241 228 237
0.705489 0.172492 0.122184 241 228 239
0.707301 0.171918 0.122074 241 228 239
0.730803 0.169027 0.116663 242 231 241
0.741413 0.17025 0.11203 242 231 241
0.745166 0.169379 0.111561 243 232 242
0.752725 0.167719 0.110545 243 232 242
0.765689 0.168391 0.105724 243 232 242
0.788912 0.164729 0.10152 242 233 246
0.792831 0.164223 0.100726 242 233 246
0.798735 0.163521 0.0994842 242 233 246
0.801622 0.164517 0.0977068 242 233 246
0.808095 0.163216 0.096828 242 233 248
0.813511 0.163403 0.0949843 242 233 246
0.815502 0.163246 0.0945068 242 233 246
0.819493 0.162954 0.0935315 242 233 246
0.836405 0.163424 0.0879625 241 234 246
0.839844 0.163995 0.0864283 242 233 246
0.851979 0.16384 0.0829242 240 233 244
0.854008 0.163844 0.0823161 240 233 244
0.85604 0.163857 0.0817011 240 233 244
0.870527 0.168335 0.0735732 189 178 191
0.671495 0.175742 0.129002 238 226 235
0.67764 0.175284 0.127219 240 227 236
0.710522 0.169737 0.120664 241 228 239
0.713818 0.169383 0.119847 242 229 240
0.73371 0.16775 0.114547 242 231 241
0.74663 0.167882 0.110123 242 231 241
0.765737 0.166574 0.105008 243 232 242
0.768626 0.167352 0.103389 243 232 242
0.778748 0.165027 0.102164 244 233 246
0.780688 0.164731 0.101801 243 231 244
0.793331 0.164305 0.098149 242 233 246
0.830517 0.161822 0.0887367 242 233 246
0.833692 0.160345 0.0890429 242 233 246
0.860295 0.162064 0.0795392 240 233 244
0.870632 0.164424 0.0744566 203 194 206
0.867587 0.171898 0.0689718 169 158 171
0.863091 0.178597 0.0645769 151 140 152
0.676036 0.173413 0.127251 240 227 236
0.702509 0.171753 0.119412 241 228 237
0.714866 0.168543 0.117982 241 228 239
0.741415 0.166631 0.110683 242 231 241
0.743295 0.166189 0.110443 242 231 241
0.758591 0.165481 0.106004 243 232 242
0.767728 0.167006 0.10169 243 232 242
0.78907 0.161068 0.0999758 242 233 246
0.792487 0.161281 0.0987022 242 233 246
0.803802 0.160645 0.0956682 242 233 246
0.807231 0.160968 0.0943107 242 233 246
0.818626 0.160688 0.0909927 242 233 246
0.834414 0.157803 0.088593 242 233 246
0.835272 0.159119 0.0872013 242 233 246
0.853132 0.161523 0.0797167 240 233 244
0.867385 0.161768 0.0752379 219 213 221
0.66798 0.172818 0.128462 237 224 233
0.682957 0.172869 0.123074 240 226 238
0.705699 0.169554 0.11802 239 229 237
0.722136 0.16787 0.113848 240 230 240
0.736833 0.167231 0.109433 240 230 240
0.771136 0.165263 0.0998084 243 232 242
0.773541 0.164205 0.0999415 243 231 244
0.783721 0.161968 0.098581 242 233 246
0.799938 0.159236 0.0957459 242 233 246
0.803367 0.159531 0.0944056 242 233 246
0.810768 0.159488 0.0921076 242 233 246
0.818188 0.159562 0.0897176 242 233 246
0.863489 0.159816 0.0756192 233 226 237
0.867071 0.16269 0.0721196 213 207 216
0.68784 0.169896 0.121753 240 226 238
0.699877 0.170295 0.117187 238 227 238
0.710727 0.166811 0.116451 239 228 239
0.721714 0.166829 0.112662 239 228 239
0.726476 0.166814 0.111054 240 230 240
0.737862 0.166476 0.107497 240 230 240
0.742024 0.164822 0.107528 242 231 241
0.751599 0.165272 0.103946 242 231 241
0.761557 0.16259 0.102961 243 232 242
0.769268 0.163788 0.099403 243 232 242
0.780847 0.1619 0.0972547 243 231 244
0.796482 0.159802 0.0940183 242 233 246
0.851436 0.157852 0.0785042 240 233 244
0.856307 0.159244 0.0758483 240 233 244
0.685947 0.168758 0.121212 237 226 235
0.697338 0.17065 0.115573 238 227 238
0.700915 0.169447 0.115363 238 227 238
0.716529 0.165863 0.113046 239 229 237
0.724593 0.165524 0.110577 240 230 240
0.748271 0.163546 0.104279 242 231 241
0.750161 0.16313 0.104004 242 231 241
0.771236 0.161646 0.0983051 242 231 241
0.791692 0.157253 0.0953901 241 232 244
0.803937 0.157835 0.0909697 242 233 248
0.822742 0.157632 0.0851887 241 232 244
0.825313 0.156803 0.085079 241 232 244
0.846927 0.156738 0.0784124 240 233 244
0.854443 0.1574 0.075549 240 233 244
0.683459 0.169178 0.119545 237 226 235
0.744077 0.163356 0.103599 240 230 240
0.748275 0.161745 0.103558 240 230 240
0.761227 0.162335 0.0987451 242 231 241
0.77466 0.15993 0.0963528 243 231 244
0.781921 0.159455 0.0943819 240 231 243
0.79519 0.155667 0.0932674 241 232 244
0.862116 0.167508 0.0624335 189 180 192
0.662087 0.142001 0.148227 93 88 92
0.664324 0.165579 0.127289 236 225 233
0.693903 0.167553 0.115069 238 227 238
0.705816 0.164882 0.113171 238 227 238
0.710917 0.163936 0.112202 239 228 239
0.727046 0.163214 0.107262 240 230 240
0.738034 0.163663 0.103147 240 230 240
0.7493 0.161035 0.101566 240 230 240
0.752646 0.160968 0.100501 240 230 240
0.783428 0.158097 0.0927354 241 232 244
0.799627 0.155345 0.0897739 243 231 244
0.805032 0.155444 0.0879504 241 232 244
0.864353 0.154579 0.0700097 228 220 230
0.862954 0.165039 0.0618557 198 188 198
0.859181 0.171203 0.0579581 180 169 179
0.656259 0.110475 0.17474 3 3 3
0.663529 0.155892 0.133594 217 207 215
0.726616 0.16219 0.106057 240 230 240
0.729928 0.161961 0.105117 240 230 240
0.752654 0.15917 0.0997568 242 231 241
0.764178 0.159509 0.0956262 242 230 243
0.772814 0.15664 0.0951516 242 230 243
0.780549 0.158061 0.0914223 241 232 244
0.795756 0.153987 0.0898326 241 232 244
0.807105 0.153432 0.0866171 241 232 244
0.808553 0.15397 0.0857055 241 232 244
0.835715 0.155657 0.0756612 240 233 244
0.848417 0.154706 0.0724502 241 232 244
0.663708 0.162794 0.125499 235 224 232
0.669602 0.167794 0.11918 236 225 233
0.674552 0.166466 0.118518 236 225 233
0.696298 0.165092 0.111958 237 226 237
0.736132 0.16055 0.101964 240 230 240
0.753673 0.158486 0.0977405 240 230 240
0.760383 0.158447 0.0955232 242 231 241
0.772373 0.155583 0.0938964 242 230 243
0.809898 0.15543 0.0817466 241 232 244
0.863592 0.154423 0.0655559 226 218 227
0.655381 0.121477 0.160799 5 5 5
0.65688 0.122248 0.159606 3 3 3
0.658922 0.150613 0.135208 163 150 161
0.672382 0.166182 0.117384 236 225 233
0.691474 0.163635 0.112706 238 226 235
0.725364 0.16093 0.103131 239 228 239
0.732378 0.159715 0.101726 239 228 239
0.759944 0.15741 0.0942821 242 230 243
0.765681 0.156314 0.0932608 242 230 243
0.792378 0.152821 0.0872769 240 231 243
0.793828 0.153313 0.0863992 241 232 244
0.809994 0.153626 0.0808737 241 232 244
0.823933 0.152595 0.0772135 241 232 244
0.657573 0.152748 0.131691 170 157 168
0.659728 0.155957 0.128255 215 204 212
0.659839 0.160727 0.124273 230 219 228
0.667278 0.165769 0.117421 235 224 232
0.670482 0.165125 0.1168 235 224 232
0.674891 0.16538 0.115009 235 224 232
0.681038 0.165007 0.113122 236 225 235
0.689574 0.162503 0.112154 237 226 237
0.691043 0.162647 0.111515 237 226 237
0.696903 0.163276 0.10893 237 226 237
0.703414 0.162428 0.107341 237 226 237
0.717616 0.158676 0.105471 238 227 238
0.744213 0.157006 0.0977 239 228 239
0.756597 0.155628 0.0946286 240 230 240
0.765239 0.155276 0.0920086 242 230 243
0.776326 0.15402 0.0893261 240 231 243
0.799807 0.150812 0.0841682 241 232 244
0.813511 0.152215 0.0785619 241 232 244
0.834936 0.151651 0.0721034 240 231 243
0.849067 0.151358 0.0678284 240 231 243
0.851094 0.151351 0.0671906 240 231 243
0.849135 0.17789 0.0466051 118 108 114
0.648548 0.107551 0.169874 5 5 5
0.654922 0.154097 0.129334 141 126 136
0.65995 0.162948 0.120252 233 223 233
0.665377 0.164735 0.116826 233 223 233
0.674462 0.164408 0.113829 235 224 232
0.685596 0.162822 0.111153 236 225 235
0.702982 0.161441 0.106142 237 226 237
0.720112 0.158158 0.102841 238 227 238
0.724495 0.158923 0.100701 239 228 239
0.73669 0.157037 0.0980362 239 228 239
0.740018 0.156885 0.0970195 240 230 240
0.75046 0.155813 0.0943294 239 230 240
0.787052 0.151971 0.0851504 240 231 243
0.794374 0.151693 0.0829506 240 231 243
0.796338 0.151456 0.0824925 240 231 243
0.814491 0.151714 0.076334 241 232 246
0.82788 0.15154 0.0721263 241 232 244
0.666418 0.163834 0.115061 233 223 233
0.677245 0.162845 0.111977 236 223 234
0.678713 0.162952 0.111366 235 224 232
0.683696 0.161721 0.110587 236 225 233
0.685164 0.161849 0.109961 237 224 233
0.696364 0.160529 0.107062 237 224 235
0.699622 0.16009 0.106268 237 226 237
0.720048 0.15638 0.102121 238 227 238
0.72298 0.156887 0.100694 238 227 238
0.725903 0.157415 0.0992555 238 227 238
0.737707 0.156338 0.0960553 239 228 239
0.743331 0.154978 0.0952224 239 228 239
0.757614 0.153189 0.0917947 240 230 240
0.77109 0.153348 0.0871177 240 231 243
0.778817 0.152076 0.0855452 240 231 243
0.79196 0.150888 0.0821148 240 231 243
0.80377 0.149527 0.0792926 240 231 243
0.80575 0.149328 0.0787989 240 231 243
0.81944 0.150939 0.0730299 241 232 244
0.845513 0.149891 0.0654127 240 231 243
0.656192 0.155336 0.1235 207 194 205
0.657021 0.157754 0.121248 223 212 221
0.667716 0.162148 0.113838 233 223 231
0.677997 0.162782 0.109638 235 224 232
0.686499 0.160221 0.108665 236 225 233
0.69331 0.158436 0.107683 236 225 235
0.69772 0.158936 0.105722 236 225 235
0.699187 0.159113 0.105062 236 225 235
0.70935 0.157141 0.10307 237 226 237
0.734992 0.156584 0.0946064 239 228 239
0.740591 0.155194 0.0937902 239 228 239
0.754817 0.153332 0.0904105 240 230 240
0.765818 0.151837 0.087867 240 229 242
0.770166 0.153083 0.0854072 240 229 242
0.772088 0.152751 0.0850234 240 229 242
0.808175 0.149369 0.0756715 240 231 243
0.813025 0.150324 0.0733195 240 231 243
0.822964 0.149619 0.0706137 240 231 243
0.845646 0.148093 0.0644353 240 231 243
0.645325 0.0867683 0.180238 6 6 6
0.658176 0.16165 0.115571 232 222 230
0.659654 0.161693 0.115001 234 221 230
0.672234 0.159836 0.111947 233 223 233
0.673438 0.160724 0.110805 233 223 231
0.679599 0.160344 0.108901 235 224 232
0.711085 0.154801 0.102169 237 226 237
0.723943 0.154384 0.0980082 238 227 238
0.734957 0.154814 0.0938493 238 229 239
0.767799 0.152408 0.0845194 240 229 242
0.769717 0.152066 0.0841396 240 229 242
0.793008 0.148556 0.0790711 240 231 243
0.795895 0.149573 0.0773076 239 230 242
0.799296 0.149868 0.0759429 240 231 243
0.813994 0.149848 0.0710856 240 231 243
0.848618 0.147686 0.0614431 239 230 242
0.633671 0.13211 0.1459 5 5 5
0.636888 0.147099 0.1328 5 5 5
0.644461 0.154142 0.124424 32 12 9
0.650324 0.154938 0.121649 142 124 132
0.654856 0.154991 0.119956 213 200 211
0.67153 0.159679 0.110209 233 223 233
0.68386 0.158959 0.106362 235 224 234
0.692747 0.1557 0.105776 236 225 233
0.70044 0.15577 0.102996 236 225 235
0.713944 0.153484 0.100046 237 226 237
0.744482 0.15342 0.0894861 239 228 239
0.747812 0.153334 0.0884084 239 228 239
0.77214 0.149192 0.0833508 240 229 242
0.827454 0.147898 0.0658731 240 231 243
0.848146 0.146608 0.0600893 239 230 242
0.855595 0.156607 0.0499499 180 167 180
0.63774 0.154071 0.124801 24 8 7
0.642108 0.1548 0.122625 61 23 20
0.645335 0.153972 0.122095 51 15 14
0.649668 0.15478 0.119876 152 133 142
0.672566 0.15882 0.108406 232 222 230
0.687261 0.15588 0.105454 236 223 232
0.690208 0.156176 0.104171 235 224 232
0.693465 0.155696 0.10339 235 224 232
0.703612 0.153598 0.10144 236 225 235
0.706902 0.153211 0.100582 236 225 235
0.709072 0.151836 0.100894 236 225 235
0.735522 0.153152 0.0906197 238 227 238
0.76109 0.148765 0.0852288 239 230 242
0.77023 0.147748 0.0828975 239 230 242
0.771684 0.148179 0.0820678 239 230 242
0.784773 0.146796 0.0786999 239 230 242
0.791655 0.14448 0.0781704 239 230 242
0.810748 0.145873 0.0706877 240 231 243
0.854384 0.154113 0.0499619 195 182 195
0.847105 0.16895 0.0409752 130 117 126
0.638814 0.153084 0.123047 63 27 23
0.663996 0.159889 0.108564 232 222 230
0.681224 0.157731 0.104051 233 223 233
0.69155 0.154577 0.10282 235 224 234
0.695963 0.155079 0.10086 235 224 232
0.697756 0.154458 0.100707 236 225 233
0.71746 0.152258 0.0954618 237 226 237
0.722606 0.151446 0.0942874 237 226 237
0.777502 0.148186 0.0778594 238 229 241
0.81028 0.144836 0.0693628 240 231 243
0.852838 0.147324 0.0533399 224 213 226
0.853622 0.148762 0.0519877 216 205 218
0.851534 0.158036 0.0456197 184 170 184
0.630748 0.152339 0.124465 33 12 5
0.632274 0.152287 0.123943 48 17 12
0.636308 0.154588 0.120677 87 36 28
0.648776 0.152877 0.117439 183 152 160
0.690485 0.155231 0.100578 235 224 232
0.69552 0.154128 0.0996363 235 224 234
0.699438 0.152087 0.0998179 235 224 234
0.739181 0.148691 0.088465 238 227 238
0.765001 0.147212 0.0806719 239 228 241
0.783847 0.144765 0.076095 239 230 242
0.789261 0.14193 0.0764162 239 230 242
0.797047 0.143724 0.0724051 239 230 242
0.828613 0.143924 0.0616387 239 230 242
0.842436 0.141329 0.0590017 239 230 242
0.843272 0.14274 0.0576554 239 230 242
0.852175 0.144112 0.0536687 227 218 230
0.634349 0.153685 0.119987 99 46 36
0.643598 0.152739 0.117324 142 81 77
0.648536 0.151121 0.116763 188 157 166
0.656674 0.154517 0.111193 230 219 228
0.671513 0.155194 0.105307 232 222 230
0.675659 0.156309 0.102961 232 221 232
0.685334 0.154643 0.100767 233 223 233
0.687104 0.153983 0.10064 233 223 233
0.700796 0.150522 0.0984087 235 224 234
0.709552 0.148356 0.0969607 233 225 234
0.722084 0.148718 0.0922641 236 225 235
0.725404 0.148469 0.0912881 237 226 237
0.738315 0.148505 0.0867427 237 226 237
0.752233 0.15008 0.0807063 239 228 239
0.754566 0.148897 0.080798 239 228 239
0.758359 0.148115 0.0800807 239 228 241
0.773686 0.145283 0.0769531 238 229 241
0.774652 0.146501 0.0756967 238 229 241
0.788288 0.141675 0.0746883 239 230 242
0.822145 0.143214 0.0620539 240 231 243
0.836157 0.142564 0.0578451 238 229 241
0.846861 0.160243 0.0410072 176 163 172
0.840677 0.169474 0.0361355 150 139 147
0.626484 0.152196 0.121917 64 29 22
0.64315 0.151802 0.116099 158 92 90
0.646166 0.1518 0.114999 187 147 151
0.653687 0.151887 0.112192 229 218 226
0.658502 0.156116 0.107224 230 219 228
0.685187 0.1529 0.100052 232 221 232
0.686659 0.153046 0.0994144 233 223 233
0.69642 0.151614 0.0970161 233 223 233
0.711702 0.148656 0.0938325 235 224 234
0.750333 0.148738 0.080221 236 228 238
0.756003 0.147527 0.0791662 238 229 241
0.77419 0.145512 0.0744013 238 229 241
0.790729 0.141668 0.0716162 239 230 242
0.798074 0.141464 0.0692595 239 230 242
0.825659 0.141954 0.0595348 239 230 242
0.84455 0.142758 0.0525862 238 229 241
0.837724 0.17134 0.0335713 150 139 147
0.833352 0.17843 0.0297502 125 115 121
0.618824 0.149217 0.1249 56 18 15
0.623915 0.154591 0.118957 98 43 30
0.627396 0.152017 0.11962 112 51 35
0.634788 0.152601 0.116463 152 77 64
0.637984 0.15173 0.115949 160 81 71
0.666188 0.153078 0.104666 230 219 228
0.676798 0.152944 0.10094 231 221 229
0.680029 0.152375 0.100208 234 221 230
0.68356 0.151016 0.0999634 232 221 232
0.694818 0.149688 0.0969343 233 223 233
0.707951 0.148055 0.0934872 235 224 234
0.759796 0.145 0.0775735 238 229 241
0.794181 0.140163 0.0693179 239 230 242
0.801543 0.140017 0.0669061 239 230 242
0.806944 0.140173 0.064944 239 230 242
0.827177 0.140824 0.0575825 239 230 242
0.829177 0.140727 0.0569768 238 229 241
0.84608 0.141698 0.0505555 239 228 241
0.616703 0.149195 0.123594 69 26 20
0.637171 0.152441 0.113629 173 91 80
0.64055 0.150772 0.113643 167 92 88
0.643759 0.149941 0.113092 185 135 138
0.654289 0.150063 0.109163 229 218 226
0.663763 0.153714 0.102993 229 218 226
0.682819 0.150901 0.0982247 232 221 232
0.687841 0.149714 0.0973099 232 221 232
0.706363 0.146086 0.0934025 232 223 233
0.710442 0.147567 0.0908476 235 224 234
0.750726 0.14445 0.0789743 238 227 238
0.752181 0.144825 0.0781867 236 228 238
0.782958 0.139225 0.0716466 239 228 241
0.787824 0.13993 0.0694439 239 230 242
0.80555 0.137842 0.0648914 239 230 242
0.817284 0.13967 0.0595271 239 230 242
0.619725 0.15455 0.116402 121 52 39
0.624374 0.153514 0.11546 139 64 51
0.629038 0.152525 0.11448 157 74 64
0.643111 0.14984 0.11132 191 140 144
0.649963 0.146598 0.111228 225 212 221
0.656149 0.151684 0.105201 229 218 226
0.67618 0.150287 0.0989889 231 221 229
0.680894 0.149844 0.09762 231 221 229
0.69751 0.146564 0.0940902 233 223 233
0.702608 0.145533 0.0930322 233 223 233
0.704088 0.145742 0.0923498 233 223 233
0.717681 0.147058 0.0865415 235 223 236
0.763143 0.141529 0.0746254 238 229 241
0.769892 0.141681 0.0721606 238 229 241
0.781021 0.137755 0.0711795 238 229 241
0.840487 0.140428 0.0487933 238 229 241
0.842515 0.15913 0.0344662 152 136 148
0.629927 0.152394 0.112192 169 82 73
0.650596 0.147343 0.108357 228 217 225
0.659915 0.151761 0.101716 229 218 228
0.661151 0.152647 0.100616 229 218 228
0.662624 0.152717 0.10003 229 218 226
0.680443 0.148927 0.0963806 231 221 229
0.682209 0.148245 0.0962467 231 221 229
0.690503 0.146556 0.094507 232 221 232
0.693775 0.146084 0.0936798 232 222 230
0.713933 0.146423 0.0862322 232 223 233
0.736835 0.142123 0.0812644 236 225 235
0.761214 0.140149 0.0741335 238 229 239
0.794199 0.137701 0.0644245 238 229 241
0.802604 0.136038 0.0627248 239 230 242
0.804054 0.136597 0.0618161 238 229 241
0.825721 0.137776 0.053495 238 229 241
0.848231 0.141498 0.0430968 214 206 216
0.849798 0.144411 0.0404551 194 181 194
0.612198 0.124694 0.136921 63 20 16
0.664146 0.150248 0.0992375 229 218 226
0.672319 0.148241 0.0977437 230 219 230
0.676756 0.148582 0.095892 230 219 228
0.685301 0.14598 0.0947093 231 220 231
0.693632 0.144345 0.0929063 231 220 231
0.746836 0.140053 0.0770937 237 226 237
0.748301 0.140419 0.0763111 237 226 237
0.753119 0.140758 0.0743676 236 228 238
0.784936 0.136476 0.0663168 238 229 241
0.796197 0.135709 0.0629484 238 229 241
0.797649 0.136247 0.062054 239 230 242
0.806461 0.136741 0.0586386 238 229 241
0.81042 0.136381 0.0575264 238 229 241
0.834081 0.137825 0.0483188 238 229 241
0.839505 0.1384 0.0460408 238 227 240
0.622584 0.153294 0.110151 169 84 74
0.653091 0.149756 0.10156 228 217 225
0.656286 0.149023 0.100929 228 217 225
0.666904 0.148692 0.0973152 229 218 226
0.677779 0.147803 0.0940258 230 219 230
0.679537 0.14711 0.0938921 230 219 228
0.699749 0.142548 0.0899175 232 221 232
0.706349 0.141764 0.0881185 232 221 232
0.708175 0.141175 0.0878899 233 223 233
0.716307 0.144275 0.0827468 233 223 233
0.744055 0.140346 0.0757178 236 225 235
0.765101 0.138708 0.0694683 236 228 240
0.779096 0.135601 0.066784 238 229 241
0.782011 0.136568 0.065068 238 229 241
0.793745 0.134966 0.0621129 238 229 241
0.811372 0.135982 0.0552419 238 229 241
0.818207 0.136894 0.0522161 238 229 241
0.824175 0.136524 0.0504115 238 229 241
0.83559 0.136758 0.0462954 239 228 241
0.610184 0.153093 0.112835 132 66 48
0.618874 0.154206 0.108837 165 84 73
0.621843 0.154068 0.107846 176 91 81
0.63174 0.148806 0.107997 195 100 96
0.654347 0.14808 0.100267 228 217 225
0.677604 0.146079 0.0932705 230 219 228
0.689132 0.143813 0.0907358 231 220 231
0.690612 0.143983 0.0900813 231 220 231
0.697802 0.141433 0.0893218 232 221 232
0.710674 0.140723 0.0852117 232 221 232
0.754956 0.136868 0.0722031 236 228 240
0.77619 0.135731 0.0655184 236 228 240
0.78056 0.134334 0.0649761 238 229 241
0.793768 0.133216 0.0611341 238 229 241
0.799165 0.133292 0.0591886 238 229 241
0.802066 0.134405 0.0573817 238 229 241
0.841703 0.134874 0.0432488 238 227 240
0.608237 0.152325 0.112084 132 66 50
0.613589 0.156068 0.107447 161 84 66
0.638011 0.144506 0.10673 191 123 123
0.639521 0.144497 0.106185 196 145 151
0.64312 0.142001 0.106647 208 182 191
0.683635 0.144085 0.0904541 230 219 230
0.723109 0.13947 0.0795486 233 223 233
0.742695 0.139282 0.0726952 236 225 235
0.754479 0.135925 0.0708851 235 226 239
0.766065 0.136454 0.0664041 236 228 240
0.791819 0.131715 0.0606634 238 229 241
0.798156 0.133092 0.0574625 238 229 241
0.817777 0.134169 0.0498219 238 229 241
0.843807 0.133102 0.0414888 233 224 236
0.847379 0.143352 0.0330398 157 143 157
0.607124 0.156437 0.10758 141 70 55
0.608599 0.156329 0.107113 145 76 56
0.609955 0.157058 0.106099 154 81 67
0.615962 0.155871 0.10473 174 94 82
0.630832 0.14704 0.105516 194 99 95
0.645694 0.141124 0.104262 226 213 222
0.661098 0.145778 0.0953697 228 217 225
0.713052 0.13857 0.0816845 231 222 232
0.72782 0.137812 0.0769231 232 223 233
0.731154 0.137621 0.0758651 233 223 233
0.745986 0.137473 0.0706728 234 225 237
0.773288 0.134148 0.0633026 238 229 241
0.799113 0.132679 0.0552012 238 229 241
0.817281 0.133192 0.048446 238 229 241
0.820379 0.131537 0.0485155 238 229 241
0.823251 0.132812 0.046615 239 228 241
0.827243 0.132602 0.0453615 238 227 240
0.829243 0.132509 0.0447249 238 227 240
0.843894 0.131363 0.0403959 235 223 236
0.845664 0.143843 0.0310663 157 141 156
0.6251 0.150462 0.103194 196 108 104
0.633722 0.144438 0.104256 184 93 92
0.635227 0.144418 0.10372 184 105 102
0.645231 0.140234 0.102995 227 214 223
0.648936 0.143645 0.0992571 228 215 224
0.659157 0.144828 0.0947083 229 216 225
0.686265 0.140954 0.0875862 231 220 231
0.697045 0.13706 0.0864131 229 221 231
0.736951 0.137206 0.0719675 233 225 234
0.739874 0.137896 0.0704399 233 225 234
0.743627 0.136993 0.0697274 236 225 237
0.755427 0.133654 0.06784 235 226 239
0.771814 0.13195 0.0631884 238 229 241
0.791787 0.131101 0.0566863 238 229 241
0.815346 0.131602 0.0480041 238 229 241
0.826741 0.131624 0.0439711 238 227 240
0.842794 0.131115 0.0386763 232 221 234
0.600372 0.141186 0.116715 78 39 25
0.601168 0.147715 0.111888 94 41 32
0.610298 0.156936 0.102131 167 92 77
0.62629 0.14872 0.101973 197 103 98
0.647183 0.141902 0.099072 226 216 224
0.655952 0.142991 0.0951218 226 216 224
0.660183 0.144025 0.0928648 229 216 225
0.66636 0.143527 0.0909646 229 218 228
0.702864 0.136167 0.0828464 231 220 231
0.736476 0.136295 0.0706603 233 225 234
0.739812 0.136174 0.0695471 233 225 234
0.74357 0.135268 0.0688257 233 224 236
0.745456 0.134826 0.0684555 234 225 237
0.753474 0.132326 0.0673124 235 227 237
0.767001 0.132494 0.0623604 236 228 240
0.794708 0.130443 0.0539036 238 229 241
0.802453 0.132461 0.04976 236 228 238
0.816282 0.131258 0.0456843 238 227 240
0.835669 0.131012 0.0389945 237 226 239
0.601552 0.152574 0.106394 120 59 43
0.614238 0.155841 0.0994916 189 110 93
0.625681 0.148703 0.100213 192 97 92
0.632632 0.143534 0.101228 165 83 79
0.640116 0.136768 0.10315 205 177 186
0.648016 0.141897 0.0967385 228 215 224
0.652724 0.141175 0.095519 226 216 224
0.670864 0.141293 0.0888383 230 219 230
0.704214 0.134665 0.081308 229 221 231
0.739334 0.135267 0.0682344 233 225 234
0.747289 0.132667 0.0671591 234 225 237
0.766513 0.131567 0.0610182 236 228 238
0.776188 0.13276 0.0567375 236 228 238
0.781034 0.13057 0.0565047 236 228 240
0.794211 0.129496 0.0525338 238 229 239
0.796176 0.129261 0.0519932 238 229 241
0.808938 0.129397 0.0473514 239 228 241
0.812903 0.129063 0.0461678 238 227 240
0.814889 0.128909 0.0455661 238 227 240
0.828587 0.131015 0.0392568 238 227 240
0.833157 0.130103 0.0382569 237 226 239
0.83516 0.13004 0.0375895 237 226 239
0.842009 0.131367 0.0342531 222 211 223
0.623744 0.1479 0.0994859 190 96 89
0.630173 0.145223 0.0989615 176 86 80
0.640016 0.134205 0.102881 205 178 187
0.64403 0.136752 0.0996783 227 214 223
0.656065 0.142997 0.0910324 229 216 225
0.667683 0.139371 0.0892758 229 218 228
0.673635 0.139821 0.086805 230 219 230
0.678361 0.139378 0.08539 231 220 231
0.693511 0.135851 0.0822959 231 220 231
0.694999 0.136045 0.0816246 231 220 231
0.704555 0.135663 0.0784236 229 221 231
0.707858 0.135306 0.0774717 232 221 232
0.719642 0.133835 0.0742123 232 223 233
0.756903 0.131708 0.0622282 235 226 239
0.758812 0.13132 0.0618058 235 227 237
0.760725 0.130939 0.061377 235 226 239
0.769875 0.12995 0.0587617 236 228 240
0.771335 0.130413 0.0579225 236 228 238
0.780539 0.129639 0.0551456 238 229 239
0.789794 0.129051 0.0522274 238 229 239
0.817811 0.128437 0.0426215 238 227 238
0.84193 0.13484 0.0296791 199 185 199
0.831035 0.157781 0.0180157 103 93 99
0.595732 0.140538 0.112746 79 39 30
0.597511 0.152839 0.103773 106 49 34
0.608851 0.155283 0.0979636 180 108 87
0.610308 0.155192 0.0974915 187 113 94
0.63747 0.135863 0.100631 198 167 175
0.651798 0.139444 0.0929819 229 216 225
0.660525 0.140669 0.0889743 230 217 226
0.664231 0.138312 0.0892175 229 218 228
0.683206 0.136438 0.0835823 231 220 231
0.690058 0.1346 0.0823351 231 220 231
0.691549 0.134784 0.0816698 231 220 231
0.704082 0.134781 0.077125 231 222 232
0.723969 0.132994 0.0711286 233 223 233
0.729161 0.132275 0.0697357 232 223 233
0.781987 0.12842 0.053281 236 228 240
0.790746 0.128653 0.0499738 236 228 240
0.60082 0.157525 0.0974719 145 79 60
0.617553 0.151459 0.0954161 193 108 98
0.620481 0.151342 0.0944236 170 78 68
0.631083 0.14181 0.096939 169 99 98
0.633093 0.139252 0.0979195 175 116 118
0.634951 0.137545 0.0983853 188 143 151
0.642899 0.135861 0.0966126 228 215 224
0.648125 0.139349 0.0923678 228 215 224
0.66501 0.138389 0.0868566 230 217 228
0.678629 0.138632 0.0817354 231 220 231
0.683931 0.136571 0.0811876 231 220 231
0.686595 0.133376 0.0823586 231 220 231
0.703606 0.133904 0.0758233 231 222 232
0.707249 0.13271 0.0753004 231 222 232
0.773736 0.128723 0.0538936 236 228 240
0.775669 0.128405 0.053408 238 227 238
0.791254 0.126146 0.049293 238 229 241
0.800055 0.126565 0.0458385 236 228 238
0.841705 0.13442 0.0256019 176 162 176
0.600284 0.157563 0.0957357 148 81 63
0.603174 0.157336 0.0948287 166 94 73
0.613916 0.152469 0.0941353 195 112 104
0.625502 0.14445 0.0952302 170 80 72
0.647867 0.137651 0.0915824 228 215 224
0.67197 0.138084 0.0825067 233 220 229
0.689109 0.132858 0.0797363 231 220 231
0.708598 0.131246 0.0737165 231 222 232
0.728967 0.128847 0.0679072 233 224 236
0.733402 0.129834 0.0656411 235 224 234
0.760145 0.126593 0.0580879 235 226 239
0.769852 0.127671 0.053854 236 228 238
0.798613 0.124279 0.0456883 238 227 240
0.829674 0.125595 0.0335843 237 226 239
0.832248 0.124754 0.0332116 237 226 239
0.839116 0.126054 0.0298697 224 215 227
0.591657 0.151651 0.100885 94 44 29
0.616519 0.150672 0.0924441 193 106 94
0.667303 0.136043 0.0835428 231 218 230
0.680932 0.136385 0.0783486 231 220 231
0.701498 0.1311 0.0743341 229 221 231
0.718831 0.131425 0.0678074 233 224 236
0.721046 0.130053 0.0679044 233 223 233
0.796133 0.123579 0.0448598 238 227 238
0.798102 0.123354 0.0442924 238 227 238
0.816859 0.123118 0.0376376 238 227 240
0.839177 0.124349 0.0287298 227 218 230
0.59369 0.155635 0.0956164 121 64 47
0.607949 0.156199 0.090041 184 112 95
0.617392 0.150655 0.0902124 192 104 95
0.646727 0.136816 0.0885383 229 216 225
0.661633 0.137452 0.082682 233 219 231
0.675469 0.13679 0.0780646 234 221 232
0.699853 0.129172 0.0741402 229 221 231
0.704657 0.129021 0.0724856 231 222 232
0.716873 0.130273 0.0672122 232 223 233
0.735772 0.127935 0.061844 233 225 234
0.74018 0.12901 0.0595348 234 225 237
0.751514 0.126394 0.057109 235 226 239
0.761068 0.124419 0.0549141 235 227 237
0.803387 0.12476 0.0392636 238 227 240
0.826637 0.123808 0.0314116 237 226 239
0.585392 0.142215 0.105434 69 36 29
0.629229 0.138468 0.0918635 175 125 124
0.637796 0.133295 0.0920835 230 214 224
0.648829 0.137774 0.0851573 231 219 228
0.650316 0.137824 0.0845821 231 219 228
0.653507 0.137087 0.0838941 233 218 228
0.704507 0.127318 0.0715857 232 221 232
0.71527 0.128292 0.067022 232 223 233
0.720443 0.127482 0.0656557 233 225 234
0.725257 0.127564 0.0638429 233 225 234
0.74912 0.125931 0.0561762 234 225 237
0.802348 0.124637 0.0375459 236 228 238
0.806815 0.123474 0.0366651 238 227 240
0.833537 0.123338 0.0269757 236 225 237
0.836117 0.122516 0.0265636 230 219 232
0.588637 0.151946 0.0960481 102 52 37
0.590169 0.150942 0.096134 113 59 43
0.592877 0.153205 0.0936962 130 72 53
0.601305 0.15502 0.0894606 178 101 84
0.611251 0.155243 0.085691 188 106 95
0.646668 0.137762 0.0839762 233 218 228
0.682468 0.13419 0.0731836 234 221 232
0.684528 0.132661 0.0734109 233 219 231
0.688386 0.130473 0.0734032 231 220 231
0.693773 0.128514 0.0726892 231 220 231
0.695579 0.127874 0.0724391 231 220 233
0.696754 0.128934 0.0713295 229 221 231
0.809711 0.123006 0.0337212 237 226 239
0.814209 0.12191 0.0327731 237 226 237
0.817081 0.123194 0.0308936 237 226 239
0.823037 0.122836 0.0289357 237 226 239
0.825027 0.122734 0.0282702 237 226 239
0.829014 0.122556 0.0269197 236 225 237
0.831582 0.14189 0.0135542 128 115 124
0.607711 0.156335 0.0844165 188 108 94
0.611987 0.156112 0.0830001 190 99 93
0.616945 0.151644 0.0840314 193 105 98
0.630118 0.142804 0.0848447 209 187 194
0.631931 0.141078 0.0852803 227 209 219
0.653953 0.141579 0.076918 227 209 219
0.675256 0.135294 0.0731227 205 162 174
0.705025 0.125853 0.0682224 232 223 233
0.74099 0.125123 0.0554875 235 226 239
0.742874 0.124672 0.0550828 235 226 239
0.756169 0.12172 0.0520749 236 228 238
0.765881 0.122752 0.0478461 236 228 238
0.767343 0.123218 0.0470115 236 228 238
0.78283 0.120699 0.0429161 238 227 238
0.816559 0.122287 0.029476 237 226 239
0.823941 0.122597 0.0265556 236 225 237
0.829889 0.142531 0.0116529 117 109 116
0.826445 0.149311 0.00860146 86 76 77
0.585082 0.146431 0.0970299 95 47 33
0.592976 0.156643 0.0877295 157 89 73
0.609999 0.156274 0.0817661 192 104 95
0.624 0.148949 0.081276 169 124 123
0.671572 0.135053 0.0726435 196 126 136
0.675977 0.135479 0.0707607 180 103 113
0.683573 0.131 0.0708003 234 221 230
0.689815 0.126433 0.0713906 233 219 231
0.697911 0.12577 0.0688386 232 221 232
0.738208 0.125558 0.0541584 234 225 237
0.757719 0.12336 0.0483561 238 227 240
0.785232 0.120872 0.0397723 238 227 238
0.792543 0.120655 0.0372075 238 227 238
0.804729 0.121559 0.0321298 238 227 238
0.591103 0.156017 0.0869514 154 86 73
0.598168 0.15625 0.0842383 179 102 87
0.601019 0.156036 0.0833354 183 104 89
0.603762 0.156702 0.0819219 180 100 84
0.614213 0.152736 0.0805928 192 102 96
0.622932 0.151622 0.0781098 175 135 142
0.64199 0.143049 0.0765051 224 207 217
0.653573 0.143503 0.0719857 206 156 166
0.661999 0.139658 0.0713024 180 109 112
0.667639 0.135703 0.071707 162 91 97
0.705872 0.123567 0.0652529 233 224 236
0.714436 0.126025 0.0605646 234 225 237
0.731042 0.124958 0.0551118 235 226 239
0.766787 0.120658 0.0445964 236 228 240
0.771634 0.12128 0.0424128 236 228 240
0.78716 0.118917 0.0381407 238 227 238
0.790571 0.119212 0.0366912 238 227 238
0.810119 0.120149 0.028848 238 227 238
0.833988 0.118839 0.0207941 225 214 227
0.597547 0.157219 0.0820239 180 100 86
0.606272 0.154913 0.0802787 165 88 71
0.631565 0.148198 0.0752157 233 218 228
0.648347 0.144238 0.0715323 194 153 164
0.649786 0.144303 0.0709661 192 142 152
0.670625 0.133437 0.0700562 180 100 104
0.677051 0.132299 0.0684018 185 98 102
0.703221 0.124186 0.0638027 232 223 233
0.737616 0.12303 0.0518218 237 226 239
0.756708 0.121643 0.0456113 236 228 240
0.774981 0.119774 0.0399899 236 228 240
0.776916 0.119465 0.0394629 238 227 240
0.786145 0.118849 0.0364143 238 227 240
0.801719 0.11998 0.0299133 238 227 238
0.803157 0.120584 0.0290019 238 227 238
0.830311 0.11955 0.0195122 232 221 232
0.57639 0.142425 0.0969257 80 39 30
0.583256 0.151825 0.0886827 113 60 46
0.597019 0.157337 0.0803165 180 98 87
0.607136 0.154949 0.0781046 159 84 71
0.614483 0.152896 0.0766898 186 104 100
0.617184 0.153669 0.0752328 164 90 86
0.628996 0.150899 0.0726239 228 210 221
0.646238 0.144272 0.0703867 177 121 126
0.650764 0.1436 0.0691419 162 94 92
0.677679 0.128052 0.0688054 188 105 108
0.734844 0.123503 0.0504961 237 226 237
0.76046 0.119202 0.04363 236 228 238
0.772535 0.119231 0.0391171 236 228 240
0.794386 0.118355 0.0315041 238 227 238
0.795832 0.118934 0.0306069 238 227 238
0.801194 0.119106 0.0284968 238 227 238
0.821822 0.119012 0.0208308 236 225 237
0.830625 0.120143 0.0168303 222 214 224
0.830212 0.136023 0.0071733 101 91 96
0.581176 0.154684 0.0858455 112 59 45
0.593829 0.155967 0.0804869 175 97 84
0.623493 0.154517 0.0705842 209 178 191
0.626796 0.151889 0.0709756 216 194 203
0.628378 0.151017 0.070928 215 192 204
0.639241 0.146795 0.0695253 187 139 151
0.645779 0.143506 0.0691317 135 74 74
0.647429 0.142697 0.069019 134 66 66
0.652189 0.141173 0.0682019 159 85 78
0.657217 0.138831 0.0677818 170 93 87
0.662297 0.136542 0.0673096 171 100 99
0.668458 0.130846 0.0685098 168 94 98
0.672466 0.12766 0.0689746 185 105 109
0.679797 0.123957 0.0685297 190 116 122
0.684864 0.122756 0.0673945 221 201 210
0.686657 0.122081 0.0671448 231 216 225
0.698931 0.122915 0.0621097 233 225 234
0.70588 0.121332 0.0605056 234 226 235
0.722166 0.120801 0.0547993 235 226 239
0.745184 0.120767 0.0462691 236 228 238
0.748112 0.121579 0.0446838 238 227 238
0.779756 0.117144 0.0355805 238 227 240
0.783156 0.11739 0.0341579 238 227 240
0.789955 0.117965 0.0312602 238 227 238
0.836754 0.125942 0.00877623 98 88 94
0.571018 0.139773 0.0966478 71 36 27
0.620389 0.152953 0.0708354 106 46 39
0.626349 0.151148 0.0697492 205 160 169
0.642443 0.142643 0.0689887 146 78 74
0.650063 0.1412 0.0670666 151 76 72
0.666502 0.129929 0.0678222 177 109 109
0.670234 0.127589 0.0678599 175 97 105
0.681368 0.12159 0.067376 205 149 158
0.699925 0.122338 0.0600721 235 224 234
0.713165 0.121022 0.0559624 237 226 239
0.723145 0.120297 0.0526948 238 227 238
0.736107 0.120529 0.0477315 236 228 238
0.741327 0.119985 0.0461153 238 227 240
0.755616 0.11828 0.041812 238 229 239
0.757963 0.11706 0.0416726 236 228 238
0.767652 0.118195 0.037359 236 228 238
0.573239 0.149803 0.0879638 105 52 38
0.582951 0.156346 0.0805647 128 71 56
0.590107 0.154757 0.0789275 167 94 82
0.597023 0.155898 0.075745 171 89 75
0.632258 0.146939 0.0682707 158 99 96
0.638331 0.145294 0.067032 154 84 81
0.645274 0.140247 0.0675017 144 73 65
0.647139 0.138563 0.0678226 147 73 66
0.655979 0.132848 0.067991 164 88 79
0.674047 0.122743 0.0673797 182 101 108
0.697941 0.121293 0.0594189 234 226 235
0.704883 0.1197 0.0577983 237 226 237
0.715628 0.120793 0.0531544 238 227 238
0.729314 0.119119 0.0490604 238 227 238
0.659145 0.129653 0.0667887 171 93 85
0.665048 0.124757 0.0675141 165 88 82
0.673556 0.121948 0.0660418 180 100 106
