ply
format ascii 1.0
comment Created by Open3D
element vertex 1999
property double x
property double y
property double z
property uchar red
property uchar green
property uchar blue
end_header
0.121301 -0.41991 0.39606 148 127 111
0.160912 -0.418327 0.385898 145 127 112
0.169204 -0.415001 0.380564 146 126 112
-0.00513963 -0.439987 0.378953 226 212 212
-0.000186031 -0.444736 0.38052 227 216 215
-0.0645177 -0.429089 0.38539 218 204 204
-0.0582939 -0.430708 0.384145 221 209 211
-0.0500028 -0.427575 0.379297 225 213 215
-0.0391267 -0.429063 0.376513 234 222 224
-0.0127752 -0.429153 0.368187 238 227 228
-0.000234024 -0.435671 0.368524 236 225 224
-0.0673156 -0.424155 0.381301 226 214 216
-0.034609 -0.42576 0.370934 239 225 227
0.000917413 -0.435833 0.366235 238 227 226
-0.0905406 -0.417936 0.384293 221 208 208
-0.0767506 -0.42153 0.381148 228 216 218
-0.0702733 -0.420843 0.378322 235 223 225
-0.0364271 -0.424626 0.368811 238 224 226
-0.0288171 -0.426007 0.367185 239 225 227
-0.0878996 -0.411959 0.377659 233 221 223
-0.0550957 -0.422354 0.371746 235 223 225
-0.0382283 -0.423475 0.366695 238 224 226
-0.0231342 -0.429547 0.365513 239 225 227
-0.0185124 -0.428517 0.363468 237 226 227
-0.132073 -0.4049 0.389784 204 191 188
-0.121982 -0.404989 0.385471 216 204 208
-0.0890875 -0.409013 0.374379 231 220 221
-0.0794076 -0.41569 0.374596 234 222 224
-0.0569116 -0.421977 0.370139 236 224 226
-0.0476834 -0.422412 0.367217 235 223 225
-0.009673 -0.432261 0.361047 236 224 226
-0.136369 -0.397509 0.38543 213 201 203
-0.124964 -0.398356 0.380932 226 217 220
-0.100969 -0.404796 0.374639 231 220 221
-0.0862259 -0.40918 0.371383 231 219 224
-0.0541989 -0.422692 0.367612 236 224 226
-0.0329426 -0.426264 0.362641 238 224 226
-0.0207773 -0.428241 0.359996 239 225 227
-0.132258 -0.395046 0.380235 225 216 219
-0.111726 -0.402397 0.375666 229 217 221
-0.108616 -0.40277 0.374601 230 218 222
-0.0982872 -0.405877 0.372213 231 220 221
-0.075324 -0.416202 0.369373 234 222 226
-0.0226806 -0.428834 0.35894 237 226 227
-0.00889881 -0.433232 0.357386 236 224 226
-0.137472 -0.390747 0.37816 224 214 218
-0.122837 -0.395875 0.374671 228 216 220
-0.114551 -0.400396 0.373732 229 217 221
-0.111687 -0.401591 0.373223 230 218 222
-0.0956072 -0.40692 0.369786 233 221 223
-0.0561146 -0.420571 0.363064 235 223 225
-0.0547143 -0.421778 0.363279 235 223 225
-0.175607 -0.378724 0.387303 192 176 174
-0.157642 -0.381892 0.380502 217 207 211
-0.141185 -0.387092 0.375847 223 213 217
-0.117091 -0.397568 0.371252 228 216 220
-0.106138 -0.40389 0.3703 231 220 221
-0.0670759 -0.419521 0.364333 235 223 227
-0.04006 -0.425844 0.358751 238 224 226
-0.188155 -0.374526 0.389238 174 160 160
-0.178606 -0.373988 0.384295 202 190 194
-0.139628 -0.387029 0.373191 222 212 215
-0.134961 -0.392145 0.373925 226 214 218
-0.117267 -0.397545 0.369375 228 216 220
-0.0672288 -0.418625 0.361915 232 223 226
-0.0358639 -0.426638 0.355889 236 224 226
-0.0100652 -0.433058 0.351682 237 226 227
-0.00851736 -0.434099 0.351826 237 226 227
0.000932326 -0.440225 0.35263 255 255 255
-0.186287 -0.367966 0.382989 194 183 184
-0.173285 -0.370663 0.378073 209 197 201
-0.164903 -0.374909 0.376315 213 201 205
-0.133995 -0.393601 0.372358 226 214 218
-0.117691 -0.398315 0.368043 229 217 221
-0.115101 -0.400329 0.36808 229 217 221
-0.0952091 -0.408968 0.364928 233 221 223
-0.0735613 -0.41774 0.361729 234 222 226
-0.0584887 -0.420025 0.357702 234 222 226
-0.0513101 -0.424349 0.357692 235 223 225
-0.0392691 -0.426859 0.35515 236 224 226
-0.031676 -0.427362 0.353023 238 224 226
-0.00274457 -0.435512 0.349014 236 224 226
-0.186414 -0.364969 0.379607 201 189 193
-0.173896 -0.368378 0.375285 207 195 199
-0.172578 -0.369224 0.375091 208 196 200
-0.164616 -0.374178 0.373896 213 200 207
-0.144315 -0.385643 0.370686 219 210 213
-0.142942 -0.38636 0.370461 221 211 214
-0.141567 -0.387072 0.370234 223 211 215
-0.103867 -0.404886 0.364129 230 219 220
-0.0981178 -0.407043 0.363061 231 220 221
-0.0941719 -0.410253 0.363299 231 220 221
-0.09253 -0.409933 0.362497 231 220 221
-0.0894438 -0.410098 0.361418 231 219 224
-0.0837968 -0.412852 0.36082 233 221 223
-0.0691254 -0.417236 0.357923 232 223 226
-0.0619669 -0.420905 0.357451 232 223 226
-0.0516171 -0.424271 0.355802 235 223 225
-0.00314513 -0.435427 0.34712 236 224 226
-0.185208 -0.362864 0.376062 200 188 192
-0.122515 -0.397176 0.365585 228 216 220
-0.0505113 -0.425379 0.354104 235 223 225
-0.0474311 -0.425168 0.352971 235 223 225
-0.0369188 -0.427248 0.350729 235 223 225
-0.174399 -0.369137 0.372139 206 193 200
-0.118963 -0.400588 0.364031 229 217 221
-0.104483 -0.405576 0.36091 231 220 221
-0.0463971 -0.427113 0.351766 235 223 225
-0.0342455 -0.427683 0.348198 235 223 225
-0.177071 -0.367435 0.37068 205 192 199
-0.169186 -0.372471 0.369497 209 197 203
-0.155836 -0.3804 0.367414 214 204 207
-0.123099 -0.397863 0.362383 227 215 219
-0.114637 -0.401511 0.360868 229 217 221
-0.0993608 -0.409305 0.359006 231 220 221
-0.0760729 -0.416983 0.354489 234 222 226
-0.0688506 -0.41992 0.353517 234 222 224
-0.0436396 -0.426753 0.34875 234 222 224
-0.0406392 -0.42734 0.348108 235 223 225
-0.0210481 -0.42968 0.343342 236 224 226
-0.177116 -0.367428 0.368837 205 192 199
-0.159234 -0.37653 0.36512 213 201 205
-0.129127 -0.396049 0.362034 227 215 219
-0.126329 -0.397336 0.361543 228 216 220
-0.0836309 -0.414648 0.354062 233 221 223
-0.0648109 -0.421848 0.351237 235 223 227
-0.0470261 -0.426892 0.348 235 223 225
-0.0244367 -0.430005 0.342621 236 224 226
-0.169307 -0.372425 0.365809 207 195 201
-0.133153 -0.393208 0.360372 225 212 217
-0.130665 -0.395325 0.360416 226 214 218
-0.128432 -0.39823 0.360978 226 217 220
-0.0979282 -0.407971 0.353968 233 221 223
-0.0575748 -0.422708 0.347339 234 222 224
-0.0517311 -0.424938 0.346584 235 223 225
-0.0337543 -0.42757 0.342257 235 223 225
-0.0307991 -0.428946 0.342079 236 224 226
-0.0277962 -0.42942 0.341418 235 223 225
-0.00664864 -0.434711 0.338062 236 224 226
-0.174994 -0.36982 0.365312 205 192 199
-0.16541 -0.374811 0.363355 209 197 203
-0.160103 -0.377961 0.362516 213 201 205
-0.149338 -0.387835 0.362671 219 207 211
-0.121553 -0.401294 0.357861 229 217 221
-0.11116 -0.403801 0.355024 231 220 221
-0.0995608 -0.40734 0.352382 231 220 221
-0.0969046 -0.409209 0.352345 231 220 221
-0.0755163 -0.417919 0.349087 234 222 226
-0.0741964 -0.419196 0.349288 233 221 223
-0.0713937 -0.420881 0.349189 234 222 224
-0.0621773 -0.420629 0.345901 234 222 224
-0.0370727 -0.426905 0.341045 235 223 225
-0.00857246 -0.433532 0.336078 236 224 226
-0.149441 -0.387768 0.360815 219 207 211
-0.134004 -0.394641 0.357712 223 213 217
-0.100971 -0.405859 0.350292 231 220 221
-0.0817632 -0.416898 0.348886 233 221 225
-0.0701837 -0.421153 0.347019 234 222 224
-0.0581497 -0.422432 0.343609 234 222 224
-0.0285206 -0.430007 0.338161 235 223 225
-0.172081 -0.370651 0.36071 205 192 199
-0.150567 -0.386177 0.358667 218 205 210
-0.127473 -0.398597 0.355149 225 216 219
-0.0975191 -0.409798 0.349135 230 219 220
-0.0569616 -0.422628 0.341442 233 221 223
-0.046623 -0.42489 0.339251 234 222 224
-0.0377804 -0.427473 0.337801 236 224 226
-0.178593 -0.366409 0.359877 202 187 194
-0.166903 -0.373831 0.358067 208 196 202
-0.162006 -0.37775 0.357753 211 198 203
-0.130115 -0.396397 0.35328 224 214 218
-0.119219 -0.402183 0.351777 229 217 221
-0.0721756 -0.420456 0.343589 233 221 223
-0.0411394 -0.427642 0.337061 234 222 224
-0.1833 -0.36525 0.359701 197 185 189
-0.176047 -0.368034 0.357664 201 189 195
-0.173463 -0.369696 0.357265 202 190 196
-0.155487 -0.385344 0.356698 214 202 206
-0.149402 -0.386721 0.354756 216 206 210
-0.130536 -0.39709 0.351944 224 214 218
-0.123846 -0.401057 0.3512 226 217 220
-0.0853726 -0.415557 0.343885 231 220 221
-0.0677775 -0.419747 0.339872 234 222 224
-0.0532182 -0.424172 0.337279 234 222 224
-0.0429426 -0.427186 0.335529 235 223 225
-0.041522 -0.42835 0.335672 235 223 225
-0.189283 -0.363131 0.359702 194 179 184
-0.16961 -0.372064 0.354837 206 194 198
-0.156916 -0.384497 0.35508 214 202 206
-0.155571 -0.385248 0.354857 215 203 207
-0.134812 -0.395011 0.350837 222 212 215
-0.125392 -0.400307 0.349605 227 215 219
-0.102168 -0.406965 0.343918 231 220 221
-0.0313786 -0.429076 0.331077 235 223 225
-0.167818 -0.375099 0.353645 205 193 197
-0.14178 -0.391516 0.3502 218 209 212
-0.119168 -0.400117 0.345246 228 216 220
-0.114086 -0.404104 0.345201 229 218 219
-0.0987359 -0.410884 0.342726 231 220 221
-0.0870876 -0.413905 0.339992 233 221 223
-0.0800495 -0.416995 0.339028 233 221 223
-0.0494759 -0.425629 0.333108 234 222 226
-0.0437083 -0.428579 0.332752 235 223 225
-0.0287105 -0.428443 0.328123 235 223 225
-0.0257446 -0.428875 0.327461 235 223 225
-0.171771 -0.372585 0.352452 202 190 194
-0.167481 -0.374231 0.351311 205 193 197
-0.14252 -0.39299 0.349375 218 209 212
-0.1326 -0.396857 0.347173 222 212 215
-0.105808 -0.407259 0.341765 231 220 221
-0.100145 -0.409354 0.340675 231 220 221
-0.0960812 -0.411715 0.340328 231 220 221
-0.046985 -0.427801 0.331546 234 222 226
-0.0335749 -0.429326 0.328174 235 223 225
-0.0127287 -0.4321 0.323477 235 223 225
-0.00972865 -0.433299 0.323227 235 223 225
-0.00365067 -0.436528 0.323138 236 224 226
-0.146381 -0.389964 0.347749 216 206 210
-0.0777898 -0.418332 0.335233 233 221 223
-0.0735867 -0.420434 0.33481 233 221 223
-0.0487676 -0.427295 0.330021 235 223 225
-0.0368677 -0.428619 0.326991 235 223 225
-0.029422 -0.42891 0.324904 235 223 225
-0.00557471 -0.435288 0.321216 235 223 225
-0.00407212 -0.43541 0.320866 235 223 225
-0.188465 -0.364468 0.352773 191 177 180
-0.144412 -0.39282 0.346446 216 206 210
-0.131182 -0.396367 0.342768 221 211 214
-0.093635 -0.412314 0.336096 231 220 221
-0.090593 -0.412405 0.335057 233 221 223
-0.0752866 -0.419825 0.333269 233 221 223
-0.0475929 -0.427377 0.327862 234 222 226
-0.0372449 -0.429291 0.325602 235 223 225
-0.0342344 -0.428888 0.324504 235 223 225
-0.0104597 -0.434658 0.320422 235 223 225
-0.188901 -0.365113 0.351479 195 179 182
-0.187629 -0.365993 0.351284 191 177 180
-0.14587 -0.391972 0.344854 216 204 208
-0.144511 -0.392667 0.344616 216 206 210
-0.11383 -0.405652 0.338574 229 218 219
-0.0997246 -0.410996 0.335857 231 220 221
-0.0985128 -0.412354 0.336052 231 220 219
-0.0580705 -0.424061 0.327782 234 222 224
-0.0330414 -0.427995 0.321908 235 223 225
-0.0256946 -0.429983 0.320693 235 223 225
-0.1889 -0.36501 0.349673 190 174 177
-0.161894 -0.379152 0.344018 207 195 197
-0.142929 -0.392382 0.342059 218 205 210
-0.0984978 -0.41129 0.333751 233 219 221
-0.0972848 -0.412644 0.333941 233 221 223
-0.0872864 -0.415957 0.331948 234 220 223
-0.0773714 -0.419856 0.330359 233 221 223
-0.0657547 -0.422966 0.327946 233 221 223
-0.0394226 -0.429465 0.322705 234 222 224
-0.176584 -0.371057 0.345056 199 185 188
-0.175706 -0.372642 0.345351 199 185 188
-0.155463 -0.386641 0.342846 212 200 204
-0.11668 -0.403277 0.334978 228 216 218
-0.10411 -0.408183 0.332564 231 220 221
-0.0848124 -0.417496 0.330001 233 221 223
-0.0776094 -0.419627 0.328529 233 221 223
-0.0731263 -0.419956 0.32718 233 221 223
-0.0529809 -0.426659 0.323764 234 222 224
-0.0500447 -0.42727 0.32313 234 222 224
-0.014567 -0.433631 0.315627 234 222 224
-0.187627 -0.365653 0.345876 191 177 180
-0.175727 -0.3725 0.343551 199 186 186
-0.168351 -0.378089 0.342772 204 192 194
-0.151523 -0.388645 0.340336 213 201 203
-0.140415 -0.393371 0.337943 219 207 211
-0.133615 -0.396641 0.336713 219 210 213
-0.129798 -0.399365 0.336437 222 211 212
-0.106853 -0.406059 0.330826 230 219 220
-0.0835986 -0.417699 0.327883 234 222 224
-0.061919 -0.423549 0.323371 233 221 223
-0.0488724 -0.427315 0.320986 235 223 225
-0.0443947 -0.427268 0.319591 235 223 225
-0.173575 -0.374743 0.341828 202 188 190
-0.120268 -0.403379 0.332816 226 214 216
-0.107254 -0.406683 0.329482 230 219 220
-0.0811182 -0.419188 0.325925 233 221 223
-0.050543 -0.425862 0.319051 234 222 224
-0.0476224 -0.426445 0.318415 235 223 225
-0.0241454 -0.430249 0.313188 234 222 224
-0.0226726 -0.430436 0.312853 234 222 224
-0.00183891 -0.436985 0.310102 236 225 224
-0.176169 -0.372959 0.340455 198 184 185
-0.164134 -0.379296 0.338027 206 194 196
-0.158312 -0.384642 0.337875 211 197 199
-0.156989 -0.38538 0.337647 211 198 203
-0.153982 -0.386036 0.336703 213 201 205
-0.131703 -0.399151 0.333536 222 211 212
-0.111833 -0.405689 0.328947 228 216 218
-0.103683 -0.40972 0.327773 231 220 219
-0.06522 -0.421438 0.319915 234 222 224
-0.0245126 -0.430878 0.311798 234 222 224
-0.00675737 -0.434552 0.308527 233 221 223
-0.173213 -0.373636 0.337753 200 186 189
-0.149415 -0.390295 0.334921 214 202 204
-0.123578 -0.402592 0.330183 225 213 215
-0.0640369 -0.421516 0.317803 233 221 223
-0.0628356 -0.423648 0.318362 233 221 223
-0.0526679 -0.425913 0.316175 234 222 224
-0.0234059 -0.431689 0.310071 234 222 224
-0.164591 -0.379707 0.334929 205 193 195
-0.154461 -0.386437 0.333587 211 197 201
-0.130567 -0.399324 0.329667 221 209 211
-0.123434 -0.40151 0.327916 223 212 213
-0.120684 -0.402679 0.327393 225 213 215
-0.114278 -0.40721 0.326979 227 215 217
-0.083051 -0.4171 0.320334 233 221 223
-0.0787704 -0.418348 0.319449 233 221 221
-0.0500444 -0.426219 0.313735 234 222 224
-0.0485891 -0.426506 0.313417 233 221 223
-0.0369712 -0.429499 0.311251 234 222 224
-0.0267223 -0.431926 0.309347 234 222 224
-0.189706 -0.36555 0.338121 188 174 176
-0.187193 -0.36728 0.337719 189 175 175
-0.171881 -0.377195 0.3352 202 188 190
-0.147226 -0.392068 0.331312 214 202 204
-0.145884 -0.392754 0.331069 215 204 205
-0.113038 -0.407505 0.324903 226 214 216
-0.108617 -0.408257 0.323635 228 216 218
-0.0846892 -0.416394 0.318825 233 221 221
-0.0474277 -0.42649 0.311297 234 222 224
-0.0416733 -0.428462 0.310426 234 222 224
-0.0343613 -0.429661 0.308794 233 221 223
-0.188434 -0.366246 0.336142 190 174 175
-0.162817 -0.382397 0.331858 205 191 194
-0.158887 -0.384628 0.331172 209 195 197
-0.147303 -0.391839 0.329515 214 202 204
-0.126986 -0.401506 0.325754 220 208 210
-0.122594 -0.402438 0.324517 222 211 212
-0.0992146 -0.412403 0.320336 229 218 219
-0.0891469 -0.414795 0.317899 231 220 219
-0.067799 -0.42083 0.313447 233 221 221
-0.0435078 -0.428806 0.309363 233 221 223
-0.0361437 -0.429124 0.307326 234 222 224
0.00419352 -0.447001 0.303926 203 184 172
-0.150388 -0.391036 0.328668 211 199 201
-0.141695 -0.39347 0.326286 214 202 204
-0.140674 -0.394957 0.326498 214 202 204
-0.136625 -0.396903 0.325748 216 205 206
-0.134219 -0.399009 0.325698 216 205 206
-0.122721 -0.402172 0.322725 221 209 211
-0.110322 -0.407181 0.320317 225 213 215
-0.102198 -0.411134 0.319101 227 216 215
-0.0524444 -0.425918 0.309075 233 221 223
-0.0509956 -0.42621 0.308758 234 222 224
-0.0335446 -0.429254 0.304879 234 222 224
-0.021856 -0.430808 0.30222 234 222 224
-0.0160008 -0.432362 0.301262 234 222 224
-0.00415465 -0.436114 0.299668 233 221 223
-0.193485 -0.36553 0.334634 183 167 168
-0.185503 -0.369958 0.332933 189 175 175
-0.184238 -0.370802 0.332725 190 176 176
-0.177461 -0.37416 0.331193 195 181 181
-0.169758 -0.378929 0.329884 199 186 186
-0.156719 -0.386433 0.327604 207 193 196
-0.14745 -0.391355 0.325936 211 197 199
-0.133264 -0.400215 0.324101 216 205 206
-0.0967709 -0.412784 0.316181 228 217 216
-0.0671286 -0.42236 0.3104 233 221 221
-0.0601675 -0.425859 0.309682 233 221 223
-0.039683 -0.428008 0.3044 234 222 224
-0.0382298 -0.428246 0.304075 233 221 223
-0.00753992 -0.433727 0.297808 234 222 224
-0.14919 -0.391236 0.324851 210 196 198
-0.116649 -0.406162 0.318706 221 209 211
-0.0983524 -0.412005 0.314677 227 216 215
-0.0874857 -0.417422 0.313228 230 219 220
-0.0860675 -0.417854 0.312935 231 220 221
-0.0830536 -0.41781 0.311922 231 220 219
-0.0814653 -0.417333 0.311205 233 221 221
-0.06751 -0.422938 0.309026 233 221 223
-0.0634425 -0.425778 0.308923 233 221 223
-0.047392 -0.428219 0.305033 234 222 224
-0.0019393 -0.436561 0.295772 249 236 234
0.0703762 -0.58616 0.340326 164 104 95
-0.163716 -0.383074 0.325665 199 185 188
-0.160172 -0.386104 0.325429 203 187 190
-0.12118 -0.405039 0.318163 218 206 208
-0.0989577 -0.41345 0.313749 227 216 215
-0.0891035 -0.416668 0.311732 231 220 221
-0.0848582 -0.41796 0.310851 231 220 221
-0.0818504 -0.417901 0.309841 231 220 219
-0.0693271 -0.423154 0.307957 233 221 221
-0.0562636 -0.425241 0.304753 233 221 223
-0.0402323 -0.426413 0.300446 234 222 224
0.0412665 -0.658893 0.374432 212 196 183
-0.194624 -0.364065 0.329527 178 162 162
-0.15927 -0.387391 0.32387 202 188 190
-0.15099 -0.39084 0.321985 207 194 194
-0.144666 -0.395069 0.321205 208 197 198
-0.121579 -0.4056 0.316814 218 206 208
-0.100752 -0.413529 0.312672 227 216 215
-0.0991349 -0.413132 0.311964 227 216 215
-0.0878918 -0.416779 0.309655 229 218 217
-0.0864798 -0.417209 0.309362 231 220 219
-0.0836516 -0.418051 0.308772 231 220 219
-0.0535587 -0.424583 0.301944 234 223 222
-0.0361592 -0.425831 0.297316 233 221 223
-0.0130459 -0.43325 0.293891 233 221 223
-0.00864977 -0.433608 0.29286 233 221 223
0.065121 -0.587147 0.337044 115 55 46
0.0855666 -0.535271 0.311754 130 85 68
-0.165841 -0.383424 0.323259 196 182 182
-0.145073 -0.395621 0.319869 207 195 197
-0.128832 -0.403225 0.316792 215 204 205
-0.095525 -0.415984 0.310162 228 217 216
-0.0866829 -0.416873 0.307583 230 219 218
-0.0395235 -0.427773 0.297365 234 222 224
-0.035186 -0.428449 0.296386 233 221 223
-0.0221401 -0.430156 0.293404 233 219 221
0.0713492 -0.590304 0.334476 122 51 39
0.0911764 -0.537105 0.30913 114 69 52
0.106377 -0.521287 0.299857 156 111 94
-0.165477 -0.382356 0.321041 195 181 181
-0.154692 -0.387367 0.318719 202 188 188
-0.153382 -0.388069 0.31848 203 189 191
-0.144813 -0.394498 0.317651 206 194 196
-0.137082 -0.399227 0.316571 211 199 201
-0.0842456 -0.418263 0.305628 231 220 219
-0.0572849 -0.426009 0.300216 234 223 222
-0.038327 -0.426713 0.294893 233 221 221
-0.0267972 -0.428341 0.292269 233 221 223
-0.0108552 -0.432757 0.289675 233 221 223
-0.00793598 -0.432978 0.288988 233 221 223
-0.0035247 -0.434195 0.288314 235 224 223
0.0686322 -0.590326 0.332663 114 47 38
0.0731217 -0.591871 0.332266 119 51 40
0.0884719 -0.536231 0.307167 106 54 37
0.0977993 -0.519548 0.298769 135 78 61
0.101158 -0.518025 0.297508 156 96 77
-0.190903 -0.369163 0.324811 174 160 160
-0.18714 -0.371717 0.324177 179 163 162
-0.155097 -0.3879 0.317399 200 186 189
-0.152829 -0.390124 0.317357 204 190 192
-0.14655 -0.394368 0.316567 207 193 196
-0.140182 -0.39849 0.315741 208 197 198
-0.138835 -0.399131 0.315485 208 197 198
-0.130705 -0.402858 0.313927 214 202 204
-0.12905 -0.402605 0.313236 214 202 204
-0.12769 -0.403199 0.312972 214 202 204
-0.111215 -0.40989 0.30972 221 210 209
-0.0589872 -0.425335 0.29876 233 221 221
-0.0561157 -0.425944 0.298129 233 221 221
-0.0488346 -0.426444 0.296154 234 222 224
-0.0459579 -0.42697 0.295512 233 221 223
-0.0141346 -0.432132 0.288601 233 221 223
0.0683054 -0.592048 0.330982 114 49 39
0.0811435 -0.540667 0.308251 82 26 18
0.108189 -0.518337 0.294156 178 114 90
-0.192569 -0.368829 0.323715 169 155 155
-0.187556 -0.372246 0.322869 175 159 160
-0.182902 -0.373188 0.321322 181 165 166
-0.174014 -0.378811 0.319777 187 171 170
-0.158117 -0.387006 0.316556 201 185 186
-0.130808 -0.402538 0.312153 214 202 204
-0.12536 -0.404905 0.311092 216 205 206
-0.0805987 -0.419663 0.301596 231 220 219
-0.0550521 -0.42678 0.296432 233 221 221
0.0183649 -0.576228 0.334318 119 107 95
0.0392636 -0.581887 0.331386 135 62 52
0.0633567 -0.591245 0.329369 111 49 38
0.0713854 -0.588781 0.326614 117 50 40
0.0851642 -0.535106 0.303093 92 40 25
0.0868187 -0.533933 0.302299 93 41 26
0.0900014 -0.522961 0.297463 102 47 31
0.109077 -0.516836 0.291329 181 116 92
-0.139002 -0.3985 0.311944 208 197 198
-0.0710465 -0.422829 0.2981 233 221 221
-0.0554257 -0.427315 0.295049 233 221 221
-0.0307296 -0.428658 0.288419 233 221 223
0.0870122 -0.528797 0.298178 90 37 23
0.0884211 -0.526683 0.297091 95 40 26
0.0905337 -0.519658 0.294015 113 54 38
0.0916608 -0.516603 0.292638 124 63 43
0.111252 -0.519918 0.289981 182 115 92
-0.154999 -0.390169 0.313185 200 187 187
-0.139082 -0.398171 0.310181 208 197 198
-0.136399 -0.399427 0.309665 209 198 199
-0.131307 -0.40273 0.309038 212 200 202
-0.124788 -0.406533 0.308119 216 205 206
-0.0527261 -0.426575 0.292274 234 223 222
-0.0325318 -0.42899 0.287368 233 221 223
-0.0238572 -0.429136 0.285018 233 221 223
-0.0137675 -0.430125 0.282666 233 221 221
-0.0064808 -0.433466 0.282007 233 221 221
0.0401509 -0.581473 0.326279 134 60 53
0.0647728 -0.594517 0.325456 116 54 43
0.0741052 -0.587155 0.320606 107 42 32
0.0939137 -0.512986 0.288776 155 85 63
-0.167624 -0.381783 0.313378 193 177 178
-0.134412 -0.40203 0.308218 212 200 202
-0.105372 -0.412776 0.302065 223 212 213
-0.098203 -0.414278 0.300235 227 216 215
-0.0787467 -0.421115 0.296489 231 220 219
-0.0502267 -0.427644 0.290254 233 221 221
-0.0328488 -0.428579 0.285624 231 220 221
-0.00683442 -0.43399 0.280611 231 220 219
0.0378213 -0.584132 0.325469 133 61 53
0.0683326 -0.594037 0.32206 112 52 40
-0.191935 -0.367026 0.316279 168 152 153
-0.18159 -0.376079 0.315205 180 164 163
-0.17355 -0.380038 0.313418 187 171 172
-0.172272 -0.38081 0.313188 188 172 173
-0.162877 -0.385246 0.311124 196 180 181
-0.157687 -0.38812 0.310165 200 184 185
-0.143891 -0.397264 0.308271 206 194 196
-0.119279 -0.407197 0.303096 219 207 209
-0.113544 -0.408466 0.30159 221 209 211
-0.105527 -0.412399 0.300306 223 212 213
-0.0590861 -0.425522 0.290409 233 221 221
-0.0577679 -0.426744 0.290465 233 221 221
-0.0173576 -0.429968 0.280226 231 220 219
0.0614346 -0.594282 0.321308 114 55 43
-0.195271 -0.366567 0.315842 167 151 152
-0.186144 -0.371724 0.313909 174 158 157
-0.184896 -0.372549 0.31369 178 162 160
-0.169713 -0.382025 0.310981 190 174 175
-0.153809 -0.389883 0.307689 200 187 187
-0.152502 -0.39057 0.307443 202 188 188
-0.132197 -0.403396 0.304581 212 200 202
-0.125123 -0.40546 0.302834 216 205 206
-0.109814 -0.410516 0.299401 222 211 212
-0.102688 -0.412094 0.29759 225 213 215
-0.0874131 -0.417012 0.294394 229 218 217
-0.0779281 -0.421606 0.293058 231 220 219
-0.0678699 -0.423192 0.290535 233 221 221
-0.0420515 -0.42645 0.284107 231 220 219
-0.0306149 -0.428112 0.281496 231 220 219
-0.0162701 -0.429665 0.278162 233 221 221
0.0973247 -0.511215 0.281348 188 110 84
0.0995624 -0.51276 0.281449 195 115 92
-0.158117 -0.388279 0.307098 200 184 185
-0.154208 -0.390373 0.306364 200 187 187
-0.140027 -0.398481 0.303996 207 195 197
-0.134985 -0.40182 0.303357 212 200 202
-0.115692 -0.408936 0.299164 219 207 209
-0.114322 -0.409463 0.298886 219 207 209
-0.107207 -0.411129 0.297088 225 213 215
-0.0807904 -0.419518 0.291538 230 219 218
-0.0681066 -0.422773 0.288791 233 221 221
-0.0568642 -0.4262 0.286652 231 220 219
-0.051058 -0.426387 0.285018 233 221 221
-0.022369 -0.429614 0.278124 233 221 223
0.0621407 -0.592787 0.315824 101 37 26
0.0785902 -0.590453 0.311313 90 33 21
-0.191006 -0.367785 0.31131 169 153 154
-0.167555 -0.383685 0.307455 193 177 178
-0.158142 -0.387933 0.30536 200 184 185
-0.128625 -0.405292 0.300673 214 202 204
-0.113338 -0.410476 0.29725 220 208 210
-0.0951422 -0.415849 0.293141 227 216 215
0.0655282 -0.591322 0.312161 98 38 29
0.0779487 -0.590229 0.309008 93 35 25
0.0780657 -0.52877 0.287442 83 29 22
0.101808 -0.511489 0.276514 198 117 92
-0.193567 -0.368963 0.311081 168 153 151
-0.186916 -0.372384 0.309567 175 159 160
-0.13916 -0.399221 0.300652 210 196 198
-0.136805 -0.401319 0.300527 209 198 199
-0.123295 -0.407186 0.297837 216 205 206
-0.114839 -0.409553 0.295786 221 209 211
-0.0853863 -0.417487 0.28896 229 220 218
-0.0813726 -0.419583 0.288431 230 219 218
-0.0671657 -0.422241 0.28501 233 221 221
-0.0487617 -0.426027 0.280915 233 221 221
-0.0387305 -0.426724 0.278308 231 220 219
-0.0230412 -0.428713 0.274686 233 221 223
-0.0101781 -0.428872 0.27133 231 220 219
-0.00584124 -0.431025 0.27096 233 221 221
-0.00440459 -0.431102 0.270617 233 221 223
0.0804908 -0.516478 0.280602 105 52 38
0.0877898 -0.508618 0.276369 169 97 76
0.0897536 -0.509273 0.27619 174 100 78
-0.181885 -0.375317 0.306949 178 162 162
-0.177692 -0.376896 0.305852 183 168 166
-0.167468 -0.386198 0.304986 193 177 178
-0.156339 -0.39028 0.30222 201 185 186
-0.125046 -0.407102 0.296757 216 205 206
-0.103761 -0.412249 0.291401 225 213 215
-0.0803468 -0.420446 0.286761 229 220 218
-0.0717605 -0.421709 0.284567 233 221 221
-0.049038 -0.425573 0.279192 233 221 221
-0.0476192 -0.425824 0.278872 233 219 219
-0.0390907 -0.427204 0.276933 231 220 219
0.0344577 -0.583663 0.312041 124 48 40
0.0390367 -0.588311 0.312549 127 65 56
0.0620736 -0.590042 0.307783 82 25 15
0.0682614 -0.589562 0.306219 89 29 19
0.0777254 -0.514499 0.278495 95 45 32
0.0908785 -0.508642 0.273754 182 104 78
0.100538 -0.510828 0.272533 196 114 87
0.102783 -0.512359 0.2726 198 116 89
0.108197 -0.505378 0.269178 189 112 81
-0.195898 -0.366628 0.308061 164 148 148
-0.183538 -0.374975 0.305866 178 162 162
-0.153179 -0.393647 0.300543 202 188 188
-0.143939 -0.398268 0.298751 207 194 194
-0.14261 -0.398906 0.298491 209 195 195
-0.138611 -0.400787 0.297704 210 196 198
-0.131906 -0.403812 0.296373 212 200 202
-0.123793 -0.407258 0.294741 216 205 206
-0.113986 -0.410136 0.292412 220 208 210
-0.0919054 -0.417688 0.287791 228 217 216
-0.0845627 -0.417924 0.28557 229 218 217
-0.076188 -0.420199 0.283758 231 220 219
-0.0650849 -0.42384 0.281647 231 220 219
-0.0122967 -0.430673 0.269233 231 220 221
0.0275315 -0.580616 0.310356 138 57 48
0.0337934 -0.582441 0.309465 121 45 36
0.0765535 -0.580779 0.299065 82 24 19
0.0771295 -0.514147 0.276497 98 48 35
0.0850509 -0.509128 0.27314 157 87 68
0.0941984 -0.509566 0.271399 187 107 82
0.101896 -0.511084 0.27035 197 115 88
0.109206 -0.517487 0.271026 193 111 84
-0.178063 -0.37701 0.302824 182 167 165
-0.171311 -0.383242 0.302239 189 174 172
-0.16451 -0.386117 0.300636 196 180 181
-0.14532 -0.397233 0.297276 206 193 193
-0.13395 -0.404551 0.295679 212 200 202
-0.126895 -0.406596 0.293936 214 202 204
-0.123898 -0.406843 0.293005 216 205 206
-0.120099 -0.409371 0.292555 218 206 208
-0.115737 -0.410081 0.291337 220 208 210
-0.114371 -0.410601 0.291056 221 209 211
-0.0920834 -0.417245 0.28606 228 217 216
-0.0653236 -0.42338 0.279924 231 220 219
-0.0640415 -0.424622 0.27996 231 220 219
0.0722 -0.582799 0.298403 86 26 19
0.0752419 -0.576718 0.295703 79 20 15
0.0743939 -0.512131 0.274414 92 44 31
-0.191792 -0.37094 0.304588 171 155 155
-0.17384 -0.381362 0.300988 187 171 172
-0.13569 -0.40441 0.294594 211 199 201
-0.12293 -0.407855 0.291376 218 206 208
-0.113388 -0.411575 0.289415 220 208 210
-0.107413 -0.411782 0.287535 222 211 212
-0.0767712 -0.420203 0.280672 233 221 221
-0.0527701 -0.424586 0.275031 230 219 218
-0.040107 -0.427667 0.272468 231 220 221
-0.0344167 -0.42847 0.271159 231 220 221
-0.00585058 -0.431095 0.264445 231 220 219
0.0795463 -0.505143 0.269045 135 72 52
-0.193426 -0.370542 0.303503 168 152 153
-0.183049 -0.376335 0.301299 178 162 162
-0.181362 -0.376329 0.300666 179 163 162
-0.171697 -0.383323 0.299196 189 174 172
-0.153051 -0.395693 0.296274 202 188 190
-0.142789 -0.401774 0.294577 207 196 195
-0.103446 -0.412767 0.284951 225 213 212
-0.0926362 -0.417249 0.282971 228 217 216
-0.073249 -0.423567 0.279078 231 220 219
-0.0659284 -0.423366 0.276836 231 220 221
-0.0602955 -0.424584 0.275581 233 221 221
-0.0475667 -0.426988 0.272711 231 220 219
-0.0460673 -0.426286 0.272058 233 221 221
-0.0347236 -0.427981 0.269456 231 220 221
-0.0261055 -0.426167 0.26652 230 219 220
-0.0105195 -0.429403 0.263468 231 220 221
0.0320846 -0.581557 0.302679 120 43 35
0.0499345 -0.594324 0.302623 89 40 31
0.0600215 -0.591789 0.299471 82 33 24
0.0907128 -0.501887 0.263717 186 104 77
0.104981 -0.514925 0.264996 199 114 88
-0.195811 -0.368498 0.302229 165 149 150
-0.169596 -0.382044 0.29645 190 175 173
-0.158316 -0.392555 0.295562 201 185 186
-0.146497 -0.398584 0.293252 206 193 193
-0.134502 -0.404168 0.290859 212 200 202
-0.0939835 -0.415445 0.281194 228 217 216
-0.0748727 -0.422742 0.277668 231 220 219
-0.0550115 -0.426159 0.272938 231 220 219
-0.0364458 -0.427293 0.268086 231 220 221
-0.0278695 -0.426457 0.265481 231 220 221
-0.0236519 -0.427857 0.264802 230 219 220
-0.0222341 -0.427996 0.264469 231 220 221
-0.00941071 -0.431845 0.262357 231 220 221
0.0251457 -0.577498 0.300761 140 65 54
0.0572111 -0.59068 0.297429 87 41 31
0.06338 -0.590227 0.295876 76 20 14
0.0711971 -0.575059 0.289263 82 26 18
0.0864679 -0.501134 0.262424 184 103 78
-0.180904 -0.377992 0.297813 181 165 164
-0.158335 -0.39215 0.293841 200 184 185
-0.155731 -0.393524 0.293334 203 187 188
-0.14918 -0.396866 0.29205 205 191 192
-0.0966802 -0.413195 0.27972 226 214 214
-0.0862502 -0.419274 0.278393 230 219 218
-0.0848593 -0.419667 0.278091 229 220 218
-0.083467 -0.420054 0.277789 230 219 218
-0.0738395 -0.423534 0.275985 231 220 219
-0.0239807 -0.427347 0.263119 231 220 221
-0.0169045 -0.427983 0.261452 231 220 221
-0.0140717 -0.428197 0.26078 231 220 219
-0.00980535 -0.429429 0.260069 233 221 221
-0.0040284 -0.432583 0.259597 237 226 225
0.0201754 -0.571442 0.297783 156 85 75
0.0375956 -0.586498 0.298366 80 23 19
0.0586536 -0.590226 0.294636 81 28 21
-0.188766 -0.373593 0.297879 173 157 156
-0.183357 -0.376027 0.296569 178 162 160
-0.17038 -0.382902 0.293821 189 174 172
-0.118486 -0.410009 0.284098 218 206 206
-0.104998 -0.409996 0.279755 223 212 211
-0.0931479 -0.415829 0.277832 227 216 215
-0.0711027 -0.422789 0.273319 231 220 219
-0.0514909 -0.427826 0.269219 231 220 219
-0.0499814 -0.427133 0.268575 231 220 219
-0.045573 -0.425958 0.266969 231 220 219
-0.0271289 -0.426536 0.262102 230 219 218
-0.0229165 -0.427921 0.261414 231 220 219
-0.00440525 -0.432067 0.257913 235 224 223
0.057905 -0.58895 0.292098 78 22 16
0.0922625 -0.500065 0.25705 198 116 89
0.099813 -0.508491 0.258095 202 118 89
-0.193794 -0.373112 0.298038 169 153 154
-0.180008 -0.378814 0.294559 181 165 164
-0.162623 -0.390062 0.291547 196 182 182
-0.161332 -0.390767 0.291296 197 183 183
-0.152229 -0.395549 0.289511 203 189 191
-0.149961 -0.397725 0.289365 205 191 192
-0.147324 -0.399024 0.288841 206 193 193
-0.125639 -0.407736 0.284143 215 204 203
-0.0697807 -0.421682 0.270978 231 220 219
0.0210012 -0.569778 0.292609 139 60 50
-0.168625 -0.385211 0.290699 192 176 176
-0.139098 -0.401466 0.285165 211 197 197
-0.103031 -0.411767 0.276483 225 213 212
-0.0844027 -0.42042 0.273344 230 219 218
-0.0165297 -0.428424 0.256696 230 219 218
0.0177083 -0.557901 0.287582 121 51 45
0.0601998 -0.584141 0.285523 78 19 14
0.0740896 -0.50197 0.257629 131 70 50
-0.18285 -0.377256 0.292016 179 163 164
-0.178675 -0.378785 0.290927 183 168 166
-0.154883 -0.393336 0.286612 202 188 186
-0.149071 -0.398351 0.286046 205 191 192
-0.11502 -0.411032 0.278469 221 210 209
-0.0802518 -0.420105 0.270401 233 221 221
-0.0536948 -0.426015 0.264456 231 220 221
-0.0522873 -0.426269 0.264136 231 220 221
-0.0423413 -0.426938 0.261567 231 220 219
-0.0182842 -0.427775 0.255367 231 220 219
-0.0112283 -0.428264 0.253688 230 219 218
-0.00701485 -0.42753 0.252391 230 219 218
-0.00557967 -0.428553 0.252334 233 221 221
-0.00416711 -0.428611 0.251995 243 232 229
0.0350021 -0.58224 0.288557 96 35 28
0.0391371 -0.58306 0.287822 69 18 12
0.0662713 -0.574472 0.278997 78 23 14
0.0698928 -0.509833 0.258964 92 39 27
0.0781728 -0.498873 0.25393 163 94 71
0.0849063 -0.497778 0.252183 190 112 86
-0.195275 -0.371919 0.293546 167 151 152
-0.190657 -0.372824 0.292094 171 155 155
-0.189428 -0.373643 0.291865 172 156 157
-0.175308 -0.381479 0.288897 186 170 171
-0.13954 -0.401414 0.282115 210 196 196
-0.119464 -0.409894 0.277966 219 207 207
-0.0847771 -0.419395 0.26995 230 219 218
-0.0582743 -0.42563 0.264039 231 220 221
-0.0497383 -0.426225 0.261811 231 220 219
-0.0468406 -0.425743 0.260862 231 220 219
-0.0454362 -0.425967 0.260539 231 220 219
-0.041219 -0.426606 0.259567 230 219 218
0.0366393 -0.583721 0.286351 88 30 22
0.0576355 -0.588363 0.282822 82 24 19
0.0659648 -0.576009 0.277298 77 24 14
0.0881141 -0.49863 0.249871 197 122 92
-0.198116 -0.370623 0.292687 162 148 148
-0.175697 -0.381876 0.287581 186 170 171
-0.167244 -0.387876 0.286231 192 179 179
-0.154357 -0.394812 0.283684 204 190 190
-0.115512 -0.410943 0.275412 221 210 209
-0.101427 -0.413896 0.271842 226 214 214
-0.094802 -0.416988 0.270693 228 217 216
-0.0934268 -0.417406 0.270394 228 217 216
-0.0920502 -0.417819 0.270094 228 217 216
-0.0892927 -0.418628 0.269493 228 219 217
-0.0571198 -0.425362 0.262039 231 220 219
-0.0443102 -0.425639 0.258545 231 220 219
-0.0119377 -0.427158 0.250383 231 220 219
-0.00490974 -0.427503 0.248696 235 224 223
0.0665488 -0.570641 0.273392 80 27 20
0.0744227 -0.502269 0.251934 139 77 57
0.0774017 -0.499857 0.2506 164 93 71
0.0807734 -0.499323 0.249728 178 102 80
0.0939747 -0.502909 0.247987 204 128 94
-0.183577 -0.377635 0.2877 178 162 162
-0.182335 -0.37842 0.287463 180 164 165
-0.165073 -0.3897 0.284399 195 181 181
-0.147862 -0.397606 0.280678 206 193 193
-0.141629 -0.401602 0.279693 210 196 196
-0.134993 -0.404595 0.27833 213 199 202
-0.117243 -0.410831 0.274342 221 210 209
-0.109701 -0.410595 0.271901 222 211 210
-0.0656116 -0.422168 0.261951 231 220 221
-0.0573687 -0.424815 0.260362 230 219 220
-0.0305683 -0.426948 0.25362 230 219 218
-0.0234956 -0.425747 0.251403 230 219 218
0.037405 -0.581911 0.281144 80 24 15
0.0658175 -0.557583 0.267644 81 28 21
-0.160312 -0.392885 0.282045 200 184 185
-0.149552 -0.397354 0.279603 206 193 193
-0.125415 -0.407158 0.27435 216 205 204
-0.11412 -0.409519 0.271413 222 211 210
-0.0746086 -0.42253 0.263072 231 220 221
-0.0658375 -0.421616 0.260282 230 219 220
-0.0590109 -0.42399 0.25901 230 219 220
-0.00704531 -0.426306 0.245759 230 219 218
0.0479201 -0.589683 0.278628 71 15 9
0.0613127 -0.582872 0.273628 82 27 16
0.0638643 -0.527033 0.257386 77 26 19
0.0675708 -0.507991 0.251236 99 41 31
-0.145378 -0.402015 0.277883 210 196 196
-0.113146 -0.410396 0.269775 222 211 210
-0.106143 -0.41187 0.268002 225 213 212
-0.0748152 -0.421978 0.261395 230 219 220
-0.0661976 -0.422 0.258919 230 219 220
-0.0466116 -0.424689 0.254178 230 219 220
-0.0410259 -0.425524 0.252885 230 219 218
-0.0241416 -0.424598 0.248122 229 218 217
-0.0129897 -0.42544 0.24547 230 219 218
0.0227977 -0.563071 0.27493 90 46 38
0.0644031 -0.567488 0.266439 81 28 21
0.0861269 -0.498644 0.242764 192 119 91
0.088034 -0.49929 0.242539 194 121 91
-0.196285 -0.372261 0.286234 166 152 150
-0.15979 -0.394332 0.279109 200 187 187
-0.0725536 -0.42396 0.259703 230 219 220
-0.0258793 -0.424844 0.247091 229 218 217
-0.0161218 -0.42564 0.244774 230 219 218
0.0378864 -0.58252 0.274499 89 28 21
0.0484005 -0.585848 0.272942 80 22 16
0.0501742 -0.583788 0.271968 80 24 17
0.0578041 -0.580292 0.269258 84 29 18
0.0633386 -0.509363 0.248724 74 25 14
0.0728603 -0.504163 0.245224 142 77 56
0.0823827 -0.499693 0.241968 183 112 88
0.0919545 -0.502918 0.240816 193 116 83
-0.187606 -0.377555 0.282913 174 160 160
-0.183886 -0.379928 0.282193 177 163 166
-0.18264 -0.380709 0.281951 180 166 166
-0.175113 -0.385281 0.280478 187 173 173
-0.148785 -0.401508 0.275718 207 194 194
-0.1415 -0.402859 0.273684 211 197 197
-0.127587 -0.40685 0.270246 216 205 204
-0.109334 -0.410768 0.265563 223 212 211
-0.0713738 -0.423714 0.257719 230 219 220
-0.0443702 -0.423956 0.250239 230 219 218
-0.0429056 -0.423203 0.249638 230 219 218
-0.0317935 -0.424635 0.247042 229 218 217
-0.0276506 -0.426041 0.246327 230 219 218
0.0328378 -0.577409 0.272096 94 41 32
0.0553358 -0.580989 0.267795 84 29 18
0.101799 -0.508289 0.238299 189 112 79
-0.170871 -0.386177 0.277701 190 177 174
-0.1658 -0.389039 0.276688 195 181 179
-0.163644 -0.39129 0.27652 197 184 181
-0.161465 -0.393528 0.276345 200 184 183
-0.118577 -0.410919 0.266899 221 210 209
-0.117229 -0.411426 0.266611 221 210 209
-0.103186 -0.414348 0.263059 226 214 214
-0.100467 -0.415229 0.262467 226 214 214
-0.0743604 -0.422492 0.256679 230 219 220
-0.0688079 -0.423763 0.255426 231 220 221
-0.0431804 -0.42261 0.248004 229 218 217
-0.0417968 -0.422808 0.247682 230 219 218
-0.02376 -0.424871 0.243444 228 217 216
0.062539 -0.510278 0.245329 72 24 13
0.063736 -0.507183 0.244249 83 33 20
0.0816098 -0.500592 0.238628 180 109 83
0.0967494 -0.504717 0.236507 184 108 74
-0.171253 -0.386534 0.276376 191 178 176
-0.14587 -0.400867 0.271472 210 196 196
-0.140271 -0.402422 0.27005 212 200 200
-0.131003 -0.40647 0.268105 216 205 204
-0.124325 -0.409197 0.266689 219 207 207
-0.113024 -0.411448 0.263755 222 211 210
-0.0965274 -0.415943 0.259907 227 216 215
-0.0869591 -0.41873 0.257793 230 219 218
-0.077327 -0.421243 0.255641 231 220 219
-0.0717969 -0.422556 0.254395 230 219 220
-0.0704116 -0.42287 0.254082 230 219 220
-0.0434532 -0.422008 0.246376 230 219 218
-0.0296642 -0.424697 0.243399 230 219 218
-0.00741488 -0.42532 0.237837 230 219 218
0.0521369 -0.580254 0.263919 85 30 19
0.0680927 -0.505033 0.240839 109 51 34
0.0829049 -0.50074 0.236521 175 109 81
0.0903234 -0.502365 0.235362 175 103 73
-0.200503 -0.369573 0.280963 164 148 148
-0.199295 -0.37042 0.280732 162 148 148
-0.176238 -0.383102 0.27571 185 172 172
-0.168693 -0.38748 0.274202 194 180 178
-0.111787 -0.41137 0.261801 225 213 212
-0.100974 -0.41502 0.259445 226 214 214
-0.0857614 -0.418524 0.255831 229 218 217
-0.0706235 -0.422279 0.252429 230 219 218
-0.0692406 -0.422587 0.252116 231 220 221
-0.0174768 -0.424187 0.238562 230 219 218
-0.016093 -0.425246 0.23848 230 219 218
0.042783 -0.573548 0.262179 88 32 22
0.0597311 -0.56735 0.256682 81 30 20
0.0949959 -0.501796 0.232362 176 101 70
0.102594 -0.51022 0.232893 183 107 73
-0.1946 -0.370862 0.277671 167 153 153
-0.193127 -0.374114 0.277898 169 155 155
-0.186215 -0.37974 0.276801 178 162 162
-0.180357 -0.381185 0.275133 182 168 168
-0.174113 -0.384927 0.273889 188 174 172
-0.163505 -0.393043 0.272252 198 185 183
-0.160934 -0.394414 0.271727 202 186 185
-0.154094 -0.396879 0.270072 205 191 192
-0.15186 -0.399044 0.269861 207 194 194
-0.150555 -0.399684 0.269591 207 194 194
-0.0900262 -0.416796 0.255093 230 219 220
-0.0595296 -0.42207 0.247713 229 218 219
-0.0580339 -0.421376 0.247124 229 218 219
-0.0469954 -0.423254 0.244573 230 219 220
-0.0303151 -0.424431 0.24042 230 219 218
-0.0178109 -0.423564 0.236958 229 218 217
0.0616713 -0.513527 0.24063 81 30 20
0.0736994 -0.502986 0.235343 144 84 59
0.0895472 -0.503228 0.231994 159 93 63
-0.193771 -0.372018 0.276132 168 154 154
-0.188147 -0.376858 0.275282 175 161 161
-0.169863 -0.389013 0.27188 194 180 178
-0.159639 -0.39457 0.269795 202 188 186
-0.152808 -0.396997 0.268138 207 194 194
-0.125154 -0.409341 0.262308 220 209 208
-0.10848 -0.413471 0.258212 225 213 212
-0.09447 -0.415949 0.254642 228 217 216
-0.0835601 -0.419008 0.25221 231 220 219
-0.0739483 -0.421392 0.250044 231 220 221
-0.0671886 -0.42388 0.248749 230 219 220
-0.0542522 -0.422463 0.244814 230 219 220
-0.0472587 -0.422634 0.242951 229 218 219
-0.0361455 -0.423184 0.240112 230 219 218
-0.0153856 -0.424078 0.234941 231 220 219
-0.00985302 -0.424361 0.23361 229 218 217
0.0567947 -0.554766 0.249972 79 31 18
0.0985894 -0.505748 0.228828 179 102 69
-0.19777 -0.369873 0.275532 166 150 149
-0.14633 -0.399607 0.265124 212 198 199
-0.107496 -0.414267 0.256558 225 213 212
-0.0602376 -0.422748 0.24499 230 219 218
-0.053121 -0.422077 0.242873 230 219 220
-0.00740048 -0.425775 0.231816 230 219 218
0.0498077 -0.563649 0.25165 87 34 23
0.0543186 -0.554433 0.248378 81 33 19
-0.181052 -0.381351 0.270841 185 172 172
-0.176073 -0.384349 0.269838 188 174 174
-0.162966 -0.393879 0.267644 200 187 185
-0.146704 -0.399936 0.263782 211 197 197
-0.123976 -0.408722 0.258705 221 210 209
-0.122643 -0.409242 0.258417 221 210 209
-0.112998 -0.411808 0.256086 223 212 211
-0.107615 -0.413674 0.254908 226 214 214
-0.0409781 -0.423322 0.23837 229 218 217
-0.0353455 -0.422075 0.236579 229 218 217
0.0357623 -0.564012 0.252906 78 36 30
0.0373725 -0.560993 0.251806 80 35 28
0.0545716 -0.534164 0.241425 81 31 18
0.0551762 -0.526228 0.2394 82 32 19
0.0628807 -0.508559 0.233469 95 40 26
0.0870016 -0.498728 0.225875 146 85 56
0.0982479 -0.501447 0.224131 174 102 67
0.105644 -0.508872 0.224322 166 99 63
-0.177698 -0.383928 0.268767 187 173 173
-0.148379 -0.399641 0.262712 212 198 199
-0.13325 -0.408514 0.259968 218 206 206
-0.127607 -0.409803 0.258522 219 207 207
-0.118723 -0.410179 0.2559 222 211 210
-0.073489 -0.421755 0.245367 229 218 219
-0.0593247 -0.421747 0.24143 229 218 217
-0.0523431 -0.421999 0.239584 229 218 217
-0.0483958 -0.424586 0.239125 229 218 217
0.0557689 -0.521608 0.236237 87 34 23
0.0628253 -0.510895 0.232148 98 43 30
0.0755078 -0.504087 0.227759 138 83 58
0.0797151 -0.499389 0.225755 141 84 55
0.0913776 -0.497176 0.222742 162 94 62
-0.198906 -0.370832 0.271615 167 151 150
-0.195286 -0.373309 0.2709 169 155 155
-0.192859 -0.374934 0.270417 171 158 158
-0.181007 -0.383581 0.268272 185 172 172
-0.124715 -0.409366 0.255998 221 210 209
-0.0873497 -0.417704 0.246834 230 219 220
-0.0680488 -0.421379 0.242224 228 219 217
-0.0654377 -0.422907 0.241851 228 219 217
-0.0570392 -0.423528 0.239688 229 218 217
-0.00707238 -0.424842 0.226949 230 219 218
0.0426959 -0.549717 0.243772 80 36 24
0.0494905 -0.544264 0.240943 81 33 19
0.0593166 -0.513658 0.231686 98 44 28
0.0702318 -0.506235 0.227552 104 52 33
-0.199775 -0.371946 0.270637 167 151 150
-0.172181 -0.38821 0.264834 194 180 178
-0.164579 -0.392423 0.263263 199 186 186
-0.160746 -0.394457 0.262465 206 189 190
-0.152088 -0.399897 0.260875 210 196 198
-0.13931 -0.406867 0.258386 215 204 203
-0.102826 -0.414548 0.249081 227 216 215
-0.0890682 -0.417644 0.245782 230 219 220
-0.0778154 -0.418568 0.242791 230 219 220
-0.0404993 -0.422518 0.233492 229 218 217
0.0560785 -0.518335 0.231579 97 42 29
-0.198945 -0.373083 0.269084 169 153 154
-0.186574 -0.377863 0.265917 182 166 167
-0.177576 -0.385601 0.264536 190 177 174
-0.155976 -0.397402 0.260046 210 196 196
-0.135379 -0.407996 0.255878 216 205 204
-0.119823 -0.411118 0.251836 223 212 211
-0.111513 -0.413093 0.249789 225 213 212
-0.100488 -0.415707 0.247123 227 216 215
-0.0952846 -0.418284 0.246179 228 217 216
-0.0865124 -0.417745 0.243547 230 219 220
-0.0603793 -0.422683 0.237351 230 219 218
-0.0477057 -0.421868 0.233748 229 218 217
-0.0463346 -0.42207 0.233427 228 217 216
-0.0339671 -0.423637 0.230513 229 218 217
0.0457477 -0.537455 0.236268 76 33 20
0.0524733 -0.521045 0.231092 88 36 24
0.0555135 -0.517751 0.229672 99 47 32
0.0747955 -0.499175 0.221275 121 71 42
0.077705 -0.496679 0.220092 130 73 47
0.0840975 -0.494504 0.218228 144 83 51
0.092079 -0.491882 0.215945 161 96 63
0.104016 -0.497282 0.214598 154 92 54
-0.18169 -0.383658 0.263975 187 173 173
-0.126852 -0.408852 0.251936 221 209 211
-0.120189 -0.41142 0.250479 223 212 211
-0.104899 -0.414722 0.246668 227 216 215
-0.0621054 -0.422725 0.236308 229 218 217
-0.0592353 -0.422276 0.235429 229 218 217
-0.0495158 -0.422926 0.232951 228 217 216
-0.0356868 -0.423785 0.229482 229 218 217
-0.0300961 -0.422411 0.227729 229 218 217
-0.0232159 -0.422024 0.225874 230 219 218
0.0579375 -0.513839 0.226373 105 50 37
0.0637666 -0.507134 0.223611 88 40 24
0.0804134 -0.495487 0.217427 137 78 48
-0.198488 -0.374502 0.266209 171 155 155
-0.191923 -0.377742 0.264663 179 163 164
-0.19023 -0.377711 0.2641 178 165 165
-0.180376 -0.383863 0.262084 189 176 173
-0.162748 -0.393817 0.258414 205 192 190
-0.140094 -0.40688 0.254016 215 204 205
-0.135798 -0.407694 0.252873 218 206 208
-0.112241 -0.41369 0.247073 225 213 212
-0.106854 -0.415509 0.245876 227 216 215
-0.10526 -0.415018 0.24531 227 216 215
-0.0985028 -0.417134 0.243798 228 216 218
0.0614982 -0.506757 0.222186 97 50 31
0.0702901 -0.498506 0.218477 92 50 30
0.112947 -0.500688 0.209778 127 76 43
-0.174507 -0.387824 0.259463 196 182 182
-0.170732 -0.389966 0.258675 200 184 185
-0.149308 -0.402086 0.254349 212 200 202
-0.140131 -0.406272 0.252374 216 205 206
-0.113947 -0.413512 0.246011 225 213 212
-0.105377 -0.414374 0.243688 227 216 215
-0.0900945 -0.416946 0.239836 230 219 220
-0.0596919 -0.42093 0.23224 227 216 215
-0.0252066 -0.420542 0.223079 229 218 217
0.0732237 -0.498318 0.21597 105 59 36
0.102915 -0.492245 0.208313 150 88 50
-0.181463 -0.381999 0.259084 188 174 174
-0.180229 -0.382745 0.258828 190 176 176
-0.145408 -0.403303 0.251872 214 200 203
-0.141478 -0.405077 0.251022 215 204 205
-0.140165 -0.405657 0.250737 216 205 206
-0.128971 -0.408281 0.247886 221 209 211
-0.123664 -0.410363 0.246721 222 211 210
-0.0945027 -0.416084 0.239398 229 218 219
-0.0601627 -0.422178 0.231116 228 217 216
-0.0533057 -0.423359 0.229515 228 217 216
-0.0324415 -0.422161 0.223785 228 217 216
-0.0146389 -0.421511 0.219115 229 218 219
0.0759469 -0.497129 0.213313 111 62 40
0.0900714 -0.49137 0.209074 148 87 55
-0.175248 -0.388383 0.256799 195 181 179
-0.171473 -0.390525 0.256006 200 184 185
-0.168086 -0.393484 0.255495 202 188 186
-0.162186 -0.394465 0.253837 205 191 192
-0.16002 -0.396665 0.253579 206 193 193
-0.125655 -0.411046 0.245923 221 210 209
-0.107441 -0.414497 0.241275 227 215 217
-0.104752 -0.415369 0.240672 226 214 214
-0.0975542 -0.41557 0.238652 228 216 218
-0.0423429 -0.421342 0.224703 229 218 217
-0.0326372 -0.419506 0.221808 229 218 217
-0.00812932 -0.423018 0.216309 229 218 217
-0.00539169 -0.42308 0.215644 241 229 231
0.0538154 -0.510604 0.219157 104 52 35
0.0843264 -0.49079 0.208414 143 84 51
0.0910786 -0.490392 0.206874 145 84 53
0.0924585 -0.489075 0.206318 143 82 48
0.0957017 -0.488343 0.205479 141 80 46
-0.199489 -0.374804 0.260623 173 157 158
-0.197067 -0.376441 0.260126 174 160 160
-0.178049 -0.383919 0.255374 192 179 179
-0.177685 -0.386349 0.255699 194 180 180
-0.173935 -0.388517 0.254911 197 184 181
-0.171843 -0.390796 0.254669 201 185 186
-0.160389 -0.396937 0.252235 207 194 194
-0.144835 -0.404452 0.248882 216 202 204
-0.141873 -0.404729 0.24804 215 204 205
-0.127049 -0.409884 0.244593 221 210 209
-0.114767 -0.413421 0.241671 225 213 212
-0.0949975 -0.415688 0.236442 229 218 219
-0.00846299 -0.423287 0.214958 229 218 217
0.0484263 -0.512483 0.218905 82 31 21
0.0710628 -0.494482 0.210267 93 54 31
0.0776271 -0.493335 0.208591 127 72 45
0.0837166 -0.490152 0.20664 139 81 48
0.0902119 -0.488796 0.204969 140 82 47
-0.190863 -0.379876 0.257246 181 167 167
-0.185487 -0.382135 0.255929 185 172 172
-0.149479 -0.403806 0.24865 212 200 202
-0.108992 -0.412723 0.238361 226 214 214
-0.0333114 -0.420035 0.219126 228 217 216
-0.0319543 -0.420168 0.218802 228 217 216
-0.0306391 -0.421274 0.218677 228 217 216
-0.0279152 -0.421514 0.218026 229 218 217
-0.0265527 -0.421625 0.2177 230 219 218
-0.0224047 -0.418983 0.216136 229 218 217
0.054558 -0.510094 0.215179 99 52 36
0.0702814 -0.492862 0.208342 92 51 28
0.0884482 -0.490426 0.203883 139 81 48
-0.20023 -0.375328 0.257982 172 156 157
-0.184166 -0.382311 0.254057 187 173 173
-0.15817 -0.397889 0.248715 209 195 195
-0.144259 -0.405573 0.245884 215 204 205
-0.124822 -0.410523 0.241033 221 210 209
-0.118164 -0.412998 0.239549 222 211 210
-0.109349 -0.412983 0.237009 225 213 212
-0.0268895 -0.421882 0.216353 229 218 217
0.0857374 -0.488189 0.202282 137 78 46
-0.198897 -0.375583 0.256116 173 159 159
-0.191127 -0.379556 0.254307 182 168 168
-0.189904 -0.380337 0.254051 183 169 169
-0.180829 -0.384805 0.251951 192 179 179
-0.166201 -0.394171 0.249022 204 191 188
-0.159819 -0.397495 0.247647 209 195 195
-0.153381 -0.400686 0.246252 212 198 199
-0.148549 -0.404038 0.245385 213 201 203
-0.0531441 -0.420046 0.221344 228 217 216
0.0723754 -0.49098 0.203972 100 55 36
0.0804981 -0.489475 0.201899 134 77 46
0.106057 -0.488738 0.19623 129 71 33
0.114315 -0.476153 0.192239 87 51 33
-0.199264 -0.375831 0.254795 173 159 159
-0.1898 -0.379749 0.252442 183 169 169
-0.179955 -0.385789 0.250361 194 180 180
-0.17289 -0.390963 0.249038 201 185 184
-0.130527 -0.408033 0.239246 220 209 208
-0.12789 -0.409081 0.23866 221 210 209
-0.119652 -0.411165 0.236639 222 211 210
-0.0948506 -0.416153 0.230486 228 217 216
-0.0288514 -0.420305 0.213609 228 217 216
0.0450792 -0.513943 0.212515 61 21 14
0.0625025 -0.503834 0.206709 70 30 19
0.0667799 -0.499177 0.204913 76 38 22
0.0680564 -0.496966 0.204233 85 45 26
0.115363 -0.486388 0.192069 108 60 31
-0.198422 -0.376887 0.25322 174 160 160
-0.187719 -0.381532 0.250604 184 171 171
-0.177833 -0.387489 0.248501 196 182 182
-0.167789 -0.393111 0.246343 202 188 186
-0.131514 -0.410111 0.238386 220 209 208
-0.129879 -0.409722 0.237845 221 209 211
-0.125605 -0.41035 0.236714 221 210 209
-0.114417 -0.412369 0.233849 223 212 211
-0.0923012 -0.416199 0.228292 229 218 217
-0.0495638 -0.419199 0.217293 226 218 216
-0.0385361 -0.417655 0.214155 228 217 216
0.0523304 -0.507429 0.207844 77 36 22
0.05402 -0.507222 0.207419 78 37 24
0.0627101 -0.498032 0.203835 70 30 19
0.0687347 -0.49407 0.201786 89 46 29
0.0999069 -0.482501 0.192931 121 65 30
-0.191271 -0.378613 0.249779 179 168 167
-0.17362 -0.391443 0.24636 198 184 185
-0.171937 -0.391279 0.245822 200 187 185
-0.160913 -0.398226 0.243606 207 194 194
-0.136827 -0.407267 0.237955 218 206 206
-0.0897585 -0.416213 0.226103 229 218 219
-0.0884159 -0.416569 0.225794 229 218 219
-0.085727 -0.417265 0.225174 228 216 218
-0.0681375 -0.421256 0.221088 227 216 215
-0.054171 -0.420768 0.217298 226 218 216
-0.0361798 -0.418179 0.212179 228 217 216
-0.0321391 -0.418575 0.211212 228 217 216
-0.0213304 -0.418406 0.208445 229 218 217
-0.0118798 -0.420803 0.206496 226 217 218
0.0549895 -0.505344 0.205049 73 34 22
0.0608373 -0.49954 0.202725 69 32 20
0.075044 -0.486117 0.197249 115 64 41
0.0992642 -0.481824 0.191212 117 64 27
0.104863 -0.48346 0.19028 121 65 30
-0.196239 -0.378138 0.249782 177 164 164
-0.1385 -0.406944 0.236892 218 206 208
-0.133241 -0.409132 0.235718 220 208 210
-0.098137 -0.41419 0.226598 228 216 218
-0.0965776 -0.41363 0.226073 227 216 215
-0.0708947 -0.419 0.219961 225 216 215
-0.0641298 -0.420335 0.218378 227 216 215
-0.0365144 -0.418406 0.210844 228 217 216
-0.0189776 -0.419767 0.206628 229 218 217
-0.00818514 -0.419157 0.203844 229 218 219
0.0776569 -0.484806 0.194705 123 70 42
0.0810816 -0.485134 0.193999 127 72 43
0.0890755 -0.483416 0.191954 124 70 38
0.105239 -0.480445 0.18796 121 65 32
-0.201934 -0.375946 0.249758 170 157 157
-0.199517 -0.377579 0.249246 171 158 158
-0.182648 -0.385986 0.245305 191 178 178
-0.175174 -0.39033 0.243691 197 183 183
-0.1552 -0.401878 0.239491 211 197 199
-0.1336 -0.409359 0.234359 220 208 210
-0.121827 -0.40976 0.231054 225 213 212
-0.115212 -0.412129 0.229557 225 213 212
-0.0887078 -0.415111 0.222671 227 215 217
-0.0628536 -0.418866 0.21632 227 216 215
-0.0273782 -0.41849 0.207074 228 217 216
-0.0246601 -0.417697 0.206258 229 218 217
0.0492846 -0.507506 0.203084 67 33 22
0.0508229 -0.506325 0.202536 64 29 18
0.0540314 -0.504926 0.201569 64 29 18
-0.167561 -0.393829 0.240451 204 191 188
-0.160817 -0.396254 0.238809 209 195 195
-0.15223 -0.401547 0.237076 213 201 203
-0.133638 -0.408662 0.232767 220 208 210
-0.112642 -0.412321 0.227378 226 214 214
-0.109985 -0.413207 0.226772 226 214 214
-0.0343818 -0.417145 0.207185 228 217 216
-0.00888052 -0.417618 0.200865 229 218 217
-0.00622469 -0.416669 0.200061 238 227 228
0.0732745 -0.484002 0.192086 111 63 36
0.0814692 -0.483394 0.19016 124 72 39
0.085768 -0.480436 0.188745 125 73 41
0.0988661 -0.473189 0.184748 116 62 28
0.11899 -0.472603 0.18034 88 52 32
-0.182917 -0.385567 0.242382 188 177 176
-0.16078 -0.395583 0.237223 209 195 195
-0.159903 -0.397112 0.237187 210 196 196
-0.150368 -0.403875 0.235389 213 201 203
-0.125771 -0.411062 0.229397 222 211 212
-0.0976239 -0.414285 0.222035 228 216 218
-0.058015 -0.419262 0.21217 227 216 215
-0.0470234 -0.418917 0.209255 227 215 217
-0.0199476 -0.418441 0.202296 228 217 216
-0.0145724 -0.417684 0.20084 228 216 218
-0.00922564 -0.416838 0.199387 225 216 215
-0.00790981 -0.415872 0.198913 229 218 219
-0.00660157 -0.4149 0.19844 239 230 231
0.0611528 -0.492305 0.194375 69 35 19
0.0622354 -0.48912 0.193639 71 37 23
0.0682963 -0.486097 0.191799 95 53 31
0.10049 -0.468789 0.182033 121 67 35
0.108682 -0.473753 0.181009 125 69 35
-0.150728 -0.404085 0.234032 213 201 203
-0.1429 -0.407602 0.23228 216 205 206
-0.135668 -0.40855 0.230349 220 208 210
-0.110689 -0.41363 0.224064 226 214 214
-0.0638795 -0.419503 0.212279 224 215 214
-0.0256238 -0.417339 0.202106 227 216 215
-0.020264 -0.417657 0.20081 228 216 218
-0.0135649 -0.416942 0.199036 229 218 219
-0.00956901 -0.416052 0.197915 228 216 218
0.0570344 -0.500137 0.194732 61 29 15
0.0732684 -0.480307 0.188081 114 63 39
0.120457 -0.479725 0.177644 115 66 35
0.115885 -0.45606 0.175181 103 61 37
-0.198764 -0.377577 0.243154 173 162 161
-0.154597 -0.401562 0.23331 211 199 201
-0.127498 -0.410045 0.226763 222 211 212
-0.126482 -0.411476 0.226679 222 211 212
-0.0938799 -0.413915 0.218016 227 215 217
-0.0835845 -0.418606 0.215914 224 215 216
-0.0778424 -0.417931 0.214279 225 216 217
0.0667522 -0.48268 0.188188 91 51 32
0.0744725 -0.480239 0.186088 112 65 35
0.0814283 -0.474737 0.183735 121 71 42
0.0874063 -0.472368 0.182064 118 66 36
-0.176908 -0.38807 0.236538 197 183 183
-0.160976 -0.397721 0.233157 210 196 196
-0.147541 -0.406272 0.230439 214 202 204
-0.116701 -0.412236 0.222572 225 213 212
-0.110865 -0.412144 0.220946 226 214 214
-0.109541 -0.412577 0.220642 227 215 217
-0.066971 -0.417448 0.209866 224 215 214
-0.0410711 -0.417391 0.203143 227 216 215
0.0631908 -0.483453 0.187393 78 43 23
0.0661787 -0.481934 0.186497 91 51 30
0.109193 -0.468799 0.175101 125 69 33
-0.188979 -0.385826 0.238356 184 172 174
-0.181425 -0.386972 0.236268 194 180 180
-0.167675 -0.394638 0.233225 205 192 190
-0.156217 -0.400437 0.230667 211 199 201
-0.15273 -0.403176 0.230025 213 201 203
-0.125567 -0.411435 0.223448 223 212 213
-0.112804 -0.412839 0.220103 226 214 214
-0.108565 -0.413195 0.218986 225 216 215
-0.081032 -0.416736 0.212029 226 214 216
-0.0783544 -0.41735 0.2114 226 214 216
-0.0634196 -0.419358 0.207741 226 214 214
-0.042743 -0.417426 0.202131 227 216 215
-0.0371978 -0.415047 0.200389 227 215 217
-0.0319243 -0.416524 0.199258 227 215 217
-0.0225523 -0.416184 0.196858 227 215 217
-0.0185517 -0.416381 0.195888 228 217 216
0.0569441 -0.487626 0.187683 64 31 19
0.0959987 -0.459162 0.175012 122 67 38
-0.196927 -0.37891 0.238403 178 165 165
-0.180094 -0.387019 0.234425 195 181 181
-0.169293 -0.394153 0.232165 205 191 192
-0.166767 -0.39549 0.231601 205 192 190
-0.151792 -0.403967 0.228378 213 201 203
-0.140683 -0.406773 0.225591 219 207 209
-0.120047 -0.411684 0.220471 226 214 216
-0.118442 -0.411214 0.219967 226 214 216
-0.110239 -0.412953 0.217942 226 214 216
-0.0771834 -0.416863 0.209563 227 215 217
-0.0756765 -0.416185 0.209075 226 214 216
-0.0663093 -0.418074 0.206864 226 214 214
-0.0335372 -0.415603 0.198106 227 215 217
0.0549505 -0.488083 0.186474 57 27 15
0.0732029 -0.472811 0.180269 111 63 36
0.0778474 -0.471853 0.179093 115 65 39
0.098635 -0.458553 0.172718 122 68 34
0.10013 -0.458135 0.172335 121 67 31
0.111226 -0.467365 0.171109 122 67 29
0.119271 -0.476364 0.170528 129 74 38
0.0210554 -0.166993 0.151779 113 63 32
-0.200896 -0.376696 0.237869 174 160 160
-0.137115 -0.408595 0.223342 220 208 210
-0.0676948 -0.416048 0.205509 226 214 214
-0.0599296 -0.419439 0.203926 226 214 214
-0.0570017 -0.417914 0.20297 226 214 214
-0.0527668 -0.416559 0.201702 224 215 214
-0.0298719 -0.416105 0.195819 226 214 214
0.0570914 -0.483891 0.183709 62 33 17
0.102466 -0.456528 0.169988 122 66 33
-0.206031 -0.373607 0.237593 166 152 150
-0.193998 -0.381611 0.234949 179 167 169
-0.167889 -0.396729 0.229135 205 192 190
-0.162796 -0.399346 0.227989 209 195 195
-0.15509 -0.403112 0.226249 212 200 202
-0.146592 -0.404866 0.224064 216 205 206
-0.12236 -0.412503 0.21826 225 213 215
-0.118103 -0.41297 0.217151 227 215 217
-0.114902 -0.411993 0.216157 225 213 215
-0.113852 -0.41338 0.216041 227 215 217
-0.102475 -0.413885 0.21302 227 215 217
-0.0953801 -0.413879 0.211112 227 215 217
-0.0681805 -0.417196 0.204333 225 213 212
-0.0655046 -0.417696 0.203698 226 214 214
-0.0475735 -0.415493 0.198797 224 215 214
-0.0449129 -0.415826 0.198159 224 215 214
-0.0354115 -0.413851 0.1955 226 214 216
-0.011547 -0.415169 0.189717 228 217 216
0.0700724 -0.469625 0.177239 110 63 40
0.0788083 -0.465768 0.174778 118 70 43
0.120846 -0.45392 0.164033 85 47 28
-0.192653 -0.381708 0.233116 183 169 171
-0.175379 -0.391942 0.229265 199 186 184
-0.173696 -0.39176 0.228762 200 187 185
-0.129303 -0.41022 0.218421 223 212 213
-0.097048 -0.413677 0.210078 226 214 216
-0.0888719 -0.414847 0.20804 225 213 215
-0.0844922 -0.413905 0.206766 226 214 214
-0.0780306 -0.416411 0.205365 225 213 212
-0.0658424 -0.417863 0.202356 226 214 214
-0.0425035 -0.415314 0.196053 224 215 214
-0.0118714 -0.415333 0.188397 228 217 216
-0.00786622 -0.416376 0.187541 227 216 215
0.0736511 -0.465968 0.174327 110 64 36
0.0947685 -0.449553 0.167621 118 66 34
0.0982577 -0.450645 0.166976 120 65 34
0.110407 -0.458475 0.16522 126 70 36
-0.204352 -0.375581 0.234426 169 156 153
-0.196641 -0.379545 0.232596 177 164 164
-0.172796 -0.392608 0.227142 202 188 188
-0.162226 -0.400322 0.224994 209 198 197
-0.150618 -0.405853 0.222354 216 205 206
-0.0795232 -0.415305 0.204177 225 213 212
-0.072864 -0.416733 0.202601 226 214 214
-0.0428334 -0.415473 0.194728 224 215 214
-0.0188146 -0.413315 0.188454 227 215 217
-0.0148533 -0.414438 0.187607 227 216 215
0.0713324 -0.464517 0.173045 108 63 35
0.0773879 -0.463231 0.171516 115 67 40
0.0834375 -0.455681 0.169276 115 65 39
0.121044 -0.447625 0.160027 89 52 30
-0.189697 -0.384308 0.229641 185 173 175
-0.168951 -0.397222 0.225086 205 193 193
-0.163456 -0.398948 0.223723 211 199 199
-0.156152 -0.403607 0.222176 216 205 206
-0.143052 -0.405233 0.218714 222 211 212
-0.142101 -0.406706 0.218611 219 210 211
-0.134262 -0.409932 0.216806 223 212 213
-0.110387 -0.413277 0.210693 225 213 215
-0.0498974 -0.415798 0.195134 226 214 214
-0.0297301 -0.413876 0.189823 226 214 214
0.0550537 -0.481723 0.177099 60 30 17
0.0628052 -0.471336 0.174134 87 49 30
0.0770244 -0.463408 0.169986 114 66 39
0.080593 -0.458501 0.168628 116 66 40
0.0929567 -0.446067 0.164463 115 66 32
-0.206248 -0.375072 0.232044 168 155 152
-0.204368 -0.377534 0.231741 170 159 156
-0.182205 -0.388014 0.226431 194 183 182
-0.18142 -0.389597 0.226367 197 183 183
-0.170151 -0.395825 0.223815 205 193 193
-0.154835 -0.403467 0.220322 216 205 206
-0.146702 -0.406087 0.218345 220 208 210
-0.142798 -0.407777 0.217447 222 211 212
-0.135923 -0.409561 0.215749 223 212 213
-0.127106 -0.409825 0.213375 226 214 216
-0.100245 -0.411478 0.206334 226 214 216
-0.0898943 -0.415316 0.204009 225 213 215
-0.0855082 -0.414372 0.202754 223 214 215
-0.0762068 -0.416484 0.200551 225 213 215
-0.0680453 -0.417105 0.198502 223 214 215
-0.0583158 -0.415771 0.195852 223 214 212
-0.0569863 -0.415978 0.195534 224 215 214
-0.0407619 -0.415073 0.19131 226 214 214
-0.0366595 -0.413483 0.190103 226 214 214
-0.0313773 -0.413926 0.188826 226 214 214
-0.00889847 -0.413854 0.183252 227 216 215
0.0624338 -0.471509 0.172581 86 47 31
-0.192098 -0.384703 0.227469 183 171 173
-0.190872 -0.385459 0.227193 186 174 176
-0.187945 -0.3861 0.226423 190 178 180
-0.183789 -0.387439 0.225375 194 183 184
-0.175534 -0.393256 0.223613 201 190 189
-0.152603 -0.404814 0.218372 218 206 208
-0.145754 -0.406803 0.216688 221 209 211
-0.141499 -0.407558 0.215598 222 211 212
-0.13889 -0.408644 0.214995 223 212 213
-0.137582 -0.409179 0.214693 223 212 213
-0.130701 -0.410843 0.212991 225 213 215
-0.0886995 -0.414831 0.202195 225 213 215
-0.0845209 -0.414835 0.201101 223 214 212
-0.0830035 -0.414177 0.200636 223 214 215
-0.0723813 -0.416477 0.198114 223 212 213
-0.0131965 -0.411956 0.182698 225 216 215
-0.010556 -0.412989 0.182158 227 216 215
0.0656803 -0.465932 0.169592 101 58 38
0.0939836 -0.446947 0.161179 114 65 31
0.102946 -0.445346 0.159007 117 65 32
-0.196108 -0.382543 0.226959 181 170 169
-0.162753 -0.402458 0.219474 214 202 204
-0.144802 -0.407509 0.215028 222 211 212
-0.124872 -0.410147 0.209884 223 214 215
-0.105113 -0.41155 0.204746 225 213 215
-0.0941123 -0.412635 0.201951 225 213 215
-0.0481367 -0.415582 0.190383 225 213 215
-0.0200821 -0.411903 0.18299 227 216 215
0.057766 -0.476566 0.170861 65 33 19
0.0930765 -0.445181 0.159635 114 64 35
0.105479 -0.444599 0.156792 118 66 34
0.100352 -0.372292 0.150897 82 46 26
-0.207294 -0.375496 0.22807 165 154 151
-0.200094 -0.380331 0.226447 178 166 168
-0.192316 -0.384129 0.224585 186 174 176
-0.155887 -0.403894 0.21625 219 207 209
-0.140893 -0.408382 0.21258 223 212 213
-0.118644 -0.412609 0.206995 224 215 216
-0.114681 -0.413941 0.206066 224 215 216
-0.102821 -0.412469 0.202786 225 213 215
-0.0957671 -0.412413 0.200925 223 212 213
-0.0933505 -0.414083 0.200451 222 213 211
-0.0702326 -0.416291 0.194664 222 213 211
-0.0660943 -0.416049 0.193578 225 213 215
-0.0564187 -0.414624 0.190968 222 213 211
-0.0296692 -0.413531 0.184127 226 214 214
0.0594052 -0.470302 0.168202 77 41 24
0.0662636 -0.464971 0.166096 100 60 40
0.0782052 -0.455258 0.162414 115 65 39
0.0981886 -0.442701 0.156679 114 63 30
0.110713 -0.447142 0.154286 122 66 33
0.117683 -0.453232 0.153301 124 71 36
0.0870621 -0.332415 0.148851 85 50 28
-0.203543 -0.377234 0.22572 173 162 161
-0.202345 -0.378036 0.225448 173 162 163
-0.182817 -0.390152 0.221005 200 189 188
-0.17407 -0.395034 0.219001 208 197 196
-0.170286 -0.397048 0.218132 209 198 197
-0.16902 -0.397708 0.21784 212 200 200
-0.165208 -0.399659 0.216963 214 202 204
-0.139936 -0.409054 0.210916 222 211 212
-0.0826888 -0.414884 0.19631 222 213 211
-0.0705673 -0.416419 0.193326 223 214 212
-0.0473768 -0.415015 0.187295 226 214 216
-0.0088672 -0.414393 0.177667 226 214 214
0.0670013 -0.462863 0.164102 103 61 39
0.0748858 -0.456081 0.161657 112 66 41
-0.206794 -0.37657 0.225147 169 157 157
-0.177739 -0.392222 0.218325 205 193 195
-0.162122 -0.402587 0.214906 216 205 206
-0.157873 -0.403543 0.21383 218 206 208
-0.156585 -0.404151 0.213531 216 205 206
-0.134389 -0.409428 0.207997 225 213 215
-0.12621 -0.411475 0.205991 223 212 213
-0.121967 -0.411949 0.204904 223 214 215
-0.12065 -0.412409 0.204595 224 215 216
-0.0694179 -0.415813 0.191544 222 213 211
-0.0623668 -0.414037 0.189587 225 213 215
-0.04093 -0.413885 0.184156 226 214 214
-0.0342731 -0.413485 0.182456 224 215 214
-0.0262975 -0.412029 0.180343 225 216 215
-0.0210637 -0.413272 0.179159 226 214 214
-0.0197345 -0.412325 0.178746 226 214 214
0.0552418 -0.478256 0.166584 54 29 17
0.0566332 -0.477016 0.166148 59 31 20
0.0675179 -0.459766 0.162089 104 62 40
0.082589 -0.445031 0.157322 114 64 35
0.0883355 -0.443514 0.155874 119 69 40
0.101988 -0.437406 0.152245 112 62 29
0.117567 -0.445895 0.149467 119 68 31
0.123679 -0.444744 0.148003 113 64 30
0.11417 -0.403423 0.146612 79 46 27
-0.20662 -0.37586 0.223611 173 162 159
-0.204233 -0.377478 0.223067 177 166 165
-0.165495 -0.39901 0.214072 215 204 205
-0.163352 -0.401178 0.213662 216 205 206
-0.157833 -0.402759 0.212293 218 206 208
-0.155643 -0.404873 0.211871 219 207 209
-0.14916 -0.407806 0.21036 221 209 211
-0.143239 -0.408212 0.208804 221 209 211
-0.14063 -0.409299 0.208194 219 210 211
-0.129492 -0.411559 0.20541 223 212 213
-0.120702 -0.411584 0.203085 222 212 213
-0.107267 -0.409743 0.199398 223 214 215
-0.0978615 -0.411458 0.197083 222 212 213
-0.0805241 -0.414745 0.192871 223 212 213
-0.0668012 -0.414452 0.189332 223 212 213
-0.065479 -0.414685 0.189014 223 214 215
-0.0613761 -0.414369 0.187944 223 212 213
-0.0586081 -0.413801 0.187194 223 214 215
-0.0558524 -0.413209 0.186446 223 214 215
-0.0253075 -0.412213 0.178715 226 214 216
-0.018743 -0.412482 0.177117 226 214 214
-0.0174295 -0.41252 0.176797 226 214 216
-0.0134828 -0.413598 0.175919 226 214 214
-0.00951242 -0.414628 0.175033 225 213 212
0.0709808 -0.45603 0.159364 108 64 40
0.072016 -0.453757 0.158934 108 66 41
0.0870793 -0.445959 0.15481 112 64 37
0.0939934 -0.44299 0.152983 112 60 32
0.116547 -0.44414 0.147967 118 67 32
0.123261 -0.449163 0.146868 118 69 33
-0.197844 -0.383168 0.220281 188 177 178
-0.184314 -0.391379 0.217166 202 191 192
-0.153403 -0.406177 0.209906 220 208 210
-0.142281 -0.408873 0.207138 221 209 211
-0.138024 -0.409551 0.206057 222 211 212
-0.13475 -0.40873 0.205124 223 212 213
-0.13312 -0.408307 0.204659 223 212 213
-0.113909 -0.41201 0.199883 223 212 213
-0.08237 -0.415536 0.191977 221 211 212
-0.0282169 -0.411182 0.177955 226 214 216
-0.00716781 -0.41573 0.173144 228 218 219
0.0558483 -0.468169 0.16228 60 30 15
0.061374 -0.464137 0.16066 89 48 32
0.100691 -0.435749 0.14933 109 57 26
0.106931 -0.435819 0.147918 114 65 31
-0.189422 -0.385256 0.216681 197 185 187
-0.178774 -0.392564 0.214296 205 193 195
-0.177526 -0.393254 0.214006 207 195 197
-0.167456 -0.398589 0.211664 213 202 201
-0.164508 -0.398974 0.210898 214 202 204
-0.14949 -0.407114 0.207465 220 208 210
-0.138032 -0.408731 0.20454 221 211 212
-0.118756 -0.412706 0.199757 223 212 213
-0.0917428 -0.412454 0.192719 221 211 212
-0.0853547 -0.415034 0.191271 221 212 210
-0.0730701 -0.415639 0.188174 223 212 213
-0.0431473 -0.413086 0.180424 226 214 216
-0.0193863 -0.412695 0.174498 226 214 214
-0.012817 -0.41283 0.172895 224 215 214
0.0547749 -0.464355 0.160608 57 30 14
0.109393 -0.434982 0.145759 114 63 30
-0.187021 -0.389279 0.214864 200 188 190
-0.185784 -0.390003 0.214576 201 190 189
-0.174111 -0.395397 0.211785 209 198 199
-0.173282 -0.396953 0.211667 208 197 198
-0.15848 -0.402179 0.208057 216 207 208
-0.115901 -0.411789 0.197498 221 211 212
-0.0947022 -0.411873 0.192012 221 211 212
-0.09339 -0.412216 0.191699 222 212 213
-0.0866084 -0.41288 0.190004 219 211 209
-0.0719158 -0.415015 0.186408 222 212 213
-0.0421567 -0.413319 0.17879 225 213 212
-0.0367035 -0.410821 0.17725 225 213 215
-0.00656727 -0.412931 0.169977 255 246 245
0.0643663 -0.45958 0.156389 99 59 36
0.121957 -0.440009 0.141717 120 66 32
-0.200797 -0.381073 0.216641 187 176 175
-0.198875 -0.383477 0.216267 191 179 179
-0.187364 -0.389377 0.21352 200 188 190
-0.186127 -0.3901 0.213232 200 188 190
-0.179461 -0.392764 0.211607 206 194 196
-0.166875 -0.399433 0.208663 213 201 203
-0.149813 -0.406398 0.204583 220 208 210
-0.140362 -0.409331 0.202284 221 209 211
-0.134473 -0.409547 0.200752 221 211 212
-0.13186 -0.41055 0.200134 221 211 212
-0.101821 -0.411134 0.192368 221 212 210
-0.0506706 -0.415497 0.179664 222 212 213
-0.0437151 -0.412285 0.177705 223 214 215
0.0912001 -0.438642 0.147118 110 57 34
0.111127 -0.37867 0.138605 83 52 33
0.0431305 -0.204438 0.142667 105 53 21
-0.19629 -0.384257 0.214179 192 181 180
-0.171018 -0.397579 0.208202 210 201 202
-0.169754 -0.398233 0.207905 212 200 202
-0.154409 -0.405668 0.204293 218 206 208
-0.152741 -0.405339 0.203834 219 207 209
-0.142008 -0.408889 0.201232 219 210 211
-0.105274 -0.412385 0.191908 221 211 212
-0.103712 -0.411808 0.19147 221 211 212
-0.0940564 -0.412401 0.18903 221 209 211
-0.0833225 -0.413978 0.186391 221 212 210
-0.0793622 -0.414844 0.18544 219 211 209
-0.0561722 -0.413893 0.179525 222 212 213
-0.0360404 -0.411108 0.174322 225 213 215
0.071814 -0.44781 0.150685 108 64 38
0.0908601 -0.433528 0.145341 109 56 30
0.0922539 -0.433114 0.144992 107 57 30
0.0933575 -0.431737 0.14465 107 57 30
0.11056 -0.428162 0.140463 113 62 29
0.131224 -0.440618 0.136509 100 57 28
0.0578245 -0.238351 0.140825 105 60 28
-0.16629 -0.40025 0.205656 214 204 205
-0.164145 -0.402411 0.205212 214 202 204
-0.161184 -0.402749 0.204451 216 205 206
-0.156043 -0.405164 0.203237 218 206 208
-0.15346 -0.406339 0.202626 219 207 209
-0.110851 -0.410882 0.191819 221 211 212
-0.072582 -0.41332 0.182209 222 212 213
-0.0232322 -0.409971 0.169699 225 213 212
0.0859889 -0.439071 0.145288 110 62 35
0.0902287 -0.437869 0.144229 110 57 32
0.106406 -0.430648 0.140056 112 62 31
0.12162 -0.433616 0.136728 115 66 32
-0.200609 -0.382113 0.212356 189 175 175
-0.190377 -0.38731 0.209897 198 186 188
-0.18173 -0.392326 0.207863 203 194 195
-0.169171 -0.399049 0.204901 211 202 203
-0.160244 -0.403442 0.202789 218 206 208
-0.14918 -0.406306 0.200051 219 207 209
-0.120165 -0.412214 0.192854 219 210 211
-0.115661 -0.411619 0.191663 221 211 212
-0.0620906 -0.413266 0.178155 223 214 215
-0.0540775 -0.413425 0.176159 223 214 215
-0.052762 -0.413597 0.17584 223 214 215
-0.0500289 -0.412934 0.175121 225 213 215
-0.0235749 -0.411044 0.168461 223 212 211
-0.0183414 -0.410208 0.167127 223 214 212
-0.0170431 -0.411233 0.166867 222 213 211
-0.0131158 -0.41228 0.165964 222 213 211
0.0696557 -0.448318 0.148105 105 65 42
0.0725536 -0.447653 0.147385 105 63 41
0.127998 -0.43858 0.133987 112 62 31
-0.182069 -0.392402 0.206517 203 194 195
-0.176634 -0.39427 0.205178 205 196 197
-0.170355 -0.397583 0.203692 210 201 202
-0.155437 -0.405911 0.200207 218 206 208
-0.143034 -0.409131 0.197148 221 209 211
-0.123829 -0.409041 0.192191 221 209 211
-0.114131 -0.410209 0.189764 219 210 211
-0.11152 -0.411035 0.189138 219 210 211
-0.0897923 -0.413955 0.183759 222 211 212
-0.0773577 -0.413671 0.180603 221 211 212
-0.0663576 -0.412691 0.177787 221 211 212
-0.0596585 -0.412754 0.176113 222 212 213
-0.0502523 -0.412014 0.173728 225 213 215
-0.0461419 -0.410478 0.172625 223 214 215
0.0560109 -0.458248 0.150297 61 31 18
0.0609707 -0.45221 0.148806 92 54 33
0.0620342 -0.449955 0.148437 95 57 38
0.0659742 -0.447084 0.147354 103 63 40
0.0700817 -0.445145 0.146282 105 63 41
0.0755855 -0.442808 0.144863 108 62 39
0.0816889 -0.437108 0.143133 107 61 36
0.0903871 -0.435701 0.141021 108 58 32
0.102442 -0.425593 0.137693 107 59 28
0.103806 -0.425127 0.137352 108 61 29
0.106202 -0.423235 0.1367 109 60 29
0.131884 -0.436939 0.131443 108 61 27
0.131884 -0.425017 0.130852 90 53 29
-0.20078 -0.381411 0.209515 189 175 175
-0.162208 -0.402975 0.200375 215 204 205
-0.136174 -0.409949 0.193968 218 209 210
-0.119962 -0.409511 0.189791 219 210 211
-0.0829434 -0.412621 0.180543 221 211 212
-0.074712 -0.412302 0.178458 221 211 212
-0.0719261 -0.411821 0.177735 221 211 212
-0.0599838 -0.412821 0.174795 222 212 213
-0.0413201 -0.412062 0.170118 225 213 215
-0.028132 -0.411005 0.166809 225 213 212
0.0595305 -0.454537 0.14769 86 48 29
0.0635534 -0.444533 0.146257 101 62 39
0.0810868 -0.436214 0.141712 106 62 36
0.106562 -0.420938 0.135024 108 58 30
0.111615 -0.422288 0.133909 111 59 27
0.123674 -0.429422 0.131437 111 61 30
0.0921277 -0.31147 0.133348 87 49 28
-0.203521 -0.379913 0.208751 185 172 172
-0.118994 -0.410012 0.188136 218 209 210
-0.114798 -0.41034 0.187083 218 209 210
-0.112187 -0.411166 0.186455 221 209 211
-0.0707831 -0.411141 0.176015 221 211 212
-0.0654079 -0.411067 0.174669 222 212 213
-0.0521014 -0.410989 0.171351 223 214 215
-0.0428714 -0.411004 0.169062 223 214 215
-0.028452 -0.411065 0.165505 223 214 215
-0.0245346 -0.411242 0.164549 222 211 212
-0.0101598 -0.411481 0.161036 222 213 211
0.0832843 -0.434552 0.139604 108 59 35
0.09136 -0.43117 0.137553 107 59 32
0.0953939 -0.424675 0.136325 108 60 33
0.0988488 -0.42144 0.135376 108 58 32
-0.144053 -0.409323 0.193062 218 206 208
-0.113826 -0.410813 0.185428 220 208 210
-0.11252 -0.411223 0.185113 220 208 210
-0.10833 -0.411462 0.184062 218 209 210
-0.0931981 -0.412523 0.180288 221 209 211
-0.0724133 -0.410955 0.175015 219 210 211
-0.032687 -0.410896 0.165156 223 212 213
-0.0287329 -0.410122 0.164151 223 212 213
-0.018305 -0.409487 0.161565 221 212 210
-0.015707 -0.410524 0.16097 221 212 210
0.0554937 -0.453266 0.145451 60 33 21
0.0787391 -0.435748 0.139216 105 61 35
0.0962477 -0.419092 0.134425 108 58 32
0.107578 -0.417265 0.131689 112 62 31
0.10814 -0.345722 0.128834 80 44 24
-0.183877 -0.393524 0.201277 201 189 193
-0.129375 -0.408826 0.187864 218 209 210
-0.114158 -0.410865 0.184086 220 208 210
-0.100069 -0.410863 0.180536 221 209 211
-0.0837328 -0.411814 0.176474 221 209 211
-0.082424 -0.4121 0.176156 221 209 211
-0.056778 -0.411572 0.16975 221 211 212
-0.0540503 -0.410929 0.16905 221 211 212
-0.0447327 -0.409987 0.16671 222 212 213
-0.04213 -0.410237 0.166076 222 212 213
-0.0212042 -0.408479 0.160862 222 211 212
0.0917025 -0.424695 0.134236 107 59 32
-0.206237 -0.380124 0.205199 185 172 172
-0.192395 -0.387678 0.201853 198 184 185
-0.178763 -0.395447 0.198585 205 196 199
-0.167809 -0.402233 0.195987 212 203 204
-0.160604 -0.403508 0.19419 214 204 205
-0.111876 -0.411726 0.182112 217 208 209
-0.0717567 -0.411292 0.172065 221 209 211
-0.0597132 -0.411248 0.169073 221 211 212
-0.05015 -0.408475 0.166617 222 212 213
-0.0397739 -0.409514 0.164088 222 212 213
-0.0227945 -0.407486 0.159848 222 213 211
-0.0215032 -0.407524 0.159532 222 212 213
-0.0176348 -0.408603 0.158619 223 214 212
-0.00984399 -0.409621 0.156745 222 213 211
0.0594648 -0.446346 0.141137 90 53 31
0.0670041 -0.439601 0.139116 104 64 43
0.0837069 -0.429116 0.134797 108 59 35
0.0946693 -0.416338 0.131792 107 59 32
0.106561 -0.412173 0.128846 109 60 29
0.111188 -0.41256 0.127764 111 59 29
-0.208963 -0.378568 0.204438 181 167 165
-0.189041 -0.389902 0.199625 199 187 189
-0.163902 -0.403241 0.193573 214 204 205
-0.160052 -0.40506 0.192645 216 205 206
-0.138823 -0.408769 0.187378 216 207 208
-0.131339 -0.408436 0.185484 217 208 209
-0.128743 -0.409387 0.184856 217 208 209
-0.118441 -0.408737 0.18225 217 208 209
-0.11063 -0.411208 0.180358 217 208 209
-0.0869998 -0.411311 0.174457 218 209 210
-0.0800844 -0.410783 0.172721 221 209 211
-0.0787802 -0.411052 0.172404 221 209 211
-0.0772963 -0.410334 0.172016 219 210 211
-0.0694674 -0.411799 0.170112 221 211 212
-0.0451971 -0.408081 0.164005 221 211 212
-0.0413152 -0.408446 0.163059 221 211 212
-0.0309455 -0.409188 0.160528 221 212 210
-0.0257229 -0.408434 0.159224 221 212 210
-0.0114729 -0.408671 0.15574 221 212 210
0.0940346 -0.415428 0.130469 108 57 36
0.0966817 -0.414543 0.129815 107 58 34
0.100319 -0.412229 0.128887 107 59 28
0.101959 -0.408462 0.128396 111 64 32
0.110164 -0.410729 0.126508 109 60 25
0.112424 -0.408777 0.12592 111 60 25
0.112653 -0.405465 0.125777 112 60 30
0.131178 -0.417162 0.121703 104 59 28
0.127647 -0.384768 0.121687 83 52 33
-0.149854 -0.405468 0.188636 218 206 208
-0.119772 -0.407391 0.181131 216 207 208
-0.0886309 -0.411043 0.17345 220 208 210
-0.0684832 -0.412059 0.168476 219 210 211
-0.0670251 -0.411293 0.168097 221 211 212
0.061234 -0.443871 0.137564 97 60 38
0.0710357 -0.434449 0.134982 106 62 38
0.100008 -0.408021 0.127426 107 63 30
0.10586 -0.408004 0.12603 112 62 31
-0.184756 -0.392805 0.195737 200 188 190
-0.167542 -0.402972 0.19159 212 203 206
-0.152222 -0.406782 0.187816 216 205 206
-0.133627 -0.408959 0.183204 216 207 208
-0.125193 -0.409891 0.181116 216 207 208
-0.103988 -0.410292 0.175842 218 209 210
-0.0943909 -0.410782 0.173468 220 208 210
-0.0835334 -0.411271 0.170785 221 209 211
-0.0820358 -0.410572 0.1704 221 209 211
-0.0779429 -0.410397 0.169383 220 208 210
-0.0565202 -0.409913 0.164082 221 211 212
-0.0538066 -0.409256 0.1634 221 211 212
0.0572418 -0.440576 0.136928 89 51 32
0.0856689 -0.418978 0.129656 108 59 37
0.101613 -0.40523 0.125566 112 67 37
0.135296 -0.399653 0.117419 94 52 25
-0.209808 -0.381141 0.200433 180 166 164
-0.200318 -0.384929 0.198099 195 181 181
-0.195436 -0.387938 0.196915 197 183 183
-0.186795 -0.393005 0.194819 202 188 190
-0.163628 -0.403946 0.189178 212 203 204
-0.139824 -0.40886 0.183312 216 207 208
-0.111078 -0.409379 0.176173 216 205 206
-0.0821667 -0.409617 0.169018 221 209 211
-0.0474428 -0.408034 0.160434 221 211 212
0.102242 -0.40384 0.123982 112 65 33
0.118247 -0.399606 0.120075 108 59 28
0.120271 -0.400907 0.119609 104 57 23
0.124744 -0.404392 0.118588 105 56 20
0.135684 -0.408164 0.116024 104 59 26
-0.160998 -0.404262 0.187081 215 204 205
-0.14771 -0.409038 0.183833 218 206 208
-0.126842 -0.408533 0.178652 215 206 206
-0.125546 -0.408988 0.178336 216 207 208
-0.100003 -0.408507 0.172012 217 208 209
-0.0932906 -0.409204 0.170362 219 207 209
-0.0919928 -0.409522 0.170046 219 210 211
-0.0782235 -0.408476 0.166638 221 209 211
-0.075808 -0.409966 0.16606 219 210 211
-0.0114556 -0.407764 0.150239 222 212 213
0.0660173 -0.436507 0.131712 105 63 43
0.0709282 -0.432236 0.130471 106 65 42
0.092597 -0.406105 0.124928 106 61 31
0.102528 -0.401502 0.122478 112 65 33
0.139244 -0.40632 0.113686 101 57 31
-0.210608 -0.378698 0.197766 180 166 166
-0.165986 -0.404275 0.186873 212 203 204
-0.138848 -0.408467 0.180192 215 206 206
-0.0964373 -0.409538 0.16974 217 208 209
-0.0908 -0.408872 0.168347 218 209 210
-0.0761294 -0.409979 0.164746 219 210 211
-0.0639696 -0.409037 0.161751 221 211 212
-0.00663009 -0.406684 0.147683 255 244 241
0.0559997 -0.439655 0.132663 78 46 29
0.0751409 -0.426943 0.127912 105 60 39
0.0798199 -0.422542 0.126743 108 62 39
0.0846036 -0.413837 0.125516 109 60 38
0.087972 -0.410688 0.124675 108 59 35
0.0912827 -0.407504 0.123848 106 60 37
0.0919664 -0.405169 0.123665 107 64 35
0.0948691 -0.401 0.12293 108 60 33
0.101536 -0.399637 0.121304 114 66 35
0.135902 -0.406675 0.113038 107 59 28
-0.195199 -0.388722 0.192577 197 183 183
-0.135912 -0.407597 0.178032 215 206 206
-0.122696 -0.407052 0.17478 215 206 206
-0.11566 -0.407259 0.173051 216 207 208
-0.0844304 -0.409378 0.165389 218 209 210
-0.0829369 -0.408677 0.16502 218 209 210
-0.0736799 -0.409489 0.162752 219 210 211
-0.0456289 -0.40634 0.155863 221 211 212
-0.041691 -0.405691 0.154896 221 211 212
-0.0288379 -0.406506 0.151752 222 213 211
-0.0159616 -0.406799 0.148602 221 211 212
0.0639148 -0.436855 0.129207 105 65 44
0.0743086 -0.425015 0.126631 106 61 40
0.0896599 -0.407942 0.122831 107 61 38
0.0919458 -0.406127 0.122268 107 64 35
0.111286 -0.395679 0.117527 108 61 29
0.132244 -0.402751 0.112457 107 57 26
-0.197976 -0.387242 0.191831 197 183 183
-0.18392 -0.394264 0.188379 205 193 195
-0.159919 -0.403057 0.18249 214 202 204
-0.137532 -0.407106 0.177002 214 204 205
-0.107164 -0.405767 0.169563 216 207 208
-0.104849 -0.407465 0.168996 216 207 208
-0.0512944 -0.407795 0.155884 221 211 212
-0.0291524 -0.406508 0.150466 222 213 211
-0.0265455 -0.405609 0.149829 221 212 210
-0.0201405 -0.406768 0.148261 222 213 211
-0.0175582 -0.405795 0.14763 222 213 211
0.0671115 -0.432945 0.126917 106 65 42
0.0810438 -0.418886 0.123517 110 63 40
0.0862905 -0.412071 0.122238 107 61 38
0.095177 -0.399616 0.120072 108 63 35
0.140401 -0.397504 0.109031 101 60 30
-0.20317 -0.38421 0.191685 190 176 178
-0.177168 -0.399187 0.18528 209 197 201
-0.17082 -0.402413 0.183718 211 202 203
-0.155892 -0.407204 0.180056 213 201 203
-0.140784 -0.407035 0.17637 212 203 204
-0.136568 -0.407597 0.175339 212 203 204
-0.123346 -0.407052 0.172114 215 206 206
-0.114734 -0.406708 0.170013 216 207 208
-0.10388 -0.407823 0.167358 216 207 208
-0.082282 -0.408949 0.162078 218 209 210
-0.0795027 -0.408496 0.161401 218 209 210
-0.0691219 -0.410396 0.158857 219 210 211
-0.047544 -0.406213 0.153601 219 210 211
-0.0398236 -0.406892 0.151711 222 212 213
-0.0358364 -0.405165 0.150744 221 211 212
-0.0255756 -0.405648 0.148232 219 211 209
-0.0140191 -0.405793 0.145405 222 213 211
-0.00762156 -0.404692 0.143844 242 231 230
0.0591915 -0.438772 0.127335 94 59 34
0.070667 -0.424763 0.124584 108 64 42
0.0957993 -0.398216 0.118538 108 62 37
0.101064 -0.393064 0.11727 112 65 33
0.102304 -0.392584 0.116968 110 63 31
0.137538 -0.398768 0.108298 108 63 33
0.140069 -0.397502 0.107683 103 61 30
-0.192488 -0.390903 0.187622 198 184 187
-0.182079 -0.395619 0.18506 205 193 195
-0.156223 -0.407196 0.178691 213 201 203
-0.151591 -0.407035 0.177567 212 200 202
-0.124958 -0.406604 0.171097 214 204 205
-0.118501 -0.408749 0.169509 215 206 206
-0.0974925 -0.408567 0.164397 217 208 209
-0.0916438 -0.406923 0.162986 217 208 209
-0.0650983 -0.408047 0.156505 219 210 211
-0.0519268 -0.407783 0.153293 221 211 212
-0.0284169 -0.404551 0.147577 221 212 210
-0.0245783 -0.404677 0.146637 221 212 210
-0.0232984 -0.404709 0.146324 222 213 211
0.0774341 -0.418686 0.121504 106 65 42
0.0811713 -0.416558 0.120603 108 64 38
0.0853445 -0.411104 0.119622 110 63 40
0.0877931 -0.405077 0.119069 108 62 37
0.0916895 -0.39955 0.118156 108 63 35
0.120279 -0.391374 0.111182 104 54 21
0.141768 -0.391986 0.105879 92 55 29
-0.200676 -0.387328 0.188207 192 179 179
-0.167646 -0.404263 0.180041 211 199 201
-0.15192 -0.407021 0.176207 211 199 201
-0.148967 -0.407186 0.175491 213 201 203
-0.135929 -0.408064 0.172326 214 204 205
-0.1243 -0.40798 0.16951 214 204 205
-0.0891703 -0.406536 0.161002 217 208 209
-0.0853066 -0.407398 0.160053 218 209 210
-0.0827255 -0.407947 0.159418 220 208 210
-0.0760782 -0.408243 0.157798 218 209 210
-0.0561135 -0.40731 0.152947 221 211 212
-0.0442295 -0.405558 0.150071 221 211 212
-0.0378101 -0.406057 0.148498 221 211 212
-0.0261705 -0.404627 0.145672 221 212 210
0.0604958 -0.434219 0.124039 100 62 41
0.0677167 -0.427377 0.122344 108 66 43
0.0722207 -0.422089 0.121299 106 65 40
0.0733248 -0.420758 0.121044 106 65 40
0.0839822 -0.412458 0.118517 108 62 37
0.0972819 -0.392108 0.115479 115 67 40
0.107989 -0.386799 0.112895 105 60 28
-0.169256 -0.403626 0.178992 206 194 196
-0.162432 -0.405753 0.177318 207 195 197
-0.153538 -0.406448 0.175167 209 198 199
-0.115984 -0.407624 0.166091 215 206 206
-0.112843 -0.406501 0.16535 215 205 208
-0.0894877 -0.406517 0.159696 217 208 209
-0.0381238 -0.406038 0.147213 221 211 212
-0.0252323 -0.405645 0.144071 221 212 210
-0.0239234 -0.404677 0.143767 221 212 210
0.0646309 -0.428032 0.12162 105 63 41
0.0682843 -0.42507 0.120765 106 65 40
0.0696451 -0.42472 0.120435 106 65 40
0.0844003 -0.410115 0.117021 108 63 35
0.0923153 -0.39485 0.115305 111 64 34
0.096307 -0.390211 0.11439 117 69 42
0.14116 -0.39528 0.103155 104 59 26
-0.0254855 -0.403622 0.142816 221 212 210
-0.0178283 -0.403734 0.140941 221 211 212
0.0619595 -0.430609 0.120751 104 64 41
0.0681713 -0.426015 0.119306 106 65 40
0.139569 -0.395901 0.102116 107 58 24
