-v -metadata_dir "C:\Program Files (x86)\Windows Kits\10\References\10.0.18362.0\Windows.AI.MachineLearning.MachineLearningContract\2.0.0.0\."
-metadata_dir "C:\Program Files (x86)\Windows Kits\10\References\10.0.18362.0\Windows.AI.MachineLearning.Preview.MachineLearningPreviewContract\2.0.0.0\."
-metadata_dir "C:\Program Files (x86)\Windows Kits\10\References\10.0.18362.0\Windows.ApplicationModel.Calls.Background.CallsBackgroundContract\2.0.0.0\."
-metadata_dir "C:\Program Files (x86)\Windows Kits\10\References\10.0.18362.0\Windows.ApplicationModel.Calls.CallsPhoneContract\5.0.0.0\."
-metadata_dir "C:\Program Files (x86)\Windows Kits\10\References\10.0.18362.0\Windows.ApplicationModel.Calls.CallsVoipContract\4.0.0.0\."
-metadata_dir "C:\Program Files (x86)\Windows Kits\10\References\10.0.18362.0\Windows.ApplicationModel.CommunicationBlocking.CommunicationBlockingContract\2.0.0.0\."
-metadata_dir "C:\Program Files (x86)\Windows Kits\10\References\10.0.18362.0\Windows.ApplicationModel.SocialInfo.SocialInfoContract\2.0.0.0\."
-metadata_dir "C:\Program Files (x86)\Windows Kits\10\References\10.0.18362.0\Windows.ApplicationModel.StartupTaskContract\3.0.0.0\."
-metadata_dir "C:\Program Files (x86)\Windows Kits\10\References\10.0.18362.0\Windows.Devices.Custom.CustomDeviceContract\1.0.0.0\."
-metadata_dir "C:\Program Files (x86)\Windows Kits\10\References\10.0.18362.0\Windows.Devices.DevicesLowLevelContract\3.0.0.0\."
-metadata_dir "C:\Program Files (x86)\Windows Kits\10\References\10.0.18362.0\Windows.Devices.Printers.PrintersContract\1.0.0.0\."
-metadata_dir "C:\Program Files (x86)\Windows Kits\10\References\10.0.18362.0\Windows.Devices.SmartCards.SmartCardBackgroundTriggerContract\3.0.0.0\."
-metadata_dir "C:\Program Files (x86)\Windows Kits\10\References\10.0.18362.0\Windows.Devices.SmartCards.SmartCardEmulatorContract\6.0.0.0\."
-metadata_dir "C:\Program Files (x86)\Windows Kits\10\References\10.0.18362.0\Windows.Foundation.FoundationContract\3.0.0.0\."
-metadata_dir "C:\Program Files (x86)\Windows Kits\10\References\10.0.18362.0\Windows.Foundation.UniversalApiContract\8.0.0.0\."
-metadata_dir "C:\Program Files (x86)\Windows Kits\10\References\10.0.18362.0\Windows.Gaming.XboxLive.StorageApiContract\1.0.0.0\."
-metadata_dir "C:\Program Files (x86)\Windows Kits\10\References\10.0.18362.0\Windows.Graphics.Printing3D.Printing3DContract\4.0.0.0\."
-metadata_dir "C:\Program Files (x86)\Windows Kits\10\References\10.0.18362.0\Windows.Networking.Connectivity.WwanContract\2.0.0.0\."
-metadata_dir "C:\Program Files (x86)\Windows Kits\10\References\10.0.18362.0\Windows.Networking.Sockets.ControlChannelTriggerContract\3.0.0.0\."
-metadata_dir "C:\Program Files (x86)\Windows Kits\10\References\10.0.18362.0\Windows.Services.Maps.GuidanceContract\3.0.0.0\."
-metadata_dir "C:\Program Files (x86)\Windows Kits\10\References\10.0.18362.0\Windows.Services.Maps.LocalSearchContract\4.0.0.0\."
-metadata_dir "C:\Program Files (x86)\Windows Kits\10\References\10.0.18362.0\Windows.Services.Store.StoreContract\4.0.0.0\."
-metadata_dir "C:\Program Files (x86)\Windows Kits\10\References\10.0.18362.0\Windows.Services.TargetedContent.TargetedContentContract\1.0.0.0\."
-metadata_dir "C:\Program Files (x86)\Windows Kits\10\References\10.0.18362.0\Windows.System.Profile.ProfileHardwareTokenContract\1.0.0.0\."
-metadata_dir "C:\Program Files (x86)\Windows Kits\10\References\10.0.18362.0\Windows.System.Profile.ProfileSharedModeContract\2.0.0.0\."
-metadata_dir "C:\Program Files (x86)\Windows Kits\10\References\10.0.18362.0\Windows.System.Profile.SystemManufacturers.SystemManufacturersContract\3.0.0.0\."
-metadata_dir "C:\Program Files (x86)\Windows Kits\10\References\10.0.18362.0\Windows.System.SystemManagementContract\6.0.0.0\."
-metadata_dir "C:\Program Files (x86)\Windows Kits\10\References\10.0.18362.0\Windows.UI.ViewManagement.ViewManagementViewScalingContract\1.0.0.0\."
-metadata_dir "C:\Program Files (x86)\Windows Kits\10\References\10.0.18362.0\Windows.UI.Xaml.Core.Direct.XamlDirectContract\2.0.0.0\." -i "x64\Debug\Unmerged\HL2ResearchMode.winmd" -o "x64\Debug\Merged" -partial -n:1
