^C:\USERS\USER\DOCUMENTS\GITHUB\RMUNITY\HOLOLENS2-RESEARCHMODE-UNITY\HL2UNITYPLUGIN\PCH.CPP
/c /I"C:\USERS\USER\DOCUMENTS\GITHUB\RMUNITY\HOLOLENS2-RESEARCHMODE-UNITY\HL2UNITYPLUGIN\\" /I"GENERATED FILES\\" /IARM64\RELEASE\ /I"C:\USERS\USER\DOCUMENTS\GITHUB\VCPKG\INSTALLED\ARM64-UWP\INCLUDE" /I"GENERATED FILES\\" /Zi /nologo /W4 /WX- /diagnostics:column /sdl /O2 /Oi /Oy- /GL /D NDEBUG /D _WINRT_DLL /D WIN32_LEAN_AND_MEAN /D WINRT_LEAN_AND_MEAN /D _WINDLL /D _UNICODE /D UNICODE /D WINAPI_FAMILY=WINAPI_FAMILY_APP /D __WRL_NO_DEFAULT_LIB__ /Gm- /EHsc /MD /GS /Gy /fp:precise /Zc:wchar_t /Zc:forScope /Zc:inline /std:c++17 /Yc"pch.h" /Fp"ARM64\RELEASE\PCH.PCH" /Fo"ARM64\RELEASE\\" /Fd"ARM64\RELEASE\VC143.PDB" /external:W4 /Gd /TP /FU"C:\PROGRAM FILES\MICROSOFT VISUAL STUDIO\2022\COMMUNITY\VC\TOOLS\MSVC\14.36.32532\LIB\X86\STORE\REFERENCES\PLATFORM.WINMD" /analyze- /FC /DWINRT_NO_MAKE_DETECTION  /bigobj /bigobj /await C:\USERS\USER\DOCUMENTS\GITHUB\RMUNITY\HOLOLENS2-RESEARCHMODE-UNITY\HL2UNITYPLUGIN\PCH.CPP
^C:\USERS\USER\DOCUMENTS\GITHUB\RMUNITY\HOLOLENS2-RESEARCHMODE-UNITY\HL2UNITYPLUGIN\GENERATED FILES\MODULE.G.CPP
/c /I"C:\USERS\USER\DOCUMENTS\GITHUB\RMUNITY\HOLOLENS2-RESEARCHMODE-UNITY\HL2UNITYPLUGIN\\" /I"GENERATED FILES\\" /IARM64\RELEASE\ /I"C:\USERS\USER\DOCUMENTS\GITHUB\VCPKG\INSTALLED\ARM64-UWP\INCLUDE" /I"GENERATED FILES\\" /Zi /nologo /W4 /WX- /diagnostics:column /sdl /O2 /Oi /Oy- /GL /D NDEBUG /D _WINRT_DLL /D WIN32_LEAN_AND_MEAN /D WINRT_LEAN_AND_MEAN /D _WINDLL /D _UNICODE /D UNICODE /D WINAPI_FAMILY=WINAPI_FAMILY_APP /D __WRL_NO_DEFAULT_LIB__ /Gm- /EHsc /MD /GS /Gy /fp:precise /Zc:wchar_t /Zc:forScope /Zc:inline /std:c++17 /Yu"pch.h" /Fp"ARM64\RELEASE\PCH.PCH" /Fo"ARM64\RELEASE\\" /Fd"ARM64\RELEASE\VC143.PDB" /external:W4 /Gd /TP /FU"C:\PROGRAM FILES\MICROSOFT VISUAL STUDIO\2022\COMMUNITY\VC\TOOLS\MSVC\14.36.32532\LIB\X86\STORE\REFERENCES\PLATFORM.WINMD" /analyze- /FC /DWINRT_NO_MAKE_DETECTION  /bigobj /bigobj /await C:\USERS\USER\DOCUMENTS\GITHUB\RMUNITY\HOLOLENS2-RESEARCHMODE-UNITY\HL2UNITYPLUGIN\GENERATED FILES\MODULE.G.CPP
^C:\USERS\USER\DOCUMENTS\GITHUB\RMUNITY\HOLOLENS2-RESEARCHMODE-UNITY\HL2UNITYPLUGIN\TIMECONVERTER.CPP
/c /I"C:\USERS\USER\DOCUMENTS\GITHUB\RMUNITY\HOLOLENS2-RESEARCHMODE-UNITY\HL2UNITYPLUGIN\\" /I"GENERATED FILES\\" /IARM64\RELEASE\ /I"C:\USERS\USER\DOCUMENTS\GITHUB\VCPKG\INSTALLED\ARM64-UWP\INCLUDE" /I"GENERATED FILES\\" /Zi /nologo /W4 /WX- /diagnostics:column /sdl /O2 /Oi /Oy- /GL /D NDEBUG /D _WINRT_DLL /D WIN32_LEAN_AND_MEAN /D WINRT_LEAN_AND_MEAN /D _WINDLL /D _UNICODE /D UNICODE /D WINAPI_FAMILY=WINAPI_FAMILY_APP /D __WRL_NO_DEFAULT_LIB__ /Gm- /EHsc /MD /GS /Gy /fp:precise /Zc:wchar_t /Zc:forScope /Zc:inline /std:c++17 /Fo"ARM64\RELEASE\\" /Fd"ARM64\RELEASE\VC143.PDB" /external:W4 /Gd /TP /FU"C:\PROGRAM FILES\MICROSOFT VISUAL STUDIO\2022\COMMUNITY\VC\TOOLS\MSVC\14.36.32532\LIB\X86\STORE\REFERENCES\PLATFORM.WINMD" /analyze- /FC /DWINRT_NO_MAKE_DETECTION  /bigobj /bigobj /await C:\USERS\USER\DOCUMENTS\GITHUB\RMUNITY\HOLOLENS2-RESEARCHMODE-UNITY\HL2UNITYPLUGIN\TIMECONVERTER.CPP
^C:\USERS\USER\DOCUMENTS\GITHUB\RMUNITY\HOLOLENS2-RESEARCHMODE-UNITY\HL2UNITYPLUGIN\HL2RESEARCHMODE.CPP
/c /I"C:\USERS\USER\DOCUMENTS\GITHUB\RMUNITY\HOLOLENS2-RESEARCHMODE-UNITY\HL2UNITYPLUGIN\\" /I"GENERATED FILES\\" /IARM64\RELEASE\ /I"C:\USERS\USER\DOCUMENTS\GITHUB\VCPKG\INSTALLED\ARM64-UWP\INCLUDE" /I"GENERATED FILES\\" /Zi /nologo /W4 /WX- /diagnostics:column /sdl /O2 /Oi /Oy- /GL /D NDEBUG /D _WINRT_DLL /D WIN32_LEAN_AND_MEAN /D WINRT_LEAN_AND_MEAN /D _WINDLL /D _UNICODE /D UNICODE /D WINAPI_FAMILY=WINAPI_FAMILY_APP /D __WRL_NO_DEFAULT_LIB__ /Gm- /EHsc /MD /GS /Gy /fp:precise /Zc:wchar_t /Zc:forScope /Zc:inline /std:c++17 /Yu"pch.h" /Fp"ARM64\RELEASE\PCH.PCH" /Fo"ARM64\RELEASE\\" /Fd"ARM64\RELEASE\VC143.PDB" /external:W4 /Gd /TP /FU"C:\PROGRAM FILES\MICROSOFT VISUAL STUDIO\2022\COMMUNITY\VC\TOOLS\MSVC\14.36.32532\LIB\X86\STORE\REFERENCES\PLATFORM.WINMD" /analyze- /FC /DWINRT_NO_MAKE_DETECTION  /bigobj /bigobj /await C:\USERS\USER\DOCUMENTS\GITHUB\RMUNITY\HOLOLENS2-RESEARCHMODE-UNITY\HL2UNITYPLUGIN\HL2RESEARCHMODE.CPP
