^C:\USERS\USER\DOCUMENTS\GITHUB\RMUNITY\HOLOLENS2-RESEARCHMODE-UNITY\HL2UNITYPLUGIN\PCH.CPP
C:\WINDOWS\GLOBALIZATION\SORTING\SORTDEFAULT.NLS
C:\PROGRAM FILES\MICROSOFT VISUAL STUDIO\2022\COMMUNITY\VC\TOOLS\MSVC\14.36.32532\BIN\HOSTX86\ARM64\1033\CLUI.DLL
C:\WINDOWS\SYSTEM32\TZRES.DLL
C:\USERS\USER\DOCUMENTS\GITHUB\RMUNITY\HOLOLENS2-RESEARCHMODE-UNITY\HL2UNITYPLUGIN\PCH.H
C:\PROGRAM FILES (X86)\WINDOWS KITS\10\INCLUDE\10.0.18362.0\UM\UNKNWN.H
C:\PROGRAM FILES (X86)\WINDOWS KITS\10\INCLUDE\10.0.18362.0\SHARED\RPC.H
C:\PROGRAM FILES (X86)\WINDOWS KITS\10\INCLUDE\10.0.18362.0\UM\WINDOWS.H
C:\PROGRAM FILES (X86)\WINDOWS KITS\10\INCLUDE\10.0.18362.0\SHARED\WINAPIFAMILY.H
C:\PROGRAM FILES (X86)\WINDOWS KITS\10\INCLUDE\10.0.18362.0\SHARED\WINPACKAGEFAMILY.H
C:\PROGRAM FILES (X86)\WINDOWS KITS\10\INCLUDE\10.0.18362.0\SHARED\SDKDDKVER.H
C:\PROGRAM FILES\MICROSOFT VISUAL STUDIO\2022\COMMUNITY\VC\TOOLS\MSVC\14.36.32532\INCLUDE\EXCPT.H
C:\PROGRAM FILES\MICROSOFT VISUAL STUDIO\2022\COMMUNITY\VC\TOOLS\MSVC\14.36.32532\INCLUDE\VCRUNTIME.H
C:\PROGRAM FILES\MICROSOFT VISUAL STUDIO\2022\COMMUNITY\VC\TOOLS\MSVC\14.36.32532\INCLUDE\SAL.H
C:\PROGRAM FILES\MICROSOFT VISUAL STUDIO\2022\COMMUNITY\VC\TOOLS\MSVC\14.36.32532\INCLUDE\CONCURRENCYSAL.H
C:\PROGRAM FILES\MICROSOFT VISUAL STUDIO\2022\COMMUNITY\VC\TOOLS\MSVC\14.36.32532\INCLUDE\VADEFS.H
C:\PROGRAM FILES\MICROSOFT VISUAL STUDIO\2022\COMMUNITY\VC\TOOLS\MSVC\14.36.32532\INCLUDE\STDARG.H
C:\PROGRAM FILES (X86)\WINDOWS KITS\10\INCLUDE\10.0.18362.0\SHARED\WINDEF.H
C:\PROGRAM FILES (X86)\WINDOWS KITS\10\INCLUDE\10.0.18362.0\SHARED\MINWINDEF.H
C:\PROGRAM FILES (X86)\WINDOWS KITS\10\INCLUDE\10.0.18362.0\SHARED\SPECSTRINGS.H
C:\PROGRAM FILES (X86)\WINDOWS KITS\10\INCLUDE\10.0.18362.0\SHARED\SPECSTRINGS_STRICT.H
C:\PROGRAM FILES (X86)\WINDOWS KITS\10\INCLUDE\10.0.18362.0\SHARED\SPECSTRINGS_UNDEF.H
C:\PROGRAM FILES (X86)\WINDOWS KITS\10\INCLUDE\10.0.18362.0\SHARED\DRIVERSPECS.H
C:\PROGRAM FILES (X86)\WINDOWS KITS\10\INCLUDE\10.0.18362.0\SHARED\SDV_DRIVERSPECS.H
C:\PROGRAM FILES (X86)\WINDOWS KITS\10\INCLUDE\10.0.18362.0\UM\WINNT.H
C:\PROGRAM FILES (X86)\WINDOWS KITS\10\INCLUDE\10.0.18362.0\UCRT\CTYPE.H
C:\PROGRAM FILES (X86)\WINDOWS KITS\10\INCLUDE\10.0.18362.0\UCRT\CORECRT.H
C:\PROGRAM FILES (X86)\WINDOWS KITS\10\INCLUDE\10.0.18362.0\UCRT\CORECRT_WCTYPE.H
C:\PROGRAM FILES (X86)\WINDOWS KITS\10\INCLUDE\10.0.18362.0\SHARED\KERNELSPECS.H
C:\PROGRAM FILES (X86)\WINDOWS KITS\10\INCLUDE\10.0.18362.0\SHARED\BASETSD.H
C:\PROGRAM FILES (X86)\WINDOWS KITS\10\INCLUDE\10.0.18362.0\SHARED\GUIDDEF.H
C:\PROGRAM FILES (X86)\WINDOWS KITS\10\INCLUDE\10.0.18362.0\UCRT\STRING.H
C:\PROGRAM FILES (X86)\WINDOWS KITS\10\INCLUDE\10.0.18362.0\UCRT\CORECRT_MEMORY.H
C:\PROGRAM FILES (X86)\WINDOWS KITS\10\INCLUDE\10.0.18362.0\UCRT\CORECRT_MEMCPY_S.H
C:\PROGRAM FILES (X86)\WINDOWS KITS\10\INCLUDE\10.0.18362.0\UCRT\ERRNO.H
C:\PROGRAM FILES\MICROSOFT VISUAL STUDIO\2022\COMMUNITY\VC\TOOLS\MSVC\14.36.32532\INCLUDE\VCRUNTIME_STRING.H
C:\PROGRAM FILES (X86)\WINDOWS KITS\10\INCLUDE\10.0.18362.0\UCRT\CORECRT_WSTRING.H
C:\PROGRAM FILES\MICROSOFT VISUAL STUDIO\2022\COMMUNITY\VC\TOOLS\MSVC\14.36.32532\INCLUDE\INTRIN.H
C:\PROGRAM FILES\MICROSOFT VISUAL STUDIO\2022\COMMUNITY\VC\TOOLS\MSVC\14.36.32532\INCLUDE\INTRIN0.INL.H
C:\PROGRAM FILES\MICROSOFT VISUAL STUDIO\2022\COMMUNITY\VC\TOOLS\MSVC\14.36.32532\INCLUDE\SETJMP.H
C:\PROGRAM FILES\MICROSOFT VISUAL STUDIO\2022\COMMUNITY\VC\TOOLS\MSVC\14.36.32532\INCLUDE\STDINT.H
C:\PROGRAM FILES\MICROSOFT VISUAL STUDIO\2022\COMMUNITY\VC\TOOLS\MSVC\14.36.32532\INCLUDE\ARM64INTR.H
C:\PROGRAM FILES\MICROSOFT VISUAL STUDIO\2022\COMMUNITY\VC\TOOLS\MSVC\14.36.32532\INCLUDE\ARM64_NEON.H
C:\PROGRAM FILES (X86)\WINDOWS KITS\10\INCLUDE\10.0.18362.0\SHARED\PSHPACK4.H
C:\PROGRAM FILES (X86)\WINDOWS KITS\10\INCLUDE\10.0.18362.0\SHARED\POPPACK.H
C:\PROGRAM FILES (X86)\WINDOWS KITS\10\INCLUDE\10.0.18362.0\SHARED\PSHPACK2.H
C:\PROGRAM FILES (X86)\WINDOWS KITS\10\INCLUDE\10.0.18362.0\SHARED\PSHPACK8.H
C:\PROGRAM FILES (X86)\WINDOWS KITS\10\INCLUDE\10.0.18362.0\SHARED\PSHPACK1.H
C:\PROGRAM FILES (X86)\WINDOWS KITS\10\INCLUDE\10.0.18362.0\SHARED\APISET.H
C:\PROGRAM FILES (X86)\WINDOWS KITS\10\INCLUDE\10.0.18362.0\SHARED\KTMTYPES.H
C:\PROGRAM FILES (X86)\WINDOWS KITS\10\INCLUDE\10.0.18362.0\UM\WINBASE.H
C:\PROGRAM FILES (X86)\WINDOWS KITS\10\INCLUDE\10.0.18362.0\SHARED\APISETCCONV.H
C:\PROGRAM FILES (X86)\WINDOWS KITS\10\INCLUDE\10.0.18362.0\UM\MINWINBASE.H
C:\PROGRAM FILES (X86)\WINDOWS KITS\10\INCLUDE\10.0.18362.0\UM\APIQUERY2.H
C:\PROGRAM FILES (X86)\WINDOWS KITS\10\INCLUDE\10.0.18362.0\UM\PROCESSENV.H
C:\PROGRAM FILES (X86)\WINDOWS KITS\10\INCLUDE\10.0.18362.0\UM\FILEAPIFROMAPP.H
C:\PROGRAM FILES (X86)\WINDOWS KITS\10\INCLUDE\10.0.18362.0\UM\FILEAPI.H
C:\PROGRAM FILES (X86)\WINDOWS KITS\10\INCLUDE\10.0.18362.0\UM\DEBUGAPI.H
C:\PROGRAM FILES (X86)\WINDOWS KITS\10\INCLUDE\10.0.18362.0\UM\UTILAPISET.H
C:\PROGRAM FILES (X86)\WINDOWS KITS\10\INCLUDE\10.0.18362.0\UM\HANDLEAPI.H
C:\PROGRAM FILES (X86)\WINDOWS KITS\10\INCLUDE\10.0.18362.0\UM\ERRHANDLINGAPI.H
C:\PROGRAM FILES (X86)\WINDOWS KITS\10\INCLUDE\10.0.18362.0\UM\FIBERSAPI.H
C:\PROGRAM FILES (X86)\WINDOWS KITS\10\INCLUDE\10.0.18362.0\UM\NAMEDPIPEAPI.H
C:\PROGRAM FILES (X86)\WINDOWS KITS\10\INCLUDE\10.0.18362.0\UM\PROFILEAPI.H
C:\PROGRAM FILES (X86)\WINDOWS KITS\10\INCLUDE\10.0.18362.0\UM\HEAPAPI.H
C:\PROGRAM FILES (X86)\WINDOWS KITS\10\INCLUDE\10.0.18362.0\UM\IOAPISET.H
C:\PROGRAM FILES (X86)\WINDOWS KITS\10\INCLUDE\10.0.18362.0\UM\SYNCHAPI.H
C:\PROGRAM FILES (X86)\WINDOWS KITS\10\INCLUDE\10.0.18362.0\UM\INTERLOCKEDAPI.H
C:\PROGRAM FILES (X86)\WINDOWS KITS\10\INCLUDE\10.0.18362.0\UM\PROCESSTHREADSAPI.H
C:\PROGRAM FILES (X86)\WINDOWS KITS\10\INCLUDE\10.0.18362.0\UM\SYSINFOAPI.H
C:\PROGRAM FILES (X86)\WINDOWS KITS\10\INCLUDE\10.0.18362.0\UM\MEMORYAPI.H
C:\PROGRAM FILES (X86)\WINDOWS KITS\10\INCLUDE\10.0.18362.0\UM\ENCLAVEAPI.H
C:\PROGRAM FILES (X86)\WINDOWS KITS\10\INCLUDE\10.0.18362.0\UM\THREADPOOLLEGACYAPISET.H
C:\PROGRAM FILES (X86)\WINDOWS KITS\10\INCLUDE\10.0.18362.0\UM\THREADPOOLAPISET.H
C:\PROGRAM FILES (X86)\WINDOWS KITS\10\INCLUDE\10.0.18362.0\UM\JOBAPI.H
C:\PROGRAM FILES (X86)\WINDOWS KITS\10\INCLUDE\10.0.18362.0\UM\JOBAPI2.H
C:\PROGRAM FILES (X86)\WINDOWS KITS\10\INCLUDE\10.0.18362.0\UM\WOW64APISET.H
C:\PROGRAM FILES (X86)\WINDOWS KITS\10\INCLUDE\10.0.18362.0\UM\LIBLOADERAPI.H
C:\PROGRAM FILES (X86)\WINDOWS KITS\10\INCLUDE\10.0.18362.0\UM\SECURITYBASEAPI.H
C:\PROGRAM FILES (X86)\WINDOWS KITS\10\INCLUDE\10.0.18362.0\UM\NAMESPACEAPI.H
C:\PROGRAM FILES (X86)\WINDOWS KITS\10\INCLUDE\10.0.18362.0\UM\SYSTEMTOPOLOGYAPI.H
C:\PROGRAM FILES (X86)\WINDOWS KITS\10\INCLUDE\10.0.18362.0\UM\PROCESSTOPOLOGYAPI.H
C:\PROGRAM FILES (X86)\WINDOWS KITS\10\INCLUDE\10.0.18362.0\UM\SECURITYAPPCONTAINER.H
C:\PROGRAM FILES (X86)\WINDOWS KITS\10\INCLUDE\10.0.18362.0\UM\REALTIMEAPISET.H
C:\PROGRAM FILES (X86)\WINDOWS KITS\10\INCLUDE\10.0.18362.0\SHARED\WINERROR.H
C:\PROGRAM FILES (X86)\WINDOWS KITS\10\INCLUDE\10.0.18362.0\UM\TIMEZONEAPI.H
C:\PROGRAM FILES (X86)\WINDOWS KITS\10\INCLUDE\10.0.18362.0\UM\WINGDI.H
C:\PROGRAM FILES (X86)\WINDOWS KITS\10\INCLUDE\10.0.18362.0\UM\WINUSER.H
C:\PROGRAM FILES (X86)\WINDOWS KITS\10\INCLUDE\10.0.18362.0\SHARED\TVOUT.H
C:\PROGRAM FILES (X86)\WINDOWS KITS\10\INCLUDE\10.0.18362.0\UM\WINNLS.H
C:\PROGRAM FILES (X86)\WINDOWS KITS\10\INCLUDE\10.0.18362.0\UM\DATETIMEAPI.H
C:\PROGRAM FILES (X86)\WINDOWS KITS\10\INCLUDE\10.0.18362.0\UM\STRINGAPISET.H
C:\PROGRAM FILES (X86)\WINDOWS KITS\10\INCLUDE\10.0.18362.0\UM\WINCON.H
C:\PROGRAM FILES (X86)\WINDOWS KITS\10\INCLUDE\10.0.18362.0\UM\WINCONTYPES.H
C:\PROGRAM FILES (X86)\WINDOWS KITS\10\INCLUDE\10.0.18362.0\UM\CONSOLEAPI.H
C:\PROGRAM FILES (X86)\WINDOWS KITS\10\INCLUDE\10.0.18362.0\UM\CONSOLEAPI2.H
C:\PROGRAM FILES (X86)\WINDOWS KITS\10\INCLUDE\10.0.18362.0\UM\CONSOLEAPI3.H
C:\PROGRAM FILES (X86)\WINDOWS KITS\10\INCLUDE\10.0.18362.0\UM\WINVER.H
C:\PROGRAM FILES (X86)\WINDOWS KITS\10\INCLUDE\10.0.18362.0\UM\VERRSRC.H
C:\PROGRAM FILES (X86)\WINDOWS KITS\10\INCLUDE\10.0.18362.0\UM\WINREG.H
C:\PROGRAM FILES (X86)\WINDOWS KITS\10\INCLUDE\10.0.18362.0\UM\WINNETWK.H
C:\PROGRAM FILES (X86)\WINDOWS KITS\10\INCLUDE\10.0.18362.0\SHARED\STRALIGN.H
C:\PROGRAM FILES (X86)\WINDOWS KITS\10\INCLUDE\10.0.18362.0\UM\WINSVC.H
C:\PROGRAM FILES (X86)\WINDOWS KITS\10\INCLUDE\10.0.18362.0\UM\MCX.H
C:\PROGRAM FILES (X86)\WINDOWS KITS\10\INCLUDE\10.0.18362.0\UM\IMM.H
C:\PROGRAM FILES (X86)\WINDOWS KITS\10\INCLUDE\10.0.18362.0\UM\IME_CMODES.H
C:\PROGRAM FILES (X86)\WINDOWS KITS\10\INCLUDE\10.0.18362.0\SHARED\RPCDCE.H
C:\PROGRAM FILES (X86)\WINDOWS KITS\10\INCLUDE\10.0.18362.0\SHARED\RPCDCEP.H
C:\PROGRAM FILES (X86)\WINDOWS KITS\10\INCLUDE\10.0.18362.0\UM\RPCNSI.H
C:\PROGRAM FILES (X86)\WINDOWS KITS\10\INCLUDE\10.0.18362.0\SHARED\RPCNTERR.H
C:\PROGRAM FILES (X86)\WINDOWS KITS\10\INCLUDE\10.0.18362.0\SHARED\RPCASYNC.H
C:\PROGRAM FILES (X86)\WINDOWS KITS\10\INCLUDE\10.0.18362.0\SHARED\RPCNDR.H
C:\PROGRAM FILES (X86)\WINDOWS KITS\10\INCLUDE\10.0.18362.0\UM\RPCNSIP.H
C:\PROGRAM FILES (X86)\WINDOWS KITS\10\INCLUDE\10.0.18362.0\SHARED\RPCSAL.H
C:\PROGRAM FILES (X86)\WINDOWS KITS\10\INCLUDE\10.0.18362.0\UM\OLE2.H
C:\PROGRAM FILES (X86)\WINDOWS KITS\10\INCLUDE\10.0.18362.0\UM\OBJBASE.H
C:\PROGRAM FILES (X86)\WINDOWS KITS\10\INCLUDE\10.0.18362.0\UM\COMBASEAPI.H
C:\PROGRAM FILES (X86)\WINDOWS KITS\10\INCLUDE\10.0.18362.0\UCRT\STDLIB.H
C:\PROGRAM FILES (X86)\WINDOWS KITS\10\INCLUDE\10.0.18362.0\UCRT\CORECRT_MALLOC.H
C:\PROGRAM FILES (X86)\WINDOWS KITS\10\INCLUDE\10.0.18362.0\UCRT\CORECRT_SEARCH.H
C:\PROGRAM FILES (X86)\WINDOWS KITS\10\INCLUDE\10.0.18362.0\UCRT\STDDEF.H
C:\PROGRAM FILES (X86)\WINDOWS KITS\10\INCLUDE\10.0.18362.0\UCRT\CORECRT_WSTDLIB.H
C:\PROGRAM FILES\MICROSOFT VISUAL STUDIO\2022\COMMUNITY\VC\TOOLS\MSVC\14.36.32532\INCLUDE\LIMITS.H
C:\PROGRAM FILES (X86)\WINDOWS KITS\10\INCLUDE\10.0.18362.0\SHARED\WTYPESBASE.H
C:\PROGRAM FILES (X86)\WINDOWS KITS\10\INCLUDE\10.0.18362.0\UM\UNKNWNBASE.H
C:\PROGRAM FILES (X86)\WINDOWS KITS\10\INCLUDE\10.0.18362.0\UM\OBJIDLBASE.H
C:\PROGRAM FILES (X86)\WINDOWS KITS\10\INCLUDE\10.0.18362.0\UM\CGUID.H
C:\PROGRAM FILES (X86)\WINDOWS KITS\10\INCLUDE\10.0.18362.0\UM\COML2API.H
C:\PROGRAM FILES (X86)\WINDOWS KITS\10\INCLUDE\10.0.18362.0\UM\OBJIDL.H
C:\PROGRAM FILES (X86)\WINDOWS KITS\10\INCLUDE\10.0.18362.0\SHARED\WTYPES.H
C:\PROGRAM FILES (X86)\WINDOWS KITS\10\INCLUDE\10.0.18362.0\UM\PROPIDLBASE.H
C:\PROGRAM FILES (X86)\WINDOWS KITS\10\INCLUDE\10.0.18362.0\UM\OAIDL.H
C:\PROGRAM FILES (X86)\WINDOWS KITS\10\INCLUDE\10.0.18362.0\UM\URLMON.H
C:\PROGRAM FILES (X86)\WINDOWS KITS\10\INCLUDE\10.0.18362.0\UM\OLEIDL.H
C:\PROGRAM FILES (X86)\WINDOWS KITS\10\INCLUDE\10.0.18362.0\UM\SERVPROV.H
C:\PROGRAM FILES (X86)\WINDOWS KITS\10\INCLUDE\10.0.18362.0\UM\MSXML.H
C:\PROGRAM FILES (X86)\WINDOWS KITS\10\INCLUDE\10.0.18362.0\UM\PROPIDL.H
C:\PROGRAM FILES (X86)\WINDOWS KITS\10\INCLUDE\10.0.18362.0\UM\OLEAUTO.H
C:\USERS\USER\DOCUMENTS\GITHUB\RMUNITY\HOLOLENS2-RESEARCHMODE-UNITY\HL2UNITYPLUGIN\GENERATED FILES\WINRT\WINDOWS.FOUNDATION.H
C:\USERS\USER\DOCUMENTS\GITHUB\RMUNITY\HOLOLENS2-RESEARCHMODE-UNITY\HL2UNITYPLUGIN\GENERATED FILES\WINRT\BASE.H
C:\PROGRAM FILES\MICROSOFT VISUAL STUDIO\2022\COMMUNITY\VC\TOOLS\MSVC\14.36.32532\INCLUDE\ALGORITHM
C:\PROGRAM FILES\MICROSOFT VISUAL STUDIO\2022\COMMUNITY\VC\TOOLS\MSVC\14.36.32532\INCLUDE\YVALS_CORE.H
C:\PROGRAM FILES\MICROSOFT VISUAL STUDIO\2022\COMMUNITY\VC\TOOLS\MSVC\14.36.32532\INCLUDE\XKEYCHECK.H
C:\PROGRAM FILES\MICROSOFT VISUAL STUDIO\2022\COMMUNITY\VC\TOOLS\MSVC\14.36.32532\INCLUDE\XMEMORY
C:\PROGRAM FILES\MICROSOFT VISUAL STUDIO\2022\COMMUNITY\VC\TOOLS\MSVC\14.36.32532\INCLUDE\CSTDINT
C:\PROGRAM FILES\MICROSOFT VISUAL STUDIO\2022\COMMUNITY\VC\TOOLS\MSVC\14.36.32532\INCLUDE\CSTDLIB
C:\PROGRAM FILES (X86)\WINDOWS KITS\10\INCLUDE\10.0.18362.0\UCRT\MATH.H
C:\PROGRAM FILES (X86)\WINDOWS KITS\10\INCLUDE\10.0.18362.0\UCRT\CORECRT_MATH.H
C:\PROGRAM FILES\MICROSOFT VISUAL STUDIO\2022\COMMUNITY\VC\TOOLS\MSVC\14.36.32532\INCLUDE\LIMITS
C:\PROGRAM FILES\MICROSOFT VISUAL STUDIO\2022\COMMUNITY\VC\TOOLS\MSVC\14.36.32532\INCLUDE\CFLOAT
C:\PROGRAM FILES (X86)\WINDOWS KITS\10\INCLUDE\10.0.18362.0\UCRT\FLOAT.H
C:\PROGRAM FILES\MICROSOFT VISUAL STUDIO\2022\COMMUNITY\VC\TOOLS\MSVC\14.36.32532\INCLUDE\CLIMITS
C:\PROGRAM FILES\MICROSOFT VISUAL STUDIO\2022\COMMUNITY\VC\TOOLS\MSVC\14.36.32532\INCLUDE\CWCHAR
C:\PROGRAM FILES\MICROSOFT VISUAL STUDIO\2022\COMMUNITY\VC\TOOLS\MSVC\14.36.32532\INCLUDE\CSTDIO
C:\PROGRAM FILES (X86)\WINDOWS KITS\10\INCLUDE\10.0.18362.0\UCRT\STDIO.H
C:\PROGRAM FILES (X86)\WINDOWS KITS\10\INCLUDE\10.0.18362.0\UCRT\CORECRT_WSTDIO.H
C:\PROGRAM FILES (X86)\WINDOWS KITS\10\INCLUDE\10.0.18362.0\UCRT\CORECRT_STDIO_CONFIG.H
C:\PROGRAM FILES (X86)\WINDOWS KITS\10\INCLUDE\10.0.18362.0\UCRT\WCHAR.H
C:\PROGRAM FILES (X86)\WINDOWS KITS\10\INCLUDE\10.0.18362.0\UCRT\CORECRT_WCONIO.H
C:\PROGRAM FILES (X86)\WINDOWS KITS\10\INCLUDE\10.0.18362.0\UCRT\CORECRT_WDIRECT.H
C:\PROGRAM FILES (X86)\WINDOWS KITS\10\INCLUDE\10.0.18362.0\UCRT\CORECRT_WIO.H
C:\PROGRAM FILES (X86)\WINDOWS KITS\10\INCLUDE\10.0.18362.0\UCRT\CORECRT_SHARE.H
C:\PROGRAM FILES (X86)\WINDOWS KITS\10\INCLUDE\10.0.18362.0\UCRT\CORECRT_WPROCESS.H
C:\PROGRAM FILES (X86)\WINDOWS KITS\10\INCLUDE\10.0.18362.0\UCRT\CORECRT_WTIME.H
C:\PROGRAM FILES (X86)\WINDOWS KITS\10\INCLUDE\10.0.18362.0\UCRT\SYS\STAT.H
C:\PROGRAM FILES (X86)\WINDOWS KITS\10\INCLUDE\10.0.18362.0\UCRT\SYS\TYPES.H
C:\PROGRAM FILES\MICROSOFT VISUAL STUDIO\2022\COMMUNITY\VC\TOOLS\MSVC\14.36.32532\INCLUDE\INTRIN0.H
C:\PROGRAM FILES\MICROSOFT VISUAL STUDIO\2022\COMMUNITY\VC\TOOLS\MSVC\14.36.32532\INCLUDE\ISA_AVAILABILITY.H
C:\PROGRAM FILES\MICROSOFT VISUAL STUDIO\2022\COMMUNITY\VC\TOOLS\MSVC\14.36.32532\INCLUDE\XSTDDEF
C:\PROGRAM FILES\MICROSOFT VISUAL STUDIO\2022\COMMUNITY\VC\TOOLS\MSVC\14.36.32532\INCLUDE\CSTDDEF
C:\PROGRAM FILES\MICROSOFT VISUAL STUDIO\2022\COMMUNITY\VC\TOOLS\MSVC\14.36.32532\INCLUDE\XTR1COMMON
C:\PROGRAM FILES\MICROSOFT VISUAL STUDIO\2022\COMMUNITY\VC\TOOLS\MSVC\14.36.32532\INCLUDE\INITIALIZER_LIST
C:\PROGRAM FILES\MICROSOFT VISUAL STUDIO\2022\COMMUNITY\VC\TOOLS\MSVC\14.36.32532\INCLUDE\NEW
C:\PROGRAM FILES\MICROSOFT VISUAL STUDIO\2022\COMMUNITY\VC\TOOLS\MSVC\14.36.32532\INCLUDE\EXCEPTION
C:\PROGRAM FILES\MICROSOFT VISUAL STUDIO\2022\COMMUNITY\VC\TOOLS\MSVC\14.36.32532\INCLUDE\YVALS.H
C:\PROGRAM FILES (X86)\WINDOWS KITS\10\INCLUDE\10.0.18362.0\UCRT\CRTDBG.H
C:\PROGRAM FILES\MICROSOFT VISUAL STUDIO\2022\COMMUNITY\VC\TOOLS\MSVC\14.36.32532\INCLUDE\VCRUNTIME_NEW_DEBUG.H
C:\PROGRAM FILES\MICROSOFT VISUAL STUDIO\2022\COMMUNITY\VC\TOOLS\MSVC\14.36.32532\INCLUDE\VCRUNTIME_NEW.H
C:\PROGRAM FILES\MICROSOFT VISUAL STUDIO\2022\COMMUNITY\VC\TOOLS\MSVC\14.36.32532\INCLUDE\CRTDEFS.H
C:\PROGRAM FILES\MICROSOFT VISUAL STUDIO\2022\COMMUNITY\VC\TOOLS\MSVC\14.36.32532\INCLUDE\USE_ANSI.H
C:\PROGRAM FILES\MICROSOFT VISUAL STUDIO\2022\COMMUNITY\VC\TOOLS\MSVC\14.36.32532\INCLUDE\TYPE_TRAITS
C:\PROGRAM FILES (X86)\WINDOWS KITS\10\INCLUDE\10.0.18362.0\UCRT\MALLOC.H
C:\PROGRAM FILES\MICROSOFT VISUAL STUDIO\2022\COMMUNITY\VC\TOOLS\MSVC\14.36.32532\INCLUDE\VCRUNTIME_EXCEPTION.H
C:\PROGRAM FILES\MICROSOFT VISUAL STUDIO\2022\COMMUNITY\VC\TOOLS\MSVC\14.36.32532\INCLUDE\EH.H
C:\PROGRAM FILES (X86)\WINDOWS KITS\10\INCLUDE\10.0.18362.0\UCRT\CORECRT_TERMINATE.H
C:\PROGRAM FILES\MICROSOFT VISUAL STUDIO\2022\COMMUNITY\VC\TOOLS\MSVC\14.36.32532\INCLUDE\XATOMIC.H
C:\PROGRAM FILES\MICROSOFT VISUAL STUDIO\2022\COMMUNITY\VC\TOOLS\MSVC\14.36.32532\INCLUDE\XUTILITY
C:\PROGRAM FILES\MICROSOFT VISUAL STUDIO\2022\COMMUNITY\VC\TOOLS\MSVC\14.36.32532\INCLUDE\__MSVC_ITER_CORE.HPP
C:\PROGRAM FILES\MICROSOFT VISUAL STUDIO\2022\COMMUNITY\VC\TOOLS\MSVC\14.36.32532\INCLUDE\UTILITY
C:\PROGRAM FILES\MICROSOFT VISUAL STUDIO\2022\COMMUNITY\VC\TOOLS\MSVC\14.36.32532\INCLUDE\CSTRING
C:\PROGRAM FILES\MICROSOFT VISUAL STUDIO\2022\COMMUNITY\VC\TOOLS\MSVC\14.36.32532\INCLUDE\ARRAY
C:\PROGRAM FILES\MICROSOFT VISUAL STUDIO\2022\COMMUNITY\VC\TOOLS\MSVC\14.36.32532\INCLUDE\ATOMIC
C:\PROGRAM FILES\MICROSOFT VISUAL STUDIO\2022\COMMUNITY\VC\TOOLS\MSVC\14.36.32532\INCLUDE\XTHREADS.H
C:\PROGRAM FILES\MICROSOFT VISUAL STUDIO\2022\COMMUNITY\VC\TOOLS\MSVC\14.36.32532\INCLUDE\XTIMEC.H
C:\PROGRAM FILES\MICROSOFT VISUAL STUDIO\2022\COMMUNITY\VC\TOOLS\MSVC\14.36.32532\INCLUDE\CTIME
C:\PROGRAM FILES (X86)\WINDOWS KITS\10\INCLUDE\10.0.18362.0\UCRT\TIME.H
C:\PROGRAM FILES\MICROSOFT VISUAL STUDIO\2022\COMMUNITY\VC\TOOLS\MSVC\14.36.32532\INCLUDE\CHARCONV
C:\PROGRAM FILES\MICROSOFT VISUAL STUDIO\2022\COMMUNITY\VC\TOOLS\MSVC\14.36.32532\INCLUDE\XBIT_OPS.H
C:\PROGRAM FILES\MICROSOFT VISUAL STUDIO\2022\COMMUNITY\VC\TOOLS\MSVC\14.36.32532\INCLUDE\XCHARCONV.H
C:\PROGRAM FILES\MICROSOFT VISUAL STUDIO\2022\COMMUNITY\VC\TOOLS\MSVC\14.36.32532\INCLUDE\XERRC.H
C:\PROGRAM FILES\MICROSOFT VISUAL STUDIO\2022\COMMUNITY\VC\TOOLS\MSVC\14.36.32532\INCLUDE\XCHARCONV_RYU.H
C:\PROGRAM FILES\MICROSOFT VISUAL STUDIO\2022\COMMUNITY\VC\TOOLS\MSVC\14.36.32532\INCLUDE\XCHARCONV_RYU_TABLES.H
C:\PROGRAM FILES\MICROSOFT VISUAL STUDIO\2022\COMMUNITY\VC\TOOLS\MSVC\14.36.32532\INCLUDE\XCHARCONV_TABLES.H
C:\PROGRAM FILES\MICROSOFT VISUAL STUDIO\2022\COMMUNITY\VC\TOOLS\MSVC\14.36.32532\INCLUDE\CHRONO
C:\PROGRAM FILES\MICROSOFT VISUAL STUDIO\2022\COMMUNITY\VC\TOOLS\MSVC\14.36.32532\INCLUDE\__MSVC_CHRONO.HPP
C:\PROGRAM FILES\MICROSOFT VISUAL STUDIO\2022\COMMUNITY\VC\TOOLS\MSVC\14.36.32532\INCLUDE\RATIO
C:\PROGRAM FILES\MICROSOFT VISUAL STUDIO\2022\COMMUNITY\VC\TOOLS\MSVC\14.36.32532\INCLUDE\SYSTEM_ERROR
C:\PROGRAM FILES\MICROSOFT VISUAL STUDIO\2022\COMMUNITY\VC\TOOLS\MSVC\14.36.32532\INCLUDE\__MSVC_SYSTEM_ERROR_ABI.HPP
C:\PROGRAM FILES\MICROSOFT VISUAL STUDIO\2022\COMMUNITY\VC\TOOLS\MSVC\14.36.32532\INCLUDE\CERRNO
C:\PROGRAM FILES\MICROSOFT VISUAL STUDIO\2022\COMMUNITY\VC\TOOLS\MSVC\14.36.32532\INCLUDE\STDEXCEPT
C:\PROGRAM FILES\MICROSOFT VISUAL STUDIO\2022\COMMUNITY\VC\TOOLS\MSVC\14.36.32532\INCLUDE\XSTRING
C:\PROGRAM FILES\MICROSOFT VISUAL STUDIO\2022\COMMUNITY\VC\TOOLS\MSVC\14.36.32532\INCLUDE\IOSFWD
C:\PROGRAM FILES\MICROSOFT VISUAL STUDIO\2022\COMMUNITY\VC\TOOLS\MSVC\14.36.32532\INCLUDE\XPOLYMORPHIC_ALLOCATOR.H
C:\PROGRAM FILES\MICROSOFT VISUAL STUDIO\2022\COMMUNITY\VC\TOOLS\MSVC\14.36.32532\INCLUDE\TUPLE
C:\PROGRAM FILES\MICROSOFT VISUAL STUDIO\2022\COMMUNITY\VC\TOOLS\MSVC\14.36.32532\INCLUDE\__MSVC_SANITIZER_ANNOTATE_CONTAINER.HPP
C:\PROGRAM FILES\MICROSOFT VISUAL STUDIO\2022\COMMUNITY\VC\TOOLS\MSVC\14.36.32532\INCLUDE\XCALL_ONCE.H
C:\PROGRAM FILES\MICROSOFT VISUAL STUDIO\2022\COMMUNITY\VC\TOOLS\MSVC\14.36.32532\INCLUDE\XFILESYSTEM_ABI.H
C:\PROGRAM FILES\MICROSOFT VISUAL STUDIO\2022\COMMUNITY\VC\TOOLS\MSVC\14.36.32532\INCLUDE\ITERATOR
C:\PROGRAM FILES\MICROSOFT VISUAL STUDIO\2022\COMMUNITY\VC\TOOLS\MSVC\14.36.32532\INCLUDE\MAP
C:\PROGRAM FILES\MICROSOFT VISUAL STUDIO\2022\COMMUNITY\VC\TOOLS\MSVC\14.36.32532\INCLUDE\XTREE
C:\PROGRAM FILES\MICROSOFT VISUAL STUDIO\2022\COMMUNITY\VC\TOOLS\MSVC\14.36.32532\INCLUDE\XNODE_HANDLE.H
C:\PROGRAM FILES\MICROSOFT VISUAL STUDIO\2022\COMMUNITY\VC\TOOLS\MSVC\14.36.32532\INCLUDE\MEMORY
C:\PROGRAM FILES\MICROSOFT VISUAL STUDIO\2022\COMMUNITY\VC\TOOLS\MSVC\14.36.32532\INCLUDE\TYPEINFO
C:\PROGRAM FILES\MICROSOFT VISUAL STUDIO\2022\COMMUNITY\VC\TOOLS\MSVC\14.36.32532\INCLUDE\VCRUNTIME_TYPEINFO.H
C:\PROGRAM FILES\MICROSOFT VISUAL STUDIO\2022\COMMUNITY\VC\TOOLS\MSVC\14.36.32532\INCLUDE\OPTIONAL
C:\PROGRAM FILES\MICROSOFT VISUAL STUDIO\2022\COMMUNITY\VC\TOOLS\MSVC\14.36.32532\INCLUDE\XSMF_CONTROL.H
C:\PROGRAM FILES\MICROSOFT VISUAL STUDIO\2022\COMMUNITY\VC\TOOLS\MSVC\14.36.32532\INCLUDE\STRING_VIEW
C:\PROGRAM FILES\MICROSOFT VISUAL STUDIO\2022\COMMUNITY\VC\TOOLS\MSVC\14.36.32532\INCLUDE\STRING
C:\PROGRAM FILES\MICROSOFT VISUAL STUDIO\2022\COMMUNITY\VC\TOOLS\MSVC\14.36.32532\INCLUDE\CCTYPE
C:\PROGRAM FILES\MICROSOFT VISUAL STUDIO\2022\COMMUNITY\VC\TOOLS\MSVC\14.36.32532\INCLUDE\THREAD
C:\PROGRAM FILES (X86)\WINDOWS KITS\10\INCLUDE\10.0.18362.0\UCRT\PROCESS.H
C:\PROGRAM FILES (X86)\WINDOWS KITS\10\INCLUDE\10.0.18362.0\UCRT\CORECRT_STARTUP.H
C:\PROGRAM FILES\MICROSOFT VISUAL STUDIO\2022\COMMUNITY\VC\TOOLS\MSVC\14.36.32532\INCLUDE\VCRUNTIME_STARTUP.H
C:\PROGRAM FILES\MICROSOFT VISUAL STUDIO\2022\COMMUNITY\VC\TOOLS\MSVC\14.36.32532\INCLUDE\UNORDERED_MAP
C:\PROGRAM FILES\MICROSOFT VISUAL STUDIO\2022\COMMUNITY\VC\TOOLS\MSVC\14.36.32532\INCLUDE\XHASH
C:\PROGRAM FILES\MICROSOFT VISUAL STUDIO\2022\COMMUNITY\VC\TOOLS\MSVC\14.36.32532\INCLUDE\CMATH
C:\PROGRAM FILES\MICROSOFT VISUAL STUDIO\2022\COMMUNITY\VC\TOOLS\MSVC\14.36.32532\INCLUDE\LIST
C:\PROGRAM FILES\MICROSOFT VISUAL STUDIO\2022\COMMUNITY\VC\TOOLS\MSVC\14.36.32532\INCLUDE\VECTOR
C:\PROGRAM FILES\MICROSOFT VISUAL STUDIO\2022\COMMUNITY\VC\TOOLS\MSVC\14.36.32532\INCLUDE\VERSION
C:\PROGRAM FILES (X86)\WINDOWS KITS\10\INCLUDE\10.0.18362.0\UM\DIRECTXMATH.H
C:\PROGRAM FILES (X86)\WINDOWS KITS\10\INCLUDE\10.0.18362.0\UCRT\ASSERT.H
C:\PROGRAM FILES (X86)\WINDOWS KITS\10\INCLUDE\10.0.18362.0\UM\DIRECTXMATHCONVERT.INL
C:\PROGRAM FILES (X86)\WINDOWS KITS\10\INCLUDE\10.0.18362.0\UM\DIRECTXMATHVECTOR.INL
C:\PROGRAM FILES (X86)\WINDOWS KITS\10\INCLUDE\10.0.18362.0\UM\DIRECTXMATHMATRIX.INL
C:\PROGRAM FILES (X86)\WINDOWS KITS\10\INCLUDE\10.0.18362.0\UM\DIRECTXMATHMISC.INL
C:\PROGRAM FILES\MICROSOFT VISUAL STUDIO\2022\COMMUNITY\VC\TOOLS\MSVC\14.36.32532\INCLUDE\EXPERIMENTAL\COROUTINE
C:\PROGRAM FILES (X86)\WINDOWS KITS\10\INCLUDE\10.0.18362.0\UM\WINDOWSNUMERICS.IMPL.H
C:\PROGRAM FILES (X86)\WINDOWS KITS\10\INCLUDE\10.0.18362.0\UM\WINDOWSNUMERICS.INL
C:\USERS\USER\DOCUMENTS\GITHUB\RMUNITY\HOLOLENS2-RESEARCHMODE-UNITY\HL2UNITYPLUGIN\GENERATED FILES\WINRT\IMPL\WINDOWS.FOUNDATION.COLLECTIONS.2.H
C:\USERS\USER\DOCUMENTS\GITHUB\RMUNITY\HOLOLENS2-RESEARCHMODE-UNITY\HL2UNITYPLUGIN\GENERATED FILES\WINRT\IMPL\WINDOWS.FOUNDATION.COLLECTIONS.1.H
C:\USERS\USER\DOCUMENTS\GITHUB\RMUNITY\HOLOLENS2-RESEARCHMODE-UNITY\HL2UNITYPLUGIN\GENERATED FILES\WINRT\IMPL\WINDOWS.FOUNDATION.COLLECTIONS.0.H
C:\USERS\USER\DOCUMENTS\GITHUB\RMUNITY\HOLOLENS2-RESEARCHMODE-UNITY\HL2UNITYPLUGIN\GENERATED FILES\WINRT\IMPL\WINDOWS.FOUNDATION.2.H
C:\USERS\USER\DOCUMENTS\GITHUB\RMUNITY\HOLOLENS2-RESEARCHMODE-UNITY\HL2UNITYPLUGIN\GENERATED FILES\WINRT\IMPL\WINDOWS.FOUNDATION.1.H
C:\USERS\USER\DOCUMENTS\GITHUB\RMUNITY\HOLOLENS2-RESEARCHMODE-UNITY\HL2UNITYPLUGIN\GENERATED FILES\WINRT\IMPL\WINDOWS.FOUNDATION.0.H
C:\USERS\USER\DOCUMENTS\GITHUB\RMUNITY\HOLOLENS2-RESEARCHMODE-UNITY\HL2UNITYPLUGIN\GENERATED FILES\WINRT\WINDOWS.FOUNDATION.COLLECTIONS.H
^C:\USERS\USER\DOCUMENTS\GITHUB\RMUNITY\HOLOLENS2-RESEARCHMODE-UNITY\HL2UNITYPLUGIN\GENERATED FILES\MODULE.G.CPP
C:\USERS\USER\DOCUMENTS\GITHUB\RMUNITY\HOLOLENS2-RESEARCHMODE-UNITY\HL2UNITYPLUGIN\ARM64\RELEASE\PCH.PCH
^C:\USERS\USER\DOCUMENTS\GITHUB\RMUNITY\HOLOLENS2-RESEARCHMODE-UNITY\HL2UNITYPLUGIN\TIMECONVERTER.CPP
C:\WINDOWS\GLOBALIZATION\SORTING\SORTDEFAULT.NLS
C:\PROGRAM FILES\MICROSOFT VISUAL STUDIO\2022\COMMUNITY\VC\TOOLS\MSVC\14.36.32532\BIN\HOSTX86\ARM64\1033\CLUI.DLL
C:\WINDOWS\SYSTEM32\TZRES.DLL
C:\USERS\USER\DOCUMENTS\GITHUB\RMUNITY\HOLOLENS2-RESEARCHMODE-UNITY\HL2UNITYPLUGIN\TIMECONVERTER.H
C:\PROGRAM FILES\MICROSOFT VISUAL STUDIO\2022\COMMUNITY\VC\TOOLS\MSVC\14.36.32532\INCLUDE\CASSERT
C:\PROGRAM FILES\MICROSOFT VISUAL STUDIO\2022\COMMUNITY\VC\TOOLS\MSVC\14.36.32532\INCLUDE\YVALS_CORE.H
C:\PROGRAM FILES\MICROSOFT VISUAL STUDIO\2022\COMMUNITY\VC\TOOLS\MSVC\14.36.32532\INCLUDE\VCRUNTIME.H
C:\PROGRAM FILES\MICROSOFT VISUAL STUDIO\2022\COMMUNITY\VC\TOOLS\MSVC\14.36.32532\INCLUDE\SAL.H
C:\PROGRAM FILES\MICROSOFT VISUAL STUDIO\2022\COMMUNITY\VC\TOOLS\MSVC\14.36.32532\INCLUDE\CONCURRENCYSAL.H
C:\PROGRAM FILES\MICROSOFT VISUAL STUDIO\2022\COMMUNITY\VC\TOOLS\MSVC\14.36.32532\INCLUDE\VADEFS.H
C:\PROGRAM FILES\MICROSOFT VISUAL STUDIO\2022\COMMUNITY\VC\TOOLS\MSVC\14.36.32532\INCLUDE\XKEYCHECK.H
C:\PROGRAM FILES (X86)\WINDOWS KITS\10\INCLUDE\10.0.18362.0\UCRT\ASSERT.H
C:\PROGRAM FILES (X86)\WINDOWS KITS\10\INCLUDE\10.0.18362.0\UCRT\CORECRT.H
C:\PROGRAM FILES (X86)\WINDOWS KITS\10\INCLUDE\10.0.18362.0\SHARED\WINAPIFAMILY.H
C:\PROGRAM FILES (X86)\WINDOWS KITS\10\INCLUDE\10.0.18362.0\SHARED\WINPACKAGEFAMILY.H
C:\PROGRAM FILES\MICROSOFT VISUAL STUDIO\2022\COMMUNITY\VC\TOOLS\MSVC\14.36.32532\INCLUDE\CHRONO
C:\PROGRAM FILES\MICROSOFT VISUAL STUDIO\2022\COMMUNITY\VC\TOOLS\MSVC\14.36.32532\INCLUDE\__MSVC_CHRONO.HPP
C:\PROGRAM FILES\MICROSOFT VISUAL STUDIO\2022\COMMUNITY\VC\TOOLS\MSVC\14.36.32532\INCLUDE\YVALS.H
C:\PROGRAM FILES (X86)\WINDOWS KITS\10\INCLUDE\10.0.18362.0\UCRT\CRTDBG.H
C:\PROGRAM FILES\MICROSOFT VISUAL STUDIO\2022\COMMUNITY\VC\TOOLS\MSVC\14.36.32532\INCLUDE\VCRUNTIME_NEW_DEBUG.H
C:\PROGRAM FILES\MICROSOFT VISUAL STUDIO\2022\COMMUNITY\VC\TOOLS\MSVC\14.36.32532\INCLUDE\VCRUNTIME_NEW.H
C:\PROGRAM FILES\MICROSOFT VISUAL STUDIO\2022\COMMUNITY\VC\TOOLS\MSVC\14.36.32532\INCLUDE\CRTDEFS.H
C:\PROGRAM FILES\MICROSOFT VISUAL STUDIO\2022\COMMUNITY\VC\TOOLS\MSVC\14.36.32532\INCLUDE\USE_ANSI.H
C:\PROGRAM FILES\MICROSOFT VISUAL STUDIO\2022\COMMUNITY\VC\TOOLS\MSVC\14.36.32532\INCLUDE\CTIME
C:\PROGRAM FILES (X86)\WINDOWS KITS\10\INCLUDE\10.0.18362.0\UCRT\TIME.H
C:\PROGRAM FILES (X86)\WINDOWS KITS\10\INCLUDE\10.0.18362.0\UCRT\CORECRT_WTIME.H
C:\PROGRAM FILES\MICROSOFT VISUAL STUDIO\2022\COMMUNITY\VC\TOOLS\MSVC\14.36.32532\INCLUDE\LIMITS
C:\PROGRAM FILES\MICROSOFT VISUAL STUDIO\2022\COMMUNITY\VC\TOOLS\MSVC\14.36.32532\INCLUDE\CFLOAT
C:\PROGRAM FILES (X86)\WINDOWS KITS\10\INCLUDE\10.0.18362.0\UCRT\FLOAT.H
C:\PROGRAM FILES\MICROSOFT VISUAL STUDIO\2022\COMMUNITY\VC\TOOLS\MSVC\14.36.32532\INCLUDE\CLIMITS
C:\PROGRAM FILES\MICROSOFT VISUAL STUDIO\2022\COMMUNITY\VC\TOOLS\MSVC\14.36.32532\INCLUDE\LIMITS.H
C:\PROGRAM FILES\MICROSOFT VISUAL STUDIO\2022\COMMUNITY\VC\TOOLS\MSVC\14.36.32532\INCLUDE\CWCHAR
C:\PROGRAM FILES\MICROSOFT VISUAL STUDIO\2022\COMMUNITY\VC\TOOLS\MSVC\14.36.32532\INCLUDE\CSTDIO
C:\PROGRAM FILES (X86)\WINDOWS KITS\10\INCLUDE\10.0.18362.0\UCRT\STDIO.H
C:\PROGRAM FILES (X86)\WINDOWS KITS\10\INCLUDE\10.0.18362.0\UCRT\CORECRT_WSTDIO.H
C:\PROGRAM FILES (X86)\WINDOWS KITS\10\INCLUDE\10.0.18362.0\UCRT\CORECRT_STDIO_CONFIG.H
C:\PROGRAM FILES (X86)\WINDOWS KITS\10\INCLUDE\10.0.18362.0\UCRT\WCHAR.H
C:\PROGRAM FILES (X86)\WINDOWS KITS\10\INCLUDE\10.0.18362.0\UCRT\CORECRT_MEMCPY_S.H
C:\PROGRAM FILES (X86)\WINDOWS KITS\10\INCLUDE\10.0.18362.0\UCRT\ERRNO.H
C:\PROGRAM FILES\MICROSOFT VISUAL STUDIO\2022\COMMUNITY\VC\TOOLS\MSVC\14.36.32532\INCLUDE\VCRUNTIME_STRING.H
C:\PROGRAM FILES (X86)\WINDOWS KITS\10\INCLUDE\10.0.18362.0\UCRT\CORECRT_WCONIO.H
C:\PROGRAM FILES (X86)\WINDOWS KITS\10\INCLUDE\10.0.18362.0\UCRT\CORECRT_WCTYPE.H
C:\PROGRAM FILES (X86)\WINDOWS KITS\10\INCLUDE\10.0.18362.0\UCRT\CORECRT_WDIRECT.H
C:\PROGRAM FILES (X86)\WINDOWS KITS\10\INCLUDE\10.0.18362.0\UCRT\CORECRT_WIO.H
C:\PROGRAM FILES (X86)\WINDOWS KITS\10\INCLUDE\10.0.18362.0\UCRT\CORECRT_SHARE.H
C:\PROGRAM FILES (X86)\WINDOWS KITS\10\INCLUDE\10.0.18362.0\UCRT\CORECRT_WPROCESS.H
C:\PROGRAM FILES (X86)\WINDOWS KITS\10\INCLUDE\10.0.18362.0\UCRT\CORECRT_WSTDLIB.H
C:\PROGRAM FILES (X86)\WINDOWS KITS\10\INCLUDE\10.0.18362.0\UCRT\CORECRT_WSTRING.H
C:\PROGRAM FILES (X86)\WINDOWS KITS\10\INCLUDE\10.0.18362.0\UCRT\SYS\STAT.H
C:\PROGRAM FILES (X86)\WINDOWS KITS\10\INCLUDE\10.0.18362.0\UCRT\SYS\TYPES.H
C:\PROGRAM FILES\MICROSOFT VISUAL STUDIO\2022\COMMUNITY\VC\TOOLS\MSVC\14.36.32532\INCLUDE\INTRIN0.H
C:\PROGRAM FILES\MICROSOFT VISUAL STUDIO\2022\COMMUNITY\VC\TOOLS\MSVC\14.36.32532\INCLUDE\INTRIN0.INL.H
C:\PROGRAM FILES\MICROSOFT VISUAL STUDIO\2022\COMMUNITY\VC\TOOLS\MSVC\14.36.32532\INCLUDE\ISA_AVAILABILITY.H
C:\PROGRAM FILES\MICROSOFT VISUAL STUDIO\2022\COMMUNITY\VC\TOOLS\MSVC\14.36.32532\INCLUDE\XSTDDEF
C:\PROGRAM FILES\MICROSOFT VISUAL STUDIO\2022\COMMUNITY\VC\TOOLS\MSVC\14.36.32532\INCLUDE\CSTDDEF
C:\PROGRAM FILES (X86)\WINDOWS KITS\10\INCLUDE\10.0.18362.0\UCRT\STDDEF.H
C:\PROGRAM FILES\MICROSOFT VISUAL STUDIO\2022\COMMUNITY\VC\TOOLS\MSVC\14.36.32532\INCLUDE\XTR1COMMON
C:\PROGRAM FILES\MICROSOFT VISUAL STUDIO\2022\COMMUNITY\VC\TOOLS\MSVC\14.36.32532\INCLUDE\CSTDLIB
C:\PROGRAM FILES (X86)\WINDOWS KITS\10\INCLUDE\10.0.18362.0\UCRT\MATH.H
C:\PROGRAM FILES (X86)\WINDOWS KITS\10\INCLUDE\10.0.18362.0\UCRT\CORECRT_MATH.H
C:\PROGRAM FILES (X86)\WINDOWS KITS\10\INCLUDE\10.0.18362.0\UCRT\STDLIB.H
C:\PROGRAM FILES (X86)\WINDOWS KITS\10\INCLUDE\10.0.18362.0\UCRT\CORECRT_MALLOC.H
C:\PROGRAM FILES (X86)\WINDOWS KITS\10\INCLUDE\10.0.18362.0\UCRT\CORECRT_SEARCH.H
C:\PROGRAM FILES\MICROSOFT VISUAL STUDIO\2022\COMMUNITY\VC\TOOLS\MSVC\14.36.32532\INCLUDE\INITIALIZER_LIST
C:\PROGRAM FILES\MICROSOFT VISUAL STUDIO\2022\COMMUNITY\VC\TOOLS\MSVC\14.36.32532\INCLUDE\ARM64_NEON.H
C:\PROGRAM FILES\MICROSOFT VISUAL STUDIO\2022\COMMUNITY\VC\TOOLS\MSVC\14.36.32532\INCLUDE\STDINT.H
C:\PROGRAM FILES\MICROSOFT VISUAL STUDIO\2022\COMMUNITY\VC\TOOLS\MSVC\14.36.32532\INCLUDE\RATIO
C:\PROGRAM FILES\MICROSOFT VISUAL STUDIO\2022\COMMUNITY\VC\TOOLS\MSVC\14.36.32532\INCLUDE\CSTDINT
C:\PROGRAM FILES\MICROSOFT VISUAL STUDIO\2022\COMMUNITY\VC\TOOLS\MSVC\14.36.32532\INCLUDE\TYPE_TRAITS
C:\PROGRAM FILES\MICROSOFT VISUAL STUDIO\2022\COMMUNITY\VC\TOOLS\MSVC\14.36.32532\INCLUDE\UTILITY
C:\PROGRAM FILES\MICROSOFT VISUAL STUDIO\2022\COMMUNITY\VC\TOOLS\MSVC\14.36.32532\INCLUDE\XTIMEC.H
C:\PROGRAM FILES\MICROSOFT VISUAL STUDIO\2022\COMMUNITY\VC\TOOLS\MSVC\14.36.32532\INCLUDE\SYSTEM_ERROR
C:\PROGRAM FILES\MICROSOFT VISUAL STUDIO\2022\COMMUNITY\VC\TOOLS\MSVC\14.36.32532\INCLUDE\__MSVC_SYSTEM_ERROR_ABI.HPP
C:\PROGRAM FILES\MICROSOFT VISUAL STUDIO\2022\COMMUNITY\VC\TOOLS\MSVC\14.36.32532\INCLUDE\CERRNO
C:\PROGRAM FILES\MICROSOFT VISUAL STUDIO\2022\COMMUNITY\VC\TOOLS\MSVC\14.36.32532\INCLUDE\STDEXCEPT
C:\PROGRAM FILES\MICROSOFT VISUAL STUDIO\2022\COMMUNITY\VC\TOOLS\MSVC\14.36.32532\INCLUDE\EXCEPTION
C:\PROGRAM FILES (X86)\WINDOWS KITS\10\INCLUDE\10.0.18362.0\UCRT\MALLOC.H
C:\PROGRAM FILES\MICROSOFT VISUAL STUDIO\2022\COMMUNITY\VC\TOOLS\MSVC\14.36.32532\INCLUDE\VCRUNTIME_EXCEPTION.H
C:\PROGRAM FILES\MICROSOFT VISUAL STUDIO\2022\COMMUNITY\VC\TOOLS\MSVC\14.36.32532\INCLUDE\EH.H
C:\PROGRAM FILES (X86)\WINDOWS KITS\10\INCLUDE\10.0.18362.0\UCRT\CORECRT_TERMINATE.H
C:\PROGRAM FILES\MICROSOFT VISUAL STUDIO\2022\COMMUNITY\VC\TOOLS\MSVC\14.36.32532\INCLUDE\XSTRING
C:\PROGRAM FILES\MICROSOFT VISUAL STUDIO\2022\COMMUNITY\VC\TOOLS\MSVC\14.36.32532\INCLUDE\IOSFWD
C:\PROGRAM FILES\MICROSOFT VISUAL STUDIO\2022\COMMUNITY\VC\TOOLS\MSVC\14.36.32532\INCLUDE\CSTRING
C:\PROGRAM FILES (X86)\WINDOWS KITS\10\INCLUDE\10.0.18362.0\UCRT\STRING.H
C:\PROGRAM FILES (X86)\WINDOWS KITS\10\INCLUDE\10.0.18362.0\UCRT\CORECRT_MEMORY.H
C:\PROGRAM FILES\MICROSOFT VISUAL STUDIO\2022\COMMUNITY\VC\TOOLS\MSVC\14.36.32532\INCLUDE\XMEMORY
C:\PROGRAM FILES\MICROSOFT VISUAL STUDIO\2022\COMMUNITY\VC\TOOLS\MSVC\14.36.32532\INCLUDE\NEW
C:\PROGRAM FILES\MICROSOFT VISUAL STUDIO\2022\COMMUNITY\VC\TOOLS\MSVC\14.36.32532\INCLUDE\XATOMIC.H
C:\PROGRAM FILES\MICROSOFT VISUAL STUDIO\2022\COMMUNITY\VC\TOOLS\MSVC\14.36.32532\INCLUDE\XUTILITY
C:\PROGRAM FILES\MICROSOFT VISUAL STUDIO\2022\COMMUNITY\VC\TOOLS\MSVC\14.36.32532\INCLUDE\__MSVC_ITER_CORE.HPP
C:\PROGRAM FILES\MICROSOFT VISUAL STUDIO\2022\COMMUNITY\VC\TOOLS\MSVC\14.36.32532\INCLUDE\XPOLYMORPHIC_ALLOCATOR.H
C:\PROGRAM FILES\MICROSOFT VISUAL STUDIO\2022\COMMUNITY\VC\TOOLS\MSVC\14.36.32532\INCLUDE\TUPLE
C:\PROGRAM FILES\MICROSOFT VISUAL STUDIO\2022\COMMUNITY\VC\TOOLS\MSVC\14.36.32532\INCLUDE\__MSVC_SANITIZER_ANNOTATE_CONTAINER.HPP
C:\PROGRAM FILES\MICROSOFT VISUAL STUDIO\2022\COMMUNITY\VC\TOOLS\MSVC\14.36.32532\INCLUDE\XCALL_ONCE.H
C:\PROGRAM FILES\MICROSOFT VISUAL STUDIO\2022\COMMUNITY\VC\TOOLS\MSVC\14.36.32532\INCLUDE\XERRC.H
C:\PROGRAM FILES\MICROSOFT VISUAL STUDIO\2022\COMMUNITY\VC\TOOLS\MSVC\14.36.32532\INCLUDE\ATOMIC
C:\PROGRAM FILES\MICROSOFT VISUAL STUDIO\2022\COMMUNITY\VC\TOOLS\MSVC\14.36.32532\INCLUDE\XTHREADS.H
C:\PROGRAM FILES\MICROSOFT VISUAL STUDIO\2022\COMMUNITY\VC\TOOLS\MSVC\14.36.32532\INCLUDE\XFILESYSTEM_ABI.H
C:\PROGRAM FILES (X86)\WINDOWS KITS\10\INCLUDE\10.0.18362.0\WINRT\WRL.H
C:\PROGRAM FILES (X86)\WINDOWS KITS\10\INCLUDE\10.0.18362.0\WINRT\WRL\CLIENT.H
C:\PROGRAM FILES (X86)\WINDOWS KITS\10\INCLUDE\10.0.18362.0\UM\UNKNWN.H
C:\PROGRAM FILES (X86)\WINDOWS KITS\10\INCLUDE\10.0.18362.0\SHARED\RPC.H
C:\PROGRAM FILES (X86)\WINDOWS KITS\10\INCLUDE\10.0.18362.0\UM\WINDOWS.H
C:\PROGRAM FILES (X86)\WINDOWS KITS\10\INCLUDE\10.0.18362.0\SHARED\SDKDDKVER.H
C:\PROGRAM FILES\MICROSOFT VISUAL STUDIO\2022\COMMUNITY\VC\TOOLS\MSVC\14.36.32532\INCLUDE\EXCPT.H
C:\PROGRAM FILES\MICROSOFT VISUAL STUDIO\2022\COMMUNITY\VC\TOOLS\MSVC\14.36.32532\INCLUDE\STDARG.H
C:\PROGRAM FILES (X86)\WINDOWS KITS\10\INCLUDE\10.0.18362.0\SHARED\WINDEF.H
C:\PROGRAM FILES (X86)\WINDOWS KITS\10\INCLUDE\10.0.18362.0\SHARED\MINWINDEF.H
C:\PROGRAM FILES (X86)\WINDOWS KITS\10\INCLUDE\10.0.18362.0\SHARED\SPECSTRINGS.H
C:\PROGRAM FILES (X86)\WINDOWS KITS\10\INCLUDE\10.0.18362.0\SHARED\SPECSTRINGS_STRICT.H
C:\PROGRAM FILES (X86)\WINDOWS KITS\10\INCLUDE\10.0.18362.0\SHARED\SPECSTRINGS_UNDEF.H
C:\PROGRAM FILES (X86)\WINDOWS KITS\10\INCLUDE\10.0.18362.0\SHARED\DRIVERSPECS.H
C:\PROGRAM FILES (X86)\WINDOWS KITS\10\INCLUDE\10.0.18362.0\SHARED\SDV_DRIVERSPECS.H
C:\PROGRAM FILES (X86)\WINDOWS KITS\10\INCLUDE\10.0.18362.0\UM\WINNT.H
C:\PROGRAM FILES (X86)\WINDOWS KITS\10\INCLUDE\10.0.18362.0\UCRT\CTYPE.H
C:\PROGRAM FILES (X86)\WINDOWS KITS\10\INCLUDE\10.0.18362.0\SHARED\KERNELSPECS.H
C:\PROGRAM FILES (X86)\WINDOWS KITS\10\INCLUDE\10.0.18362.0\SHARED\BASETSD.H
C:\PROGRAM FILES (X86)\WINDOWS KITS\10\INCLUDE\10.0.18362.0\SHARED\GUIDDEF.H
C:\PROGRAM FILES\MICROSOFT VISUAL STUDIO\2022\COMMUNITY\VC\TOOLS\MSVC\14.36.32532\INCLUDE\INTRIN.H
C:\PROGRAM FILES\MICROSOFT VISUAL STUDIO\2022\COMMUNITY\VC\TOOLS\MSVC\14.36.32532\INCLUDE\SETJMP.H
C:\PROGRAM FILES\MICROSOFT VISUAL STUDIO\2022\COMMUNITY\VC\TOOLS\MSVC\14.36.32532\INCLUDE\ARM64INTR.H
C:\PROGRAM FILES (X86)\WINDOWS KITS\10\INCLUDE\10.0.18362.0\SHARED\PSHPACK4.H
C:\PROGRAM FILES (X86)\WINDOWS KITS\10\INCLUDE\10.0.18362.0\SHARED\POPPACK.H
C:\PROGRAM FILES (X86)\WINDOWS KITS\10\INCLUDE\10.0.18362.0\SHARED\PSHPACK2.H
C:\PROGRAM FILES (X86)\WINDOWS KITS\10\INCLUDE\10.0.18362.0\SHARED\PSHPACK8.H
C:\PROGRAM FILES (X86)\WINDOWS KITS\10\INCLUDE\10.0.18362.0\SHARED\PSHPACK1.H
C:\PROGRAM FILES (X86)\WINDOWS KITS\10\INCLUDE\10.0.18362.0\SHARED\APISET.H
C:\PROGRAM FILES (X86)\WINDOWS KITS\10\INCLUDE\10.0.18362.0\SHARED\KTMTYPES.H
C:\PROGRAM FILES (X86)\WINDOWS KITS\10\INCLUDE\10.0.18362.0\UM\WINBASE.H
C:\PROGRAM FILES (X86)\WINDOWS KITS\10\INCLUDE\10.0.18362.0\SHARED\APISETCCONV.H
C:\PROGRAM FILES (X86)\WINDOWS KITS\10\INCLUDE\10.0.18362.0\UM\MINWINBASE.H
C:\PROGRAM FILES (X86)\WINDOWS KITS\10\INCLUDE\10.0.18362.0\UM\APIQUERY2.H
C:\PROGRAM FILES (X86)\WINDOWS KITS\10\INCLUDE\10.0.18362.0\UM\PROCESSENV.H
C:\PROGRAM FILES (X86)\WINDOWS KITS\10\INCLUDE\10.0.18362.0\UM\FILEAPIFROMAPP.H
C:\PROGRAM FILES (X86)\WINDOWS KITS\10\INCLUDE\10.0.18362.0\UM\FILEAPI.H
C:\PROGRAM FILES (X86)\WINDOWS KITS\10\INCLUDE\10.0.18362.0\UM\DEBUGAPI.H
C:\PROGRAM FILES (X86)\WINDOWS KITS\10\INCLUDE\10.0.18362.0\UM\UTILAPISET.H
C:\PROGRAM FILES (X86)\WINDOWS KITS\10\INCLUDE\10.0.18362.0\UM\HANDLEAPI.H
C:\PROGRAM FILES (X86)\WINDOWS KITS\10\INCLUDE\10.0.18362.0\UM\ERRHANDLINGAPI.H
C:\PROGRAM FILES (X86)\WINDOWS KITS\10\INCLUDE\10.0.18362.0\UM\FIBERSAPI.H
C:\PROGRAM FILES (X86)\WINDOWS KITS\10\INCLUDE\10.0.18362.0\UM\NAMEDPIPEAPI.H
C:\PROGRAM FILES (X86)\WINDOWS KITS\10\INCLUDE\10.0.18362.0\UM\PROFILEAPI.H
C:\PROGRAM FILES (X86)\WINDOWS KITS\10\INCLUDE\10.0.18362.0\UM\HEAPAPI.H
C:\PROGRAM FILES (X86)\WINDOWS KITS\10\INCLUDE\10.0.18362.0\UM\IOAPISET.H
C:\PROGRAM FILES (X86)\WINDOWS KITS\10\INCLUDE\10.0.18362.0\UM\SYNCHAPI.H
C:\PROGRAM FILES (X86)\WINDOWS KITS\10\INCLUDE\10.0.18362.0\UM\INTERLOCKEDAPI.H
C:\PROGRAM FILES (X86)\WINDOWS KITS\10\INCLUDE\10.0.18362.0\UM\PROCESSTHREADSAPI.H
C:\PROGRAM FILES (X86)\WINDOWS KITS\10\INCLUDE\10.0.18362.0\UM\SYSINFOAPI.H
C:\PROGRAM FILES (X86)\WINDOWS KITS\10\INCLUDE\10.0.18362.0\UM\MEMORYAPI.H
C:\PROGRAM FILES (X86)\WINDOWS KITS\10\INCLUDE\10.0.18362.0\UM\ENCLAVEAPI.H
C:\PROGRAM FILES (X86)\WINDOWS KITS\10\INCLUDE\10.0.18362.0\UM\THREADPOOLLEGACYAPISET.H
C:\PROGRAM FILES (X86)\WINDOWS KITS\10\INCLUDE\10.0.18362.0\UM\THREADPOOLAPISET.H
C:\PROGRAM FILES (X86)\WINDOWS KITS\10\INCLUDE\10.0.18362.0\UM\JOBAPI.H
C:\PROGRAM FILES (X86)\WINDOWS KITS\10\INCLUDE\10.0.18362.0\UM\JOBAPI2.H
C:\PROGRAM FILES (X86)\WINDOWS KITS\10\INCLUDE\10.0.18362.0\UM\WOW64APISET.H
C:\PROGRAM FILES (X86)\WINDOWS KITS\10\INCLUDE\10.0.18362.0\UM\LIBLOADERAPI.H
C:\PROGRAM FILES (X86)\WINDOWS KITS\10\INCLUDE\10.0.18362.0\UM\SECURITYBASEAPI.H
C:\PROGRAM FILES (X86)\WINDOWS KITS\10\INCLUDE\10.0.18362.0\UM\NAMESPACEAPI.H
C:\PROGRAM FILES (X86)\WINDOWS KITS\10\INCLUDE\10.0.18362.0\UM\SYSTEMTOPOLOGYAPI.H
C:\PROGRAM FILES (X86)\WINDOWS KITS\10\INCLUDE\10.0.18362.0\UM\PROCESSTOPOLOGYAPI.H
C:\PROGRAM FILES (X86)\WINDOWS KITS\10\INCLUDE\10.0.18362.0\UM\SECURITYAPPCONTAINER.H
C:\PROGRAM FILES (X86)\WINDOWS KITS\10\INCLUDE\10.0.18362.0\UM\REALTIMEAPISET.H
C:\PROGRAM FILES (X86)\WINDOWS KITS\10\INCLUDE\10.0.18362.0\SHARED\WINERROR.H
C:\PROGRAM FILES (X86)\WINDOWS KITS\10\INCLUDE\10.0.18362.0\UM\TIMEZONEAPI.H
C:\PROGRAM FILES (X86)\WINDOWS KITS\10\INCLUDE\10.0.18362.0\UM\WINGDI.H
C:\PROGRAM FILES (X86)\WINDOWS KITS\10\INCLUDE\10.0.18362.0\UM\WINUSER.H
C:\PROGRAM FILES (X86)\WINDOWS KITS\10\INCLUDE\10.0.18362.0\SHARED\TVOUT.H
C:\PROGRAM FILES (X86)\WINDOWS KITS\10\INCLUDE\10.0.18362.0\UM\WINNLS.H
C:\PROGRAM FILES (X86)\WINDOWS KITS\10\INCLUDE\10.0.18362.0\UM\DATETIMEAPI.H
C:\PROGRAM FILES (X86)\WINDOWS KITS\10\INCLUDE\10.0.18362.0\UM\STRINGAPISET.H
C:\PROGRAM FILES (X86)\WINDOWS KITS\10\INCLUDE\10.0.18362.0\UM\WINCON.H
C:\PROGRAM FILES (X86)\WINDOWS KITS\10\INCLUDE\10.0.18362.0\UM\WINCONTYPES.H
C:\PROGRAM FILES (X86)\WINDOWS KITS\10\INCLUDE\10.0.18362.0\UM\CONSOLEAPI.H
C:\PROGRAM FILES (X86)\WINDOWS KITS\10\INCLUDE\10.0.18362.0\UM\CONSOLEAPI2.H
C:\PROGRAM FILES (X86)\WINDOWS KITS\10\INCLUDE\10.0.18362.0\UM\CONSOLEAPI3.H
C:\PROGRAM FILES (X86)\WINDOWS KITS\10\INCLUDE\10.0.18362.0\UM\WINVER.H
C:\PROGRAM FILES (X86)\WINDOWS KITS\10\INCLUDE\10.0.18362.0\UM\VERRSRC.H
C:\PROGRAM FILES (X86)\WINDOWS KITS\10\INCLUDE\10.0.18362.0\UM\WINREG.H
C:\PROGRAM FILES (X86)\WINDOWS KITS\10\INCLUDE\10.0.18362.0\UM\WINNETWK.H
C:\PROGRAM FILES (X86)\WINDOWS KITS\10\INCLUDE\10.0.18362.0\SHARED\STRALIGN.H
C:\PROGRAM FILES (X86)\WINDOWS KITS\10\INCLUDE\10.0.18362.0\UM\WINSVC.H
C:\PROGRAM FILES (X86)\WINDOWS KITS\10\INCLUDE\10.0.18362.0\UM\MCX.H
C:\PROGRAM FILES (X86)\WINDOWS KITS\10\INCLUDE\10.0.18362.0\UM\IMM.H
C:\PROGRAM FILES (X86)\WINDOWS KITS\10\INCLUDE\10.0.18362.0\UM\IME_CMODES.H
C:\PROGRAM FILES (X86)\WINDOWS KITS\10\INCLUDE\10.0.18362.0\SHARED\RPCDCE.H
C:\PROGRAM FILES (X86)\WINDOWS KITS\10\INCLUDE\10.0.18362.0\SHARED\RPCDCEP.H
C:\PROGRAM FILES (X86)\WINDOWS KITS\10\INCLUDE\10.0.18362.0\UM\RPCNSI.H
C:\PROGRAM FILES (X86)\WINDOWS KITS\10\INCLUDE\10.0.18362.0\SHARED\RPCNTERR.H
C:\PROGRAM FILES (X86)\WINDOWS KITS\10\INCLUDE\10.0.18362.0\SHARED\RPCASYNC.H
C:\PROGRAM FILES (X86)\WINDOWS KITS\10\INCLUDE\10.0.18362.0\SHARED\RPCNDR.H
C:\PROGRAM FILES (X86)\WINDOWS KITS\10\INCLUDE\10.0.18362.0\UM\RPCNSIP.H
C:\PROGRAM FILES (X86)\WINDOWS KITS\10\INCLUDE\10.0.18362.0\SHARED\RPCSAL.H
C:\PROGRAM FILES (X86)\WINDOWS KITS\10\INCLUDE\10.0.18362.0\UM\OLE2.H
C:\PROGRAM FILES (X86)\WINDOWS KITS\10\INCLUDE\10.0.18362.0\UM\OBJBASE.H
C:\PROGRAM FILES (X86)\WINDOWS KITS\10\INCLUDE\10.0.18362.0\UM\COMBASEAPI.H
C:\PROGRAM FILES (X86)\WINDOWS KITS\10\INCLUDE\10.0.18362.0\SHARED\WTYPESBASE.H
C:\PROGRAM FILES (X86)\WINDOWS KITS\10\INCLUDE\10.0.18362.0\UM\UNKNWNBASE.H
C:\PROGRAM FILES (X86)\WINDOWS KITS\10\INCLUDE\10.0.18362.0\UM\OBJIDLBASE.H
C:\PROGRAM FILES (X86)\WINDOWS KITS\10\INCLUDE\10.0.18362.0\UM\CGUID.H
C:\PROGRAM FILES (X86)\WINDOWS KITS\10\INCLUDE\10.0.18362.0\UM\COML2API.H
C:\PROGRAM FILES (X86)\WINDOWS KITS\10\INCLUDE\10.0.18362.0\UM\OBJIDL.H
C:\PROGRAM FILES (X86)\WINDOWS KITS\10\INCLUDE\10.0.18362.0\SHARED\WTYPES.H
C:\PROGRAM FILES (X86)\WINDOWS KITS\10\INCLUDE\10.0.18362.0\UM\PROPIDLBASE.H
C:\PROGRAM FILES (X86)\WINDOWS KITS\10\INCLUDE\10.0.18362.0\UM\OAIDL.H
C:\PROGRAM FILES (X86)\WINDOWS KITS\10\INCLUDE\10.0.18362.0\UM\URLMON.H
C:\PROGRAM FILES (X86)\WINDOWS KITS\10\INCLUDE\10.0.18362.0\UM\OLEIDL.H
C:\PROGRAM FILES (X86)\WINDOWS KITS\10\INCLUDE\10.0.18362.0\UM\SERVPROV.H
C:\PROGRAM FILES (X86)\WINDOWS KITS\10\INCLUDE\10.0.18362.0\UM\MSXML.H
C:\PROGRAM FILES (X86)\WINDOWS KITS\10\INCLUDE\10.0.18362.0\UM\PROPIDL.H
C:\PROGRAM FILES (X86)\WINDOWS KITS\10\INCLUDE\10.0.18362.0\UM\OLEAUTO.H
C:\PROGRAM FILES (X86)\WINDOWS KITS\10\INCLUDE\10.0.18362.0\WINRT\WEAKREFERENCE.H
C:\PROGRAM FILES (X86)\WINDOWS KITS\10\INCLUDE\10.0.18362.0\WINRT\INSPECTABLE.H
C:\PROGRAM FILES (X86)\WINDOWS KITS\10\INCLUDE\10.0.18362.0\WINRT\HSTRING.H
C:\PROGRAM FILES (X86)\WINDOWS KITS\10\INCLUDE\10.0.18362.0\WINRT\ROAPI.H
C:\PROGRAM FILES (X86)\WINDOWS KITS\10\INCLUDE\10.0.18362.0\WINRT\ACTIVATION.H
C:\PROGRAM FILES (X86)\WINDOWS KITS\10\INCLUDE\10.0.18362.0\WINRT\WRL\DEF.H
C:\PROGRAM FILES (X86)\WINDOWS KITS\10\INCLUDE\10.0.18362.0\WINRT\WRL\INTERNAL.H
C:\PROGRAM FILES (X86)\WINDOWS KITS\10\INCLUDE\10.0.18362.0\WINRT\WRL\IMPLEMENTS.H
C:\PROGRAM FILES (X86)\WINDOWS KITS\10\INCLUDE\10.0.18362.0\WINRT\WINSTRING.H
C:\PROGRAM FILES (X86)\WINDOWS KITS\10\INCLUDE\10.0.18362.0\UCRT\NEW.H
C:\PROGRAM FILES (X86)\WINDOWS KITS\10\INCLUDE\10.0.18362.0\WINRT\ROERRORAPI.H
C:\PROGRAM FILES (X86)\WINDOWS KITS\10\INCLUDE\10.0.18362.0\UM\RESTRICTEDERRORINFO.H
C:\PROGRAM FILES (X86)\WINDOWS KITS\10\INCLUDE\10.0.18362.0\WINRT\WRL\MODULE.H
C:\PROGRAM FILES (X86)\WINDOWS KITS\10\INCLUDE\10.0.18362.0\WINRT\WRL\FTM.H
C:\PROGRAM FILES (X86)\WINDOWS KITS\10\INCLUDE\10.0.18362.0\WINRT\WRL\WRAPPERS\COREWRAPPERS.H
C:\PROGRAM FILES (X86)\WINDOWS KITS\10\INCLUDE\10.0.18362.0\SHARED\INTSAFE.H
C:\PROGRAM FILES (X86)\WINDOWS KITS\10\INCLUDE\10.0.18362.0\WINRT\WRL\EVENT.H
C:\PROGRAM FILES (X86)\WINDOWS KITS\10\INCLUDE\10.0.18362.0\WINRT\EVENTTOKEN.H
^C:\USERS\USER\DOCUMENTS\GITHUB\RMUNITY\HOLOLENS2-RESEARCHMODE-UNITY\HL2UNITYPLUGIN\HL2RESEARCHMODE.CPP
C:\WINDOWS\GLOBALIZATION\SORTING\SORTDEFAULT.NLS
C:\USERS\USER\DOCUMENTS\GITHUB\RMUNITY\HOLOLENS2-RESEARCHMODE-UNITY\HL2UNITYPLUGIN\ARM64\RELEASE\PCH.PCH
C:\PROGRAM FILES\MICROSOFT VISUAL STUDIO\2022\COMMUNITY\VC\TOOLS\MSVC\14.36.32532\BIN\HOSTX86\ARM64\1033\CLUI.DLL
C:\WINDOWS\SYSTEM32\TZRES.DLL
C:\USERS\USER\DOCUMENTS\GITHUB\RMUNITY\HOLOLENS2-RESEARCHMODE-UNITY\HL2UNITYPLUGIN\HL2RESEARCHMODE.H
C:\USERS\USER\DOCUMENTS\GITHUB\RMUNITY\HOLOLENS2-RESEARCHMODE-UNITY\HL2UNITYPLUGIN\GENERATED FILES\HL2RESEARCHMODE.G.H
C:\USERS\USER\DOCUMENTS\GITHUB\RMUNITY\HOLOLENS2-RESEARCHMODE-UNITY\HL2UNITYPLUGIN\GENERATED FILES\WINRT\HL2UNITYPLUGIN.H
C:\USERS\USER\DOCUMENTS\GITHUB\RMUNITY\HOLOLENS2-RESEARCHMODE-UNITY\HL2UNITYPLUGIN\GENERATED FILES\WINRT\IMPL\WINDOWS.PERCEPTION.SPATIAL.2.H
C:\USERS\USER\DOCUMENTS\GITHUB\RMUNITY\HOLOLENS2-RESEARCHMODE-UNITY\HL2UNITYPLUGIN\GENERATED FILES\WINRT\IMPL\WINDOWS.FOUNDATION.NUMERICS.2.H
C:\USERS\USER\DOCUMENTS\GITHUB\RMUNITY\HOLOLENS2-RESEARCHMODE-UNITY\HL2UNITYPLUGIN\GENERATED FILES\WINRT\IMPL\WINDOWS.FOUNDATION.NUMERICS.1.H
C:\USERS\USER\DOCUMENTS\GITHUB\RMUNITY\HOLOLENS2-RESEARCHMODE-UNITY\HL2UNITYPLUGIN\GENERATED FILES\WINRT\IMPL\WINDOWS.FOUNDATION.NUMERICS.0.H
C:\USERS\USER\DOCUMENTS\GITHUB\RMUNITY\HOLOLENS2-RESEARCHMODE-UNITY\HL2UNITYPLUGIN\GENERATED FILES\WINRT\IMPL\WINDOWS.STORAGE.STREAMS.2.H
C:\USERS\USER\DOCUMENTS\GITHUB\RMUNITY\HOLOLENS2-RESEARCHMODE-UNITY\HL2UNITYPLUGIN\GENERATED FILES\WINRT\IMPL\WINDOWS.STORAGE.1.H
C:\USERS\USER\DOCUMENTS\GITHUB\RMUNITY\HOLOLENS2-RESEARCHMODE-UNITY\HL2UNITYPLUGIN\GENERATED FILES\WINRT\IMPL\WINDOWS.STORAGE.STREAMS.0.H
C:\USERS\USER\DOCUMENTS\GITHUB\RMUNITY\HOLOLENS2-RESEARCHMODE-UNITY\HL2UNITYPLUGIN\GENERATED FILES\WINRT\IMPL\WINDOWS.STORAGE.0.H
C:\USERS\USER\DOCUMENTS\GITHUB\RMUNITY\HOLOLENS2-RESEARCHMODE-UNITY\HL2UNITYPLUGIN\GENERATED FILES\WINRT\IMPL\WINDOWS.SYSTEM.1.H
C:\USERS\USER\DOCUMENTS\GITHUB\RMUNITY\HOLOLENS2-RESEARCHMODE-UNITY\HL2UNITYPLUGIN\GENERATED FILES\WINRT\IMPL\WINDOWS.SYSTEM.0.H
C:\USERS\USER\DOCUMENTS\GITHUB\RMUNITY\HOLOLENS2-RESEARCHMODE-UNITY\HL2UNITYPLUGIN\GENERATED FILES\WINRT\IMPL\WINDOWS.STORAGE.STREAMS.1.H
C:\USERS\USER\DOCUMENTS\GITHUB\RMUNITY\HOLOLENS2-RESEARCHMODE-UNITY\HL2UNITYPLUGIN\GENERATED FILES\WINRT\IMPL\WINDOWS.SYSTEM.REMOTESYSTEMS.2.H
C:\USERS\USER\DOCUMENTS\GITHUB\RMUNITY\HOLOLENS2-RESEARCHMODE-UNITY\HL2UNITYPLUGIN\GENERATED FILES\WINRT\IMPL\WINDOWS.APPLICATIONMODEL.APPSERVICE.1.H
C:\USERS\USER\DOCUMENTS\GITHUB\RMUNITY\HOLOLENS2-RESEARCHMODE-UNITY\HL2UNITYPLUGIN\GENERATED FILES\WINRT\IMPL\WINDOWS.APPLICATIONMODEL.APPSERVICE.0.H
C:\USERS\USER\DOCUMENTS\GITHUB\RMUNITY\HOLOLENS2-RESEARCHMODE-UNITY\HL2UNITYPLUGIN\GENERATED FILES\WINRT\IMPL\WINDOWS.NETWORKING.1.H
C:\USERS\USER\DOCUMENTS\GITHUB\RMUNITY\HOLOLENS2-RESEARCHMODE-UNITY\HL2UNITYPLUGIN\GENERATED FILES\WINRT\IMPL\WINDOWS.NETWORKING.0.H
C:\USERS\USER\DOCUMENTS\GITHUB\RMUNITY\HOLOLENS2-RESEARCHMODE-UNITY\HL2UNITYPLUGIN\GENERATED FILES\WINRT\IMPL\WINDOWS.SECURITY.CREDENTIALS.1.H
C:\USERS\USER\DOCUMENTS\GITHUB\RMUNITY\HOLOLENS2-RESEARCHMODE-UNITY\HL2UNITYPLUGIN\GENERATED FILES\WINRT\IMPL\WINDOWS.SECURITY.CREDENTIALS.0.H
C:\USERS\USER\DOCUMENTS\GITHUB\RMUNITY\HOLOLENS2-RESEARCHMODE-UNITY\HL2UNITYPLUGIN\GENERATED FILES\WINRT\IMPL\WINDOWS.SYSTEM.REMOTESYSTEMS.1.H
C:\USERS\USER\DOCUMENTS\GITHUB\RMUNITY\HOLOLENS2-RESEARCHMODE-UNITY\HL2UNITYPLUGIN\GENERATED FILES\WINRT\IMPL\WINDOWS.SYSTEM.REMOTESYSTEMS.0.H
C:\USERS\USER\DOCUMENTS\GITHUB\RMUNITY\HOLOLENS2-RESEARCHMODE-UNITY\HL2UNITYPLUGIN\GENERATED FILES\WINRT\IMPL\WINDOWS.PERCEPTION.SPATIAL.1.H
C:\USERS\USER\DOCUMENTS\GITHUB\RMUNITY\HOLOLENS2-RESEARCHMODE-UNITY\HL2UNITYPLUGIN\GENERATED FILES\WINRT\IMPL\WINDOWS.PERCEPTION.SPATIAL.0.H
C:\USERS\USER\DOCUMENTS\GITHUB\RMUNITY\HOLOLENS2-RESEARCHMODE-UNITY\HL2UNITYPLUGIN\GENERATED FILES\WINRT\IMPL\HL2UNITYPLUGIN.2.H
C:\USERS\USER\DOCUMENTS\GITHUB\RMUNITY\HOLOLENS2-RESEARCHMODE-UNITY\HL2UNITYPLUGIN\GENERATED FILES\WINRT\IMPL\HL2UNITYPLUGIN.1.H
C:\USERS\USER\DOCUMENTS\GITHUB\RMUNITY\HOLOLENS2-RESEARCHMODE-UNITY\HL2UNITYPLUGIN\GENERATED FILES\WINRT\IMPL\HL2UNITYPLUGIN.0.H
C:\USERS\USER\DOCUMENTS\GITHUB\RMUNITY\HOLOLENS2-RESEARCHMODE-UNITY\HL2UNITYPLUGIN\RESEARCHMODEAPI.H
C:\PROGRAM FILES (X86)\WINDOWS KITS\10\INCLUDE\10.0.18362.0\SHARED\INITGUID.H
C:\PROGRAM FILES (X86)\WINDOWS KITS\10\INCLUDE\10.0.18362.0\SHARED\GUIDDEF.H
C:\PROGRAM FILES\MICROSOFT VISUAL STUDIO\2022\COMMUNITY\VC\TOOLS\MSVC\14.36.32532\INCLUDE\COMDEF.H
C:\PROGRAM FILES\MICROSOFT VISUAL STUDIO\2022\COMMUNITY\VC\TOOLS\MSVC\14.36.32532\INCLUDE\COMUTIL.H
C:\PROGRAM FILES (X86)\WINDOWS KITS\10\INCLUDE\10.0.18362.0\WINRT\ROERRORAPI.H
C:\PROGRAM FILES (X86)\WINDOWS KITS\10\INCLUDE\10.0.18362.0\WINRT\HSTRING.H
C:\PROGRAM FILES (X86)\WINDOWS KITS\10\INCLUDE\10.0.18362.0\UM\RESTRICTEDERRORINFO.H
C:\PROGRAM FILES (X86)\WINDOWS KITS\10\INCLUDE\10.0.18362.0\UCRT\NEW.H
C:\PROGRAM FILES\MICROSOFT VISUAL STUDIO\2022\COMMUNITY\VC\TOOLS\MSVC\14.36.32532\INCLUDE\CRTDEFS.H
C:\USERS\USER\DOCUMENTS\GITHUB\RMUNITY\HOLOLENS2-RESEARCHMODE-UNITY\HL2UNITYPLUGIN\TIMECONVERTER.H
C:\PROGRAM FILES\MICROSOFT VISUAL STUDIO\2022\COMMUNITY\VC\TOOLS\MSVC\14.36.32532\INCLUDE\CASSERT
C:\PROGRAM FILES (X86)\WINDOWS KITS\10\INCLUDE\10.0.18362.0\UCRT\ASSERT.H
C:\PROGRAM FILES (X86)\WINDOWS KITS\10\INCLUDE\10.0.18362.0\WINRT\WRL.H
C:\PROGRAM FILES (X86)\WINDOWS KITS\10\INCLUDE\10.0.18362.0\WINRT\WRL\CLIENT.H
C:\PROGRAM FILES (X86)\WINDOWS KITS\10\INCLUDE\10.0.18362.0\WINRT\WEAKREFERENCE.H
C:\PROGRAM FILES (X86)\WINDOWS KITS\10\INCLUDE\10.0.18362.0\WINRT\INSPECTABLE.H
C:\PROGRAM FILES (X86)\WINDOWS KITS\10\INCLUDE\10.0.18362.0\WINRT\ROAPI.H
C:\PROGRAM FILES (X86)\WINDOWS KITS\10\INCLUDE\10.0.18362.0\WINRT\ACTIVATION.H
C:\PROGRAM FILES (X86)\WINDOWS KITS\10\INCLUDE\10.0.18362.0\WINRT\WRL\DEF.H
C:\PROGRAM FILES (X86)\WINDOWS KITS\10\INCLUDE\10.0.18362.0\WINRT\WRL\INTERNAL.H
C:\PROGRAM FILES (X86)\WINDOWS KITS\10\INCLUDE\10.0.18362.0\SHARED\PSHPACK8.H
C:\PROGRAM FILES (X86)\WINDOWS KITS\10\INCLUDE\10.0.18362.0\SHARED\POPPACK.H
C:\PROGRAM FILES (X86)\WINDOWS KITS\10\INCLUDE\10.0.18362.0\WINRT\WRL\IMPLEMENTS.H
C:\PROGRAM FILES (X86)\WINDOWS KITS\10\INCLUDE\10.0.18362.0\WINRT\WINSTRING.H
C:\PROGRAM FILES (X86)\WINDOWS KITS\10\INCLUDE\10.0.18362.0\WINRT\WRL\MODULE.H
C:\PROGRAM FILES (X86)\WINDOWS KITS\10\INCLUDE\10.0.18362.0\WINRT\WRL\FTM.H
C:\PROGRAM FILES (X86)\WINDOWS KITS\10\INCLUDE\10.0.18362.0\WINRT\WRL\WRAPPERS\COREWRAPPERS.H
C:\PROGRAM FILES (X86)\WINDOWS KITS\10\INCLUDE\10.0.18362.0\SHARED\INTSAFE.H
C:\PROGRAM FILES (X86)\WINDOWS KITS\10\INCLUDE\10.0.18362.0\WINRT\WRL\EVENT.H
C:\PROGRAM FILES (X86)\WINDOWS KITS\10\INCLUDE\10.0.18362.0\WINRT\EVENTTOKEN.H
C:\PROGRAM FILES\MICROSOFT VISUAL STUDIO\2022\COMMUNITY\VC\TOOLS\MSVC\14.36.32532\INCLUDE\IOSTREAM
C:\PROGRAM FILES\MICROSOFT VISUAL STUDIO\2022\COMMUNITY\VC\TOOLS\MSVC\14.36.32532\INCLUDE\ISTREAM
C:\PROGRAM FILES\MICROSOFT VISUAL STUDIO\2022\COMMUNITY\VC\TOOLS\MSVC\14.36.32532\INCLUDE\OSTREAM
C:\PROGRAM FILES\MICROSOFT VISUAL STUDIO\2022\COMMUNITY\VC\TOOLS\MSVC\14.36.32532\INCLUDE\IOS
C:\PROGRAM FILES\MICROSOFT VISUAL STUDIO\2022\COMMUNITY\VC\TOOLS\MSVC\14.36.32532\INCLUDE\XLOCNUM
C:\PROGRAM FILES\MICROSOFT VISUAL STUDIO\2022\COMMUNITY\VC\TOOLS\MSVC\14.36.32532\INCLUDE\STREAMBUF
C:\PROGRAM FILES\MICROSOFT VISUAL STUDIO\2022\COMMUNITY\VC\TOOLS\MSVC\14.36.32532\INCLUDE\XIOSBASE
C:\PROGRAM FILES (X86)\WINDOWS KITS\10\INCLUDE\10.0.18362.0\UCRT\SHARE.H
C:\PROGRAM FILES\MICROSOFT VISUAL STUDIO\2022\COMMUNITY\VC\TOOLS\MSVC\14.36.32532\INCLUDE\XLOCALE
C:\PROGRAM FILES\MICROSOFT VISUAL STUDIO\2022\COMMUNITY\VC\TOOLS\MSVC\14.36.32532\INCLUDE\XFACET
C:\PROGRAM FILES\MICROSOFT VISUAL STUDIO\2022\COMMUNITY\VC\TOOLS\MSVC\14.36.32532\INCLUDE\XLOCINFO
C:\PROGRAM FILES\MICROSOFT VISUAL STUDIO\2022\COMMUNITY\VC\TOOLS\MSVC\14.36.32532\INCLUDE\__MSVC_XLOCINFO_TYPES.HPP
C:\PROGRAM FILES\MICROSOFT VISUAL STUDIO\2022\COMMUNITY\VC\TOOLS\MSVC\14.36.32532\INCLUDE\CLOCALE
C:\PROGRAM FILES (X86)\WINDOWS KITS\10\INCLUDE\10.0.18362.0\UCRT\LOCALE.H
C:\PROGRAM FILES\MICROSOFT VISUAL STUDIO\2022\COMMUNITY\VC\TOOLS\MSVC\14.36.32532\INCLUDE\SSTREAM
C:\PROGRAM FILES\MICROSOFT VISUAL STUDIO\2022\COMMUNITY\VC\TOOLS\MSVC\14.36.32532\INCLUDE\MUTEX
C:\PROGRAM FILES\MICROSOFT VISUAL STUDIO\2022\COMMUNITY\VC\TOOLS\MSVC\14.36.32532\INCLUDE\FUTURE
C:\PROGRAM FILES\MICROSOFT VISUAL STUDIO\2022\COMMUNITY\VC\TOOLS\MSVC\14.36.32532\INCLUDE\EXPERIMENTAL\RESUMABLE
C:\PROGRAM FILES\MICROSOFT VISUAL STUDIO\2022\COMMUNITY\VC\TOOLS\MSVC\14.36.32532\INCLUDE\CONDITION_VARIABLE
C:\PROGRAM FILES\MICROSOFT VISUAL STUDIO\2022\COMMUNITY\VC\TOOLS\MSVC\14.36.32532\INCLUDE\FUNCTIONAL
C:\PROGRAM FILES\MICROSOFT VISUAL STUDIO\2022\COMMUNITY\VC\TOOLS\MSVC\14.36.32532\INCLUDE\PPLTASKS.H
C:\PROGRAM FILES\MICROSOFT VISUAL STUDIO\2022\COMMUNITY\VC\TOOLS\MSVC\14.36.32532\INCLUDE\PPLWIN.H
C:\PROGRAM FILES\MICROSOFT VISUAL STUDIO\2022\COMMUNITY\VC\TOOLS\MSVC\14.36.32532\INCLUDE\PPLINTERFACE.H
C:\PROGRAM FILES\MICROSOFT VISUAL STUDIO\2022\COMMUNITY\VC\TOOLS\MSVC\14.36.32532\INCLUDE\PPLTASKSCHEDULER.H
C:\PROGRAM FILES\MICROSOFT VISUAL STUDIO\2022\COMMUNITY\VC\TOOLS\MSVC\14.36.32532\INCLUDE\PPLCANCELLATION_TOKEN.H
C:\USERS\USER\DOCUMENTS\GITHUB\RMUNITY\HOLOLENS2-RESEARCHMODE-UNITY\HL2UNITYPLUGIN\GENERATED FILES\WINRT\WINDOWS.PERCEPTION.SPATIAL.H
C:\USERS\USER\DOCUMENTS\GITHUB\RMUNITY\HOLOLENS2-RESEARCHMODE-UNITY\HL2UNITYPLUGIN\GENERATED FILES\WINRT\WINDOWS.PERCEPTION.H
C:\USERS\USER\DOCUMENTS\GITHUB\RMUNITY\HOLOLENS2-RESEARCHMODE-UNITY\HL2UNITYPLUGIN\GENERATED FILES\WINRT\IMPL\WINDOWS.PERCEPTION.2.H
C:\USERS\USER\DOCUMENTS\GITHUB\RMUNITY\HOLOLENS2-RESEARCHMODE-UNITY\HL2UNITYPLUGIN\GENERATED FILES\WINRT\IMPL\WINDOWS.PERCEPTION.1.H
C:\USERS\USER\DOCUMENTS\GITHUB\RMUNITY\HOLOLENS2-RESEARCHMODE-UNITY\HL2UNITYPLUGIN\GENERATED FILES\WINRT\IMPL\WINDOWS.PERCEPTION.0.H
C:\USERS\USER\DOCUMENTS\GITHUB\RMUNITY\HOLOLENS2-RESEARCHMODE-UNITY\HL2UNITYPLUGIN\GENERATED FILES\WINRT\WINDOWS.PERCEPTION.SPATIAL.PREVIEW.H
C:\USERS\USER\DOCUMENTS\GITHUB\RMUNITY\HOLOLENS2-RESEARCHMODE-UNITY\HL2UNITYPLUGIN\GENERATED FILES\WINRT\IMPL\WINDOWS.PERCEPTION.SPATIAL.PREVIEW.2.H
C:\USERS\USER\DOCUMENTS\GITHUB\RMUNITY\HOLOLENS2-RESEARCHMODE-UNITY\HL2UNITYPLUGIN\GENERATED FILES\WINRT\IMPL\WINDOWS.PERCEPTION.SPATIAL.PREVIEW.1.H
C:\USERS\USER\DOCUMENTS\GITHUB\RMUNITY\HOLOLENS2-RESEARCHMODE-UNITY\HL2UNITYPLUGIN\GENERATED FILES\WINRT\IMPL\WINDOWS.PERCEPTION.SPATIAL.PREVIEW.0.H
C:\USERS\USER\DOCUMENTS\GITHUB\RMUNITY\HOLOLENS2-RESEARCHMODE-UNITY\HL2UNITYPLUGIN\GENERATED FILES\HL2RESEARCHMODE.G.CPP
