ply
format ascii 1.0
comment Generated by Floating Hands
element vertex 2045
property double x
property double y
property double z
property uchar red
property uchar green
property uchar blue
end_header
0.02725012 0.02785152 0.4653317 0 0 0
0.02082088 0.02918603 0.4362566 0 0 0
0.10531 0.01760092 0.4491045 0 0 0
0.1085818 0.01708081 0.4513683 0 0 0
0.1241631 0.01401723 0.4677683 205 205 205
0.01687557 0.02810838 0.4400666 0 0 0
0.0244827 0.02908714 0.420202 0 0 0
0.04246093 0.01872641 0.4881591 0 0 0
0.09868534 0.02014066 0.4209545 0 0 0
0.104123 0.01951101 0.4226707 0 0 0
0.106746 0.01927581 0.4230147 0 0 0
0.008821465 0.02426789 0.4735476 0 0 0
0.01420539 0.02714584 0.4408749 0 0 0
0.03134369 0.02680015 0.4199198 0 0 0
0.09940559 0.01303963 0.4673216 205 205 205
0.09953626 0.02024631 0.4093496 0 0 0
0.1108218 0.01930368 0.4104184 0 0 0
0.006614803 0.02467059 0.4613822 0 0 0
0.02195461 0.02764035 0.4149719 0 0 0
0.03118062 0.02583734 0.4177914 0 0 0
0.0935411 0.01570035 0.4390113 205 205 205
0.09215874 0.01966631 0.4089057 0 0 0
0.09307916 0.01974578 0.4076781 0 0 0
0.1002604 0.01979611 0.4028576 0 0 0
0.1016217 0.01960679 0.4035252 0 0 0
0.1259497 0.01710509 0.4107266 0 0 0
0.1347806 0.01520277 0.4213023 205 205 205
0.1485122 0.01249241 0.4363254 205 205 205
0.001994497 0.02326735 0.467985 0 0 0
0.008089174 0.02648973 0.4334488 0 0 0
0.01108476 0.02731192 0.4226199 0 0 0
0.02988409 0.02481489 0.4176793 0 0 0
0.0919783 0.01460462 0.4381344 205 205 205
0.09769519 0.01885258 0.4023108 0 0 0
0.1021453 0.01866672 0.4011584 0 0 0
0.1054728 0.01854904 0.4002519 0 0 0
0.1068442 0.01836561 0.4008947 0 0 0
0.1118174 0.01851846 0.3973832 0 0 0
0.1140105 0.01847537 0.3967131 0 0 0
0.1151053 0.01845696 0.3963721 0 0 0
0.1284933 0.01674213 0.4033936 0 0 0
0.1325299 0.01645721 0.4040578 0 0 0
0.1431114 0.01443687 0.414893 205 205 205
0.02052691 0.02546519 0.4146805 0 0 0
0.02282413 0.02508823 0.4146739 0 0 0
0.0251222 0.0247193 0.4146504 0 0 0
0.02742351 0.024103 0.4165936 0 0 0
0.08877223 0.01648909 0.4163772 0 0 0
0.09195237 0.01726006 0.4085873 0 0 0
0.1062228 0.01748299 0.3988285 0 0 0
0.1073259 0.0174501 0.3985152 0 0 0
0.124383 0.01689925 0.3952084 0 0 0
0.1289868 0.01629368 0.3977808 0 0 0
0.008731882 0.0259294 0.4172808 0 0 0
0.01225315 0.02542304 0.4164009 0 0 0
0.01460346 0.02513934 0.4154623 0 0 0
0.01693995 0.02486627 0.4145062 0 0 0
0.03425626 0.02173435 0.4172031 0 0 0
0.08768679 0.01518264 0.4174243 205 205 205
0.08842623 0.01626022 0.4091833 0 0 0
0.09813725 0.01674796 0.3997866 0 0 0
0.1127354 0.01613858 0.3967234 0 0 0
0.1154303 0.01639752 0.3938158 0 0 0
0.126482 0.01571689 0.3942783 0 0 0
-0.01416429 0.01947827 0.4862973 0 0 0
0.007489509 0.02508097 0.4160885 0 0 0
0.008643129 0.02486734 0.4161338 0 0 0
0.0144995 0.02408641 0.4143144 0 0 0
0.02599053 0.02203937 0.4153101 0 0 0
0.03179469 0.02088045 0.417134 0 0 0
0.04169092 0.01771769 0.4295142 0 0 0
0.04364649 0.01541765 0.4442607 205 205 205
0.1199938 0.01502375 0.393172 0 0 0
0.0002503416 0.02497765 0.417545 0 0 0
0.01316014 0.02298069 0.41512 0 0 0
0.01900433 0.02238935 0.4122241 0 0 0
0.04127924 0.01734664 0.4234096 0 0 0
0.08630756 0.01368426 0.4112621 205 205 205
0.08781005 0.01418256 0.406905 205 205 205
0.09528655 0.0140684 0.4031577 205 205 205
0.09817527 0.01423892 0.4004039 205 205 205
0.1125517 0.01378517 0.3963786 205 205 205
0.1296386 0.0138764 0.3895822 205 205 205
0.1346069 0.01464481 0.3834652 0 0 0
0.1621239 0.005815011 0.4308419 205 205 205
-0.01139241 0.02337621 0.4353848 0 0 0
-0.006330743 0.02421773 0.4228809 0 0 0
0.0003583511 0.02417523 0.4144164 0 0 0
0.01535744 0.02153316 0.4140066 0 0 0
0.04404698 0.0142993 0.4329389 205 205 205
0.08813316 0.006745082 0.4479236 205 205 205
0.0888367 0.01292277 0.4064777 205 205 205
0.0901786 0.01269025 0.4071891 205 205 205
0.09266794 0.01239616 0.4076319 205 205 205
0.1216727 0.01284099 0.3911529 205 205 205
-0.02274372 0.01895858 0.4709576 0 0 0
-0.00189997 0.02372076 0.4121223 0 0 0
0.001437726 0.02290804 0.4133308 0 0 0
0.002583125 0.02268454 0.4133962 0 0 0
0.006022247 0.02202595 0.413567 0 0 0
0.02328052 0.0191501 0.4128598 0 0 0
0.0336404 0.01741095 0.4135617 0 0 0
0.04558073 0.01163637 0.4405492 205 205 205
0.08414416 0.01109217 0.4133085 205 205 205
0.0885244 0.01190231 0.4053301 205 205 205
0.09234555 0.01136836 0.4064851 205 205 205
0.1065825 0.01174023 0.3966964 205 205 205
0.1101609 0.01148247 0.3966793 205 205 205
0.1109821 0.01163043 0.3954054 205 205 205
0.1120792 0.01160823 0.3950727 205 205 205
0.1166399 0.01204668 0.3905385 205 205 205
0.1252395 0.01202838 0.3876089 205 205 205
0.1412269 0.01180125 0.3846165 205 205 205
-0.0009134685 0.02232783 0.4120291 0 0 0
0.0002276684 0.02210061 0.4121025 0 0 0
0.002511492 0.02165218 0.4122365 0 0 0
0.003576964 0.02129318 0.4132847 0 0 0
0.009315777 0.02021357 0.4135256 0 0 0
0.01271694 0.01944656 0.4146079 0 0 0
0.03119538 0.01657198 0.4134765 0 0 0
0.03699537 0.01557996 0.4141975 0 0 0
0.08520418 0.01075863 0.4068416 205 205 205
0.09337404 0.0101146 0.40603 205 205 205
0.09564637 0.009998988 0.4054851 205 205 205
0.09946098 0.01031828 0.4014815 205 205 205
0.1023166 0.01053852 0.3986895 205 205 205
0.1149753 0.0105616 0.3929242 205 205 205
0.1222563 0.01068618 0.3894804 205 205 205
0.128016 0.01107634 0.3853367 205 205 205
0.129424 0.01091312 0.3858645 205 205 205
-0.01297351 0.02302785 0.4148213 0 0 0
-0.01156974 0.02304016 0.4129718 0 0 0
0.01376589 0.01821359 0.4134625 0 0 0
0.01491683 0.0180114 0.4134808 0 0 0
0.02184551 0.01699319 0.4125137 0 0 0
0.04033119 0.01391728 0.413801 205 205 205
0.09847043 0.00900715 0.4025324 205 205 205
0.09935628 0.009138131 0.401289 205 205 205
0.1022144 0.009366193 0.3984979 205 205 205
0.1121712 0.009090491 0.3956349 205 205 205
0.1126972 0.009431057 0.3934157 205 205 205
0.1186157 0.009716562 0.3894521 205 205 205
0.1265278 0.01009428 0.3846123 205 205 205
-0.003505117 0.02046482 0.4115148 0 0 0
-0.002364066 0.02023273 0.4115961 0 0 0
0.001062323 0.01954839 0.4118146 0 0 0
0.01232229 0.01679364 0.416218 0 0 0
0.02510029 0.01400115 0.4201804 205 205 205
0.03322345 0.01387556 0.4130108 205 205 205
0.08749644 -0.002453131 0.4701161 205 205 205
0.08421028 0.008100781 0.4086217 205 205 205
0.08839311 0.00817038 0.4057174 205 205 205
0.09451258 0.007491351 0.4063258 205 205 205
0.09746859 0.007691756 0.4035755 205 205 205
0.100129 0.008096369 0.3998471 205 205 205
0.1070792 0.00768393 0.3989617 205 205 205
0.11528 0.008589588 0.3903157 205 205 205
0.1348906 0.009098526 0.3812011 205 205 205
-0.03587138 0.01184816 0.4945543 205 205 205
-0.01979512 0.02130204 0.4187089 0 0 0
-0.01290344 0.02109887 0.4115121 0 0 0
-0.004697387 0.01968332 0.4102612 0 0 0
0.003274373 0.01808872 0.4107674 0 0 0
0.01212249 0.01545721 0.4170143 205 205 205
0.02263421 0.01366209 0.4170611 205 205 205
0.04247488 0.01090132 0.4152214 205 205 205
0.0453285 0.009056062 0.4238921 205 205 205
0.09347571 0.006171391 0.4073524 205 205 205
0.1072413 0.006318292 0.3997052 205 205 205
0.1127895 0.006917646 0.3939586 205 205 205
0.1143947 0.007260642 0.3913987 205 205 205
0.1207045 0.00796411 0.3851774 205 205 205
0.1214458 0.008153751 0.3838814 205 205 205
0.1238944 0.007974036 0.3840602 205 205 205
0.1354873 0.008170501 0.3796726 205 205 205
-0.01762078 0.02095935 0.4108229 0 0 0
-0.01619657 0.0209809 0.4089952 0 0 0
-0.01506541 0.02072672 0.4091219 0 0 0
-0.0128009 0.02022432 0.4093627 0 0 0
-0.009278405 0.01963028 0.4087103 0 0 0
0.02129824 0.012502 0.4178615 205 205 205
0.02833255 0.01171559 0.4157525 205 205 205
0.05305791 -0.003569372 0.4842484 205 205 205
0.08397626 0.005716023 0.4082126 205 205 205
0.08588615 0.00594179 0.405805 205 205 205
0.1074016 0.00494602 0.4004428 205 205 205
-0.01846854 0.02048927 0.4075616 0 0 0
-0.01382233 0.01961515 0.407094 0 0 0
-0.01269677 0.01936611 0.4072113 0 0 0
-0.009437245 0.0184824 0.4085194 0 0 0
0.0007717926 0.01637693 0.4092764 0 0 0
0.004184438 0.01571118 0.4094534 0 0 0
0.006461877 0.01527737 0.4095504 205 205 205
0.03397868 0.01000679 0.4133486 205 205 205
0.03508554 0.01018928 0.4113214 205 205 205
0.04606426 0.006992703 0.4204267 205 205 205
0.08040526 0.004767767 0.4086935 205 205 205
0.08137859 0.004875925 0.4075016 205 205 205
0.08367208 0.004716972 0.4070374 205 205 205
0.08462832 0.004832617 0.4058362 205 205 205
0.08804987 0.004617395 0.4050991 205 205 205
0.0982924 0.003166775 0.4077212 205 205 205
0.1014176 0.004144205 0.4008341 205 205 205
0.109542 0.003702714 0.3995803 205 205 205
0.1106685 0.004434822 0.3951539 205 205 205
0.1191369 0.005880306 0.384205 205 205 205
-0.01160108 0.01812771 0.40615 0 0 0
-0.006087049 0.01676912 0.4076314 0 0 0
-0.004956549 0.01653347 0.4077191 0 0 0
-0.000428864 0.01561094 0.4080283 0 0 0
0.007383842 0.01374633 0.4103776 205 205 205
0.008466602 0.01336899 0.4113999 205 205 205
0.009442377 0.01266213 0.4143876 205 205 205
0.01156305 0.01157507 0.4183824 205 205 205
0.02328763 0.008874809 0.4223454 205 205 205
0.02567969 0.00866758 0.4213132 205 205 205
0.03603746 0.00921369 0.4090855 205 205 205
0.04444997 0.006848605 0.4154034 205 205 205
0.05064231 0.002380578 0.4355701 205 205 205
0.08460001 -0.00853747 0.4725214 205 205 205
0.08011979 -0.001488322 0.436451 205 205 205
0.08222445 0.003805049 0.4060926 205 205 205
0.08565201 0.003576773 0.4053797 205 205 205
0.08793345 0.003435262 0.4048839 205 205 205
0.09537584 0.001538827 0.4112171 205 205 205
0.1031805 0.002327565 0.4031599 205 205 205
0.1229608 0.004955796 0.3815942 205 205 205
0.124016 0.004963544 0.3812165 205 205 205
0.126463 0.004785368 0.3813687 205 205 205
0.1271737 0.004999337 0.380061 205 205 205
0.1365718 0.005219081 0.3763929 205 205 205
-0.02429741 0.01708517 0.4194266 0 0 0
-0.01960952 0.01876265 0.4050797 0 0 0
-0.01707367 0.01854699 0.4033948 0 0 0
-0.009389829 0.01665825 0.4051834 0 0 0
-0.007260726 0.01602161 0.4063587 0 0 0
-0.001717792 0.01469348 0.4077559 205 205 205
-0.0004925088 0.01462779 0.4068443 205 205 205
0.006155672 0.01297237 0.4091474 205 205 205
0.009345866 0.0116587 0.4131958 205 205 205
0.0160094 0.009037565 0.4211842 205 205 205
0.0207072 0.007706698 0.4241281 205 205 205
0.02311039 0.007313604 0.4240974 205 205 205
0.03138483 0.00781459 0.4140179 205 205 205
0.04419771 0.00603187 0.4132257 205 205 205
0.07866892 0.002872353 0.4065499 205 205 205
0.07964104 0.002986199 0.405364 205 205 205
0.083248 0.002546145 0.4056398 205 205 205
0.09207894 0.001253917 0.4077156 205 205 205
0.09731389 -0.0005382106 0.4145246 205 205 205
0.09944326 -0.0004476348 0.4129891 205 205 205
0.1066206 4.617721E-05 0.4070407 205 205 205
0.1090075 0.0007579668 0.4022936 205 205 205
0.1137749 0.002043212 0.3937037 205 205 205
0.1207524 0.003816787 0.3821242 205 205 205
0.1270829 0.00387036 0.3798466 205 205 205
0.1350744 0.004261748 0.3756949 205 205 205
-0.02153268 0.01728606 0.4086396 0 0 0
-0.005164528 0.01441023 0.4063328 205 205 205
-0.002807373 0.01410935 0.4055129 205 205 205
0.0169156 0.006922756 0.4249037 205 205 205
0.0216371 0.005035374 0.4307774 205 205 205
0.03578463 0.006705433 0.4096433 205 205 205
0.04038526 0.006068599 0.4093498 205 205 205
0.04504444 0.005274122 0.4099694 205 205 205
0.04986867 0.006885607 0.3976882 205 205 205
0.05302921 0.004489808 0.4081994 205 205 205
0.07854605 0.001693217 0.4063267 205 205 205
0.0878972 0.0008702372 0.4053982 205 205 205
0.0978604 -0.002381365 0.41715 205 205 205
0.1090766 -0.001438044 0.4071028 205 205 205
0.1287408 0.002984869 0.3779253 205 205 205
0.142755 0.002543418 0.3764782 205 205 205
-0.01977957 0.01665505 0.4036987 0 0 0
-0.01155859 0.01536808 0.4016296 0 0 0
0.005706257 0.01032306 0.4106905 205 205 205
0.0111974 0.00836902 0.4157694 205 205 205
0.01434751 0.006125304 0.4246648 205 205 205
0.02139232 0.002876741 0.4354593 205 205 205
0.03787128 0.005603274 0.4073234 205 205 205
0.03901431 0.0054459 0.4072482 205 205 205
0.04020106 0.005097606 0.4081492 205 205 205
0.04536891 0.006108509 0.3988807 205 205 205
0.04621447 0.006753086 0.394866 205 205 205
0.04934771 0.006748316 0.392588 205 205 205
0.05051796 0.006422392 0.3934499 205 205 205
0.05565809 0.002067797 0.4125912 205 205 205
0.07687056 -0.001679637 0.4183304 205 205 205
0.07677266 -0.0001304755 0.410391 205 205 205
0.08282162 0.0003955095 0.404227 205 205 205
0.09226222 -0.001553493 0.4091658 205 205 205
0.09406605 -0.002242882 0.4117565 205 205 205
0.1014973 -0.004989355 0.4220228 205 205 205
0.1025028 -0.003834494 0.415713 205 205 205
0.1029706 -0.003252175 0.4125604 205 205 205
0.1043911 -0.003508091 0.4131961 205 205 205
0.1095867 -0.002257548 0.404653 205 205 205
0.1110825 -0.0008591836 0.3970788 205 205 205
0.1122003 -0.000881233 0.3967407 205 205 205
0.1138555 -0.0004957276 0.3941847 205 205 205
0.1190663 0.001135695 0.3842637 205 205 205
0.1198177 0.001347165 0.3829741 205 205 205
0.1314192 0.002141606 0.3755867 205 205 205
-0.01867285 0.01542973 0.4026505 0 0 0
-0.01629855 0.01508036 0.4019329 0 0 0
-0.01269226 0.01465998 0.400334 205 205 205
-0.01158638 0.01441546 0.4004434 205 205 205
-0.009496465 0.01376486 0.401628 205 205 205
-0.002918991 0.01218557 0.4031313 205 205 205
0.003409699 0.009961455 0.4084142 205 205 205
0.006632181 0.008770636 0.4114944 205 205 205
0.01201867 0.006251469 0.4194944 205 205 205
0.03769432 0.004644508 0.4061203 205 205 205
0.03883407 0.004487386 0.4060452 205 205 205
0.04689999 0.006308304 0.3906373 205 205 205
0.07097297 -0.01252415 0.4705386 205 205 205
0.07704341 -0.006457977 0.4359091 205 205 205
0.08402789 -0.00106528 0.4047168 205 205 205
0.08805412 -0.001917621 0.4068481 205 205 205
0.1023545 -0.006088639 0.4205164 205 205 205
0.1215231 0.000438476 0.381086 205 205 205
0.125775 0.001136388 0.3764344 205 205 205
0.1288946 0.001192043 0.3752567 205 205 205
0.1316372 0.001481367 0.3731398 205 205 205
-0.02026571 0.01423991 0.40425 205 205 205
-0.01757143 0.01421582 0.4015937 205 205 205
-0.01285181 0.01354696 0.4001217 205 205 205
-0.0117455 0.01330195 0.4002308 205 205 205
0.005464563 0.008194083 0.4092675 205 205 205
0.01720229 0.0002317883 0.4389293 205 205 205
0.03644389 0.003455492 0.4069442 205 205 205
0.04271092 0.004750186 0.3956972 205 205 205
0.04555609 0.005755154 0.3885693 205 205 205
0.07451347 -0.00435155 0.4201981 205 205 205
0.08948944 -0.003606208 0.4082611 205 205 205
0.09673156 -0.006463028 0.4186049 205 205 205
0.1073092 -0.007752538 0.4199382 205 205 205
0.1087691 -0.00801313 0.4205526 205 205 205
0.1139303 -0.003045428 0.3946448 205 205 205
0.1147506 -0.002841446 0.3933645 205 205 205
0.1181048 -0.001348997 0.3850896 205 205 205
0.1298394 0.0001025242 0.3746273 205 205 205
0.1308756 0.00012748 0.3742236 205 205 205
0.1315463 0.0003732992 0.3729109 205 205 205
0.1325761 0.0004023278 0.3725014 205 205 205
0.1401362 0.0004459454 0.3704259 205 205 205
-0.008459886 0.01164087 0.3993389 205 205 205
-0.00424624 0.0103474 0.4016396 205 205 205
0.01697508 -0.001423936 0.4406379 205 205 205
0.01827345 -0.001445345 0.4396513 205 205 205
0.02715528 -0.001496247 0.4326198 205 205 205
0.02836085 0.0001020528 0.4237579 205 205 205
0.07126127 -0.00429382 0.4155241 205 205 205
0.08023468 -0.00173114 0.3979954 205 205 205
0.1030319 -0.009481397 0.4237909 205 205 205
0.1040215 -0.009311777 0.4225303 205 205 205
0.1062181 -0.009186572 0.420946 205 205 205
0.1074326 -0.009231255 0.4206206 205 205 205
0.1121358 -0.005491457 0.4010343 205 205 205
0.1159615 -0.003358907 0.3896298 205 205 205
0.1180024 -0.002484871 0.3848519 205 205 205
0.118765 -0.002263614 0.3835659 205 205 205
0.1192025 -0.001816912 0.3813566 205 205 205
0.1238642 -0.0006564934 0.3745289 205 205 205
0.1390246 -0.0007072574 0.3706282 205 205 205
-0.03740736 0.002823936 0.4641671 205 205 205
-0.02583248 0.01093036 0.4140566 205 205 205
-0.02317101 0.0121771 0.4054678 205 205 205
-0.007512268 0.01029479 0.3992093 205 205 205
0.01030037 0.002701295 0.4197451 205 205 205
0.01231524 0.0007165712 0.4276196 205 205 205
0.01925976 -0.003922563 0.4442809 205 205 205
0.03163723 0.0009983293 0.4106369 205 205 205
0.04201337 0.004207658 0.3874336 205 205 205
0.05050313 0.003367328 0.3856284 205 205 205
0.05984519 -0.001128389 0.4011919 205 205 205
0.06600818 -0.002556456 0.4042372 205 205 205
0.06815658 -0.002547253 0.4029085 205 205 205
0.06985395 -0.001868972 0.3986717 205 205 205
0.08272466 -0.003475288 0.3992062 205 205 205
0.08633411 -0.005183351 0.4054117 205 205 205
0.1178989 -0.003619562 0.3846099 205 205 205
0.1209764 -0.002018149 0.3763362 205 205 205
0.13268 -0.001325873 0.3698162 205 205 205
0.1389348 -0.001815532 0.3703899 205 205 205
-0.02350649 0.01087213 0.4062097 205 205 205
-0.01932874 0.0109493 0.4017715 205 205 205
-0.01333338 0.01021492 0.3994581 205 205 205
-0.01209234 0.01014948 0.3985921 205 205 205
-0.007670761 0.009186773 0.3989831 205 205 205
0.0006717813 0.00621349 0.4054367 205 205 205
0.005793276 0.003558764 0.4135048 205 205 205
0.02027973 -0.006441453 0.4488919 205 205 205
0.02155615 -0.007063551 0.4508289 205 205 205
0.02418845 -0.007488837 0.4507726 205 205 205
0.02683078 -0.004814353 0.4360191 205 205 205
0.03367629 0.0007505903 0.4044117 205 205 205
0.04177481 0.003556829 0.3852559 205 205 205
0.05376582 0.001491916 0.3869687 205 205 205
0.06285888 -0.002167856 0.3985319 205 205 205
0.06871615 -0.001444267 0.3916811 205 205 205
0.07223316 0.0008096182 0.3791754 205 205 205
0.08148578 -0.003267895 0.393223 205 205 205
0.103006 -0.01224305 0.4241963 205 205 205
0.1170212 -0.004980056 0.3856468 205 205 205
0.1277758 -0.002074456 0.3693854 205 205 205
0.1336087 -0.002388915 0.3691622 205 205 205
0.136028 -0.002545482 0.3692187 205 205 205
0.1410436 -0.003566323 0.3723837 205 205 205
-0.02926975 0.006956294 0.4240816 205 205 205
-0.00136941 0.006307035 0.4011688 205 205 205
0.0006015932 0.005274628 0.4042223 205 205 205
0.004465597 0.002615541 0.4132192 205 205 205
0.00556264 0.002195134 0.4142375 205 205 205
0.02400705 -0.009014302 0.4514708 205 205 205
0.02666778 -0.005864813 0.4347733 205 205 205
0.02789695 -0.003955697 0.4249543 205 205 205
0.03235662 0.000202483 0.4022739 205 205 205
0.04570038 0.002605081 0.381723 205 205 205
0.05238058 0.0009726484 0.3849233 205 205 205
0.06284827 -0.003527579 0.3992531 205 205 205
0.06509951 -0.003742997 0.398912 205 205 205
0.06609207 -0.003621165 0.3977703 205 205 205
0.06680422 -0.003042944 0.3946972 205 205 205
0.07370011 0.0002737458 0.3756666 205 205 205
0.07491018 -3.125049E-05 0.3764199 205 205 205
0.08114433 -0.002852619 0.3860615 205 205 205
0.08818607 -0.007450279 0.4034395 205 205 205
0.1060494 -0.0143133 0.4261106 205 205 205
0.112237 -0.01452878 0.4244296 205 205 205
0.113648 -0.01366112 0.419984 205 205 205
0.1140618 -0.01298877 0.4168265 205 205 205
0.1151835 -0.008191709 0.3951498 205 205 205
0.1162332 -0.007276035 0.3907324 205 205 205
0.1190008 -0.004474958 0.3775035 205 205 205
0.1204496 -0.00399405 0.3749348 205 205 205
0.1246114 -0.003225812 0.3703124 205 205 205
-0.01572553 0.008686336 0.3977944 205 205 205
-0.01130874 0.00769612 0.398232 205 205 205
0.005330347 0.0008252163 0.4149638 205 205 205
0.007430685 -0.0004297194 0.4189406 205 205 205
0.02248588 -0.01054433 0.4531707 205 205 205
0.02998836 -0.001452618 0.4060402 205 205 205
0.03107993 -0.0007606561 0.4020832 205 205 205
0.04451612 0.001678517 0.3815922 205 205 205
0.06432682 -0.003730843 0.3938372 205 205 205
0.06869454 -0.0008383255 0.3783211 205 205 205
0.0782802 -0.001772884 0.3774561 205 205 205
0.08839252 -0.007747931 0.3991168 205 205 205
0.09608914 -0.01265502 0.4172738 205 205 205
0.1096353 -0.01572802 0.4248289 205 205 205
0.113343 -0.01584275 0.4237935 205 205 205
0.1148717 -0.01402957 0.4152582 205 205 205
0.1181596 -0.005823874 0.3785353 205 205 205
0.1213906 -0.005084968 0.3743146 205 205 205
0.1320289 -0.004373997 0.368186 205 205 205
0.1376311 -0.005175861 0.3700827 205 205 205
0.140466 -0.005562504 0.3709915 205 205 205
0.1426812 -0.006225833 0.3732114 205 205 205
-0.01699107 0.007838286 0.3974378 205 205 205
-0.01368045 0.007085223 0.3977833 205 205 205
-0.009009006 0.006498436 0.3962414 205 205 205
-0.001491508 0.004477133 0.3987383 205 205 205
-0.000473511 0.00405091 0.3997758 205 205 205
0.002300261 0.001961838 0.4067691 205 205 205
0.006208875 -0.0009805362 0.4166963 205 205 205
0.009150226 -0.003932045 0.4275203 205 205 205
0.01430278 -0.01074333 0.4539435 205 205 205
0.01699494 -0.01098712 0.4529566 205 205 205
0.02091101 -0.01251244 0.456811 205 205 205
0.04656415 0.000134176 0.3821222 205 205 205
0.05221067 -0.001404304 0.3854163 205 205 205
0.05346971 -0.001984437 0.3872239 205 205 205
0.06381316 -0.004146533 0.3906943 205 205 205
0.06451416 -0.003546277 0.3876324 205 205 205
0.0675258 -0.001810594 0.3782656 205 205 205
0.07760911 -0.002122772 0.3743545 205 205 205
0.07883193 -0.002428706 0.375088 205 205 205
0.09531333 -0.01316924 0.4141532 205 205 205
0.1072082 -0.01831484 0.4311803 205 205 205
0.1092442 -0.01792723 0.4286304 205 205 205
0.1161007 -0.01648599 0.4196319 205 205 205
0.116374 -0.01364837 0.4073875 205 205 205
0.1180545 -0.006934261 0.3782803 205 205 205
0.1195239 -0.006441697 0.3757172 205 205 205
0.123388 -0.00541686 0.3701987 205 205 205
-0.02222332 0.007016395 0.4005513 205 205 205
-0.01590436 0.00667893 0.3963452 205 205 205
-0.01356385 0.006374787 0.3955994 205 205 205
-0.01149958 0.005688241 0.396779 205 205 205
-0.01026853 0.005643171 0.3959055 205 205 205
-0.004545136 0.004866961 0.3943886 205 205 205
-0.0004435958 0.003350608 0.3975809 205 205 205
0.0004844426 0.002716568 0.3995878 205 205 205
0.01542103 -0.01251446 0.4546195 205 205 205
0.01806806 -0.01318623 0.4555747 205 205 205
0.02207629 -0.01407053 0.4564829 205 205 205
0.03170313 -0.0002717565 0.3888557 205 205 205
0.04530768 -0.0005642377 0.3810158 205 205 205
0.0475648 -0.001284989 0.3827422 205 205 205
0.05207931 -0.002479954 0.3851711 205 205 205
0.06143521 -0.007060024 0.3996172 205 205 205
0.06342865 -0.004775572 0.3885155 205 205 205
0.07197793 -0.002326034 0.3732408 205 205 205
0.07609584 -0.002621611 0.3724209 205 205 205
0.1038532 -0.01877448 0.4287067 205 205 205
0.1159625 -0.01171029 0.3939906 205 205 205
0.115602 -0.010489 0.3890166 205 205 205
0.1246458 -0.005973295 0.3673658 205 205 205
0.1391039 -0.007048992 0.3678108 205 205 205
-0.02239109 0.005905358 0.4003032 205 205 205
-0.01716728 0.005837233 0.3959815 205 205 205
-0.006892161 0.004242377 0.3939849 205 205 205
0.001443127 0.001384638 0.3993908 205 205 205
0.006151516 -0.002478477 0.4122687 205 205 205
0.01141242 -0.01226901 0.4504121 205 205 205
0.01382836 -0.01404955 0.4562694 205 205 205
0.02476161 -0.01022909 0.4317456 205 205 205
0.02835488 -0.002896192 0.3975227 205 205 205
0.0627014 -0.006731347 0.3922782 205 205 205
0.07272094 -0.003200888 0.3718422 205 205 205
0.07579849 -0.003419026 0.3712237 205 205 205
0.07682315 -0.003487805 0.3710102 205 205 205
0.07925314 -0.004112376 0.3724726 205 205 205
0.08355758 -0.005779189 0.3774691 205 205 205
0.1037158 -0.02005994 0.4284036 205 205 205
0.1061342 -0.02135623 0.4327829 205 205 205
0.1185618 -0.01931089 0.4192345 205 205 205
0.1167435 -0.01461441 0.4005398 205 205 205
0.1200949 -0.007625903 0.3708122 205 205 205
0.1211265 -0.007614747 0.3704404 205 205 205
0.1248624 -0.006528276 0.3649169 205 205 205
0.1303514 -0.007420197 0.3669317 205 205 205
0.1317381 -0.007637479 0.3674194 205 205 205
0.1386177 -0.007897397 0.3666617 205 205 205
0.1487472 -0.01141282 0.3780968 205 205 205
0.1640888 -0.02002 0.4083799 205 205 205
-0.0115571 0.003904743 0.3943421 205 205 205
-0.003871626 0.002252457 0.394938 205 205 205
0.003441102 -0.0003793201 0.4002038 205 205 205
0.007222498 -0.00363994 0.4110574 205 205 205
0.01627322 -0.01629509 0.4578956 205 205 205
0.0176259 -0.01652439 0.4578823 205 205 205
0.02709015 -0.004062521 0.3982799 205 205 205
0.03340101 -0.000879048 0.3804594 205 205 205
0.0439251 -0.002301194 0.379656 205 205 205
0.04836217 -0.003534997 0.3821324 205 205 205
0.04950545 -0.003900307 0.3829823 205 205 205
0.05573166 -0.006679947 0.3910213 205 205 205
0.06013997 -0.009462064 0.4002087 205 205 205
0.06232329 -0.007350747 0.3900915 205 205 205
0.0627889 -0.006229168 0.3851169 205 205 205
0.06400651 -0.004706909 0.378054 205 205 205
0.07447924 -0.004137059 0.3702335 205 205 205
0.1048331 -0.02139717 0.4277735 205 205 205
0.1154567 -0.01101624 0.3813177 205 205 205
0.1171051 -0.009749666 0.3756602 205 205 205
0.1189573 -0.008718265 0.370918 205 205 205
0.1213821 -0.008176566 0.3679884 205 205 205
0.1237516 -0.007616762 0.3650423 205 205 205
0.1288709 -0.008278644 0.3661757 205 205 205
-0.02289547 0.003486943 0.4007591 205 205 205
-0.02017449 0.003560332 0.3981295 205 205 205
0.008287563 -0.004789775 0.4098386 205 205 205
0.009914746 -0.008132546 0.4225277 205 205 205
0.01334477 -0.01739516 0.458564 205 205 205
0.01611975 -0.01740685 0.4566051 205 205 205
0.0332406 -0.00168752 0.3792387 205 205 205
0.03426324 -0.001600998 0.3782043 205 205 205
0.04830493 -0.004838683 0.3828447 205 205 205
0.05420981 -0.006922108 0.3880043 205 205 205
0.0570049 -0.008636666 0.3935021 205 205 205
0.06253282 -0.007061399 0.3838956 205 205 205
0.07333763 -0.005097488 0.3701884 205 205 205
0.07538292 -0.005240741 0.3697735 205 205 205
0.07863674 -0.005694909 0.3700722 205 205 205
0.08479446 -0.007265964 0.3736329 205 205 205
0.1019121 -0.01960443 0.4161997 205 205 205
0.1117114 -0.02367994 0.428583 205 205 205
0.1143729 -0.01315155 0.3854267 205 205 205
0.114568 -0.01238568 0.3823156 205 205 205
0.1156332 -0.01059038 0.3748337 205 205 205
0.1301516 -0.00958232 0.3664019 205 205 205
0.1339547 -0.009992207 0.3669488 205 205 205
-0.03687813 -0.006749587 0.4489958 205 205 205
-0.02002051 0.002871272 0.3959386 205 205 205
-0.01407207 0.002224457 0.3936258 205 205 205
-0.00725136 0.001203214 0.3922548 205 205 205
0.001231792 -0.00127223 0.3956973 205 205 205
0.003284912 -0.002155521 0.3977337 205 205 205
0.01602944 -0.01804541 0.4533668 205 205 205
0.0257204 -0.003507847 0.3870984 205 205 205
0.03935456 -0.003360616 0.3775802 205 205 205
0.04035113 -0.003255154 0.3765259 205 205 205
0.04133996 -0.003146723 0.3754686 205 205 205
0.04824601 -0.006148782 0.3835511 205 205 205
0.05154633 -0.006770272 0.3841486 205 205 205
0.05407437 -0.008008463 0.3877384 205 205 205
0.06296029 -0.007225318 0.3796271 205 205 205
0.07508523 -0.006015437 0.3685689 205 205 205
0.08363204 -0.007026108 0.3686565 205 205 205
0.1141557 -0.01324366 0.3811181 205 205 205
0.1205039 -0.009800212 0.3656445 205 205 205
0.1272931 -0.01019812 0.3651421 205 205 205
0.1324588 -0.01085483 0.3662026 205 205 205
0.1352545 -0.01129967 0.3671425 205 205 205
0.1370429 -0.0117787 0.3684893 205 205 205
0.1391015 -0.01168881 0.3676192 205 205 205
-0.03707896 -0.008046461 0.448685 205 205 205
-0.02452757 0.001330236 0.4010531 205 205 205
-0.007291601 0.0003436648 0.3910251 205 205 205
-0.002935045 -0.0005763697 0.3913194 205 205 205
-0.001945167 -0.001024288 0.3923527 205 205 205
0.02213586 -0.00691459 0.3985802 205 205 205
0.03608077 -0.003968592 0.3775587 205 205 205
0.03921887 -0.00439729 0.3773235 205 205 205
0.04021633 -0.00428826 0.3762701 205 205 205
0.04125835 -0.00442478 0.3761808 205 205 205
0.04689537 -0.006583533 0.3814707 205 205 205
0.05149797 -0.00809247 0.3848462 205 205 205
0.06214597 -0.008955873 0.3824044 205 205 205
0.06753402 -0.0077165 0.3746526 205 205 205
0.1094316 -0.02542856 0.4254854 205 205 205
0.1119322 -0.02679245 0.4297982 205 205 205
0.1132019 -0.02683143 0.429444 205 205 205
0.1142474 -0.01751413 0.3929191 205 205 205
0.1131471 -0.01356163 0.3780844 205 205 205
0.1159309 -0.01144229 0.3690107 205 205 205
0.118035 -0.0106237 0.3652038 205 205 205
0.1390003 -0.01278434 0.367339 205 205 205
0.1404201 -0.01299956 0.3677798 205 205 205
0.1424774 -0.01289605 0.3668849 205 205 205
-0.01893427 0.0008566331 0.3936062 205 205 205
-0.01534753 0.0005260538 0.3920253 205 205 205
-0.0105821 0.0002025452 0.3895325 205 205 205
-0.00937136 0.0001850363 0.3886564 205 205 205
0.008554187 -0.005426521 0.3973548 205 205 205
0.02094077 -0.006873166 0.394446 205 205 205
0.03486798 -0.004607036 0.3764017 205 205 205
0.03899424 -0.004930112 0.375129 205 205 205
0.04107148 -0.005204583 0.3749544 205 205 205
0.05417688 -0.01120673 0.391041 205 205 205
0.07466771 -0.007803132 0.3671016 205 205 205
0.1022343 -0.02022725 0.4031166 205 205 205
0.1168643 -0.02823019 0.428021 205 205 205
0.1162515 -0.02400422 0.4121245 205 205 205
0.1155059 -0.01224371 0.3678243 205 205 205
0.1267301 -0.0120692 0.3636968 205 205 205
0.1301301 -0.01224611 0.363387 205 205 205
0.136075 -0.01343355 0.3661552 205 205 205
0.1403179 -0.01409733 0.3674944 205 205 205
0.1425976 -0.01340453 0.3643954 205 205 205
-0.03001491 -0.00373865 0.415577 205 205 205
-0.02435011 -0.0002482826 0.3976216 205 205 205
-0.01413242 -0.0003570049 0.3899346 205 205 205
-0.01074284 -0.0008644484 0.3892653 205 205 205
0.005191191 -0.00541937 0.3950542 205 205 205
0.01446503 -0.01161749 0.4126472 205 205 205
0.01579473 -0.01085306 0.4087653 205 205 205
0.02949687 -0.004372981 0.3745015 205 205 205
0.05850752 -0.01554556 0.4008709 205 205 205
0.06269853 -0.01066569 0.3797762 205 205 205
0.07080203 -0.009065321 0.3695475 205 205 205
0.08123718 -0.008720647 0.3633972 205 205 205
0.08691636 -0.009785359 0.3649959 205 205 205
0.1150468 -0.02655429 0.4171444 205 205 205
0.1141009 -0.02439735 0.4093956 205 205 205
0.1114311 -0.01439813 0.3729369 205 205 205
0.1150805 -0.01303621 0.3666358 205 205 205
0.121203 -0.01297187 0.3644455 205 205 205
0.1245954 -0.01318421 0.3641991 205 205 205
0.1348285 -0.01370431 0.3632173 205 205 205
0.14164 -0.01541364 0.3676369 205 205 205
0.1416916 -0.01395147 0.3623587 205 205 205
-0.01567554 -0.001625235 0.3914832 205 205 205
-0.01306945 -0.001445338 0.3888016 205 205 205
-0.008736032 -0.002407067 0.3891706 205 205 205
-0.005365783 -0.00287578 0.3884398 205 205 205
-0.004282893 -0.003104517 0.3885101 205 205 205
0.002895737 -0.005839698 0.393731 205 205 205
0.006071329 -0.006963572 0.3957741 205 205 205
0.02096647 -0.005322915 0.3793626 205 205 205
0.02418095 -0.00458502 0.3744426 205 205 205
0.02831233 -0.004727954 0.3723511 205 205 205
0.03142856 -0.005701589 0.3741292 205 205 205
0.05597069 -0.016175 0.399922 205 205 205
0.05951031 -0.01680277 0.4004124 205 205 205
0.06877815 -0.01020273 0.3706146 205 205 205
0.07442555 -0.009843071 0.3665681 205 205 205
0.08735918 -0.01030347 0.3626004 205 205 205
0.09450024 -0.01404659 0.3736471 205 205 205
0.1066231 -0.02274271 0.4012048 205 205 205
0.1101206 -0.02526081 0.4092003 205 205 205
0.1098789 -0.01711171 0.3791648 205 205 205
0.1136335 -0.01382333 0.3657965 205 205 205
0.1339636 -0.01422638 0.3611642 205 205 205
0.1393273 -0.01573893 0.3651547 205 205 205
0.1411879 -0.01475633 0.3611955 205 205 205
0.1421962 -0.01469949 0.360747 205 205 205
-0.02145997 -0.001640368 0.3915721 205 205 205
-0.01802344 -0.002192049 0.3909802 205 205 205
-0.008771381 -0.003239286 0.3879301 205 205 205
0.01981984 -0.005676473 0.3771757 205 205 205
0.02196871 -0.005264581 0.374232 205 205 205
0.02816863 -0.005481003 0.3711187 205 205 205
0.03024123 -0.006307863 0.3729507 205 205 205
0.0386268 -0.00826876 0.3752926 205 205 205
0.05449526 -0.01664557 0.397851 205 205 205
0.06125629 -0.0147536 0.3871886 205 205 205
0.07879436 -0.01035177 0.3623777 205 205 205
0.08358388 -0.01034343 0.3602697 205 205 205
0.08579452 -0.01071612 0.3607126 205 205 205
0.08824639 -0.01136076 0.3620702 205 205 205
0.09245551 -0.0128742 0.3659246 205 205 205
0.1196353 -0.01482579 0.3633491 205 205 205
0.1304592 -0.01512948 0.3612359 205 205 205
0.1328506 -0.01533209 0.361294 205 205 205
0.1406837 -0.01555228 0.3600303 205 205 205
0.1408786 -0.01493942 0.3578413 205 205 205
-0.02306269 -0.002902652 0.3930776 205 205 205
-0.02037015 -0.002747558 0.390458 205 205 205
-0.0158564 -0.003539484 0.3899628 205 205 205
-0.01001345 -0.004061946 0.3875652 205 205 205
-0.002329401 -0.005441335 0.3871165 205 205 205
0.02079027 -0.006107545 0.3739841 205 205 205
0.02391977 -0.006099893 0.3719723 205 205 205
0.0548092 -0.01913203 0.4023363 205 205 205
0.05644495 -0.02062318 0.4069732 205 205 205
0.06003422 -0.01836918 0.3967726 205 205 205
0.06071042 -0.01738288 0.3927872 205 205 205
0.06135567 -0.01639142 0.3888024 205 205 205
0.06362642 -0.01449226 0.380662 205 205 205
0.0731624 -0.01180732 0.3662274 205 205 205
0.07603008 -0.01173271 0.364649 205 205 205
0.08402667 -0.01082857 0.3578836 205 205 205
0.1079298 -0.01760718 0.3730727 205 205 205
0.1086939 -0.01733382 0.3718252 205 205 205
0.1259499 -0.01603397 0.3616606 205 205 205
-0.008966845 -0.005117852 0.3864048 205 205 205
-0.001306382 -0.006476185 0.385926 205 205 205
0.001841541 -0.007380023 0.3870395 205 205 205
0.006985742 -0.009444747 0.3910711 205 205 205
0.02788575 -0.00722531 0.3696125 205 205 205
0.05332728 -0.01959278 0.4002546 205 205 205
0.05846113 -0.02468142 0.4160557 205 205 205
0.06168883 -0.01860111 0.3923137 205 205 205
0.08135489 -0.01224448 0.3601969 205 205 205
0.09326918 -0.01385647 0.3610976 205 205 205
0.1057016 -0.01865481 0.3734287 205 205 205
0.109332 -0.01812677 0.3702786 205 205 205
0.1143874 -0.01611118 0.3615107 205 205 205
0.1344064 -0.01798793 0.3620429 205 205 205
0.137982 -0.0190426 0.3646941 205 205 205
0.1410572 -0.01888766 0.3633664 205 205 205
0.1422547 -0.01665502 0.3554865 205 205 205
-0.02503057 -0.005488888 0.3952329 205 205 205
-0.01836438 -0.005164486 0.3891655 205 205 205
-0.01712208 -0.005181336 0.3883201 205 205 205
-0.00447361 -0.006359791 0.3835305 205 205 205
-0.003404087 -0.006585045 0.383595 205 205 205
-0.002333994 -0.006808306 0.3836556 205 205 205
0.0008792819 -0.00746625 0.3838143 205 205 205
0.003933622 -0.008613659 0.385866 205 205 205
0.01048468 -0.009590844 0.3850463 205 205 205
0.02262304 -0.007678995 0.3704885 205 205 205
0.0236605 -0.007579574 0.3694942 205 205 205
0.02468156 -0.007743575 0.3694603 205 205 205
0.02877361 -0.008649472 0.3702513 205 205 205
0.03085299 -0.009497819 0.3720684 205 205 205
0.0319043 -0.009920805 0.3729709 205 205 205
0.0394337 -0.0125825 0.3782087 205 205 205
0.04530981 -0.01575555 0.3863408 205 205 205
0.04667564 -0.01699952 0.39006 205 205 205
0.06469567 -0.01728375 0.3817943 205 205 205
0.06536574 -0.01652566 0.3787654 205 205 205
0.06692486 -0.01556784 0.3746032 205 205 205
0.07541865 -0.01317888 0.3622058 205 205 205
0.0818143 -0.01271663 0.3578106 205 205 205
0.1068388 -0.01888214 0.3697293 205 205 205
0.1119419 -0.01686885 0.3610101 205 205 205
0.1169723 -0.0168287 0.3592428 205 205 205
0.1206543 -0.01736332 0.3599291 205 205 205
0.1431966 -0.01921579 0.359966 205 205 205
0.001884324 -0.008471208 0.3826067 205 205 205
0.003858498 -0.009409962 0.3846103 205 205 205
0.01050761 -0.009857823 0.3818632 205 205 205
0.01414342 -0.008066378 0.3732117 205 205 205
0.01517825 -0.008250612 0.3732103 205 205 205
0.01937729 -0.008433896 0.3712417 205 205 205
0.02556687 -0.008631689 0.3681808 205 205 205
0.03282159 -0.01136053 0.3735833 205 205 205
0.0675497 -0.01611885 0.3722267 205 205 205
0.08268447 -0.01375686 0.3572889 205 205 205
0.09253766 -0.01414448 0.3547086 205 205 205
0.1051155 -0.01933978 0.3679242 205 205 205
0.1058682 -0.01905684 0.3666879 205 205 205
0.1108179 -0.01790577 0.3610555 205 205 205
-0.006809338 -0.007733032 0.3818493 205 205 205
-0.005744102 -0.007962252 0.3819208 205 205 205
0.01399567 -0.009073549 0.3729263 205 205 205
0.01507528 -0.008989864 0.3719625 205 205 205
0.03479115 -0.01295467 0.3741129 205 205 205
0.04827024 -0.0224483 0.3998356 205 205 205
0.06785993 -0.01803194 0.3747627 205 205 205
0.0733312 -0.01534184 0.3629948 205 205 205
0.07416435 -0.01511479 0.3618451 205 205 205
0.08058402 -0.014645 0.3574771 205 205 205
0.08432282 -0.01454184 0.3555847 205 205 205
0.09713428 -0.01613116 0.3560429 205 205 205
0.1007426 -0.0179659 0.3609386 205 205 205
0.1051825 -0.01950703 0.3645602 205 205 205
0.1160927 -0.01829714 0.3568512 205 205 205
0.1187528 -0.01886504 0.3579119 205 205 205
0.1244494 -0.01934879 0.3577955 205 205 205
0.1312979 -0.02067313 0.3602019 205 205 205
0.1368805 -0.0216892 0.3620109 205 205 205
0.1433887 -0.02165458 0.360206 205 205 205
-0.02391261 -0.008283527 0.3915988 205 205 205
-0.0212083 -0.008078163 0.3889915 205 205 205
-0.003550734 -0.008932989 0.3798369 205 205 205
0.01281223 -0.009892501 0.3726351 205 205 205
0.02011565 -0.01060912 0.3706493 205 205 205
0.02116684 -0.01050513 0.3696646 205 205 205
0.02323244 -0.01056476 0.3686457 205 205 205
0.02630178 -0.01077461 0.3675711 205 205 205
0.03149429 -0.01323953 0.3730645 205 205 205
0.03572604 -0.0144048 0.3746998 205 205 205
0.037944 -0.01554915 0.3774087 205 205 205
0.07067075 -0.04063452 0.4466012 205 205 205
0.06856714 -0.03278744 0.4208188 205 205 205
0.06726034 -0.02472435 0.3939278 205 205 205
0.09252752 -0.01524145 0.3510963 205 205 205
0.1106712 -0.0190594 0.3574013 205 205 205
0.123985 -0.02008421 0.356602 205 205 205
0.1253393 -0.02035748 0.3570963 205 205 205
0.1266996 -0.02062841 0.3575843 205 205 205
0.1284292 -0.02119942 0.3589472 205 205 205
0.132199 -0.02168847 0.3594724 205 205 205
-0.01871278 -0.008905624 0.3860599 205 205 205
-0.0160908 -0.008652525 0.3834138 205 205 205
-0.01501868 -0.008900999 0.3835166 205 205 205
-0.01138656 -0.008862796 0.3809319 205 205 205
-0.001588576 -0.01040426 0.3796528 205 205 205
0.002570179 -0.01153452 0.3807949 205 205 205
0.02615614 -0.01204691 0.3682402 205 205 205
0.04547064 -0.02354215 0.3965587 205 205 205
0.07013027 -0.01916283 0.3697942 205 205 205
0.0715491 -0.01810928 0.3656312 205 205 205
0.07240412 -0.01788018 0.3644868 205 205 205
0.07574225 -0.01693853 0.3598895 205 205 205
0.07674455 -0.01700056 0.3596694 205 205 205
0.08034032 -0.01661968 0.3568929 205 205 205
0.1135491 -0.02005997 0.3560566 205 205 205
0.1286792 -0.0225531 0.3595118 205 205 205
0.1415311 -0.02422345 0.3613353 205 205 205
0.1425536 -0.02416409 0.3608821 205 205 205
0.1456112 -0.02397294 0.3595012 205 205 205
-0.03054745 -0.01359386 0.4057676 205 205 205
-0.02280971 -0.01018898 0.3892029 205 205 205
-0.0174839 -0.009698411 0.3839563 205 205 205
-0.008355375 -0.01060325 0.3808758 205 205 205
0.0004721359 -0.01159789 0.3784904 205 205 205
0.009212186 -0.01215287 0.3748951 205 205 205
0.01669673 -0.01235709 0.3710702 205 205 205
0.02194096 -0.01209679 0.3671332 205 205 205
0.02498976 -0.01287723 0.3679872 205 205 205
0.0290976 -0.01408852 0.369712 205 205 205
0.04023961 -0.02083684 0.3861628 205 205 205
0.07045952 -0.02520608 0.3858686 205 205 205
0.07479334 -0.01817406 0.3607411 205 205 205
0.08525411 -0.0166478 0.3514328 205 205 205
0.08645572 -0.01699652 0.3521029 205 205 205
0.09107517 -0.01685324 0.3498657 205 205 205
0.09520207 -0.01726144 0.3496669 205 205 205
0.1047042 -0.02139077 0.3596761 205 205 205
0.107137 -0.02078686 0.3568904 205 205 205
0.1111268 -0.02078183 0.3555448 205 205 205
0.1264734 -0.02270733 0.3569542 205 205 205
0.145087 -0.02473856 0.3583154 205 205 205
-0.01519801 -0.01071904 0.3819487 205 205 205
-0.01078109 -0.01142789 0.3813629 205 205 205
0.01252635 -0.01205558 0.3688704 205 205 205
0.04527757 -0.03219854 0.4169613 205 205 205
0.07186961 -0.02314843 0.3745933 205 205 205
0.07211076 -0.02167843 0.3697003 205 205 205
0.07668012 -0.01929577 0.3599979 205 205 205
0.07849687 -0.01910287 0.3586152 205 205 205
0.08416088 -0.01757576 0.3513847 205 205 205
0.08684576 -0.01737976 0.3497058 205 205 205
0.09756023 -0.0189 0.3506091 205 205 205
0.1189597 -0.02264855 0.3554073 205 205 205
0.1199571 -0.02262729 0.3550341 205 205 205
0.1267172 -0.0240584 0.3575124 205 205 205
-0.006425776 -0.01285601 0.3794462 205 205 205
-0.001854686 -0.01293115 0.3768212 205 205 205
0.001402357 -0.01330183 0.3760048 205 205 205
0.004477173 -0.01421086 0.3770663 205 205 205
0.01438013 -0.0137016 0.3695244 205 205 205
0.019585 -0.01401641 0.3675438 205 205 205
0.02060776 -0.0141883 0.3675194 205 205 205
0.0226703 -0.01423411 0.3665037 205 205 205
0.02572412 -0.01501854 0.3673434 205 205 205
0.03090068 -0.01698756 0.3708958 205 205 205
0.0319583 -0.01743769 0.3717851 205 205 205
0.03633302 -0.01982851 0.3772072 205 205 205
0.04143066 -0.02553087 0.393028 205 205 205
0.07937188 -0.02014904 0.3580768 205 205 205
0.08672617 -0.01834372 0.3494056 205 205 205
0.09180667 -0.01881715 0.3489932 205 205 205
0.1053142 -0.02217143 0.3547858 205 205 205
0.1105816 -0.02248777 0.3540202 205 205 205
0.115517 -0.02340374 0.3552956 205 205 205
0.1188432 -0.02367039 0.3550872 205 205 205
0.120181 -0.02396698 0.355599 205 205 205
0.126601 -0.02509799 0.3571863 205 205 205
0.1279707 -0.02538074 0.3576619 205 205 205
0.1299896 -0.02530478 0.3568465 205 205 205
-0.02827021 -0.01490833 0.3963754 205 205 205
-0.02222643 -0.0136375 0.3883685 205 205 205
-0.01567853 -0.01305526 0.3822712 205 205 205
-0.003066842 -0.01372642 0.3764547 205 205 205
0.00561317 -0.01458142 0.3739135 205 205 205
0.01217239 -0.01432108 0.3692193 205 205 205
0.03621808 -0.02116317 0.3778383 205 205 205
0.07824324 -0.02108152 0.3579963 205 205 205
0.08161871 -0.02033442 0.3542793 205 205 205
0.08563703 -0.01926927 0.3493572 205 205 205
0.0982976 -0.02087146 0.3496978 205 205 205
0.1016452 -0.02250703 0.3536153 205 205 205
0.1081729 -0.0231791 0.3534816 205 205 205
0.1130811 -0.02412276 0.3547937 205 205 205
0.1167257 -0.02472757 0.3554993 205 205 205
0.1336504 -0.02685616 0.357002 205 205 205
0.1368296 -0.02771773 0.3587407 205 205 205
0.138238 -0.02798446 0.3591661 205 205 205
-0.02273879 -0.01523254 0.3899365 205 205 205
-0.007562009 -0.01411563 0.3768382 205 205 205
0.007693911 -0.01541132 0.3717325 205 205 205
0.015066 -0.01616238 0.3698547 205 205 205
0.01929061 -0.01598709 0.3669288 205 205 205
0.03382793 -0.02067173 0.3738666 205 205 205
0.07991766 -0.02185597 0.356291 205 205 205
0.08149347 -0.02131056 0.3539675 205 205 205
0.08551542 -0.02023048 0.3490497 205 205 205
0.08648444 -0.02026751 0.3487943 205 205 205
0.09253522 -0.02077351 0.3481023 205 205 205
0.1047825 -0.02385015 0.3532472 205 205 205
0.1189427 -0.02603525 0.3553193 205 205 205
0.1212885 -0.02631497 0.3554479 205 205 205
0.1232936 -0.02626062 0.3546786 205 205 205
0.137098 -0.02909884 0.3592632 205 205 205
0.1399274 -0.02963641 0.3601021 205 205 205
0.1413505 -0.02990124 0.3605115 205 205 205
-0.01236342 -0.01502756 0.3790545 205 205 205
-0.006545339 -0.01507688 0.3756351 205 205 205
0.004339754 -0.01609549 0.3723003 205 205 205
0.01599063 -0.01703876 0.3685749 205 205 205
0.0252804 -0.01828275 0.3673641 205 205 205
0.02837594 -0.0193755 0.3691162 205 205 205
0.03601502 -0.02416118 0.3800314 205 205 205
0.03720521 -0.02524442 0.3827929 205 205 205
0.08179258 -0.04872954 0.4348198 205 205 205
0.07978996 -0.0228381 0.3559731 205 205 205
0.08539294 -0.02119034 0.3487386 205 205 205
0.08636229 -0.02122735 0.3484831 205 205 205
0.09144654 -0.02171172 0.3480662 205 205 205
0.09637221 -0.02311808 0.3505648 205 205 205
0.09833011 -0.02315112 0.3499723 205 205 205
0.1043705 -0.02451694 0.3520248 205 205 205
0.1138389 -0.02613431 0.3537858 205 205 205
0.1145114 -0.02579152 0.3525421 205 205 205
0.1184877 -0.02672713 0.3541036 205 205 205
0.1245289 -0.02758318 0.3548304 205 205 205
0.1296366 -0.02842414 0.355841 205 205 205
0.1334147 -0.02894796 0.356323 205 205 205
-0.02712759 -0.01763395 0.3926567 205 205 205
-0.02005379 -0.01650457 0.384766 205 205 205
-0.016025 -0.01587514 0.3803463 205 205 205
-0.01480521 -0.01584281 0.3794948 205 205 205
-0.007884568 -0.01614328 0.376193 205 205 205
0.00642243 -0.01690917 0.370124 205 205 205
0.009530843 -0.01750151 0.3701693 205 205 205
0.03595722 -0.02614642 0.3825397 205 205 205
0.1017047 -0.02482867 0.3505352 205 205 205
0.1097933 -0.02617091 0.3518301 205 205 205
0.1271347 -0.02920602 0.3554417 205 205 205
0.1315329 -0.02937473 0.3546687 205 205 205
0.1378811 -0.03116248 0.3581271 205 205 205
0.1396875 -0.03176793 0.3594006 205 205 205
0.1417397 -0.03164816 0.3584978 205 205 205
0.1435699 -0.03224524 0.3597481 205 205 205
0.1464473 -0.03277057 0.3605184 205 205 205
0.150804 -0.03353795 0.3616227 205 205 205
-0.02005943 -0.01726681 0.3834829 205 205 205
-0.0188144 -0.01724364 0.3826465 205 205 205
-0.01269236 -0.01707065 0.3783961 205 205 205
-0.01148875 -0.01702479 0.3775326 205 205 205
0.003073774 -0.01758716 0.3706733 205 205 205
0.01041424 -0.0186875 0.3698528 205 205 205
0.01254332 -0.01876467 0.3689057 205 205 205
0.03126848 -0.02341111 0.3730242 205 205 205
0.03236348 -0.02419844 0.3748502 205 205 205
0.03347396 -0.02498595 0.3766714 205 205 205
0.07512278 -0.02937011 0.3707949 205 205 205
0.07561599 -0.02650764 0.3620129 205 205 205
0.0846194 -0.02373794 0.3501884 205 205 205
0.08708476 -0.02317783 0.3475908 205 205 205
0.09808594 -0.0251031 0.3493254 205 205 205
0.1063981 -0.02683949 0.3516112 205 205 205
0.1232824 -0.02966528 0.3545391 205 205 205
0.1317868 -0.03074497 0.3551864 205 205 205
0.1459159 -0.03351415 0.3593077 205 205 205
-0.03163294 -0.02199861 0.4010916 205 205 205
-0.02766592 -0.02005992 0.3929006 205 205 205
-0.02148222 -0.01832758 0.3839728 205 205 205
-0.006905159 -0.01780749 0.3737043 205 205 205
-0.005855424 -0.01803527 0.373768 205 205 205
0.004995677 -0.01899094 0.3704008 205 205 205
0.009222894 -0.01948431 0.3695174 205 205 205
0.01450648 -0.01981621 0.3676176 205 205 205
0.01767122 -0.01973565 0.3656744 205 205 205
0.02176935 -0.02042653 0.3655654 205 205 205
0.08547182 -0.02474027 0.3496096 205 205 205
0.0862203 -0.02443797 0.3484397 205 205 205
0.09573938 -0.02570369 0.3486865 205 205 205
0.09894102 -0.0260902 0.348695 205 205 205
0.1154665 -0.02912745 0.3520578 205 205 205
0.1289073 -0.0311903 0.3539338 205 205 205
0.1330526 -0.03207403 0.3552748 205 205 205
0.1344458 -0.03236355 0.3557088 205 205 205
0.1358448 -0.03265053 0.3561363 205 205 205
0.1507516 -0.0349597 0.3587166 205 205 205
-0.01423516 -0.01915618 0.3785789 205 205 205
0.002760622 -0.01956998 0.3700138 205 205 205
0.00796051 -0.02058602 0.3701233 205 205 205
0.01542911 -0.02066893 0.3663276 205 205 205
0.03211452 -0.02720757 0.3770051 205 205 205
0.09120199 -0.02589533 0.3476844 205 205 205
0.09437786 -0.02630899 0.3477429 205 205 205
0.09951717 -0.02672923 0.3471605 205 205 205
0.1143463 -0.03014765 0.3520736 205 205 205
0.1277769 -0.03225892 0.3539883 205 205 205
0.1343229 -0.03340591 0.3553503 205 205 205
0.1428002 -0.03510937 0.3578086 205 205 205
0.1442325 -0.03538398 0.3581952 205 205 205
0.1471135 -0.03592493 0.3589477 205 205 205
0.1495963 -0.03611478 0.3588315 205 205 205
-0.0295227 -0.02249627 0.3939244 205 205 205
-0.01454933 -0.02047215 0.3791781 205 205 205
0.001376423 -0.02096602 0.3715388 205 205 205
0.0109891 -0.02184897 0.36886 205 205 205
0.01410561 -0.0224157 0.3688475 205 205 205
0.01733366 -0.02200745 0.3659607 205 205 205
0.02350819 -0.02303929 0.3657725 205 205 205
0.03201313 -0.02921783 0.3794879 205 205 205
0.03439241 -0.0321603 0.3868823 205 205 205
0.07725874 -0.02962841 0.3605385 205 205 205
0.07809196 -0.02934282 0.3593872 205 205 205
0.08013809 -0.02777939 0.3540899 205 205 205
0.09717341 -0.027324 0.3465315 205 205 205
0.1047413 -0.02946141 0.3500303 205 205 205
0.1158853 -0.03076838 0.3501232 205 205 205
0.1366147 -0.03468615 0.3549764 205 205 205
0.1398277 -0.03560676 0.3566482 205 205 205
0.1503105 -0.03787714 0.3601371 205 205 205
-0.00517142 -0.02095703 0.3718668 205 205 205
7.248979E-05 -0.02205817 0.3721058 205 205 205
0.006531345 -0.02268215 0.3703778 205 205 205
0.01083391 -0.02283579 0.36852 205 205 205
0.0192104 -0.02366175 0.3665203 205 205 205
0.03189066 -0.03091725 0.3810156 205 205 205
0.03430634 -0.03422431 0.3893412 205 205 205
0.08704588 -0.0276932 0.3480945 205 205 205
0.09094971 -0.0278139 0.347016 205 205 205
0.103338 -0.03009028 0.3491173 205 205 205
0.1058988 -0.03079785 0.3502463 205 205 205
0.1114694 -0.03147414 0.3503196 205 205 205
0.1150931 -0.03213566 0.3510126 205 205 205
0.1210913 -0.03307659 0.351773 205 205 205
0.1336939 -0.03513599 0.3537648 205 205 205
0.1505592 -0.03740841 0.3554314 205 205 205
-0.01097601 -0.02171767 0.3740159 205 205 205
-0.008603122 -0.02157363 0.3722762 205 205 205
0.008532874 -0.0237527 0.3691117 205 205 205
0.01695424 -0.02461422 0.3671712 205 205 205
0.0210807 -0.02564668 0.368002 205 205 205
0.02212217 -0.02581814 0.3679643 205 205 205
0.03062319 -0.03146429 0.3797819 205 205 205
0.03176536 -0.03262979 0.3825342 205 205 205
0.08047547 -0.03078439 0.3561463 205 205 205
0.08463948 -0.02960088 0.3512557 205 205 205
0.1032111 -0.03106888 0.3487694 205 205 205
0.1064641 -0.03142662 0.3486787 205 205 205
0.1489873 -0.03820263 0.3547008 205 205 205
0.1504341 -0.0384721 0.355051 205 205 205
-0.0279991 -0.02451886 0.3882668 205 205 205
-0.02234243 -0.02351093 0.3822025 205 205 205
-0.01233863 -0.02278876 0.3745262 205 205 205
-0.01100303 -0.02240909 0.3727232 205 205 205
-0.007716005 -0.02280062 0.3719924 205 205 205
-0.003509029 -0.02370804 0.3722199 205 205 205
0.09956689 -0.03130684 0.3475805 205 205 205
0.1076253 -0.03276281 0.3488752 205 205 205
0.1099118 -0.03310858 0.3490761 205 205 205
0.1194965 -0.03476359 0.3505609 205 205 205
0.1296585 -0.03663088 0.3525743 205 205 205
0.1372532 -0.03775111 0.3534219 205 205 205
0.1490916 -0.04040444 0.3573074 205 205 205
-0.02986324 -0.02619408 0.3905607 205 205 205
-0.01492276 -0.02392611 0.3758787 205 205 205
-0.01116769 -0.02340538 0.3723685 205 205 205
0.004930177 -0.02577319 0.3702543 205 205 205
0.01239071 -0.0265005 0.3684127 205 205 205
0.02072634 -0.02829148 0.3691817 205 205 205
0.02702636 -0.03134062 0.3745393 205 205 205
0.07971834 -0.03551945 0.3632192 205 205 205
0.08222463 -0.0328452 0.3549471 205 205 205
0.08810353 -0.03131739 0.348605 205 205 205
0.0888506 -0.03098658 0.3474335 205 205 205
0.09056488 -0.03068058 0.345986 205 205 205
0.1006994 -0.03264697 0.3478073 205 205 205
0.1217114 -0.03607184 0.3502966 205 205 205
0.1510293 -0.04130999 0.3559417 205 205 205
0.1517942 -0.0400665 0.3524682 205 205 205
-0.02303557 -0.02619128 0.3833357 205 205 205
-0.01387748 -0.02486551 0.3746641 205 205 205
-0.007115608 -0.02533831 0.3722811 205 205 205
-0.003946752 -0.02602079 0.3724453 205 205 205
-0.002781002 -0.02592024 0.3715527 205 205 205
0.0005763941 -0.02592327 0.3697909 205 205 205
0.003721065 -0.02655606 0.3698753 205 205 205
0.01014599 -0.02710089 0.3680623 205 205 205
0.01223347 -0.02748545 0.3680556 205 205 205
0.01954831 -0.02876764 0.3679161 205 205 205
0.09128386 -0.06894539 0.4461345 205 205 205
0.08365666 -0.05087228 0.4001243 205 205 205
0.09361332 -0.03206822 0.3456851 205 205 205
0.1249367 -0.0373395 0.3496098 205 205 205
0.125937 -0.03730076 0.3492098 205 205 205
0.1304115 -0.03863096 0.3514057 205 205 205
0.1331837 -0.0392615 0.3522652 205 205 205
0.1338156 -0.03884423 0.350986 205 205 205
0.1366075 -0.03945995 0.3518127 205 205 205
0.1444982 -0.04167806 0.3554408 205 205 205
0.147382 -0.04225485 0.3561678 205 205 205
0.1498667 -0.04245858 0.3560356 205 205 205
0.1508996 -0.04237584 0.3555466 205 205 205
-0.02177372 -0.02686764 0.3812022 205 205 205
-0.01926815 -0.02676284 0.3795431 205 205 205
-0.006465258 -0.02721324 0.3738517 205 205 205
0.002511509 -0.02733462 0.3694891 205 205 205
0.007830577 -0.02802552 0.3686336 205 205 205
0.00894432 -0.02788793 0.3676997 205 205 205
0.009987812 -0.02808356 0.3677017 205 205 205
0.01629486 -0.02887406 0.3666969 205 205 205
0.02041396 -0.03027208 0.3684577 205 205 205
0.02248119 -0.03130751 0.3702538 205 205 205
0.08708189 -0.03357162 0.3490624 205 205 205
0.1049604 -0.03534079 0.347574 205 205 205
0.1062457 -0.03570936 0.3481241 205 205 205
0.1141283 -0.03674779 0.3483233 205 205 205
0.1177741 -0.03742422 0.3489602 205 205 205
0.1324119 -0.040708 0.353158 205 205 205
0.1344479 -0.04060354 0.3522992 205 205 205
0.1372539 -0.04122534 0.353117 205 205 205
-0.01819725 -0.02772254 0.3783309 205 205 205
-0.008629524 -0.0274209 0.3724245 205 205 205
-0.004388559 -0.02834149 0.3726497 205 205 205
0.01087319 -0.02925869 0.3673353 205 205 205
0.02128629 -0.03178201 0.3689885 205 205 205
0.08310486 -0.04596173 0.3802725 205 205 205
0.08618131 -0.03486936 0.3498653 205 205 205
0.08694753 -0.03453214 0.3487005 205 205 205
0.1005848 -0.03592746 0.3476079 205 205 205
0.1028478 -0.03631243 0.3478562 205 205 205
0.103839 -0.03631478 0.3475328 205 205 205
-0.03269899 -0.03171916 0.3935116 205 205 205
-0.02778074 -0.03005877 0.3864833 205 205 205
-0.02086428 -0.02886385 0.3796151 205 205 205
-0.01713203 -0.02867046 0.3771122 205 205 205
-0.01467836 -0.02852221 0.3754211 205 205 205
0.01275115 -0.03096708 0.3678882 205 205 205
0.02009944 -0.03224624 0.3677183 205 205 205
0.02112842 -0.03277218 0.3686152 205 205 205
0.0831117 -0.03937868 0.3598123 205 205 205
0.08726868 -0.03624425 0.3501306 205 205 205
0.1039945 -0.03766517 0.348041 205 205 205
0.1049886 -0.03766529 0.347713 205 205 205
0.1151854 -0.03908013 0.3480771 205 205 205
0.1161826 -0.03905869 0.3477099 205 205 205
0.1235425 -0.040391 0.3488652 205 205 205
0.1352 -0.04260371 0.3510812 205 205 205
0.1373763 -0.04367007 0.3531703 205 205 205
0.1441007 -0.04483642 0.354243 205 205 205
-0.01854156 -0.0297534 0.3775672 205 205 205
-0.0171469 -0.02935381 0.3757978 205 205 205
-0.01213809 -0.02869426 0.3714685 205 205 205
-0.0055443 -0.02943112 0.3699803 205 205 205
-0.002488297 -0.03044292 0.3710532 205 205 205
0.0114857 -0.03210727 0.3684592 205 205 205
0.01359157 -0.03248914 0.3684359 205 205 205
0.01574006 -0.03251102 0.3674628 205 205 205
0.01889076 -0.03305402 0.3673783 205 205 205
0.0251363 -0.03730218 0.3755148 205 205 205
0.02954307 -0.04048832 0.3817846 205 205 205
0.08836146 -0.03762295 0.3503839 205 205 205
0.09987241 -0.03861841 0.3489424 205 205 205
0.100871 -0.03862697 0.348628 205 205 205
0.1028651 -0.03863773 0.3479889 205 205 205
0.11043 -0.03937063 0.3473872 205 205 205
0.1150523 -0.0400683 0.3476946 205 205 205
0.1247666 -0.0417354 0.348935 205 205 205
0.1278597 -0.04279336 0.3506835 205 205 205
0.1435613 -0.04550832 0.3530028 205 205 205
0.1547599 -0.04748132 0.3548982 205 205 205
-0.03207458 -0.03225826 0.3880678 205 205 205
-0.02776519 -0.03150219 0.3838341 205 205 205
-0.02356182 -0.03069827 0.3795518 205 205 205
-0.01963015 -0.03017721 0.3761523 205 205 205
-0.01716093 -0.03002832 0.3744822 205 205 205
-0.002653509 -0.03143312 0.3706727 205 205 205
0.009154535 -0.03305177 0.3690228 205 205 205
0.01663086 -0.03367615 0.3670595 205 205 205
0.09629942 -0.07409917 0.4375056 205 205 205
0.08579674 -0.04897726 0.3773305 205 205 205
0.0904642 -0.03903514 0.350346 205 205 205
0.09396645 -0.03836352 0.3474201 205 205 205
0.09621157 -0.03878405 0.3477141 205 205 205
0.09720595 -0.03879884 0.3474122 205 205 205
0.1027298 -0.0396109 0.3476084 205 205 205
0.1037255 -0.03961298 0.3472838 205 205 205
0.1060084 -0.03999571 0.3474989 205 205 205
0.1116042 -0.04072219 0.3475211 205 205 205
0.1139192 -0.04107434 0.3476721 205 205 205
0.1232755 -0.04239253 0.3480853 205 205 205
0.1535839 -0.04864033 0.3549833 205 205 205
0.1546238 -0.04854824 0.3544791 205 205 205
-0.02518816 -0.03210678 0.3808964 205 205 205
-0.0210485 -0.03125599 0.3765892 205 205 205
-0.01518937 -0.0315327 0.3742673 205 205 205
-0.005875144 -0.03140029 0.3692196 205 205 205
0.0004576138 -0.03273184 0.3694598 205 205 205
0.08955455 -0.04036184 0.3511342 205 205 205
0.09308513 -0.03969185 0.3482184 205 205 205
0.09959926 -0.04056359 0.3481778 205 205 205
0.1058725 -0.04097059 0.3471132 205 205 205
0.1157812 -0.04201769 0.3465512 205 205 205
0.1194448 -0.04271474 0.3471441 205 205 205
0.1278744 -0.04400072 0.3477778 205 205 205
0.1337789 -0.04573102 0.350311 205 205 205
-0.03112083 -0.03432339 0.3864638 205 205 205
-0.02373584 -0.0324022 0.3778322 205 205 205
-0.02230191 -0.03200021 0.3760893 205 205 205
-0.0007641771 -0.03349908 0.3690417 205 205 205
0.001443417 -0.03357823 0.368168 205 205 205
0.004688346 -0.03385347 0.3672947 205 205 205
0.008895866 -0.03466242 0.3673196 205 205 205
0.0162715 -0.03599855 0.3672212 205 205 205
0.01932496 -0.03800096 0.3708456 205 205 205
0.09665503 -0.07295148 0.4268251 205 205 205
0.08944492 -0.05662626 0.3887837 205 205 205
0.08650657 -0.04696749 0.3657967 205 205 205
0.09846089 -0.04152319 0.348101 205 205 205
0.1159724 -0.04339244 0.3470175 205 205 205
0.1169731 -0.04336814 0.3466456 205 205 205
0.120651 -0.04406486 0.3472185 205 205 205
0.129748 -0.04490742 0.3465461 205 205 205
0.1374677 -0.047352 0.3502587 205 205 205
-0.03110635 -0.03503622 0.3851275 205 205 205
-0.01981561 -0.03251232 0.3731188 205 205 205
-0.01858282 -0.03242871 0.3722886 205 205 205
-0.01751603 -0.03268356 0.3723801 205 205 205
-0.01538037 -0.03318701 0.3725516 205 205 205
-0.001986294 -0.03426174 0.3686165 205 205 205
0.105598 -0.04291529 0.3463307 205 205 205
0.1218619 -0.04541777 0.3472801 205 205 205
0.1518844 -0.05066143 0.3512549 205 205 205
0.1562842 -0.05154479 0.3521792 205 205 205
-0.03321051 -0.03712777 0.3882557 205 205 205
-0.03017191 -0.03636508 0.3848425 205 205 205
-0.025356 -0.03449513 0.3778349 205 205 205
-0.02139965 -0.03393302 0.3744674 205 205 205
-0.01661989 -0.03392893 0.3720689 205 205 205
-0.009801129 -0.03434844 0.3697342 205 205 205
0.008637697 -0.03625195 0.3656068 205 205 205
0.01586716 -0.03869897 0.3682898 205 205 205
0.02426892 -0.04424755 0.3781445 205 205 205
0.08893128 -0.05418413 0.3765778 205 205 205
0.08770214 -0.04985348 0.3664771 205 205 205
0.09542824 -0.04381372 0.3491077 205 205 205
0.09818181 -0.04345846 0.3473142 205 205 205
0.09918278 -0.04346878 0.3470031 205 205 205
0.1037466 -0.04428755 0.3474672 205 205 205
0.1050387 -0.0446866 0.3480067 205 205 205
0.1136903 -0.04540301 0.3469494 205 205 205
0.1217235 -0.04641092 0.3468732 205 205 205
0.1532057 -0.0520112 0.3511378 205 205 205
0.1549735 -0.05054264 0.3471938 205 205 205
-0.03473189 -0.03822056 0.3886061 205 205 205
-0.02699618 -0.03591836 0.3791488 205 205 205
-0.02553309 -0.03550746 0.377424 205 205 205
-0.01237239 -0.03555978 0.3710522 205 205 205
0.004113114 -0.03714542 0.3670414 205 205 205
0.01672936 -0.04024285 0.3687842 205 205 205
0.017763 -0.04080158 0.369677 205 205 205
0.08860102 -0.04895481 0.3610464 205 205 205
0.1286966 -0.0483556 0.3465732 205 205 205
0.1376795 -0.04995683 0.3477228 205 205 205
-0.03471173 -0.03893225 0.3872574 205 205 205
-0.03297314 -0.03820261 0.3846464 205 205 205
-0.02300094 -0.03601456 0.3744689 205 205 205
-0.01240135 -0.03618966 0.3697228 205 205 205
-0.009078315 -0.03654926 0.3689901 205 205 205
-0.00814326 -0.03714497 0.3699701 205 205 205
-0.003653682 -0.03733854 0.3683079 205 205 205
0.006059924 -0.03853372 0.3666572 205 205 205
0.009230974 -0.03913748 0.3666568 205 205 205
0.01134663 -0.03952947 0.366638 205 205 205
0.01240493 -0.03972234 0.366623 205 205 205
0.08950766 -0.04999971 0.3603439 205 205 205
0.09253524 -0.04809764 0.3547692 205 205 205
0.1113973 -0.04739895 0.3468527 205 205 205
0.1160671 -0.04813386 0.3471075 205 205 205
0.1170763 -0.04810878 0.3467329 205 205 205
0.1245067 -0.04953329 0.3477913 205 205 205
0.1385548 -0.05090529 0.3468475 205 205 205
0.1446449 -0.05262392 0.3491136 205 205 205
-0.01499778 -0.03739902 0.3710108 205 205 205
-0.002761199 -0.03854073 0.3679371 205 205 205
0.0004235093 -0.03920023 0.3680255 205 205 205
0.004757047 -0.0396763 0.3671673 205 205 205
0.006951307 -0.03971175 0.3662538 205 205 205
0.008008515 -0.03991333 0.3662534 205 205 205
0.08980255 -0.05182351 0.361689 205 205 205
0.09054574 -0.04943576 0.355814 205 205 205
0.09575986 -0.04794519 0.3505239 205 205 205
0.1028766 -0.04801709 0.3483132 205 205 205
0.1267498 -0.05085512 0.3473968 205 205 205
0.1287795 -0.05076067 0.3465687 205 205 205
0.1294239 -0.05030185 0.3453141 205 205 205
0.1321887 -0.05100973 0.3461331 205 205 205
0.1335797 -0.05135967 0.3465329 205 205 205
0.1568999 -0.05475863 0.3477821 205 205 205
-0.03487631 -0.0406774 0.3854702 205 205 205
-0.02734463 -0.0386107 0.3769681 205 205 205
-0.02209827 -0.03792084 0.3728198 205 205 205
-0.009549305 -0.03887393 0.3690912 205 205 205
-0.0007057271 -0.03958634 0.3666655 205 205 205
0.008834458 -0.0414669 0.3667606 205 205 205
0.01405318 -0.04320605 0.3685279 205 205 205
0.01824463 -0.04511029 0.3711638 205 205 205
0.09121115 -0.05774857 0.3721518 205 205 205
0.09840597 -0.04854963 0.3483099 205 205 205
0.1083807 -0.04980347 0.3479354 205 205 205
0.1276222 -0.05180842 0.3465565 205 205 205
0.1362354 -0.05306363 0.3468793 205 205 205
0.1509822 -0.05679478 0.3511761 205 205 205
0.1561673 -0.05631183 0.3486497 205 205 205
-0.03029929 -0.04012174 0.3790388 205 205 205
-0.02752373 -0.03961875 0.37654 205 205 205
-0.02119612 -0.03917777 0.3724965 205 205 205
-0.01092149 -0.03998429 0.3695339 205 205 205
0.001150097 -0.04137061 0.3672182 205 205 205
0.005483917 -0.04183326 0.3663463 205 205 205
0.008734789 -0.0420582 0.3654231 205 205 205
0.01185509 -0.04303223 0.3663084 205 205 205
0.09367136 -0.06379594 0.3822893 205 205 205
0.09162389 -0.05391204 0.3602433 205 205 205
0.09674259 -0.05032625 0.3502545 205 205 205
0.1072192 -0.05078984 0.3478583 205 205 205
0.1118933 -0.05158056 0.3481641 205 205 205
0.1159607 -0.05150048 0.3466951 205 205 205
0.1213579 -0.05176634 0.3456244 205 205 205
0.1298731 -0.05312146 0.3461223 205 205 205
0.1332929 -0.0533688 0.3456677 205 205 205
0.1367205 -0.05359427 0.3451732 205 205 205
0.1523006 -0.05816081 0.3510308 205 205 205
0.1533432 -0.05806598 0.3505274 205 205 205
0.1552475 -0.05879004 0.3516268 205 205 205
-0.007633701 -0.04092816 0.3674413 205 205 205
-0.004214915 -0.04086212 0.3657353 205 205 205
-0.001041827 -0.04152891 0.3658324 205 205 205
0.003195409 -0.0423886 0.36591 205 205 205
0.09288473 -0.05950707 0.3697648 205 205 205
0.09312175 -0.05413788 0.3574587 205 205 205
0.0955699 -0.05128383 0.350136 205 205 205
0.09787676 -0.051736 0.3503885 205 205 205
0.1418289 -0.05556314 0.3453683 205 205 205
0.1446828 -0.056237 0.3460564 205 205 205
0.1483924 -0.05773017 0.3483345 205 205 205
0.1498454 -0.05805621 0.3486515 205 205 205
-0.03585434 -0.04451087 0.3859527 205 205 205
-0.02532838 -0.04145284 0.3740731 205 205 205
-0.01955382 -0.04205303 0.372739 205 205 205
-0.01261681 -0.0424533 0.3704544 205 205 205
-0.005558913 -0.04198375 0.3661913 205 205 205
-0.0001517304 -0.04271592 0.3654349 205 205 205
0.01855939 -0.05185836 0.3780838 205 205 205
0.09489019 -0.05308606 0.3517524 205 205 205
0.09567169 -0.05268076 0.3505771 205 205 205
0.09977843 -0.05273435 0.3493252 205 205 205
0.1010728 -0.05316673 0.3498677 205 205 205
0.1108823 -0.05398526 0.3485125 205 205 205
0.1282631 -0.0560639 0.3477463 205 205 205
0.138851 -0.05588359 0.3442085 205 205 205
0.1486606 -0.05918173 0.3486843 205 205 205
0.1538236 -0.05870939 0.3461939 205 205 205
0.157789 -0.05923006 0.3462444 205 205 205
0.1584891 -0.05776193 0.3428282 205 205 205
0.001798547 -0.04411434 0.3650465 205 205 205
0.009163676 -0.04595257 0.3659788 205 205 205
0.01225834 -0.04733622 0.3677622 205 205 205
0.01531887 -0.04950796 0.3713425 205 205 205
0.01736696 -0.05148843 0.3749296 205 205 205
0.01929544 -0.05628601 0.3849052 205 205 205
0.09422667 -0.05869721 0.3618114 205 205 205
0.1042812 -0.05458222 0.3493016 205 205 205
0.1053088 -0.05458097 0.3489637 205 205 205
0.1239839 -0.05592173 0.3460331 205 205 205
0.1297996 -0.0565383 0.3456276 205 205 205
0.1308194 -0.05648396 0.3452023 205 205 205
0.1336075 -0.05721915 0.3459873 205 205 205
0.1443879 -0.05827291 0.345151 205 205 205
-0.02696106 -0.04353992 0.3739932 205 205 205
-0.0154168 -0.04468419 0.3712727 205 205 205
-0.01175016 -0.04428075 0.3687343 205 205 205
-0.009340949 -0.04399246 0.3670209 205 205 205
0.1141716 -0.1073916 0.459698 205 205 205
0.09483977 -0.06313209 0.3686347 205 205 205
0.09500793 -0.05760694 0.3563928 205 205 205
0.10104 -0.05555159 0.3498535 205 205 205
0.1085296 -0.05597386 0.3483406 205 205 205
0.1300157 -0.05796454 0.3460037 205 205 205
0.1588488 -0.05831936 0.3385068 205 205 205
0.1496969 -0.04797788 0.3187577 205 205 205
-0.02880887 -0.04537923 0.3761539 205 205 205
-0.02459563 -0.04433301 0.3719459 205 205 205
-0.01559308 -0.04567039 0.3708294 205 205 205
-0.005357991 -0.04629024 0.3676761 205 205 205
-0.001928031 -0.04618175 0.3659461 205 205 205
0.002253072 -0.0474514 0.3669337 205 205 205
0.01084354 -0.04909805 0.3669041 205 205 205
0.0118645 -0.04969875 0.3677965 205 205 205
0.09513634 -0.06504321 0.369902 205 205 205
0.09696417 -0.05864338 0.3553192 205 205 205
0.09801938 -0.05866036 0.3550036 205 205 205
0.1250547 -0.05829187 0.3455606 205 205 205
0.140216 -0.05967759 0.3440162 205 205 205
0.1589452 -0.06169065 0.343007 205 205 205
0.1596159 -0.06018232 0.3396066 205 205 205
0.1579165 -0.05654669 0.3323275 205 205 205
-0.03290493 -0.04664638 0.3780441 205 205 205
-0.02899104 -0.04638276 0.3756987 205 205 205
-0.0213462 -0.04574458 0.3708823 205 205 205
-0.01223838 -0.04662361 0.3687615 205 205 205
-0.009950676 -0.04671718 0.3679641 205 205 205
-0.005647793 -0.0476601 0.3681438 205 205 205
0.008389808 -0.05048636 0.3683124 205 205 205
0.01049641 -0.05129595 0.3691933 205 205 205
0.01760319 -0.05923382 0.3835368 205 205 205
0.1054189 -0.05838942 0.3493351 205 205 205
0.1150043 -0.05871084 0.3469573 205 205 205
0.1262789 -0.05967353 0.3455217 205 205 205
0.1303697 -0.05946751 0.3438417 205 205 205
0.1557153 -0.06305047 0.3440924 205 205 205
-0.02169526 -0.04711518 0.371337 205 205 205
-0.01486326 -0.04788976 0.3700009 205 205 205
-0.013635 -0.04774697 0.369159 205 205 205
-0.009179088 -0.04832732 0.3684756 205 205 205
-0.001510164 -0.04954575 0.3678139 205 205 205
0.003972639 -0.05022822 0.3669677 205 205 205
0.008217287 -0.05146665 0.3678609 205 205 205
0.01540113 -0.05698157 0.3767797 205 205 205
0.09789115 -0.06283909 0.3587112 205 205 205
0.1003371 -0.05979725 0.3514036 205 205 205
0.1079122 -0.06024409 0.349886 205 205 205
0.1096936 -0.0597823 0.3483298 205 205 205
0.1350488 -0.06109222 0.3432731 205 205 205
0.1423562 -0.06196596 0.3429625 205 205 205
0.1429707 -0.0614465 0.34169 205 205 205
0.1596635 -0.06362993 0.3415277 205 205 205
-0.03025905 -0.04771447 0.3737566 205 205 205
-0.02896728 -0.04761454 0.3729718 205 205 205
-0.01828888 -0.04810473 0.3693255 205 205 205
0.002635523 -0.05139786 0.3674181 205 205 205
0.01095639 -0.05553736 0.3728014 205 205 205
0.01307361 -0.056769 0.3745622 205 205 205
0.1069999 -0.06168144 0.3506216 205 205 205
0.1201205 -0.06234112 0.3478441 205 205 205
0.1472933 -0.06253373 0.340105 205 205 205
0.1535073 -0.06433319 0.3420703 205 205 205
-0.01754143 -0.04973777 0.3698481 205 205 205
-0.01645469 -0.0499944 0.3699215 205 205 205
0.01072278 -0.05695423 0.3732381 205 205 205
0.01279768 -0.05861483 0.3759013 205 205 205
0.01479609 -0.06153858 0.3812655 205 205 205
0.09661257 -0.06705564 0.3626975 205 205 205
0.09819575 -0.06797607 0.3640971 205 205 205
0.1034252 -0.06222438 0.3503352 205 205 205
0.1057952 -0.06267235 0.3505011 205 205 205
0.1105663 -0.06354023 0.3507758 205 205 205
0.1168427 -0.06342331 0.3485388 205 205 205
0.1192505 -0.06381426 0.3485974 205 205 205
0.1261686 -0.06308961 0.3449486 205 205 205
0.1392097 -0.06323958 0.3413372 205 205 205
0.1510351 -0.06412721 0.3397322 205 205 205
-0.03522006 -0.04892163 0.3732127 205 205 205
-0.02476762 -0.05031574 0.3715672 205 205 205
-0.01989169 -0.05019667 0.3692264 205 205 205
-0.008753678 -0.05189671 0.3680542 205 205 205
-0.006465696 -0.05196062 0.3672308 205 205 205
0.09913 -0.06902375 0.3632796 205 205 205
0.111898 -0.06359628 0.3478921 205 205 205
0.1225527 -0.06515478 0.3477569 205 205 205
0.1235951 -0.0651149 0.3473517 205 205 205
0.1263629 -0.0645298 0.3452949 205 205 205
0.1280693 -0.06397821 0.3436388 205 205 205
0.1494367 -0.06478605 0.3389601 205 205 205
0.1581752 -0.06681231 0.3405963 205 205 205
-0.02350038 -0.05077462 0.369394 205 205 205
-0.01914737 -0.05183869 0.3697398 205 205 205
-0.01602572 -0.05302016 0.3708605 205 205 205
-0.01369038 -0.05311976 0.3700863 205 205 205
-0.007970236 -0.05352128 0.3685322 205 205 205
-0.006881635 -0.05375825 0.3685707 205 205 205
0.0006599109 -0.05577428 0.3696373 205 205 205
0.01007623 -0.06107932 0.3767992 205 205 205
0.01323639 -0.06382743 0.3812212 205 205 205
0.1063159 -0.06600937 0.3520873 205 205 205
0.1285775 -0.06445661 0.3419238 205 205 205
0.1409335 -0.06506567 0.339457 205 205 205
0.1429619 -0.06489792 0.3385203 205 205 205
0.1521723 -0.06647946 0.3390456 205 205 205
0.1575704 -0.06738328 0.3393279 205 205 205
-0.03297478 -0.05070168 0.3707333 205 205 205
-0.02969592 -0.05156532 0.3710927 205 205 205
-0.02860128 -0.05184887 0.3712048 205 205 205
-0.02241934 -0.05161691 0.3681158 205 205 205
-0.006320145 -0.05622198 0.3708359 205 205 205
0.009659491 -0.06380828 0.3799133 205 205 205
0.1141468 -0.06783819 0.3507386 205 205 205
0.116573 -0.06825273 0.3508094 205 205 205
0.1304621 -0.06532247 0.3405912 205 205 205
0.1346507 -0.0665023 0.3417016 205 205 205
0.1417919 -0.06597131 0.3385066 205 205 205
0.1505667 -0.06713405 0.3382744 205 205 205
0.1563899 -0.06851023 0.3393528 205 205 205
0.1569656 -0.06794519 0.3380591 205 205 205
-0.01433828 -0.05590888 0.37093 205 205 205
-0.005512186 -0.0578644 0.3712843 205 205 205
-7.266757E-05 -0.05943967 0.372281 205 205 205
0.1044134 -0.07077052 0.3572152 205 205 205
0.1170341 -0.07017727 0.3519752 205 205 205
0.1241555 -0.06804937 0.3454872 205 205 205
0.1471074 -0.0669624 0.3364203 205 205 205
0.148541 -0.06732085 0.3367139 205 205 205
0.1499799 -0.06767625 0.3370008 205 205 205
0.153889 -0.06826885 0.3370456 205 205 205
0.1557877 -0.06906649 0.33808 205 205 205
0.1654473 -0.06632589 0.3299308 205 205 205
-0.02077795 -0.05450413 0.3682285 205 205 205
-0.006916356 -0.05903836 0.3716637 205 205 205
-0.001464066 -0.06063346 0.3726771 205 205 205
0.1047788 -0.07271283 0.3583987 205 205 205
0.1115181 -0.0712777 0.3533688 205 205 205
0.1122936 -0.07079639 0.3521643 205 205 205
0.1339533 -0.06801272 0.33992 205 205 205
0.1445121 -0.06767693 0.3361089 205 205 205
0.1643308 -0.06641058 0.3279337 205 205 205
0.1525562 -0.05243858 0.3039245 205 205 205
-0.02934555 -0.05520164 0.3706446 205 205 205
-0.02549371 -0.05480866 0.3682795 205 205 205
-0.01877903 -0.05600292 0.3678994 205 205 205
-0.01055291 -0.05972302 0.3719518 205 205 205
-0.008207123 -0.05978548 0.3711363 205 205 205
0.0002191212 -0.06381313 0.375786 205 205 205
0.00436888 -0.0668864 0.3802597 205 205 205
0.005305105 -0.06841863 0.3829369 205 205 205
0.1229148 -0.07487739 0.354315 205 205 205
0.123668 -0.07437067 0.353084 205 205 205
0.1313739 -0.06865692 0.3395019 205 205 205
0.1655721 -0.06981439 0.3317375 205 205 205
0.1603255 -0.06269281 0.3194177 205 205 205
-0.006517417 -0.06254616 0.3733872 205 205 205
0.1179214 -0.07699382 0.3574531 205 205 205
0.1190189 -0.0769686 0.3570566 205 205 205
0.1234979 -0.07538627 0.3525677 205 205 205
0.1260821 -0.07285072 0.3468322 205 205 205
0.1298886 -0.07069673 0.341476 205 205 205
0.1377099 -0.06967922 0.3371311 205 205 205
0.1457895 -0.06898073 0.3333755 205 205 205
0.163874 -0.07154515 0.3330765 205 205 205
-0.01230112 -0.06230995 0.3726905 205 205 205
-0.007049824 -0.06484653 0.3755591 205 205 205
-0.001959553 -0.06866851 0.3810117 205 205 205
0.1216714 -0.07888837 0.3573664 205 205 205
0.1254819 -0.07631723 0.351216 205 205 205
0.125878 -0.07532043 0.3491724 205 205 205
0.1290727 -0.07369162 0.3450481 205 205 205
0.1297645 -0.07316025 0.3438129 205 205 205
0.1358942 -0.0712791 0.3383285 205 205 205
0.1385637 -0.07057513 0.3361725 205 205 205
0.1577416 -0.07225227 0.3337249 205 205 205
0.1580534 -0.06166924 0.3134701 205 205 205
0.1357842 -0.03878729 0.2762514 205 205 205
-0.03099777 -0.05784887 0.3690423 205 205 205
-0.02841303 -0.05757992 0.3674871 205 205 205
-0.02585545 -0.05729429 0.3659137 205 205 205
-0.02458695 -0.05714527 0.3651204 205 205 205
-0.02259286 -0.05811157 0.3661844 205 205 205
-0.01583884 -0.06253317 0.3720215 205 205 205
-0.01050462 -0.06467227 0.37405 205 205 205
-1.120073E-05 -0.07104975 0.382277 205 205 205
0.1208373 -0.08237816 0.3617454 205 205 205
0.1373844 -0.07162739 0.3361256 205 205 205
0.1503323 -0.0714606 0.3319518 205 205 205
0.1513349 -0.07135172 0.3314511 205 205 205
-0.02712384 -0.05797886 0.3653174 205 205 205
-0.02476861 -0.05810419 0.364623 205 205 205
-0.02386345 -0.05880408 0.3655985 205 205 205
-0.01810081 -0.06256278 0.3704963 205 205 205
-0.008798783 -0.06748664 0.3762721 205 205 205
0.1210598 -0.0858682 0.3657055 205 205 205
0.1264765 -0.08026844 0.3534008 205 205 205
0.1280144 -0.07771067 0.3480862 205 205 205
0.1297951 -0.07712086 0.3464207 205 205 205
0.1408718 -0.07178625 0.332988 205 205 205
0.150169 -0.07243491 0.3314417 205 205 205
0.1629146 -0.07406455 0.3307768 205 205 205
-0.03662799 -0.05789847 0.3665409 205 205 205
-0.03553738 -0.05819682 0.3666698 205 205 205
-0.01939744 -0.06327832 0.3699144 205 205 205
-0.0156729 -0.06652123 0.3745957 205 205 205
-0.01037867 -0.06912953 0.3774857 205 205 205
-0.006336007 -0.07235517 0.3820369 205 205 205
0.1258693 -0.08230524 0.3549024 205 205 205
0.1277288 -0.08172861 0.3532412 205 205 205
0.160733 -0.07531904 0.3313324 205 205 205
0.1647561 -0.07477857 0.3291621 205 205 205
-0.02876979 -0.06004575 0.3650892 205 205 205
-0.02085834 -0.06442706 0.370209 205 205 205
-0.01699418 -0.06725468 0.3740111 205 205 205
-0.00966648 -0.07128543 0.3787567 205 205 205
-0.006862007 -0.07473397 0.3841502 205 205 205
0.1263506 -0.08431003 0.3559698 205 205 205
0.1345831 -0.0757346 0.3375162 205 205 205
0.1368881 -0.07453341 0.33459 205 205 205
0.1552846 -0.07428431 0.3286298 205 205 205
0.1596476 -0.07534806 0.3293091 205 205 205
-0.01101406 -0.07204527 0.3781809 205 205 205
-0.008353382 -0.07597074 0.3844582 205 205 205
-0.006415204 -0.07829158 0.3880352 205 205 205
0.1282759 -0.0867745 0.3573981 205 205 205
0.1417882 -0.07507098 0.3317524 205 205 205
0.1443925 -0.07429862 0.3295541 205 205 205
0.1512395 -0.07463672 0.3281286 205 205 205
0.1522357 -0.07452213 0.3276237 205 205 205
0.1610368 -0.06678234 0.3109352 205 205 205
-0.02714751 -0.06296124 0.3651377 205 205 205
-0.01029867 -0.07421935 0.3794327 205 205 205
0.1287798 -0.09237193 0.3649379 205 205 205
0.1326553 -0.08296371 0.3465801 205 205 205
0.143636 -0.07584368 0.33028 205 205 205
0.1452256 -0.07515543 0.3285526 205 205 205
0.148215 -0.07484192 0.3270881 205 205 205
0.1530633 -0.07536598 0.3265933 205 205 205
0.1603134 -0.07717144 0.327718 205 205 205
0.1532478 -0.05828085 0.2956594 205 205 205
0.1315026 -0.03656293 0.2627762 205 205 205
-0.03497103 -0.06190178 0.3638591 205 205 205
-0.01998475 -0.07014384 0.3731603 205 205 205
-0.009029023 -0.0842819 0.3948019 205 205 205
0.1641339 -0.07759281 0.3250185 205 205 205
0.1665983 -0.07778803 0.3246459 205 205 205
-0.03276894 -0.06300144 0.3626979 205 205 205
-0.03059488 -0.06357892 0.3629166 205 205 205
-0.0241837 -0.06868009 0.3696931 205 205 205
-0.02130989 -0.07086074 0.3725481 205 205 205
-0.01046938 -0.08509266 0.3941876 205 205 205
0.141685 -0.07844527 0.3309422 205 205 205
0.1426975 -0.07835153 0.3304674 205 205 205
0.1551601 -0.07753145 0.3252575 205 205 205
0.1605096 -0.07848997 0.3253727 205 205 205
0.1664277 -0.07876062 0.3241074 205 205 205
0.1689069 -0.07781544 0.321703 205 205 205
-0.034253 -0.06410009 0.3629278 205 205 205
-0.03186716 -0.06423952 0.3622831 205 205 205
-0.03077969 -0.06452767 0.3623902 205 205 205
-0.02789382 -0.06627753 0.3644344 205 205 205
-0.01938836 -0.07284815 0.3730071 205 205 205
-0.01840142 -0.07357594 0.3739426 205 205 205
-0.01188709 -0.08097822 0.3847708 205 205 205
0.1322486 -0.09278041 0.3569692 205 205 205
0.1324082 -0.08962795 0.3513266 205 205 205
0.1390007 -0.08176745 0.3353601 205 205 205
0.1408983 -0.07999663 0.3316457 205 205 205
0.1445462 -0.07911336 0.3289734 205 205 205
0.1588813 -0.0790944 0.3246305 205 205 205
0.1613336 -0.0793183 0.3242959 205 205 205
-0.01688746 -0.07695734 0.3769899 205 205 205
-0.01354167 -0.08268437 0.3859053 205 205 205
-0.0125419 -0.09381376 0.4052376 205 205 205
0.1388248 -0.08273715 0.3348134 205 205 205
0.1468076 -0.08036565 0.328218 205 205 205
0.1626738 -0.07950168 0.3219413 205 205 205
0.164136 -0.07985396 0.322122 205 205 205
0.17004 -0.08008103 0.3207716 205 205 205
0.1684563 -0.07516123 0.3126602 205 205 205
-0.03066064 -0.06806757 0.3640338 205 205 205
-0.02956012 -0.06835511 0.3641338 205 205 205
-0.02397785 -0.07279813 0.3698764 205 205 205
0.1367788 -0.08869948 0.3435336 205 205 205
0.1380962 -0.08591133 0.338273 205 205 205
0.1383801 -0.08480862 0.3362666 205 205 205
0.1417449 -0.08343909 0.3328502 205 205 205
0.1541977 -0.0798912 0.3229044 205 205 205
0.1570845 -0.08064203 0.3233379 205 205 205
0.1585355 -0.08101238 0.3235443 205 205 205
0.1697421 -0.07642607 0.3122744 205 205 205
0.1506137 -0.05584399 0.2823453 205 205 205
-0.03502611 -0.06739194 0.362188 205 205 205
-0.03194775 -0.06872968 0.3633865 205 205 205
-0.0251201 -0.07303014 0.3683727 205 205 205
-0.02224262 -0.07525869 0.3712026 205 205 205
-0.02110462 -0.07553357 0.3712698 205 205 205
-0.02044065 -0.07720992 0.3739416 205 205 205
0.1358662 -0.093517 0.3497846 205 205 205
0.1366138 -0.09131444 0.3457493 205 205 205
0.1429977 -0.08482172 0.3325786 205 205 205
0.1440286 -0.08472516 0.332096 205 205 205
0.1480468 -0.08154597 0.3253927 205 205 205
0.1608703 -0.0810505 0.3206652 205 205 205
0.1720998 -0.07985137 0.3152605 205 205 205
-0.02162318 -0.07745509 0.372439 205 205 205
-0.01655078 -0.08525227 0.3840498 205 205 205
-0.01538264 -0.09514785 0.4006688 205 205 205
0.1480352 -0.1202511 0.3893664 205 205 205
0.1363909 -0.09557278 0.3507482 205 205 205
0.1384919 -0.08890138 0.33868 205 205 205
0.1415381 -0.08700492 0.3344961 205 205 205
0.1421827 -0.08639669 0.3332579 205 205 205
0.1462827 -0.08322304 0.326578 205 205 205
0.1577281 -0.0824121 0.3217143 205 205 205
0.1587192 -0.08227694 0.3211847 205 205 205
0.1597084 -0.08213937 0.3206518 205 205 205
0.1690238 -0.0824623 0.3184051 205 205 205
0.1704996 -0.0828044 0.3185462 205 205 205
-0.03430697 -0.06957649 0.3612096 205 205 205
-0.0191361 -0.08164039 0.3763735 205 205 205
-0.01689438 -0.08676178 0.3843164 205 205 205
-0.01581188 -0.09211296 0.3930625 205 205 205
0.1393214 -0.1029316 0.3599291 205 205 205
0.1397491 -0.09031902 0.3384005 205 205 205
0.1430382 -0.08726797 0.3322128 205 205 205
0.1446988 -0.08655252 0.3304893 205 205 205
0.147535 -0.08457939 0.3262774 205 205 205
0.1605196 -0.08294576 0.3195626 205 205 205
-0.02492089 -0.07715937 0.368488 205 205 205
-0.01630593 -0.08951613 0.3863457 205 205 205
0.138593 -0.09469179 0.3438252 205 205 205
0.1428561 -0.08823147 0.3316447 205 205 205
0.1498023 -0.08582211 0.3254612 205 205 205
0.1523885 -0.08494715 0.3232014 205 205 205
0.1533894 -0.08482359 0.3226882 205 205 205
0.1613279 -0.08374666 0.3184672 205 205 205
0.1681788 -0.0838568 0.3165805 205 205 205
0.1730856 -0.08421245 0.3156991 205 205 205
-0.03489624 -0.07192327 0.3609591 205 205 205
-0.02170523 -0.08260357 0.3742172 205 205 205
-0.02014574 -0.08557039 0.3786428 205 205 205
-0.01706374 -0.09250105 0.3891806 205 205 205
0.1401381 -0.09333347 0.3387591 205 205 205
0.140438 -0.09219268 0.3367647 205 205 205
0.1411097 -0.09157688 0.3355299 205 205 205
0.143708 -0.08909456 0.3305894 205 205 205
0.1552066 -0.08551264 0.3210911 205 205 205
0.1566536 -0.08590076 0.3212939 205 205 205
0.1571954 -0.08524762 0.3200426 205 205 205
0.165053 -0.08527336 0.3176931 205 205 205
0.1689783 -0.08464056 0.3154534 205 205 205
0.1710097 -0.07766388 0.3032708 205 205 205
-0.03882523 -0.07289288 0.3617547 205 205 205
-0.03618156 -0.07256334 0.3602841 205 205 205
-0.0312877 -0.0754618 0.3633848 205 205 205
-0.02925385 -0.07651813 0.3644296 205 205 205
-0.01736585 -0.08935916 0.3816258 205 205 205
-0.01575018 -0.0881633 0.3790838 205 205 205
0.1540662 -0.1273157 0.3883103 205 205 205
0.14131 -0.09307926 0.3357007 205 205 205
0.1496975 -0.08941039 0.3270436 205 205 205
0.1529027 -0.08788275 0.3235356 205 205 205
0.1544732 -0.0871065 0.3217726 205 205 205
0.1727257 -0.08611123 0.3145649 205 205 205
-0.03768926 -0.07366968 0.360455 205 205 205
-0.02963819 -0.07795095 0.3647105 205 205 205
-0.02309744 -0.08381645 0.3721067 205 205 205
-0.02132158 -0.09003233 0.3817231 205 205 205
0.1537069 -0.1262751 0.383986 205 205 205
0.1415079 -0.0945858 0.3358639 205 205 205
0.1466284 -0.09239706 0.3306869 205 205 205
0.1478772 -0.09111964 0.3282084 205 205 205
0.1499352 -0.09089398 0.3272018 205 205 205
0.1532882 -0.08817629 0.3217197 205 205 205
0.1741965 -0.08186248 0.3050163 205 205 205
-0.03347466 -0.07580755 0.3603299 205 205 205
-0.02719092 -0.08170978 0.3678002 205 205 205
-0.02445247 -0.08451662 0.3714417 205 205 205
0.1487207 -0.09196334 0.3271233 205 205 205
0.1610751 -0.08802462 0.3169166 205 205 205
0.1654935 -0.08794373 0.315428 205 205 205
0.1713818 -0.08817202 0.3139939 205 205 205
0.1738421 -0.08834678 0.3135248 205 205 205
-0.02499303 -0.08648094 0.3725464 205 205 205
0.1453429 -0.1110259 0.3567013 205 205 205
0.1420504 -0.1027415 0.3443844 205 205 205
0.145099 -0.09732108 0.3346991 205 205 205
0.147917 -0.09356512 0.3277727 205 205 205
0.1505879 -0.09268422 0.3255239 205 205 205
0.1623489 -0.08934113 0.3165042 205 205 205
0.1721765 -0.08894119 0.3128371 205 205 205
0.1765222 -0.08752163 0.3092259 205 205 205
-0.03760117 -0.07774336 0.3605438 205 205 205
-0.03538426 -0.07834978 0.3607667 205 205 205
-0.03225465 -0.07972972 0.3619217 205 205 205
-0.0271607 -0.08589957 0.37009 205 205 205
-0.02618102 -0.08668239 0.3710148 205 205 205
0.1693864 -0.1502837 0.4094712 205 205 205
0.1440942 -0.1070099 0.3482671 205 205 205
0.1518515 -0.09405226 0.3251488 205 205 205
0.1675749 -0.09002463 0.3138479 205 205 205
0.1768545 -0.08897933 0.309323 205 205 205
0.1778206 -0.08879181 0.3087274 205 205 205
-0.03376905 -0.08086535 0.3620809 205 205 205
-0.02891655 -0.08430918 0.3659282 205 205 205
-0.02673298 -0.08865551 0.3721015 205 205 205
0.1430439 -0.1017445 0.3379284 205 205 205
0.1455001 -0.1003588 0.3349627 205 205 205
0.1520882 -0.09554411 0.3252774 205 205 205
0.1538604 -0.09354381 0.3215582 205 205 205
0.1673884 -0.09095894 0.3132624 205 205 205
0.1732839 -0.09117042 0.3117707 205 205 205
0.1747292 -0.09028158 0.3099192 205 205 205
-0.03909092 -0.07930673 0.3592515 205 205 205
-0.03619754 -0.0812048 0.3612781 205 205 205
0.1669106 -0.1454766 0.3968971 205 205 205
0.146772 -0.1017797 0.3345821 205 205 205
0.1637215 -0.0930654 0.3155995 205 205 205
0.1647156 -0.09290966 0.3150454 205 205 205
0.168183 -0.09172549 0.3121085 205 205 205
0.147627 -0.1126496 0.34904 205 205 205
0.1445018 -0.1047175 0.3376662 205 205 205
0.1559488 -0.09570342 0.3200305 205 205 205
0.1689745 -0.09248626 0.3109486 205 205 205
0.1767405 -0.09105077 0.3062942 205 205 205
-0.03970207 -0.08166132 0.3589005 205 205 205
-0.03748004 -0.08227821 0.3591294 205 205 205
0.1470461 -0.1030694 0.3320988 205 205 205
0.1548629 -0.09978855 0.3245693 205 205 205
0.1572157 -0.09705309 0.3196049 205 205 205
0.1592442 -0.09677108 0.318532 205 205 205
0.1784711 -0.09158867 0.304507 205 205 205
-0.02864759 -0.09950682 0.380604 205 205 205
0.1580368 -0.09785097 0.3184619 205 205 205
0.160517 -0.09811363 0.3180827 205 205 205
0.163148 -0.09586005 0.3138024 205 205 205
0.1641424 -0.09570316 0.3132491 205 205 205
0.1782808 -0.09250793 0.3039111 205 205 205
0.1485165 -0.1060132 0.3317824 205 205 205
0.1634232 -0.0973381 0.3138864 205 205 205
0.1649413 -0.09646946 0.3120871 205 205 205
0.1664488 -0.09432849 0.3083583 205 205 205
0.1756531 -0.09326797 0.3038422 205 205 205
0.178612 -0.09396652 0.3039699 205 205 205
-0.03782037 -0.08739638 0.3607517 205 205 205
-0.03619548 -0.08953728 0.3634622 205 205 205
-0.03316758 -0.09147324 0.365417 205 205 205
-0.03124715 -0.09310106 0.36726 205 205 205
-0.02956493 -0.0991578 0.3758563 205 205 205
-0.02940512 -0.1065012 0.3868771 205 205 205
0.1840288 -0.170377 0.4153846 205 205 205
0.1481325 -0.1100218 0.3357829 205 205 205
0.1524028 -0.1047028 0.3264104 205 205 205
0.1610326 -0.1010998 0.3182434 205 205 205
0.1652216 -0.09794624 0.3121622 205 205 205
0.1720685 -0.09419186 0.3043337 205 205 205
-0.03451806 -0.09212331 0.3646909 205 205 205
-0.03066509 -0.09539729 0.3683682 205 205 205
0.1506603 -0.1082833 0.3301904 205 205 205
0.1654994 -0.09942683 0.3122297 205 205 205
0.1660191 -0.0987063 0.3109869 205 205 205
0.1709424 -0.09656527 0.3062193 205 205 205
-0.04383843 -0.08768488 0.3589202 205 205 205
-0.03794829 -0.09163207 0.3629265 205 205 205
0.1600598 -0.1036864 0.3182295 205 205 205
0.1657119 -0.1021949 0.3142142 205 205 205
0.171719 -0.09729663 0.3050291 205 205 205
0.1721852 -0.0965588 0.3037854 205 205 205
0.1741124 -0.09618609 0.3026169 205 205 205
-0.03243339 -0.09754744 0.3678178 205 205 205
-0.03023886 -0.1061257 0.3797428 205 205 205
0.1592753 -0.1301731 0.3553777 205 205 205
0.1513188 -0.110092 0.3283707 205 205 205
0.1515629 -0.1088262 0.3264303 205 205 205
0.1559937 -0.1070368 0.3223822 205 205 205
0.1570396 -0.1068995 0.321846 205 205 205
0.1588297 -0.1047697 0.3181394 205 205 205
0.1634845 -0.1034468 0.3147038 205 205 205
0.1715221 -0.09820566 0.3044143 205 205 205
0.1767909 -0.09651149 0.3002304 205 205 205
-0.0422156 -0.0906971 0.3587259 205 205 205
0.1574399 -0.1071328 0.3199676 205 205 205
0.1622656 -0.1045331 0.3146244 205 205 205
0.1732625 -0.09874144 0.302631 205 205 205
-0.03401207 -0.1026487 0.3714508 205 205 205
0.1539056 -0.1097694 0.3228487 205 205 205
0.1711426 -0.1013284 0.3050716 205 205 205
-0.04349973 -0.09170616 0.3565051 205 205 205
0.1536603 -0.1189023 0.3339695 205 205 205
0.1521714 -0.113421 0.3265741 205 205 205
0.1558013 -0.1104437 0.3211294 205 205 205
0.1568508 -0.110305 0.3205922 205 205 205
0.1611683 -0.1084195 0.3164914 205 205 205
0.1670209 -0.101631 0.3048403 205 205 205
0.1704461 -0.1016677 0.3037844 205 205 205
-0.03696794 -0.1009872 0.3657238 205 205 205
-0.03582296 -0.1048202 0.3708265 205 205 205
0.1539078 -0.112237 0.3222301 205 205 205
0.1614091 -0.1099304 0.3165197 205 205 205
0.1662852 -0.1045973 0.3073325 205 205 205
0.1721935 -0.1022005 0.3019925 205 205 205
-0.04051202 -0.09747121 0.3597467 205 205 205
-0.03759004 -0.1030129 0.3666855 205 205 205
0.1563626 -0.1236784 0.3355515 205 205 205
0.1536448 -0.1163731 0.3260997 205 205 205
0.1538887 -0.1150692 0.3241772 205 205 205
0.157292 -0.1133513 0.3206477 205 205 205
0.1583466 -0.1132082 0.3201041 205 205 205
0.1611987 -0.1108628 0.315862 205 205 205
0.1660299 -0.1068309 0.3085862 205 205 205
0.1670735 -0.1053327 0.3061254 205 205 205
0.1744378 -0.1032907 0.3008313 205 205 205
0.1743887 -0.1019533 0.298952 205 205 205
0.1768266 -0.1021289 0.2984039 205 205 205
-0.04432914 -0.09498443 0.3553749 205 205 205
0.1543227 -0.1152951 0.3222788 205 205 205
0.161435 -0.1123776 0.3158767 205 205 205
0.166137 -0.110989 0.3123963 205 205 205
0.1668245 -0.1075712 0.3073707 205 205 205
0.1737266 -0.1036137 0.2995499 205 205 205
0.1761062 -0.1024496 0.2971318 205 205 205
-0.03905604 -0.1010429 0.3602454 205 205 205
0.1616688 -0.1138958 0.3158835 205 205 205
0.1681325 -0.1075461 0.3049209 205 205 205
0.1725761 -0.1060471 0.3013714 205 205 205
0.1725511 -0.1046983 0.2994976 205 205 205
0.1730156 -0.1039278 0.2982696 205 205 205
-0.04180047 -0.09885325 0.3560176 205 205 205
-0.04111469 -0.1002542 0.3577445 205 205 205
-0.03863162 -0.1069657 0.3662492 205 205 205
-0.0378792 -0.111979 0.3729224 205 205 205
0.1630801 -0.1139187 0.3134248 205 205 205
0.1723676 -0.1069437 0.3007234 205 205 205
0.1728092 -0.1048144 0.2976289 205 205 205
-0.03972647 -0.1137332 0.3737355 205 205 205
0.1671406 -0.1114679 0.306715 205 205 205
0.1691888 -0.1097555 0.3036881 205 205 205
0.1652793 -0.1146719 0.3097227 205 205 205
0.1668557 -0.1137352 0.3079268 205 205 205
0.1684595 -0.1114267 0.3042514 205 205 205
0.1752788 -0.1059852 0.2945665 205 205 205
-0.04240169 -0.1046632 0.3581191 205 205 205
0.1661706 -0.1140484 0.3066012 205 205 205
0.1692447 -0.1121447 0.3030077 205 205 205
-0.04467906 -0.1043808 0.3564077 205 205 205
-0.04283363 -0.1061393 0.3582275 205 205 205
-0.04234723 -0.1081268 0.3607354 205 205 205
-0.04330468 -0.1244913 0.3827854 205 205 205
0.1591814 -0.1247256 0.3212616 205 205 205
0.1646056 -0.1192384 0.3121206 205 205 205
0.1695105 -0.1136383 0.3029797 205 205 205
0.1715099 -0.1132653 0.3018124 205 205 205
0.1749144 -0.1091223 0.2951077 205 205 205
-0.04693547 -0.104082 0.3546843 205 205 205
-0.04488177 -0.1052969 0.3557142 205 205 205
-0.04438014 -0.1240408 0.3803203 205 205 205
0.16773 -0.1438092 0.3417571 205 205 205
0.1593793 -0.1262798 0.3212188 205 205 205
0.1606842 -0.1247602 0.3187691 205 205 205
0.1619531 -0.1232335 0.3163204 205 205 205
0.1672185 -0.1162801 0.3053213 205 205 205
0.173732 -0.1102011 0.2950402 205 205 205
-0.0459928 -0.1053234 0.3541077 205 205 205
-0.04532184 -0.1067673 0.355813 205 205 205
0.1644922 -0.1385542 0.333673 205 205 205
0.1605896 -0.1310487 0.3250667 205 205 205
0.1617264 -0.1241651 0.3156129 205 205 205
0.1623481 -0.1233956 0.3143916 205 205 205
0.1664484 -0.1179633 0.3058546 205 205 205
0.1669983 -0.117181 0.3046373 205 205 205
0.1690243 -0.1168198 0.3034824 205 205 205
0.1744857 -0.1108757 0.2937825 205 205 205
-0.04390758 -0.1200482 0.3707295 205 205 205
0.1606153 -0.130628 0.3224377 205 205 205
0.1633388 -0.1227701 0.311247 205 205 205
0.1643861 -0.1226033 0.3106795 205 205 205
0.1662264 -0.1188647 0.3051647 205 205 205
0.1683272 -0.11711 0.3021591 205 205 205
0.1728448 -0.1141544 0.2967582 205 205 205
0.1738279 -0.113956 0.2961655 205 205 205
-0.0480333 -0.1079234 0.3541718 205 205 205
-0.04526925 -0.1137715 0.3609539 205 205 205
0.1615051 -0.1280272 0.3167176 205 205 205
0.1612696 -0.1260192 0.3141876 205 205 205
0.1680402 -0.1194047 0.3033203 205 205 205
0.1735855 -0.1134245 0.293655 205 205 205
0.1750187 -0.1124132 0.2918488 205 205 205
-0.0466508 -0.1111973 0.3560593 205 205 205
0.1940932 -0.1869582 0.3798016 205 205 205
0.1745483 -0.1556824 0.3460076 205 205 205
0.1660605 -0.1412249 0.3302041 205 205 205
0.1619125 -0.1281803 0.314775 205 205 205
0.1627216 -0.1259992 0.3116921 205 205 205
0.1724045 -0.1159113 0.2953975 205 205 205
-0.04677051 -0.1286921 0.376342 205 205 205
0.185578 -0.1736069 0.3629804 205 205 205
0.1644097 -0.1383085 0.324907 205 205 205
0.1711545 -0.1198247 0.2989635 205 205 205
-0.04954186 -0.1097269 0.3511282 205 205 205
-0.04798171 -0.1121133 0.353716 205 205 205
0.1633938 -0.1345685 0.3184301 205 205 205
0.1633934 -0.1311152 0.314046 205 205 205
0.1671768 -0.1249243 0.3049034 205 205 205
0.1646733 -0.1325006 0.3133782 205 205 205
0.166693 -0.1286781 0.3078759 205 205 205
0.1736733 -0.1166839 0.2903358 205 205 205
-0.05089467 -0.1336755 0.3752955 205 205 205
0.1993174 -0.1961831 0.3767608 205 205 205
0.1703953 -0.1488048 0.3277371 205 205 205
0.1717302 -0.1237738 0.2961712 205 205 205
0.1717598 -0.1223254 0.2943566 205 205 205
0.1732469 -0.1198479 0.290755 205 205 205
0.1742255 -0.1196413 0.2901587 205 205 205
0.1668898 -0.132661 0.3069312 205 205 205
0.1677422 -0.1289497 0.3020609 205 205 205
0.1759479 -0.1200776 0.2882572 205 205 205
