ply
format ascii 1.0
comment Generated by Floating Hands
element vertex 1917
property double x
property double y
property double z
property uchar red
property uchar green
property uchar blue
end_header
0.1826277 -0.02518083 0.4647017 205 205 205
0.1811398 -0.02679425 0.4650021 205 205 205
0.183798 -0.02813726 0.4634852 205 205 205
0.1651967 -0.0304014 0.4697781 205 205 205
0.179537 -0.02992587 0.4649784 205 205 205
0.1531157 -0.03181285 0.4718282 205 205 205
0.154862 -0.03200273 0.4722387 205 205 205
0.1590966 -0.03189167 0.4706888 205 205 205
0.1615578 -0.0315821 0.4687216 205 205 205
0.1650775 -0.03192083 0.4694601 205 205 205
0.1713229 -0.03117445 0.4648753 205 205 205
0.1734731 -0.03154207 0.4661025 205 205 205
0.1752504 -0.03168703 0.4664225 205 205 205
0.1766443 -0.03160987 0.4658397 205 205 205
0.1804143 -0.03114216 0.4631712 205 205 205
0.1859293 -0.03076712 0.4607395 205 205 205
0.1977345 -0.03029937 0.4573898 205 205 205
0.1433623 -0.03368169 0.475833 205 205 205
0.1463737 -0.03274351 0.4707152 205 205 205
0.149512 -0.03292789 0.470665 205 205 205
0.1586275 -0.03318217 0.4694548 205 205 205
0.1600327 -0.03313898 0.4689296 205 205 205
0.1767472 -0.03238206 0.4622485 205 205 205
0.1826603 -0.03225349 0.4607539 205 205 205
0.1844447 -0.03237928 0.4610303 205 205 205
0.1871951 -0.03217877 0.4597952 205 205 205
0.1895134 -0.03174588 0.4576623 205 205 205
0.1913041 -0.03185509 0.4579069 205 205 205
0.1926693 -0.03174099 0.4572679 205 205 205
0.1994392 -0.03190896 0.4572715 205 205 205
0.1435335 -0.03542573 0.4764297 205 205 205
0.1446565 -0.03518693 0.475033 205 205 205
0.1460831 -0.03517396 0.4745557 205 205 205
0.1512076 -0.03369192 0.4666011 205 205 205
0.1557289 -0.03381868 0.4660006 205 205 205
0.160256 -0.0339176 0.4653488 205 205 205
0.1671953 -0.03364131 0.462646 205 205 205
0.1678299 -0.03312274 0.4602924 205 205 205
0.1717167 -0.03366585 0.461863 205 205 205
0.1776188 -0.03357887 0.4604416 205 205 205
0.1785954 -0.03326711 0.4589612 205 205 205
0.180769 -0.03362919 0.4601413 205 205 205
0.182549 -0.03376204 0.4604247 205 205 205
0.1899179 -0.03269443 0.4549476 205 205 205
0.1944146 -0.03256736 0.4539028 205 205 205
0.2034225 -0.03302721 0.4549219 205 205 205
0.2056736 -0.03252345 0.4526939 205 205 205
0.1437026 -0.0371758 0.477019 205 205 205
0.1556031 -0.03531103 0.4656707 205 205 205
0.1611691 -0.03513207 0.4635813 205 205 205
0.1629152 -0.03531131 0.463951 205 205 205
0.1753437 -0.0347023 0.4589128 205 205 205
0.1767147 -0.03461942 0.4583292 205 205 205
0.1816257 -0.03481071 0.4583197 205 205 205
0.1829953 -0.03471513 0.457714 205 205 205
0.1902368 -0.03441902 0.4554899 205 205 205
0.1911669 -0.0340776 0.4539802 205 205 205
0.192521 -0.0339606 0.4533415 205 205 205
0.2010585 -0.03423107 0.4535328 205 205 205
0.2028661 -0.03431932 0.4537213 205 205 205
0.2051123 -0.03381159 0.4514978 205 205 205
0.1450023 -0.03868501 0.4762031 205 205 205
0.1472407 -0.03818217 0.4734003 205 205 205
0.1502052 -0.03716933 0.4682626 205 205 205
0.1547538 -0.03731133 0.4676681 205 205 205
0.155476 -0.03680174 0.4653351 205 205 205
0.1582642 -0.03671789 0.4642999 205 205 205
0.1593039 -0.03643569 0.4628691 205 205 205
0.1620741 -0.0363339 0.4618077 205 205 205
0.1662153 -0.03615842 0.4601798 205 205 205
0.1685899 -0.03579167 0.4581744 205 205 205
0.1703393 -0.0359557 0.4585089 205 205 205
0.1717101 -0.03588197 0.4579424 205 205 205
0.1730788 -0.03580535 0.4573712 205 205 205
0.1762047 -0.03587649 0.4571033 205 205 205
0.1775709 -0.03579047 0.4565163 205 205 205
0.1838386 -0.03588089 0.4558835 205 205 205
0.1857235 -0.03521053 0.4528958 205 205 205
0.1955564 -0.03544156 0.452579 205 205 205
0.2032036 -0.0352333 0.4509789 205 205 205
0.2068215 -0.03539963 0.4513239 205 205 205
0.2131537 -0.03523358 0.4502174 205 205 205
0.1448642 -0.04020249 0.4758562 205 205 205
0.1508201 -0.03815413 0.4655974 205 205 205
0.1550069 -0.0380508 0.4640846 205 205 205
0.1563991 -0.03801029 0.4635707 205 205 205
0.1574417 -0.03772711 0.4621455 205 205 205
0.1584754 -0.03744113 0.4607182 205 205 205
0.1626086 -0.03728395 0.4591272 205 205 205
0.1680935 -0.0370321 0.4569391 205 205 205
0.1739378 -0.03696951 0.4555648 205 205 205
0.1797779 -0.03685676 0.4541031 205 205 205
0.2021858 -0.03627036 0.4489143 205 205 205
0.2035259 -0.03612772 0.4482366 205 205 205
0.2093357 -0.0357566 0.4463291 205 205 205
0.2116214 -0.03605799 0.4473226 205 205 205
0.1469678 -0.04119949 0.4727041 205 205 205
0.1491751 -0.04066868 0.4698946 205 205 205
0.1506881 -0.03963814 0.4652514 205 205 205
0.1520862 -0.03960652 0.4647519 205 205 205
0.1545371 -0.03929051 0.4628302 205 205 205
0.1777348 -0.03899946 0.4567122 205 205 205
0.179104 -0.03890952 0.4561189 205 205 205
0.1814281 -0.03848016 0.4540375 205 205 205
0.1868522 -0.03806647 0.4515862 205 205 205
0.1891222 -0.03760257 0.4494612 205 205 205
0.1962497 -0.0380666 0.4503631 205 205 205
0.198492 -0.03756591 0.4481824 205 205 205
0.206096 -0.03732403 0.4465162 205 205 205
0.2123757 -0.03716282 0.4454129 205 205 205
0.2137058 -0.03699727 0.4446992 205 205 205
0.2155205 -0.03706111 0.4448227 205 205 205
0.2214863 -0.03745982 0.4459798 205 205 205
0.1468292 -0.04270544 0.4723473 205 205 205
0.1476204 -0.04218949 0.4700295 205 205 205
0.1519537 -0.04108856 0.4644002 205 205 205
0.1568378 -0.04043624 0.4605445 205 205 205
0.1609811 -0.04028679 0.4589674 205 205 205
0.1637342 -0.04017199 0.4578922 205 205 205
0.1668519 -0.0402913 0.457693 205 205 205
0.1674738 -0.03973087 0.4553505 205 205 205
0.1688382 -0.03965992 0.454793 205 205 205
0.1719475 -0.03975463 0.454553 205 205 205
0.1777838 -0.03966035 0.4531157 205 205 205
0.1845489 -0.03916705 0.4501024 205 205 205
0.1943507 -0.03944088 0.4497945 205 205 205
0.19614 -0.03955475 0.4500071 205 205 205
0.2045918 -0.03809692 0.4436046 205 205 205
0.2059159 -0.0379453 0.4429183 205 205 205
0.2104636 -0.03858304 0.4449173 205 205 205
0.2131211 -0.03825495 0.4434983 205 205 205
0.214446 -0.03808631 0.442782 205 205 205
0.1430015 -0.04475528 0.4752561 205 205 205
0.1438282 -0.04424053 0.4729452 205 205 205
0.147482 -0.04368586 0.4696687 205 205 205
0.1493437 -0.0428815 0.4659488 205 205 205
0.1525458 -0.04203086 0.461723 205 205 205
0.1567075 -0.04190801 0.4601888 205 205 205
0.1601381 -0.04125633 0.4568123 205 205 205
0.1727988 -0.04089397 0.4527372 205 205 205
0.1763045 -0.04122171 0.4533472 205 205 205
0.1871839 -0.03956432 0.4452732 205 205 205
0.1933614 -0.04043303 0.4477049 205 205 205
0.1951443 -0.04055098 0.44792 205 205 205
0.1960404 -0.04017574 0.4464048 205 205 205
0.1982574 -0.03966213 0.4442287 205 205 205
0.200451 -0.03913772 0.4420411 205 205 205
0.209883 -0.03983139 0.4437089 205 205 205
0.2107305 -0.03942794 0.44216 205 205 205
0.2138576 -0.03933455 0.4415792 205 205 205
0.2151773 -0.03916274 0.4408602 205 205 205
0.2169877 -0.03922699 0.4409729 205 205 205
0.219299 -0.03952601 0.4419116 205 205 205
0.14316 -0.04652168 0.4758043 205 205 205
0.1499557 -0.04382401 0.4632701 205 205 205
0.1513524 -0.0437919 0.4627717 205 205 205
0.1538017 -0.04346338 0.4608551 205 205 205
0.1651139 -0.04222146 0.4534014 205 205 205
0.1726766 -0.04235699 0.4523764 205 205 205
0.1767442 -0.04209708 0.4506336 205 205 205
0.178096 -0.04200431 0.4500433 205 205 205
0.1825525 -0.04195921 0.4491196 205 205 205
0.1834817 -0.04160303 0.4476359 205 205 205
0.1857371 -0.04113366 0.4455344 205 205 205
0.1923716 -0.04140813 0.4456133 205 205 205
0.1941481 -0.04153016 0.4458309 205 205 205
0.1959291 -0.04164845 0.4460404 205 205 205
0.2168858 -0.04071251 0.4406045 205 205 205
0.2220196 -0.04156176 0.443298 205 205 205
0.1441533 -0.04776343 0.474035 205 205 205
0.1452839 -0.04748956 0.4726399 205 205 205
0.1467188 -0.04747216 0.4721557 205 205 205
0.1493922 -0.04610445 0.4661252 205 205 205
0.1536672 -0.04493199 0.4604883 205 205 205
0.1550559 -0.04489066 0.4599767 205 205 205
0.1567889 -0.04510503 0.4603622 205 205 205
0.1588582 -0.04448967 0.4575145 205 205 205
0.1612519 -0.04412149 0.455555 205 205 205
0.1632562 -0.04348385 0.4526888 205 205 205
0.1649872 -0.04367651 0.4530371 205 205 205
0.1721639 -0.04356144 0.4511253 205 205 205
0.183364 -0.04306167 0.4472695 205 205 205
0.1847058 -0.04295338 0.4466561 205 205 205
0.1856212 -0.0425878 0.445169 205 205 205
0.1860996 -0.04196585 0.4428129 205 205 205
0.1909433 -0.0421132 0.4426575 205 205 205
0.1931514 -0.04249234 0.44374 205 205 205
0.1966808 -0.04184161 0.4409289 205 205 205
0.1979997 -0.04170282 0.4402696 205 205 205
0.2024079 -0.04151837 0.4391138 205 205 205
0.2118429 -0.04221961 0.4407128 205 205 205
0.2154603 -0.04237246 0.4409557 205 205 205
0.2167822 -0.04219616 0.4402305 205 205 205
0.220917 -0.04257162 0.4412582 205 205 205
0.2237499 -0.04312065 0.4429998 205 205 205
0.1476918 -0.04869071 0.4703745 205 205 205
0.1563085 -0.04631262 0.4590878 205 205 205
0.1587257 -0.04595177 0.4571427 205 205 205
0.1607611 -0.04531724 0.4542888 205 205 205
0.1726104 -0.04441233 0.4484151 205 205 205
0.1801433 -0.04446748 0.447236 205 205 205
0.182411 -0.04400128 0.4451549 205 205 205
0.1855561 -0.04315247 0.4415775 205 205 205
0.1864472 -0.04277841 0.4400919 205 205 205
0.1899531 -0.04305044 0.4405635 205 205 205
0.1947987 -0.04317503 0.4403553 205 205 205
0.199206 -0.04301327 0.4392344 205 205 205
0.2067073 -0.04276174 0.4375335 205 205 205
0.2084957 -0.04285267 0.4376799 205 205 205
0.2102884 -0.04293964 0.4378182 205 205 205
0.2125712 -0.0432741 0.4387855 205 205 205
0.2221372 -0.04387613 0.4401314 205 205 205
0.2263066 -0.04423602 0.4411006 205 205 205
0.1478635 -0.05045458 0.4708992 205 205 205
0.1491102 -0.04906844 0.4653672 205 205 205
0.1520021 -0.04790256 0.4602445 205 205 205
0.1603273 -0.04762422 0.457132 205 205 205
0.1719127 -0.04647092 0.4503779 205 205 205
0.1732693 -0.04638657 0.449803 205 205 205
0.1778631 -0.04549246 0.4457072 205 205 205
0.1911571 -0.04436556 0.4395532 205 205 205
0.1929187 -0.04449606 0.4397701 205 205 205
0.1942369 -0.04436331 0.4391235 205 205 205
0.1955528 -0.04422748 0.4384724 205 205 205
0.2088662 -0.04456783 0.43814 205 205 205
0.2106628 -0.04465769 0.4382756 205 205 205
0.2231469 -0.04422428 0.435772 205 205 205
0.2229168 -0.04327388 0.4325565 205 205 205
-0.03068964 -0.03352519 0.4974876 205 205 205
-0.02919566 -0.03387147 0.4976161 205 205 205
0.1465938 -0.0522452 0.4719067 205 205 205
0.1563805 -0.04951012 0.4592248 205 205 205
0.1645983 -0.04803071 0.4519107 205 205 205
0.1669463 -0.04762057 0.4499197 205 205 205
0.1737073 -0.04721508 0.447084 205 205 205
0.1759954 -0.0467643 0.4450417 205 205 205
0.1777396 -0.04693523 0.4453271 205 205 205
0.1786702 -0.04656911 0.4438598 205 205 205
0.1813366 -0.04636181 0.4426596 205 205 205
0.1839944 -0.04614237 0.4414411 205 205 205
0.1932265 -0.04527876 0.4370337 205 205 205
0.1989806 -0.04591219 0.4384747 205 205 205
-0.02793079 -0.03570506 0.4973615 205 205 205
0.159345 -0.04999906 0.4545711 205 205 205
0.1603614 -0.04966828 0.4531461 205 205 205
0.1613687 -0.0493347 0.4517192 205 205 205
0.1664386 -0.04879134 0.448649 205 205 205
0.1677919 -0.04871621 0.4480926 205 205 205
0.1691433 -0.0486381 0.4475316 205 205 205
0.1708803 -0.04882887 0.4478467 205 205 205
0.1726225 -0.04901624 0.4481542 205 205 205
0.1798813 -0.04790349 0.4428775 205 205 205
0.1825449 -0.0476894 0.4416681 205 205 205
0.1856638 -0.04680787 0.4380963 205 205 205
0.1882914 -0.04656471 0.4368482 205 205 205
0.1900422 -0.04670638 0.4370743 205 205 205
0.1917977 -0.0468444 0.4372926 205 205 205
0.1926631 -0.0464444 0.435796 205 205 205
0.1974923 -0.04656072 0.4355416 205 205 205
0.198338 -0.04614963 0.4340321 205 205 205
0.2049515 -0.04633126 0.4338621 205 205 205
0.2143837 -0.0470643 0.4353567 205 205 205
0.2179957 -0.04722389 0.4355615 205 205 205
0.2198078 -0.0472976 0.4356515 205 205 205
0.2206134 -0.04684727 0.4340875 205 205 205
0.213018 -0.03890123 0.4083667 205 205 205
-0.03533479 -0.03498878 0.4943872 205 205 205
-0.03087772 -0.03604383 0.4948004 205 205 205
0.1488557 -0.05492018 0.4692106 205 205 205
0.1518327 -0.05371469 0.4640897 205 205 205
0.1525799 -0.05312154 0.4617793 205 205 205
0.1557569 -0.0521597 0.4575416 205 205 205
0.1578298 -0.05150422 0.4547062 205 205 205
0.159563 -0.05172715 0.4550709 205 205 205
0.1602253 -0.05111488 0.4527542 205 205 205
0.162599 -0.0507139 0.450789 205 205 205
0.1632234 -0.05009389 0.4484709 205 205 205
0.1666834 -0.05050546 0.4491432 205 205 205
0.1676608 -0.05015365 0.4477026 205 205 205
0.1724929 -0.0504604 0.4477621 205 205 205
0.1771951 -0.04861782 0.4404737 205 205 205
0.1789324 -0.0487899 0.4407496 205 205 205
0.1829055 -0.04846496 0.4389385 205 205 205
0.1916794 -0.04827569 0.4369029 205 205 205
0.1956128 -0.04786675 0.4349602 205 205 205
0.2030631 -0.04766069 0.4333137 205 205 205
0.2097068 -0.04780807 0.4330569 205 205 205
0.2132897 -0.04799209 0.4333 205 205 205
0.2155823 -0.04834327 0.4342368 205 205 205
0.2207937 -0.04759184 0.4313044 205 205 205
-0.04033816 -0.0358355 0.4954628 205 205 205
-0.03393679 -0.03658921 0.4931821 205 205 205
-0.0324543 -0.03694057 0.4933191 205 205 205
-0.03097084 -0.03728904 0.4934508 205 205 205
-0.0296207 -0.03786788 0.4945402 205 205 205
-0.02826211 -0.03844548 0.4956249 205 205 205
0.1524353 -0.05459068 0.4613758 205 205 205
0.1531678 -0.05398703 0.4590679 205 205 205
0.1552717 -0.05333508 0.4562453 205 205 205
0.1563101 -0.05300492 0.454831 205 205 205
0.1627201 -0.05124587 0.4471905 205 205 205
0.1640715 -0.05117667 0.4466462 205 205 205
0.1675283 -0.05158919 0.4473071 205 205 205
0.1702319 -0.0514287 0.4461804 205 205 205
0.1723618 -0.05190259 0.4473644 205 205 205
0.1733215 -0.05153512 0.4459109 205 205 205
0.1756149 -0.05107104 0.4438717 205 205 205
0.1765508 -0.05069562 0.442412 205 205 205
0.1770692 -0.05003955 0.4400814 205 205 205
0.1801341 -0.05010941 0.4397571 205 205 205
0.1871705 -0.04981171 0.4375517 205 205 205
0.1937354 -0.04916034 0.4343675 205 205 205
0.1950414 -0.04902096 0.4337173 205 205 205
0.2003372 -0.04940289 0.4342682 205 205 205
0.2193852 -0.04923943 0.4316411 205 205 205
0.2227608 -0.04838502 0.4285936 205 205 205
0.2150733 -0.0419543 0.4085244 205 205 205
-0.05541207 -0.03348773 0.493187 205 205 205
-0.04930783 -0.03482882 0.4930476 205 205 205
-0.04836781 -0.03589026 0.4961102 205 205 205
-0.04057438 -0.03731491 0.4950705 205 205 205
-0.03728573 -0.0375798 0.4934624 205 205 205
-0.02575075 -0.04108636 0.4973831 205 205 205
0.1512102 -0.05638067 0.4623728 205 205 205
0.1530233 -0.05544642 0.4586608 205 205 205
0.1540808 -0.0551179 0.4572516 205 205 205
0.1551293 -0.05478644 0.4558403 205 205 205
0.1568485 -0.05382998 0.4521197 205 205 205
0.1592331 -0.05343269 0.4501753 205 205 205
0.160598 -0.053372 0.449642 205 205 205
0.1615959 -0.05302374 0.4482177 205 205 205
0.1652871 -0.05253079 0.4456985 205 205 205
0.176126 -0.05089558 0.4379469 205 205 205
0.1809151 -0.05114224 0.4378911 205 205 205
0.1835531 -0.05091569 0.4366735 205 205 205
0.1892421 -0.05070528 0.4350382 205 205 205
0.1914138 -0.05016311 0.4329131 205 205 205
0.197989 -0.05043163 0.4328476 205 205 205
0.2036604 -0.05009121 0.4309963 205 205 205
0.2192738 -0.05069253 0.4312325 205 205 205
0.2208493 -0.04976191 0.428117 205 205 205
0.222621 -0.04808174 0.4226294 205 205 205
0.220741 -0.04626724 0.4170305 205 205 205
-0.05545498 -0.03473378 0.4918391 205 205 205
-0.04658581 -0.03706357 0.4930277 205 205 205
-0.03916238 -0.0389242 0.4938719 205 205 205
-0.03573383 -0.03893607 0.4912931 205 205 205
0.1504808 -0.05994374 0.4692684 205 205 205
0.1506224 -0.05875323 0.4651606 205 205 205
0.1524743 -0.05781262 0.4614496 205 205 205
0.1553287 -0.05652512 0.4563234 205 205 205
0.1560261 -0.05589766 0.4540175 205 205 205
0.1570576 -0.05555655 0.4526032 205 205 205
0.160098 -0.05451658 0.4483489 205 205 205
0.1754838 -0.0529772 0.439869 205 205 205
0.1759979 -0.05230594 0.437546 205 205 205
0.1961069 -0.05172073 0.4322586 205 205 205
0.2025962 -0.0509585 0.4289192 205 205 205
0.2101794 -0.05168042 0.4303086 205 205 205
0.2137596 -0.05187784 0.430537 205 205 205
0.2150585 -0.05169462 0.4298165 205 205 205
0.2189392 -0.05112622 0.4276285 205 205 205
0.2202274 -0.05093053 0.4268903 205 205 205
0.2214715 -0.04896307 0.4206043 205 205 205
-0.05864399 -0.03539751 0.4910022 205 205 205
-0.04978682 -0.03776657 0.4922521 205 205 205
-0.04848729 -0.03838464 0.4933971 205 205 205
-0.04385744 -0.03928719 0.492979 205 205 205
-0.03775506 -0.0405205 0.4926625 205 205 205
-0.03478236 -0.04123763 0.4929508 205 205 205
0.1504707 -0.06023201 0.464736 205 205 205
0.1534011 -0.05894579 0.4596205 205 205 205
0.1582918 -0.05694069 0.4516626 205 205 205
0.1593099 -0.05658985 0.4502441 205 205 205
0.162678 -0.05581279 0.4468606 205 205 205
0.1636634 -0.05545085 0.4454334 205 205 205
0.1686721 -0.05484931 0.4423348 205 205 205
0.1704018 -0.05505497 0.442643 205 205 205
0.1717435 -0.05496661 0.4420712 205 205 205
0.1744209 -0.05478077 0.4409138 205 205 205
0.1798244 -0.05339692 0.4353567 205 205 205
0.1885558 -0.05325351 0.4333734 205 205 205
0.1929224 -0.05313769 0.4323066 205 205 205
0.1972889 -0.05299219 0.4311896 205 205 205
0.2010582 -0.05152608 0.4260068 205 205 205
0.2073113 -0.05244223 0.4281108 205 205 205
0.2090888 -0.05255118 0.42824 205 205 205
0.2129548 -0.05201488 0.4261144 205 205 205
0.2152392 -0.05238834 0.4270362 205 205 205
0.2178117 -0.05200722 0.4255809 205 205 205
0.2208872 -0.05189097 0.42492 205 205 205
0.2226845 -0.05196568 0.4249851 205 205 205
0.2234446 -0.05148406 0.4234259 205 205 205
-0.05867945 -0.03662908 0.4896475 205 205 205
-0.05150682 -0.03884433 0.491651 205 205 205
-0.05002698 -0.03923248 0.4918456 205 205 205
-0.0470636 -0.04000002 0.4922189 205 205 205
-0.04112291 -0.0414996 0.4929017 205 205 205
-0.03947577 -0.04162426 0.4921021 205 205 205
-0.03486878 -0.04246064 0.4915833 205 205 205
-0.03217928 -0.04366005 0.4937663 205 205 205
0.153981 -0.05976919 0.456893 205 205 205
0.1550363 -0.05942564 0.4554836 205 205 205
0.1564206 -0.058137 0.4508811 205 205 205
0.1577949 -0.05808158 0.4503557 205 205 205
0.1598169 -0.05736941 0.4475219 205 205 205
0.1635246 -0.05687172 0.4450183 205 205 205
0.1681508 -0.05597061 0.4410464 205 205 205
0.171216 -0.0560915 0.4407847 205 205 205
0.1729491 -0.05629405 0.4410797 205 205 205
0.1757373 -0.05512093 0.4367279 205 205 205
0.1779642 -0.05461898 0.4346818 205 205 205
0.1849427 -0.05433524 0.4325053 205 205 205
0.186249 -0.05421086 0.4318843 205 205 205
0.1892969 -0.05424305 0.4314778 205 205 205
0.1941038 -0.05441033 0.4312439 205 205 205
0.1967073 -0.0541198 0.4299341 205 205 205
0.1975428 -0.05368214 0.428434 205 205 205
0.198369 -0.05324225 0.4269331 205 205 205
0.2004666 -0.0526423 0.4247619 205 205 205
0.2022212 -0.05276768 0.4249195 205 205 205
0.20446 -0.05317483 0.4258987 205 205 205
0.2115523 -0.05361922 0.4264096 205 205 205
0.2128391 -0.05343686 0.4256968 205 205 205
0.2164118 -0.05362776 0.4258911 205 205 205
0.2215378 -0.05283875 0.4229461 205 205 205
0.2228126 -0.05263379 0.4221989 205 205 205
0.2264074 -0.05277191 0.4222974 205 205 205
-0.05850582 -0.03761738 0.4873394 205 205 205
-0.05704302 -0.03801788 0.4875585 205 205 205
-0.055378 -0.03817958 0.4868215 205 205 205
-0.04860374 -0.0408414 0.4906688 205 205 205
-0.04546968 -0.04135967 0.4900755 205 205 205
-0.04399204 -0.04173482 0.4902476 205 205 205
-0.03791426 -0.04295836 0.4899268 205 205 205
-0.0364349 -0.04331779 0.490072 205 205 205
-0.02805652 -0.04642697 0.4946672 205 205 205
0.1501633 -0.06318356 0.4638698 205 205 205
0.15523 -0.06117351 0.4559456 205 205 205
0.1555898 -0.06022217 0.4527559 205 205 205
0.1562753 -0.05956874 0.4504572 205 205 205
0.1610365 -0.05872829 0.4465638 205 205 205
0.1660883 -0.05814028 0.4434954 205 205 205
0.1683991 -0.0576793 0.4415014 205 205 205
0.1701294 -0.05789182 0.4418074 205 205 205
0.1710801 -0.0575049 0.4403654 205 205 205
0.1754895 -0.0575176 0.4394929 205 205 205
0.1800394 -0.05550178 0.4322096 205 205 205
0.1817701 -0.05568223 0.4324612 205 205 205
0.1878648 -0.05577893 0.4316916 205 205 205
0.1891707 -0.05564769 0.43106 205 205 205
0.1930749 -0.05523582 0.429139 205 205 205
0.1969579 -0.05479653 0.4271782 205 205 205
0.2003467 -0.05403946 0.4243459 205 205 205
0.2025778 -0.05445799 0.4253327 205 205 205
0.2043405 -0.05458226 0.4254796 205 205 205
0.2056246 -0.05441361 0.4247917 205 205 205
0.209955 -0.05417684 0.4235233 205 205 205
0.2117288 -0.05428261 0.4236355 205 205 205
-0.0526929 -0.04040985 0.4868191 205 205 205
-0.03946792 -0.04380103 0.4884036 205 205 205
-0.02979129 -0.04755626 0.4941276 205 205 205
0.1501766 -0.06621291 0.4684158 205 205 205
0.1608932 -0.06014953 0.4461368 205 205 205
0.1626211 -0.0603848 0.4464751 205 205 205
0.1663256 -0.05985934 0.4439446 205 205 205
0.1686453 -0.05939352 0.4419488 205 205 205
0.1740162 -0.05903027 0.4396525 205 205 205
0.1824874 -0.05767784 0.43375 205 205 205
0.1864275 -0.05731054 0.4318955 205 205 205
0.189043 -0.05705039 0.430637 205 205 205
0.1899026 -0.05661856 0.4291562 205 205 205
0.1912012 -0.05648123 0.4285176 205 205 205
0.1976589 -0.05574888 0.4252588 205 205 205
0.2015048 -0.05527296 0.4232512 205 205 205
0.203261 -0.05540137 0.4234005 205 205 205
0.2128891 -0.05550766 0.4224961 205 205 205
0.2210255 -0.0546176 0.4189309 205 205 205
-0.05878092 -0.04026752 0.485561 205 205 205
-0.04742425 -0.04389112 0.4890585 205 205 205
-0.04429588 -0.04439586 0.4884538 205 205 205
-0.03002628 -0.04902855 0.493697 205 205 205
-0.02852487 -0.04937486 0.4938111 205 205 205
-0.02551936 -0.05005845 0.4940232 205 205 205
0.1502991 -0.06516602 0.4597943 205 205 205
0.1510544 -0.06451085 0.4575024 205 205 205
0.1521273 -0.06416127 0.4561018 205 205 205
0.1570045 -0.06206249 0.4481839 205 205 205
0.16211 -0.06150055 0.4451631 205 205 205
0.1634698 -0.06142926 0.4446174 205 205 205
0.1648276 -0.06135492 0.4440671 205 205 205
0.1658062 -0.06097104 0.4426381 205 205 205
0.1667756 -0.06058454 0.4412076 205 205 205
0.1694633 -0.06041507 0.4400808 205 205 205
0.1721429 -0.06023327 0.4389358 205 205 205
0.176147 -0.0599376 0.4371843 205 205 205
0.1783931 -0.05942124 0.4351355 205 205 205
0.1823548 -0.05908044 0.4333213 205 205 205
0.1849851 -0.0588379 0.4320896 205 205 205
0.1862969 -0.05871206 0.431467 205 205 205
0.1927555 -0.05699314 0.4251231 205 205 205
0.1970694 -0.05684433 0.4239988 205 205 205
0.200907 -0.05636835 0.4219968 205 205 205
0.2069674 -0.05628213 0.4209082 205 205 205
0.2082385 -0.05610422 0.4202113 205 205 205
0.2214292 -0.05631711 0.4193027 205 205 205
0.2232191 -0.0563989 0.4193571 205 205 205
-0.05005289 -0.04382116 0.4854131 205 205 205
-0.04322659 -0.04647403 0.4891426 205 205 205
-0.04174519 -0.04684518 0.4893029 205 205 205
-0.03846349 -0.04706151 0.4877017 205 205 205
-0.03550818 -0.04777931 0.4879839 205 205 205
-0.03417556 -0.04839502 0.4890713 205 205 205
-0.03283443 -0.04900951 0.490154 205 205 205
-0.02999133 -0.049971 0.4913505 205 205 205
-0.02285952 -0.05247127 0.4947321 205 205 205
0.1504687 -0.06693538 0.4602372 205 205 205
0.156179 -0.06416353 0.4500373 205 205 205
0.1585828 -0.06373609 0.4480976 205 205 205
0.1592382 -0.06305135 0.4458029 205 205 205
0.1670141 -0.06230278 0.4416434 205 205 205
0.1687472 -0.06252875 0.4419506 205 205 205
0.1697101 -0.06213224 0.4405136 205 205 205
0.1750781 -0.06175416 0.4381994 205 205 205
0.1773406 -0.0612387 0.4361561 205 205 205
0.1786696 -0.06113057 0.4355588 205 205 205
0.1817978 -0.06017436 0.4320348 205 205 205
0.1892005 -0.05910503 0.427454 205 205 205
0.191791 -0.05882647 0.4261761 205 205 205
0.1921738 -0.0580755 0.4238557 205 205 205
0.1991627 -0.0586804 0.4245659 205 205 205
0.2004494 -0.05852045 0.423895 205 205 205
0.2012585 -0.05805638 0.4223931 205 205 205
0.2076253 -0.05719759 0.4189614 205 205 205
0.211651 -0.05772599 0.4200003 205 205 205
0.2172303 -0.05724918 0.4179268 205 205 205
0.2237052 -0.05541006 0.4118785 205 205 205
0.2211965 -0.05314858 0.4055772 205 205 205
0.2202554 -0.05176602 0.4016712 205 205 205
-0.05447973 -0.04383821 0.4834499 205 205 205
-0.04864264 -0.04538655 0.4842187 205 205 205
-0.04001387 -0.04788231 0.486167 205 205 205
-0.03589413 -0.04949064 0.4885013 205 205 205
-0.03172008 -0.05108299 0.4907924 205 205 205
-0.02436194 -0.05306772 0.4922846 205 205 205
-0.0230936 -0.05394597 0.4942868 205 205 205
0.1506361 -0.06871017 0.4606722 205 205 205
0.1507428 -0.06740759 0.4566029 205 205 205
0.1525471 -0.06637393 0.4529169 205 205 205
0.1594486 -0.06478164 0.4462385 205 205 205
0.160817 -0.06471579 0.4457006 205 205 205
0.1618177 -0.06433241 0.444282 205 205 205
0.1635481 -0.06457486 0.4446108 205 205 205
0.1652838 -0.06481378 0.4449321 205 205 205
0.1662716 -0.06442145 0.4435026 205 205 205
0.1699548 -0.06385487 0.4409387 205 205 205
0.1745365 -0.06285013 0.4368965 205 205 205
0.1758704 -0.06274779 0.4363083 205 205 205
0.1855981 -0.06119952 0.4297477 205 205 205
0.1873422 -0.06137927 0.4299673 205 205 205
0.1882105 -0.06093773 0.4284929 205 205 205
0.1929537 -0.06007017 0.4250943 205 205 205
0.2032069 -0.05880588 0.4197745 205 205 205
0.2039925 -0.05833073 0.41827 205 205 205
0.2208947 -0.05803241 0.4152765 205 205 205
0.2221505 -0.05782126 0.4145312 205 205 205
0.222875 -0.05731035 0.4129865 205 205 205
0.2218858 -0.05318739 0.4012944 205 205 205
-0.05658466 -0.04538115 0.4847023 205 205 205
-0.05492034 -0.04552302 0.4839622 205 205 205
-0.04431536 -0.04768908 0.483355 205 205 205
-0.04041298 -0.04958699 0.4866787 205 205 205
-0.03877695 -0.04968572 0.4858762 205 205 205
-0.03316142 -0.05164969 0.4883197 205 205 205
-0.03195592 -0.05254105 0.4903469 205 205 205
-0.02909878 -0.05350891 0.4915301 205 205 205
-0.02746986 -0.05358005 0.490684 205 205 205
-0.02597265 -0.05392035 0.4907858 205 205 205
0.1513014 -0.07244548 0.4669531 205 205 205
0.1508015 -0.07049033 0.4610993 205 205 205
0.1505849 -0.06885282 0.4561448 205 205 205
0.156906 -0.06664039 0.447731 205 205 205
0.1582823 -0.06658041 0.447201 205 205 205
0.1589406 -0.06588019 0.444911 205 205 205
0.1630312 -0.06567317 0.4432876 205 205 205
0.1688418 -0.0656708 0.4419263 205 205 205
0.1694234 -0.06494904 0.4396242 205 205 205
0.1806281 -0.0633939 0.4326125 205 205 205
0.1915302 -0.06160041 0.425298 205 205 205
0.1997239 -0.06099515 0.422187 205 205 205
0.2063961 -0.05935586 0.4164527 205 205 205
0.2229415 -0.05788318 0.410207 205 205 205
0.2231098 -0.05706558 0.4078749 205 205 205
0.2243387 -0.05684451 0.407123 205 205 205
-0.05829031 -0.04641452 0.4840505 205 205 205
-0.05682715 -0.04681521 0.4842612 205 205 205
-0.05039261 -0.04760297 0.4822128 205 205 205
-0.04729269 -0.04810221 0.4816266 205 205 205
-0.04583576 -0.04847847 0.4817989 205 205 205
-0.04048703 -0.05075967 0.4852839 205 205 205
-0.03885364 -0.05085442 0.4844817 205 205 205
-0.03310792 -0.05255134 0.4859689 205 205 205
-0.02906828 -0.05441804 0.4891731 205 205 205
-0.02470848 -0.0557165 0.4904293 205 205 205
0.1521675 -0.07057705 0.4560572 205 205 205
0.1550234 -0.06913958 0.4509667 205 205 205
0.156068 -0.06876238 0.4495613 205 205 205
0.1571036 -0.06838235 0.4481539 205 205 205
0.1615199 -0.06715605 0.4433794 205 205 205
0.1632507 -0.06740545 0.4437057 205 205 205
0.1642425 -0.06700817 0.4422833 205 205 205
0.1751836 -0.06523042 0.4345539 205 205 205
0.178252 -0.06533456 0.434221 205 205 205
0.1922378 -0.06252449 0.423372 205 205 205
0.1973749 -0.06191498 0.4207545 205 205 205
0.2012025 -0.06142577 0.4187461 205 205 205
0.2024735 -0.06125657 0.4180681 205 205 205
0.2057802 -0.06042082 0.4151941 205 205 205
0.2110489 -0.06079402 0.415527 205 205 205
0.2148207 -0.06021008 0.4133793 205 205 205
0.218358 -0.0604169 0.4135239 205 205 205
0.2196113 -0.06020886 0.4127872 205 205 205
0.2238859 -0.05986979 0.4113425 205 205 205
-0.05686482 -0.04798562 0.4828713 205 205 205
-0.05540359 -0.04838309 0.4830758 205 205 205
-0.05374335 -0.04851403 0.4823309 205 205 205
-0.04917311 -0.04941035 0.4819504 205 205 205
-0.0475304 -0.04952358 0.4811819 205 205 205
-0.04349795 -0.05118604 0.4835766 205 205 205
-0.03777483 -0.05292197 0.4851227 205 205 205
-0.02344296 -0.05750853 0.4900609 205 205 205
-0.0207739 -0.05902402 0.4930826 205 205 205
0.15145 -0.07439388 0.4628169 205 205 205
0.1512499 -0.0727183 0.4578705 205 205 205
0.1548666 -0.07056843 0.4505012 205 205 205
0.1565988 -0.06947692 0.4468127 205 205 205
0.1576226 -0.06909025 0.445406 205 205 205
0.1613689 -0.06856477 0.4429199 205 205 205
0.1627318 -0.0684921 0.4423742 205 205 205
0.1640928 -0.0684163 0.4418239 205 205 205
0.1741088 -0.06705096 0.4355424 205 205 205
0.1785209 -0.06705425 0.4346171 205 205 205
0.1799304 -0.06585961 0.4308579 205 205 205
0.1821393 -0.06529886 0.4287927 205 205 205
0.1847574 -0.06504773 0.4275593 205 205 205
0.1946791 -0.0636027 0.4216212 205 205 205
0.1963104 -0.06265751 0.4186527 205 205 205
0.2005965 -0.06248496 0.4174757 205 205 205
0.2018646 -0.06231576 0.4167996 205 205 205
0.2069122 -0.06160847 0.4140525 205 205 205
0.2116799 -0.06166902 0.4135585 205 205 205
0.2171998 -0.0611815 0.4114753 205 205 205
0.2232344 -0.06094754 0.4100989 205 205 205
0.2257172 -0.06050267 0.4085877 205 205 205
-0.0585678 -0.04901071 0.4822106 205 205 205
-0.05690164 -0.04914664 0.4814779 205 205 205
-0.05252402 -0.05032914 0.482073 205 205 205
-0.04941232 -0.05083257 0.4814993 205 205 205
-0.04776858 -0.0509428 0.4807315 205 205 205
-0.04520356 -0.052241 0.4829608 205 205 205
-0.04373596 -0.05261449 0.4831227 205 205 205
-0.03948734 -0.05399404 0.4845246 205 205 205
-0.03386983 -0.05598728 0.4869566 205 205 205
-0.02804539 -0.0576627 0.4883597 205 205 205
-0.02379673 -0.05925027 0.4905465 205 205 205
0.152923 -0.07308742 0.4537128 205 205 205
0.1543661 -0.07166485 0.4491508 205 205 205
0.1557437 -0.07023185 0.4445919 205 205 205
0.1604882 -0.06931258 0.4407129 205 205 205
0.1722284 -0.06822027 0.4348063 205 205 205
0.1748962 -0.06801665 0.4336377 205 205 205
0.1811075 -0.06712798 0.4297914 205 205 205
0.1846186 -0.06642949 0.4271015 205 205 205
0.185925 -0.06629892 0.4264782 205 205 205
0.1872291 -0.06616525 0.4258506 205 205 205
0.1928027 -0.0648075 0.4209876 205 205 205
0.1949038 -0.06418099 0.4188566 205 205 205
0.1957123 -0.06370358 0.4173751 205 205 205
0.1969815 -0.06354394 0.4167154 205 205 205
0.2025177 -0.06319327 0.4148499 205 205 205
0.2045455 -0.06252238 0.4126687 205 205 205
0.2080413 -0.06279001 0.4129017 205 205 205
0.2092949 -0.062602 0.4122003 205 205 205
0.2117944 -0.06221687 0.4107848 205 205 205
0.2215203 -0.06139426 0.4072753 205 205 205
-0.05839093 -0.04989849 0.4798734 205 205 205
-0.05548298 -0.05069498 0.4802839 205 205 205
-0.05362919 -0.05054717 0.4785976 205 205 205
-0.0521795 -0.05093605 0.4787889 205 205 205
-0.04690937 -0.05328954 0.4823349 205 205 205
-0.04120019 -0.05505969 0.4839164 205 205 205
-0.03824891 -0.05578899 0.4842038 205 205 205
-0.0342533 -0.057713 0.4874383 205 205 205
-0.02528966 -0.05979066 0.4880862 205 205 205
-0.02275896 -0.06162342 0.4920585 205 205 205
0.1559368 -0.07197119 0.4449973 205 205 205
0.1579723 -0.07117942 0.4421899 205 205 205
0.1589764 -0.07077935 0.4407834 205 205 205
0.1603352 -0.07070962 0.4402452 205 205 205
0.1671006 -0.0703143 0.4374858 205 205 205
0.1778212 -0.06951977 0.4328355 205 205 205
0.1787381 -0.06907684 0.4313854 205 205 205
0.1862202 -0.06800582 0.426854 205 205 205
0.18709 -0.06754409 0.4253877 205 205 205
0.1931233 -0.06650227 0.4213561 205 205 205
0.19477 -0.06554586 0.4183981 205 205 205
0.1955796 -0.0650643 0.4169179 205 205 205
0.2036486 -0.06437963 0.4137096 205 205 205
0.206163 -0.06401891 0.4123317 205 205 205
0.213425 -0.06369937 0.4104117 205 205 205
0.2159165 -0.06329381 0.4089674 205 205 205
0.2171583 -0.06308638 0.408239 205 205 205
0.2201608 -0.0629774 0.4075588 205 205 205
0.2244003 -0.06262997 0.4061008 205 205 205
-0.0584227 -0.051041 0.4784743 205 205 205
-0.04732995 -0.05499182 0.4828134 205 205 205
-0.04143883 -0.0564887 0.4834492 205 205 205
-0.03864492 -0.05750434 0.4846811 205 205 205
-0.03583179 -0.05851156 0.4858935 205 205 205
-0.03449146 -0.05915603 0.4869656 205 205 205
-0.0297412 -0.05962928 0.4854177 205 205 205
-0.02552508 -0.06123716 0.4876113 205 205 205
-0.02426845 -0.0621613 0.4895969 205 205 205
-0.0228791 -0.06279093 0.4906297 205 205 205
-0.02007516 -0.06404598 0.4926806 205 205 205
0.152932 -0.07629577 0.4536268 205 205 205
0.1571546 -0.07331716 0.4439918 205 205 205
0.1605442 -0.07244134 0.4406409 205 205 205
0.1646218 -0.07221203 0.4389946 205 205 205
0.1673306 -0.07204352 0.4378743 205 205 205
0.1682971 -0.07161903 0.4364475 205 205 205
0.1908517 -0.06849898 0.4230111 205 205 205
0.2005124 -0.06576256 0.4137926 205 205 205
0.2097875 -0.06481202 0.4097713 205 205 205
0.2115404 -0.06493946 0.4098633 205 205 205
0.2152735 -0.06433576 0.4077095 205 205 205
0.2182722 -0.06423721 0.4070426 205 205 205
-0.05246266 -0.05347348 0.4769248 205 205 205
-0.03487769 -0.0608883 0.4874322 205 205 205
-0.03160416 -0.06101063 0.4857769 205 205 205
-0.02299864 -0.06394886 0.4891975 205 205 205
-0.02171825 -0.06487979 0.491171 205 205 205
0.1511012 -0.0805982 0.4617281 205 205 205
0.1515688 -0.07953122 0.4585676 205 205 205
0.152433 -0.07738952 0.452256 205 205 205
0.1600252 -0.07349729 0.439294 205 205 205
0.1675584 -0.07377797 0.4382549 205 205 205
0.1775268 -0.07229927 0.4318853 205 205 205
0.181516 -0.07194776 0.4300678 205 205 205
0.1824177 -0.07148827 0.4286119 205 205 205
0.1970494 -0.06794951 0.4161477 205 205 205
0.2000668 -0.06794765 0.4156281 205 205 205
0.2008581 -0.06744695 0.4141391 205 205 205
0.2041552 -0.06658851 0.4112842 205 205 205
0.2079088 -0.06603229 0.409205 205 205 205
0.2121489 -0.06577373 0.4078847 205 205 205
0.2133905 -0.06557252 0.4071689 205 205 205
0.2183302 -0.064737 0.4042638 205 205 205
0.2218498 -0.06494328 0.404352 205 205 205
0.2248453 -0.0648125 0.4036288 205 205 205
-0.05848354 -0.05329776 0.4756665 205 205 205
-0.05539097 -0.05381149 0.4751335 205 205 205
-0.05270239 -0.05487484 0.4764555 205 205 205
-0.05125395 -0.05526178 0.4766399 205 205 205
-0.04322188 -0.05867962 0.4814056 205 205 205
-0.0389634 -0.06007315 0.4827828 205 205 205
-0.0288587 -0.06314105 0.4855065 205 205 205
-0.02311744 -0.06509729 0.487762 205 205 205
-0.02184163 -0.06603523 0.4897325 205 205 205
0.1521746 -0.08024822 0.4557884 205 205 205
0.1529338 -0.07951012 0.4535139 205 205 205
0.1533395 -0.07842392 0.4503641 205 205 205
0.1571874 -0.07646909 0.4438926 205 205 205
0.1636928 -0.07576885 0.4403101 205 205 205
0.1654318 -0.07603189 0.4406156 205 205 205
0.1664222 -0.07560452 0.4391931 205 205 205
0.1687596 -0.07508471 0.4372006 205 205 205
0.1697261 -0.07464907 0.4357719 205 205 205
0.181788 -0.07367326 0.4304266 205 205 205
0.1826942 -0.07320937 0.4289704 205 205 205
0.1853395 -0.0729524 0.4277278 205 205 205
0.1871012 -0.0720062 0.4248011 205 205 205
0.1910174 -0.07158076 0.422888 205 205 205
0.1923182 -0.07143272 0.4222416 205 205 205
0.1939963 -0.07045534 0.4192898 205 205 205
0.1973808 -0.06964179 0.4164916 205 205 205
0.2097621 -0.06666552 0.4065298 205 205 205
0.2164489 -0.06597356 0.4037374 205 205 205
0.2199612 -0.0661945 0.4038396 205 205 205
0.2229531 -0.06607419 0.4031298 205 205 205
-0.06016769 -0.05429205 0.4749837 205 205 205
-0.05851261 -0.05441205 0.4742579 205 205 205
-0.05686366 -0.05452706 0.4735258 205 205 205
-0.05398722 -0.05531283 0.4739175 205 205 205
-0.05254713 -0.05570136 0.4741056 205 205 205
-0.05149369 -0.05666158 0.4761646 205 205 205
-0.05023383 -0.05733454 0.4772819 205 205 205
-0.04732269 -0.05809693 0.4776251 205 205 205
-0.03920249 -0.0614968 0.4822977 205 205 205
-0.03803618 -0.06245324 0.4843161 205 205 205
-0.03654862 -0.06281464 0.4844459 205 205 205
-0.03506006 -0.063173 0.4845705 205 205 205
-0.02760258 -0.06491923 0.4851148 205 205 205
-0.02598224 -0.06495529 0.4842637 205 205 205
-0.01805441 -0.07001713 0.4941658 205 205 205
0.1549492 -0.07869145 0.4461975 205 205 205
0.1594239 -0.07739136 0.4414584 205 205 205
0.169184 -0.0756927 0.4344275 205 205 205
0.180722 -0.07552557 0.4313909 205 205 205
0.2068899 -0.06925348 0.409756 205 205 205
0.2076443 -0.06872942 0.4082574 205 205 205
0.2098512 -0.06714531 0.4037596 205 205 205
0.211593 -0.06727716 0.4038438 205 205 205
0.2128229 -0.06707345 0.4031299 205 205 205
0.2157975 -0.0669872 0.402476 205 205 205
0.221595 -0.06765173 0.4034 205 205 205
0.2240531 -0.06719873 0.4018989 205 205 205
-0.05566611 -0.05630983 0.473247 205 205 205
-0.05047416 -0.05873642 0.4767994 205 205 205
-0.0437017 -0.06151368 0.4804347 205 205 205
-0.03960271 -0.06321783 0.4827475 205 205 205
-0.03827651 -0.06388249 0.4838226 205 205 205
-0.02231695 -0.06893779 0.4887331 205 205 205
0.1517057 -0.08458749 0.4587928 205 205 205
0.1522634 -0.08202452 0.4516247 205 205 205
0.1526692 -0.08091585 0.4484842 205 205 205
0.1578878 -0.07885738 0.4414981 205 205 205
0.1589042 -0.07843713 0.4400954 205 205 205
0.1599115 -0.07801411 0.438691 205 205 205
0.1630055 -0.07821327 0.4384587 205 205 205
0.1661061 -0.07839897 0.4382025 205 205 205
0.1717185 -0.07688119 0.4327805 205 205 205
0.1752029 -0.07737089 0.4333034 205 205 205
0.1782991 -0.07749729 0.4329519 205 205 205
0.1801547 -0.07656653 0.4300543 205 205 205
0.1823957 -0.07597283 0.4279892 205 205 205
0.186809 -0.07475185 0.4238258 205 205 205
0.1894244 -0.0744697 0.4225552 205 205 205
0.1932551 -0.07283795 0.4175007 205 205 205
0.1983784 -0.07219149 0.4148594 205 205 205
0.2017139 -0.07133397 0.4120259 205 205 205
0.2029777 -0.07115585 0.411344 205 205 205
0.2097194 -0.06847813 0.4032825 205 205 205
-0.05590646 -0.05769601 0.4727643 205 205 205
-0.05302595 -0.05847861 0.4731441 205 205 205
-0.051779 -0.05916006 0.4742619 205 205 205
-0.04798601 -0.06119851 0.4775897 205 205 205
-0.04394226 -0.06292731 0.4799408 205 205 205
-0.03984324 -0.06464057 0.4822499 205 205 205
-0.03851726 -0.06530944 0.4833234 205 205 205
-0.03375651 -0.06577435 0.4818139 205 205 205
-0.02807765 -0.06778369 0.4841168 205 205 205
-0.02533343 -0.06908742 0.4861804 205 205 205
-0.02382894 -0.06942423 0.4862629 205 205 205
0.1511768 -0.08897635 0.4663242 205 205 205
0.1516905 -0.08786648 0.4631712 205 205 205
0.1515309 -0.08604028 0.4582694 205 205 205
0.1532241 -0.08156495 0.4457114 205 205 205
0.1546174 -0.08150849 0.4451879 205 205 205
0.1580783 -0.08060858 0.4418597 205 205 205
0.1622086 -0.08039226 0.4402283 205 205 205
0.1669302 -0.07935078 0.4362792 205 205 205
0.1750472 -0.07875878 0.4328018 205 205 205
0.1772014 -0.07935368 0.4338945 205 205 205
0.1781441 -0.07888817 0.4324492 205 205 205
0.1794889 -0.07877173 0.4318432 205 205 205
0.1853489 -0.07625815 0.4239591 205 205 205
0.1862245 -0.07577199 0.4225011 205 205 205
0.1875304 -0.07563245 0.4218697 205 205 205
0.1940254 -0.07488789 0.4186479 205 205 205
0.195679 -0.07387602 0.415698 205 205 205
0.1982369 -0.07354572 0.414369 205 205 205
0.2028389 -0.07250453 0.4108555 205 205 205
0.204869 -0.07179566 0.4086786 205 205 205
0.205879 -0.07039385 0.4048981 205 205 205
0.2071173 -0.07020188 0.404203 205 205 205
0.2108165 -0.06960768 0.4020928 205 205 205
0.2150137 -0.0693236 0.4007294 205 205 205
-0.06089595 -0.05846613 0.4735319 205 205 205
-0.05923782 -0.05857742 0.4728086 205 205 205
-0.04822692 -0.0626008 0.477094 205 205 205
-0.04418323 -0.06433871 0.4794414 205 205 205
-0.04287952 -0.06501623 0.4805269 205 205 205
-0.03726962 -0.06709736 0.4829471 205 205 205
-0.03562917 -0.06714792 0.4821317 205 205 205
-0.03265405 -0.06785727 0.4823623 205 205 205
-0.02831587 -0.06921253 0.4836094 205 205 205
-0.02557206 -0.0705246 0.4856697 205 205 205
-0.02279435 -0.07183116 0.4877107 205 205 205
0.150143 -0.09121428 0.4680577 205 205 205
0.1511909 -0.08897495 0.4617596 205 205 205
0.1513548 -0.08749074 0.4577404 205 205 205
0.152666 -0.08410414 0.448329 205 205 205
0.1616805 -0.08142967 0.4388589 205 205 205
0.1626824 -0.08099257 0.4374495 205 205 205
0.1681281 -0.08064736 0.4352038 205 205 205
0.1714051 -0.07964144 0.4317773 205 205 205
0.1766401 -0.08039032 0.4325424 205 205 205
0.1829923 -0.07824482 0.4255354 205 205 205
0.1843126 -0.07811358 0.4249139 205 205 205
0.1938793 -0.07624901 0.4181493 205 205 205
0.1955348 -0.07522892 0.4152023 205 205 205
0.200166 -0.07420613 0.411721 205 205 205
0.2014335 -0.07403011 0.4110436 205 205 205
0.2034735 -0.07332234 0.4088748 205 205 205
0.2042391 -0.07279156 0.4073871 205 205 205
0.2054898 -0.07260418 0.4066966 205 205 205
0.2074823 -0.07187586 0.4045095 205 205 205
0.2094511 -0.07113729 0.4023133 205 205 205
0.2148806 -0.07065363 0.4002417 205 205 205
0.216629 -0.07077972 0.4002962 205 205 205
-0.0580387 -0.06036238 0.4725167 205 205 205
-0.05659585 -0.06076043 0.4727139 205 205 205
-0.05515176 -0.06115553 0.472906 205 205 205
-0.05370639 -0.06154768 0.473093 205 205 205
-0.04974077 -0.0633138 0.475491 205 205 205
-0.04700553 -0.06438108 0.4767554 205 205 205
-0.04477232 -0.06636309 0.4808072 205 205 205
-0.0432912 -0.06673812 0.480956 205 205 205
-0.04065076 -0.06810012 0.4831111 205 205 205
-0.03126418 -0.06931315 0.4810202 205 205 205
-0.0259359 -0.07227889 0.4860926 205 205 205
-0.02454762 -0.07293791 0.487114 205 205 205
-0.02303385 -0.07327439 0.4871909 205 205 205
-0.02033219 -0.07490633 0.4901491 205 205 205
0.1505295 -0.08821052 0.4554594 205 205 205
0.152079 -0.08666109 0.4509365 205 205 205
0.1532243 -0.08473703 0.4455481 205 205 205
0.1546223 -0.08467989 0.4450233 205 205 205
0.1605039 -0.08325816 0.4397513 205 205 205
0.1712462 -0.08101821 0.4312678 205 205 205
0.1787652 -0.08118691 0.429984 205 205 205
0.1796913 -0.0807082 0.4285388 205 205 205
0.181937 -0.08010124 0.4264783 205 205 205
0.1841598 -0.07948299 0.4244066 205 205 205
0.1863594 -0.07885359 0.422324 205 205 205
0.1889782 -0.07856901 0.421054 205 205 205
0.1953891 -0.07657961 0.4147015 205 205 205
0.199546 -0.07519973 0.4104165 205 205 205
0.201589 -0.07449403 0.4082595 205 205 205
0.214225 -0.07163668 0.398968 205 205 205
-0.05849306 -0.06204599 0.4729463 205 205 205
-0.05704612 -0.06244575 0.4731436 205 205 205
-0.05559792 -0.0628425 0.4733357 205 205 205
-0.04998218 -0.06470729 0.4749858 205 205 205
-0.04870985 -0.06539848 0.4760858 205 205 205
-0.04761087 -0.06639798 0.4781148 205 205 205
-0.03924211 -0.06957655 0.4817918 205 205 205
-0.03477019 -0.07066065 0.4821598 205 205 205
-0.03150299 -0.07072894 0.4805048 205 205 205
-0.02879391 -0.0720631 0.4825774 205 205 205
-0.02742662 -0.0727282 0.4836066 205 205 205
-0.02327385 -0.0747152 0.4866654 205 205 205
-0.02057314 -0.07635915 0.489619 205 205 205
0.149231 -0.09005899 0.4563084 205 205 205
0.1511361 -0.088868 0.4526631 205 205 205
0.1537289 -0.08687601 0.4467562 205 205 205
0.1551348 -0.08681838 0.4462286 205 205 205
0.1561934 -0.08639047 0.4448327 205 205 205
0.1586361 -0.0858926 0.4428962 205 205 205
0.1640901 -0.08404628 0.4367183 205 205 205
0.1650828 -0.0835953 0.4353055 205 205 205
0.167804 -0.08341512 0.4341738 205 205 205
0.1701284 -0.08285776 0.4321779 205 205 205
0.1714783 -0.08275678 0.4315977 205 205 205
0.1759187 -0.08279809 0.4306705 205 205 205
0.1772638 -0.08268411 0.4300709 205 205 205
0.1795339 -0.08208417 0.4280232 205 205 205
0.1808691 -0.08196094 0.4274119 205 205 205
0.182684 -0.0809822 0.4245154 205 205 205
0.1844332 -0.08121122 0.4247227 205 205 205
0.1862066 -0.0802163 0.421813 205 205 205
0.1909883 -0.07927417 0.4184376 205 205 205
0.195242 -0.07792801 0.4141956 205 205 205
0.1994017 -0.07653905 0.4099138 205 205 205
0.2034672 -0.0751081 0.405594 205 205 205
0.2074378 -0.07363603 0.4012376 205 205 205
0.2111241 -0.07302973 0.3991225 205 205 205
0.2128648 -0.07317042 0.3991908 205 205 205
0.2140891 -0.07295857 0.3984716 205 205 205
-0.05996596 -0.06272246 0.4713095 205 205 205
-0.05749802 -0.06413591 0.4735651 205 205 205
-0.04691838 -0.06912316 0.4805543 205 205 205
-0.04394814 -0.0698808 0.4808562 205 205 205
-0.03783834 -0.07103975 0.4804629 205 205 205
-0.03650355 -0.07172125 0.4815198 205 205 205
-0.03516018 -0.07240152 0.4825721 205 205 205
-0.03188339 -0.07246555 0.4809197 205 205 205
-0.0305295 -0.07313833 0.4819568 205 205 205
-0.02490689 -0.07548859 0.4851212 205 205 205
-0.02211338 -0.07681733 0.4871424 205 205 205
0.1477891 -0.09532502 0.4660347 205 205 205
0.147716 -0.09343276 0.4611503 205 205 205
0.1485513 -0.09265307 0.458893 205 205 205
0.152058 -0.08987643 0.4507352 205 205 205
0.1584653 -0.08729365 0.442366 205 205 205
0.1598571 -0.08722311 0.4418227 205 205 205
0.1649176 -0.08497635 0.4347825 205 205 205
0.1659021 -0.08451871 0.4333696 205 205 205
0.1676398 -0.08479556 0.4336509 205 205 205
0.1789618 -0.08309183 0.4266686 205 205 205
0.1807108 -0.08333425 0.4268911 205 205 205
0.187364 -0.08143523 0.4206643 205 205 205
0.1899804 -0.08114267 0.419386 205 205 205
0.1908367 -0.08062928 0.4179233 205 205 205
0.193432 -0.0803187 0.4166225 205 205 205
0.1942673 -0.07979755 0.4151539 205 205 205
0.1963756 -0.07910873 0.4130227 205 205 205
0.1984605 -0.07840925 0.4108817 205 205 205
0.199256 -0.07787611 0.4094062 205 205 205
0.2028346 -0.07607912 0.4042942 205 205 205
0.2097592 -0.0745525 0.3993311 205 205 205
0.2122099 -0.0741381 0.3979091 205 205 205
0.2182901 -0.07304857 0.3942833 205 205 205
-0.06142982 -0.06338728 0.4696667 205 205 205
-0.06020931 -0.06409955 0.4707988 205 205 205
-0.0575324 -0.06521204 0.4721234 205 205 205
-0.05608344 -0.06561016 0.4723147 205 205 205
-0.03823708 -0.07277521 0.4808697 205 205 205
-0.0310459 -0.0752125 0.4832965 205 205 205
-0.02940793 -0.07523288 0.4824579 205 205 205
-0.02375538 -0.07758977 0.4855974 205 205 205
0.1458082 -0.09645421 0.4651033 205 205 205
0.14637 -0.09529764 0.4619741 205 205 205
0.1474222 -0.09297568 0.4557241 205 205 205
0.152638 -0.09049691 0.4479375 205 205 205
0.1680643 -0.08533415 0.4308604 205 205 205
0.1694138 -0.08523598 0.4302864 205 205 205
0.1725016 -0.08540123 0.4299654 205 205 205
0.1734499 -0.08492234 0.4285378 205 205 205
0.1747911 -0.08481139 0.4279459 205 205 205
0.178802 -0.08445953 0.4261439 205 205 205
0.1854431 -0.08380954 0.4230522 205 205 205
0.1906835 -0.08198213 0.4174039 205 205 205
0.1941161 -0.08114544 0.4146363 205 205 205
0.198633 -0.0788484 0.408092 205 205 205
0.2008542 -0.07939543 0.409018 205 205 205
0.2011562 -0.07849144 0.4067415 205 205 205
0.2059216 -0.0764681 0.4009273 205 205 205
0.2061506 -0.07555438 0.3986579 205 205 205
0.2193619 -0.0741325 0.393042 205 205 205
-0.06067061 -0.06578522 0.4712078 205 205 205
-0.0561203 -0.06667647 0.4708692 205 205 205
-0.05467349 -0.06707122 0.4710545 205 205 205
-0.05322548 -0.067463 0.4712348 205 205 205
-0.04943704 -0.06957761 0.4745318 205 205 205
-0.04834075 -0.07060047 0.4765517 205 205 205
-0.03980955 -0.07349673 0.4792779 205 205 205
-0.03848006 -0.07418876 0.4803362 205 205 205
-0.03250688 -0.07562286 0.4807911 205 205 205
-0.0296492 -0.0766535 0.481921 205 205 205
-0.02814783 -0.07699897 0.4820114 205 205 205
-0.02152295 -0.08137759 0.4898637 205 205 205
0.1466094 -0.09365291 0.4534284 205 205 205
0.147731 -0.09323466 0.4520524 205 205 205
0.151371 -0.0923398 0.4487767 205 205 205
0.15246 -0.09190908 0.4473909 205 205 205
0.15354 -0.0914754 0.4460032 205 205 205
0.1563773 -0.08977876 0.4409702 205 205 205
0.160545 -0.08956599 0.4393447 205 205 205
0.1625823 -0.08865435 0.436536 205 205 205
0.1655694 -0.08726595 0.4323108 205 205 205
0.1705967 -0.08650212 0.4291777 205 205 205
0.1763732 -0.08643736 0.4276539 205 205 205
0.1777142 -0.08631938 0.4270517 205 205 205
0.1848544 -0.08480145 0.4217001 205 205 205
0.1913776 -0.08280884 0.4154189 205 205 205
0.1935054 -0.08212271 0.4133046 205 205 205
0.1964189 -0.08088976 0.4097126 205 205 205
0.1981625 -0.08108467 0.4098481 205 205 205
0.1984846 -0.08017727 0.4075756 205 205 205
0.2035483 -0.07725109 0.3995307 205 205 205
0.2042804 -0.07669521 0.3980553 205 205 205
0.2050031 -0.07613737 0.3965796 205 205 205
0.2128037 -0.07526009 0.3931362 205 205 205
0.2169497 -0.07495608 0.3917351 205 205 205
-0.05801989 -0.06796899 0.471081 205 205 205
-0.05095142 -0.07025786 0.4729097 205 205 205
-0.04986848 -0.07128858 0.4749303 205 205 205
-0.04416183 -0.07313453 0.476473 205 205 205
-0.03989079 -0.07457434 0.4778104 205 205 205
-0.03856535 -0.07526962 0.4788667 205 205 205
-0.03409721 -0.07634886 0.4792137 205 205 205
-0.02989095 -0.07807171 0.4813783 205 205 205
0.1418591 -0.09867382 0.4632097 205 205 205
0.1536979 -0.0932632 0.4463134 205 205 205
0.1575941 -0.0911014 0.4398882 205 205 205
0.1677318 -0.08806814 0.4297943 205 205 205
0.1690823 -0.0879693 0.4292204 205 205 205
0.1752666 -0.08829771 0.4285493 205 205 205
0.1766139 -0.08818229 0.4279501 205 205 205
0.177959 -0.08806367 0.4273463 205 205 205
0.179302 -0.08794182 0.4267382 205 205 205
0.1802273 -0.08744016 0.4252977 205 205 205
0.1916731 -0.08452579 0.4157019 205 205 205
0.1920629 -0.08362281 0.4134311 205 205 205
0.1949929 -0.0823898 0.4098516 205 205 205
0.1978598 -0.08113413 0.4062556 205 205 205
0.1991203 -0.08095676 0.4055846 205 205 205
0.1998965 -0.08040754 0.4041144 205 205 205
0.2011486 -0.08022448 0.403437 205 205 205
0.2026612 -0.07911468 0.4004909 205 205 205
0.2029081 -0.07819007 0.3982299 205 205 205
0.2041365 -0.07799676 0.3975435 205 205 205
0.2114531 -0.07677272 0.3933403 205 205 205
0.2121411 -0.0761959 0.3918537 205 205 205
-0.06094118 -0.06821675 0.4692338 205 205 205
-0.05515905 -0.06981897 0.4700023 205 205 205
-0.04423134 -0.07420002 0.4750063 205 205 205
-0.04292826 -0.07490392 0.4760746 205 205 205
-0.04145025 -0.07527469 0.4762099 205 205 205
-0.04013369 -0.07597534 0.4772689 205 205 205
-0.0344866 -0.07809238 0.4795993 205 205 205
-0.03026908 -0.07982682 0.4817608 205 205 205
-0.02751298 -0.08120072 0.4837981 205 205 205
-0.0248436 -0.08291169 0.4867478 205 205 205
-0.02343202 -0.08359446 0.4877495 205 205 205
-0.02212508 -0.08462013 0.4896783 205 205 205
0.143353 -0.09657114 0.453307 205 205 205
0.1539153 -0.09345493 0.4426518 205 205 205
0.1553184 -0.09339286 0.4421211 205 205 205
0.1598393 -0.09195857 0.4373991 205 205 205
0.1612222 -0.0918808 0.4368496 205 205 205
0.1656069 -0.09038707 0.4320748 205 205 205
0.1662104 -0.08952753 0.4298227 205 205 205
0.1698734 -0.08884767 0.4272639 205 205 205
0.1777935 -0.08943192 0.4268032 205 205 205
0.179137 -0.08930969 0.4261951 205 205 205
0.1832118 -0.08765122 0.4212539 205 205 205
0.1893549 -0.08655617 0.4172716 205 205 205
0.1897681 -0.08564982 0.4150037 205 205 205
0.1919071 -0.08496053 0.4128995 205 205 205
0.1997469 -0.08172363 0.4035912 205 205 205
0.2015307 -0.07968061 0.3983952 205 205 205
0.2076626 -0.07869621 0.394944 205 205 205
0.2083694 -0.07812269 0.3934652 205 205 205
0.2095821 -0.07791416 0.3927607 205 205 205
0.2107922 -0.07770258 0.3920523 205 205 205
0.2114776 -0.07712224 0.3905693 205 205 205
0.2144065 -0.07704957 0.389903 205 205 205
0.215606 -0.07682581 0.3891786 205 205 205
0.2168027 -0.07659899 0.3884503 205 205 205
-0.04925967 -0.07511231 0.4758637 205 205 205
-0.04300097 -0.07596307 0.4746029 205 205 205
-0.04152643 -0.07633352 0.4747376 205 205 205
-0.03905211 -0.07807748 0.4777746 205 205 205
-0.03607288 -0.07880241 0.4780096 205 205 205
-0.03051238 -0.08124374 0.4812056 205 205 205
-0.02900607 -0.08159175 0.4812953 205 205 205
-0.02508843 -0.08434877 0.486184 205 205 205
-0.02367711 -0.08503565 0.4871841 205 205 205
0.1396516 -0.103184 0.4665237 205 205 205
0.1589856 -0.0941913 0.4390922 205 205 205
0.161408 -0.0936497 0.437144 205 205 205
0.1658106 -0.09214301 0.432368 205 205 205
0.1687454 -0.09069312 0.4281337 205 205 205
0.1700949 -0.09059042 0.4275556 205 205 205
0.1714423 -0.09048451 0.426973 205 205 205
0.1749319 -0.09103329 0.4274575 205 205 205
0.178034 -0.09118227 0.4270832 205 205 205
0.1803123 -0.09054936 0.4250345 205 205 205
0.1843711 -0.08886674 0.4200855 205 205 205
0.1900558 -0.0873701 0.4152752 205 205 205
0.1925828 -0.0857554 0.4109056 205 205 205
0.1959603 -0.08487593 0.4081282 205 205 205
0.1967629 -0.08432557 0.4066647 205 205 205
0.1975562 -0.08377303 0.4052006 205 205 205
0.1983402 -0.08321832 0.403736 205 205 205
0.2013828 -0.08097856 0.3978733 205 205 205
0.2094381 -0.07920502 0.3922416 205 205 205
-0.05314138 -0.07400552 0.4711255 205 205 205
-0.04931902 -0.07617043 0.4743896 205 205 205
-0.04454286 -0.07663956 0.4729896 205 205 205
-0.03780663 -0.07984237 0.47734 205 205 205
-0.03631619 -0.08020388 0.4774545 205 205 205
-0.02661064 -0.08474174 0.4836828 205 205 205
-0.02533377 -0.08578331 0.4856146 205 205 205
0.1431857 -0.09780241 0.4482038 205 205 205
0.1446148 -0.09776586 0.4477067 205 205 205
0.147468 -0.09768285 0.4466984 205 205 205
0.1503143 -0.09758659 0.4456713 205 205 205
0.1524838 -0.0966915 0.4429123 205 205 205
0.1574123 -0.09564988 0.4390732 205 205 205
0.1612311 -0.0950319 0.4365836 205 205 205
0.1626167 -0.09495007 0.4360282 205 205 205
0.166012 -0.09390377 0.432653 205 205 205
0.1666256 -0.09302863 0.4304038 205 205 205
0.1699248 -0.09194839 0.4270045 205 205 205
0.1730151 -0.09212171 0.4266666 205 205 205
0.1778652 -0.09254934 0.4265282 205 205 205
0.1806495 -0.09100848 0.4222206 205 205 205
0.1824593 -0.08996868 0.4193433 205 205 205
0.1850957 -0.08969028 0.4180925 205 205 205
0.1864105 -0.0895463 0.4174606 205 205 205
0.1941693 -0.08730216 0.410512 205 205 205
0.1958044 -0.08619998 0.40759 205 205 205
0.1974022 -0.08508895 0.4046657 205 205 205
0.2024658 -0.08208242 0.3966647 205 205 205
0.2031981 -0.08151078 0.3951976 205 205 205
0.2044221 -0.08131342 0.3945096 205 205 205
0.2082635 -0.07974542 0.3901743 205 205 205
0.2131967 -0.07791569 0.3850906 205 205 205
0.2149157 -0.07806069 0.3851305 205 205 205
-0.0616757 -0.0723125 0.4676195 205 205 205
-0.05712863 -0.07319287 0.46728 205 205 205
-0.05568401 -0.07358987 0.4674627 205 205 205
-0.05338591 -0.07537935 0.4705766 205 205 205
-0.05084702 -0.07683205 0.4727533 205 205 205
-0.04827326 -0.0782805 0.4749128 205 205 205
-0.03789391 -0.08089524 0.4758544 205 205 205
-0.02935928 -0.08406839 0.4792404 205 205 205
-0.02824568 -0.08546884 0.482105 205 205 205
-0.02672924 -0.08581343 0.4821838 205 205 205
-0.02416875 -0.08791045 0.4860361 205 205 205
-0.02274942 -0.08860408 0.4870276 205 205 205
-0.01999268 -0.09034347 0.4899235 205 205 205
-0.01844078 -0.09067553 0.4899719 205 205 205
0.1292152 -0.1069361 0.4703748 205 205 205
0.1317194 -0.1061505 0.4677021 205 205 205
0.134463 -0.1057488 0.4658936 205 205 205
0.1356874 -0.1053438 0.4645466 205 205 205
0.140187 -0.1012814 0.453433 205 205 205
0.1429981 -0.09920365 0.4476302 205 205 205
0.1498021 -0.09859005 0.4442401 205 205 205
0.1508887 -0.09814031 0.4428644 205 205 205
0.1544356 -0.09716913 0.4395781 205 205 205
0.1554894 -0.0967073 0.4381935 205 205 205
0.1568831 -0.09663829 0.4376565 205 205 205
0.1586276 -0.09696154 0.4379629 205 205 205
0.1596648 -0.09649044 0.4365687 205 205 205
0.162439 -0.0963295 0.4354626 205 205 205
0.1638231 -0.09624412 0.4349026 205 205 205
0.1691733 -0.09419423 0.4286958 205 205 205
0.1701422 -0.09369713 0.4272815 205 205 205
0.1728442 -0.09348018 0.4261092 205 205 205
0.1776949 -0.09391389 0.425968 205 205 205
0.1800647 -0.0919705 0.4208447 205 205 205
0.1849311 -0.09103417 0.4175405 205 205 205
0.1927216 -0.08879726 0.4106221 205 205 205
0.1948332 -0.08807784 0.4085066 205 205 205
0.1959817 -0.08657862 0.404792 205 205 205
0.1967734 -0.08601849 0.403333 205 205 205
0.1975558 -0.08545616 0.4018735 205 205 205
0.1978486 -0.08450869 0.3996244 205 205 205
0.2015727 -0.08394893 0.3975984 205 205 205
0.2069097 -0.08123338 0.3903483 205 205 205
0.2101516 -0.07925194 0.385232 205 205 205
0.2125228 -0.07881038 0.3838085 205 205 205
-0.04373158 -0.08011904 0.4729395 205 205 205
-0.04225602 -0.08049127 0.4730729 205 205 205
-0.03798036 -0.08193856 0.4743662 205 205 205
-0.03680404 -0.0829993 0.4763276 205 205 205
-0.03260915 -0.08477402 0.4784876 205 205 205
-0.02570274 -0.08828773 0.483533 205 205 205
-0.02429594 -0.08898612 0.4845274 205 205 205
0.1196175 -0.1078923 0.471514 205 205 205
0.1206612 -0.1071174 0.4693216 205 205 205
0.1312493 -0.1072112 0.4662216 205 205 205
0.1352086 -0.106397 0.4630726 205 205 205
0.1388198 -0.1051507 0.4590241 205 205 205
0.1397122 -0.1043275 0.4568018 205 205 205
0.1402912 -0.1031 0.4537131 205 205 205
0.1422907 -0.1018389 0.4501356 205 205 205
0.1445511 -0.1009663 0.4474157 205 205 205
0.1514483 -0.09867386 0.440059 205 205 205
0.1528516 -0.09861427 0.4395346 205 205 205
0.156702 -0.09801636 0.4370854 205 205 205
0.1584465 -0.09834296 0.4373904 205 205 205
0.1598406 -0.0982669 0.4368428 205 205 205
0.1674091 -0.09694644 0.4317887 205 205 205
0.1680199 -0.09605322 0.4295426 205 205 205
0.1693838 -0.09595194 0.4289646 205 205 205
0.1703572 -0.09545064 0.4275504 205 205 205
0.1726719 -0.09483619 0.4255465 205 205 205
0.1793925 -0.0942355 0.4225385 205 205 205
0.1798963 -0.09331712 0.4202857 205 205 205
0.1808042 -0.09279083 0.4188524 205 205 205
0.1865154 -0.09262323 0.4171624 205 205 205
0.1887056 -0.09193156 0.4150755 205 205 205
0.1895694 -0.09138597 0.4136254 205 205 205
0.1908724 -0.09122875 0.4129782 205 205 205
0.1994217 -0.08600675 0.3992006 205 205 205
0.2041224 -0.0838875 0.3934455 205 205 205
0.2053448 -0.08368608 0.3927539 205 205 205
0.2062511 -0.08212885 0.3890467 205 205 205
0.2094827 -0.08013702 0.3839436 205 205 205
0.2113179 -0.0793175 0.3817657 205 205 205
-0.05927529 -0.07584456 0.4669063 205 205 205
-0.05782755 -0.07624693 0.4670938 205 205 205
-0.05617145 -0.07630642 0.4663588 205 205 205
-0.05153043 -0.07993295 0.4725509 205 205 205
-0.04233059 -0.08152248 0.4715856 205 205 205
-0.03285393 -0.08617679 0.4779118 205 205 205
-0.03135095 -0.08652935 0.478005 205 205 205
-0.02873648 -0.08830167 0.480948 205 205 205
-0.02721935 -0.08864734 0.4810262 205 205 205
-0.0247823 -0.09113653 0.48579 205 205 205
-0.02312739 -0.09111456 0.4849285 205 205 205
-0.02048905 -0.09323978 0.488739 205 205 205
-0.01748385 -0.09426834 0.4897544 205 205 205
0.1209945 -0.1069786 0.4647608 205 205 205
0.1242466 -0.1074201 0.4647777 205 205 205
0.1260039 -0.1078382 0.465216 205 205 205
0.1332365 -0.1074477 0.4620655 205 205 205
0.1457935 -0.1023253 0.4463269 205 205 205
0.1508472 -0.1013219 0.4425609 205 205 205
0.1519303 -0.1008613 0.441185 205 205 205
0.1533414 -0.1008012 0.4406578 205 205 205
0.1554694 -0.09986461 0.4378938 205 205 205
0.1568677 -0.09979486 0.4373555 205 205 205
0.1610513 -0.09956588 0.435713 205 205 205
0.162442 -0.09948297 0.4351563 205 205 205
0.1841332 -0.09465014 0.4186735 205 205 205
0.1854588 -0.09450739 0.418043 205 205 205
0.1872162 -0.09475741 0.4182173 205 205 205
0.2027448 -0.08536982 0.3935935 205 205 205
0.204894 -0.08360647 0.3892061 205 205 205
0.2134155 -0.08110836 0.382036 205 205 205
-0.06241275 -0.07638633 0.4659563 205 205 205
-0.05973597 -0.07754267 0.4672607 205 205 205
-0.05807268 -0.07760441 0.4665327 205 205 205
-0.05412149 -0.07948614 0.4688972 205 205 205
-0.0528574 -0.08022548 0.4699821 205 205 205
-0.0458732 -0.0828521 0.4725844 205 205 205
-0.04439432 -0.08322959 0.4727226 205 205 205
-0.04274433 -0.08325069 0.4719356 205 205 205
-0.04143329 -0.08397531 0.4729834 205 205 205
-0.03830935 -0.08435248 0.4723029 205 205 205
-0.03713866 -0.08542768 0.4742573 205 205 205
-0.03022747 -0.08864168 0.4784333 205 205 205
-0.02733689 -0.08969717 0.4795162 205 205 205
-0.02349135 -0.09290937 0.4852576 205 205 205
-0.02206431 -0.09361377 0.4862387 205 205 205
-0.02073797 -0.09468407 0.4881383 205 205 205
0.1113303 -0.1102217 0.4714474 205 205 205
0.1396046 -0.1055259 0.4516573 205 205 205
0.1407593 -0.10509 0.4503061 205 205 205
0.1467156 -0.1032702 0.4443723 205 205 205
0.1481416 -0.1032228 0.4438611 205 205 205
0.1580804 -0.1010982 0.4362296 205 205 205
0.1594754 -0.1010216 0.4356821 205 205 205
0.1608685 -0.1009417 0.4351301 205 205 205
0.1758231 -0.09811435 0.4248611 205 205 205
0.1813039 -0.09627093 0.419351 205 205 205
0.1826345 -0.0961342 0.4187292 205 205 205
0.1935974 -0.09396429 0.4113442 205 205 205
0.1998691 -0.08801629 0.3966485 205 205 205
0.2047425 -0.0848759 0.3886668 205 205 205
0.2127357 -0.08198194 0.3807478 205 205 205
-0.0628824 -0.07808196 0.4663036 205 205 205
-0.05853022 -0.07930521 0.4668802 205 205 205
-0.05562229 -0.08010549 0.4672392 205 205 205
-0.05183107 -0.08233606 0.4704883 205 205 205
-0.04463997 -0.08460844 0.4721446 205 205 205
-0.02231289 -0.09504773 0.4856355 205 205 205
0.107846 -0.1111666 0.4707212 205 205 205
0.1122059 -0.1108984 0.4686595 205 205 205
0.1173388 -0.1093931 0.4635017 205 205 205
0.1188394 -0.1094197 0.4630842 205 205 205
0.1233334 -0.109479 0.4618016 205 205 205
0.1280771 -0.1099196 0.4613469 205 205 205
0.1302571 -0.1086849 0.457824 205 205 205
0.1314646 -0.1082684 0.456495 205 205 205
0.1341334 -0.1078376 0.4546961 205 205 205
0.1417103 -0.1060529 0.4483529 205 205 205
0.1442869 -0.105569 0.4464992 205 205 205
0.158246 -0.102882 0.4364833 205 205 205
0.1596452 -0.1028049 0.4359345 205 205 205
0.1610424 -0.1027245 0.4353811 205 205 205
0.1655914 -0.1028722 0.4345281 205 205 205
0.1709884 -0.1007392 0.428308 205 205 205
0.1719662 -0.1002226 0.4268926 205 205 205
0.1733289 -0.1001102 0.4262999 205 205 205
0.1802134 -0.09815218 0.4202069 205 205 205
0.1912687 -0.09602428 0.4128819 205 205 205
0.1929761 -0.09489475 0.4099773 205 205 205
0.1984679 -0.08949257 0.3967702 205 205 205
0.1992259 -0.08890783 0.3953162 205 205 205
0.2038807 -0.08674078 0.3895819 205 205 205
0.2064918 -0.08533336 0.3859682 205 205 205
0.207176 -0.08472929 0.3845069 205 205 205
0.2090391 -0.08390561 0.3823425 205 205 205
0.2108784 -0.08307224 0.3801704 205 205 205
0.2120553 -0.08284605 0.3794578 205 205 205
-0.06022887 -0.0802558 0.4661201 205 205 205
-0.04894818 -0.08412642 0.4693027 205 205 205
-0.04636543 -0.08560607 0.4714239 205 205 205
-0.03344617 -0.09000301 0.4752322 205 205 205
-0.02123736 -0.09756461 0.4869196 205 205 205
-0.01657399 -0.09855875 0.4870435 205 205 205
0.1034341 -0.1132699 0.4730055 205 205 205
0.1041693 -0.1116739 0.4690812 205 205 205
0.1056924 -0.1117318 0.4687057 205 205 205
0.1130671 -0.1115541 0.4658711 205 205 205
0.115628 -0.1107939 0.4632972 205 205 205
0.1171303 -0.1108239 0.4628846 205 205 205
0.1196459 -0.1100423 0.4602911 205 205 205
0.1211368 -0.1100619 0.4598657 205 205 205
0.1231268 -0.1109094 0.4611842 205 205 205
0.1258593 -0.1105158 0.4594321 205 205 205
0.1291015 -0.1109399 0.4594046 205 205 205
0.135118 -0.1088223 0.4527488 205 205 205
0.1403667 -0.1078992 0.4490985 205 205 205
0.1429591 -0.1074177 0.4472521 205 205 205
0.1484004 -0.1068303 0.4443691 205 205 205
0.1537844 -0.1061901 0.4414212 205 205 205
0.1545275 -0.1052972 0.4391961 205 205 205
0.1559401 -0.1052294 0.4386585 205 205 205
0.1570041 -0.1047446 0.4372743 205 205 205
0.1584093 -0.1046704 0.4367287 205 205 205
0.1640109 -0.1043401 0.4345005 205 205 205
0.1678157 -0.1036454 0.431951 205 205 205
0.1695808 -0.1039565 0.4321989 205 205 205
0.1705853 -0.1034409 0.430785 205 205 205
0.1749078 -0.1017612 0.425936 205 205 205
0.1758695 -0.1012317 0.4245135 205 205 205
0.1785808 -0.1009832 0.4232972 205 205 205
0.1822128 -0.1001778 0.4206282 205 205 205
0.1848949 -0.09989733 0.4193711 205 205 205
0.1858033 -0.09934509 0.4179296 205 205 205
0.1906733 -0.09832801 0.4145527 205 205 205
0.19623 -0.09530167 0.406623 205 205 205
0.1980177 -0.09176593 0.3984459 205 205 205
0.2017828 -0.08880917 0.3911737 205 205 205
0.2042272 -0.08840655 0.3897999 205 205 205
0.2063386 -0.08659346 0.3854214 205 205 205
0.2070238 -0.08598532 0.3839618 205 205 205
0.2076996 -0.0853753 0.3825021 205 205 205
0.2095488 -0.08454283 0.3803379 205 205 205
0.2107288 -0.0843191 0.3796293 205 205 205
-0.06170613 -0.08084872 0.4644403 205 205 205
-0.06047575 -0.08160853 0.4655417 205 205 205
-0.05902319 -0.08201455 0.465728 205 205 205
-0.05756931 -0.08241755 0.4659092 205 205 205
-0.05047207 -0.08474569 0.4676529 205 205 205
-0.0490071 -0.08513132 0.467804 205 205 205
-0.04625316 -0.08625531 0.4690059 205 205 205
-0.04513235 -0.08735852 0.4709724 205 205 205
-0.03787407 -0.08957603 0.4724969 205 205 205
-0.03653709 -0.09030616 0.4735203 205 205 205
-0.03247463 -0.09248845 0.4765626 205 205 205
-0.03096565 -0.09284096 0.4766494 205 205 205
-0.02719075 -0.09612811 0.4823893 205 205 205
-0.02590017 -0.09722427 0.4842935 205 205 205
-0.0139856 -0.1017906 0.4892385 205 205 205
0.1012896 -0.1138227 0.4709657 205 205 205
0.1065838 -0.1123888 0.46593 205 205 205
0.1126317 -0.1125707 0.4643652 205 205 205
0.1139138 -0.1121887 0.4630823 205 205 205
0.1164515 -0.1114138 0.4605076 205 205 205
0.1290441 -0.1102693 0.4539883 205 205 205
0.1305145 -0.1102648 0.4535319 205 205 205
0.1319835 -0.1102569 0.4530707 205 205 205
0.1387162 -0.109328 0.4489743 205 205 205
0.1470879 -0.1086893 0.4451253 205 205 205
0.1488468 -0.1090594 0.4454603 205 205 205
0.1502872 -0.1090074 0.4449393 205 205 205
0.1531627 -0.1088933 0.4438831 205 205 205
0.1542625 -0.1084133 0.4425034 205 205 205
0.1575072 -0.1069553 0.4383529 205 205 205
0.1704012 -0.1048103 0.4301855 205 205 205
0.1815201 -0.1024857 0.4222822 205 205 205
0.1909433 -0.100075 0.4147642 205 205 205
0.1948503 -0.09818771 0.4097455 205 205 205
0.1960623 -0.09661924 0.4060454 205 205 205
0.197855 -0.09305681 0.3978799 205 205 205
0.2042791 -0.08866984 0.3870204 205 205 205
-0.06195288 -0.08219481 0.4638585 205 205 205
-0.06050511 -0.0826035 0.4640489 205 205 205
-0.05218211 -0.08571452 0.4669088 205 205 205
-0.04649889 -0.08761889 0.468415 205 205 205
-0.04389792 -0.08910649 0.4705095 205 205 205
-0.03827734 -0.09132481 0.4728143 205 205 205
-0.03678335 -0.09168787 0.4729207 205 205 205
-0.02997139 -0.09533849 0.477958 205 205 205
-0.01266722 -0.1035588 0.4886282 205 205 205
0.09818543 -0.1155469 0.4719375 205 205 205
0.1004941 -0.1140025 0.4676714 205 205 205
0.1126417 -0.1144223 0.4646142 205 205 205
0.1164757 -0.1132547 0.4607582 205 205 205
0.117974 -0.113281 0.4603415 205 205 205
0.1192293 -0.1128811 0.4590465 205 205 205
0.1227099 -0.1137621 0.4599331 205 205 205
0.1239537 -0.1133518 0.4586254 205 205 205
0.1303108 -0.1116711 0.4529115 205 205 205
0.1332481 -0.1116516 0.4519842 205 205 205
0.1347145 -0.1116367 0.4515133 205 205 205
0.1379328 -0.1120194 0.4514155 205 205 205
0.1431745 -0.1110532 0.4477332 205 205 205
0.14865 -0.110456 0.4448433 205 205 205
0.1532982 -0.1107108 0.4441104 205 205 205
0.1576613 -0.1087568 0.4385813 205 205 205
0.1590783 -0.1086814 0.4380317 205 205 205
0.1611935 -0.10768 0.4352496 205 205 205
0.1681937 -0.1072212 0.4324005 205 205 205
0.1705977 -0.1065957 0.4304048 205 205 205
0.1733681 -0.1063759 0.4292181 205 205 205
0.17613 -0.1061427 0.4280132 205 205 205
0.1871647 -0.1036857 0.41996 205 205 205
0.189004 -0.1011596 0.4140237 205 205 205
0.1973816 -0.09534672 0.3995392 205 205 205
0.1992284 -0.09315263 0.394408 205 205 205
0.2002379 -0.09154598 0.3907347 205 205 205
0.2036172 -0.08952608 0.3856986 205 205 205
0.2050056 -0.08830164 0.3827944 205 205 205
0.2056857 -0.08768661 0.3813422 205 205 205
0.2110721 -0.08617913 0.3770733 205 205 205
-0.06075194 -0.08394761 0.4634613 205 205 205
-0.05077218 -0.0870935 0.4655605 205 205 205
-0.04527223 -0.08935843 0.4679541 205 205 205
-0.04414472 -0.09047563 0.4699093 205 205 205
-0.04117865 -0.0912211 0.4701561 205 205 205
-0.03703 -0.09306694 0.4723155 205 205 205
-0.0343316 -0.09453949 0.4743407 205 205 205
-0.03173782 -0.09638575 0.477262 205 205 205
-0.02896328 -0.09784886 0.4792497 205 205 205
-0.02485741 -0.1004158 0.4831104 205 205 205
-0.02054389 -0.1025876 0.4860107 205 205 205
-0.01134806 -0.105322 0.4880061 205 205 205
0.102523 -0.1138576 0.4627696 205 205 205
0.1192603 -0.1147228 0.4592878 205 205 205
0.1282163 -0.114787 0.4566544 205 205 205
0.1380194 -0.1138521 0.4516451 205 205 205
0.1435834 -0.1133037 0.448813 205 205 205
0.1490908 -0.1127011 0.4459143 205 205 205
0.1537619 -0.1129579 0.445172 205 205 205
0.1585032 -0.1114116 0.4404756 205 205 205
0.1606534 -0.1104076 0.4376946 205 205 205
0.1627667 -0.1093918 0.4349067 205 205 205
0.1641728 -0.1093029 0.4343401 205 205 205
0.166979 -0.1091149 0.4331931 205 205 205
0.1771319 -0.1087718 0.4298508 205 205 205
0.1785208 -0.1086489 0.429237 205 205 205
0.1851247 -0.1061667 0.4222398 205 205 205
0.1864837 -0.1060217 0.4216011 205 205 205
0.1879376 -0.1030652 0.4148696 205 205 205
0.1901505 -0.1023342 0.4127784 205 205 205
0.1914708 -0.1021723 0.4121254 205 205 205
0.1927888 -0.1020071 0.4114681 205 205 205
0.1961852 -0.0996601 0.4056594 205 205 205
0.1990645 -0.09443054 0.3938358 205 205 205
0.1993333 -0.0934173 0.3916153 205 205 205
0.2000762 -0.09281237 0.3901677 205 205 205
0.2027496 -0.09139329 0.3865874 205 205 205
0.2034586 -0.09077989 0.3851372 205 205 205
0.2041583 -0.09016462 0.3836868 205 205 205
0.2048487 -0.0895474 0.3822365 205 205 205
-0.063441 -0.083746 0.4606742 205 205 205
-0.05831007 -0.08646438 0.4641393 205 205 205
-0.05413883 -0.08802824 0.465557 205 205 205
-0.04955612 -0.08882955 0.4651127 205 205 205
-0.04569598 -0.09109076 0.4682626 205 205 205
-0.04456569 -0.09221653 0.4702145 205 205 205
-0.03212645 -0.09816471 0.4775555 205 205 205
-0.02665357 -0.1014909 0.4824184 205 205 205
-0.0223549 -0.1036822 0.4853286 205 205 205
0.09682443 -0.1162927 0.4662227 205 205 205
0.1011903 -0.1160677 0.4642645 205 205 205
0.105937 -0.1166687 0.4640253 205 205 205
0.109608 -0.1180544 0.4658849 205 205 205
0.1137259 -0.1173164 0.4629304 205 205 205
0.1150097 -0.11692 0.4616472 205 205 205
0.1160517 -0.1160902 0.4594887 205 205 205
0.1227844 -0.117464 0.4603964 205 205 205
0.1240377 -0.1170464 0.4590896 205 205 205
0.1257932 -0.1174853 0.4595119 205 205 205
0.1292285 -0.1157709 0.4546982 205 205 205
0.135715 -0.1165902 0.4545451 205 205 205
0.1413463 -0.1160641 0.451736 205 205 205
0.1425201 -0.1156017 0.4503845 205 205 205
0.1513073 -0.1153335 0.4472912 205 205 205
0.153092 -0.1157056 0.4476014 205 205 205
0.1567927 -0.1146573 0.4442951 205 205 205
0.1636519 -0.1120474 0.4367755 205 205 205
0.1668512 -0.1122908 0.4364559 205 205 205
0.1682683 -0.1121937 0.4358742 205 205 205
0.1851077 -0.1107642 0.428536 205 205 205
0.1860799 -0.1102006 0.4270899 205 205 205
0.1875723 -0.1086437 0.4233925 205 205 205
0.191739 -0.1039212 0.4123154 205 205 205
0.1964748 -0.1013904 0.405848 205 205 205
0.1968391 -0.100377 0.4036133 205 205 205
0.197834 -0.09732944 0.396928 205 205 205
0.1986127 -0.09672568 0.3954794 205 205 205
0.202795 -0.0916207 0.3838107 205 205 205
0.2034923 -0.09100197 0.3823641 205 205 205
0.2048587 -0.0897589 0.3794709 205 205 205
0.206045 -0.08954275 0.3787768 205 205 205
0.2084097 -0.08910137 0.3773771 205 205 205
0.2097032 -0.08783662 0.3744731 205 205 205
-0.06224786 -0.08548828 0.460273 205 205 205
-0.06124629 -0.08662819 0.46227 205 205 205
-0.06001239 -0.08740256 0.463359 205 205 205
-0.05438623 -0.08937737 0.4649535 205 205 205
-0.0405131 -0.09508451 0.4708732 205 205 205
-0.0285787 -0.1029477 0.4826286 205 205 205
-0.02703053 -0.1032974 0.4826946 205 205 205
-0.01980626 -0.1069657 0.4875104 205 205 205
0.102685 -0.1179785 0.4641321 205 205 205
0.1173374 -0.1175299 0.458429 205 205 205
0.1188356 -0.1175525 0.4580073 205 205 205
0.1245788 -0.1197674 0.4610395 205 205 205
0.1298181 -0.1184808 0.4566393 205 205 205
0.1313127 -0.1184756 0.4561759 205 205 205
0.1375612 -0.1188536 0.4551285 205 205 205
0.141436 -0.1179086 0.4519443 205 205 205
0.1429144 -0.1178756 0.4514431 205 205 205
0.1473393 -0.1177558 0.4499105 205 205 205
0.1523929 -0.1184697 0.4500188 205 205 205
0.1541922 -0.1188444 0.450322 205 205 205
0.1586129 -0.1186501 0.4486761 205 205 205
0.1645327 -0.1147215 0.4386295 205 205 205
0.1855727 -0.114416 0.4325751 205 205 205
0.1875383 -0.1071584 0.4166891 205 205 205
0.1897946 -0.104992 0.4115703 205 205 205
0.1950651 -0.1043211 0.408934 205 205 205
0.1967621 -0.1031252 0.4060283 205 205 205
0.1978204 -0.1000573 0.3993383 205 205 205
0.1994896 -0.09636737 0.3912314 205 205 205
0.2002377 -0.09575396 0.3897856 205 205 205
0.2009765 -0.09513843 0.3883394 205 205 205
0.2019265 -0.09348685 0.384686 205 205 205
0.2031369 -0.09328008 0.384 205 205 205
0.2040208 -0.09161869 0.3803519 205 205 205
0.2047002 -0.09099221 0.3789071 205 205 205
-0.06490962 -0.08525773 0.4574797 205 205 205
-0.06370639 -0.08603783 0.4585782 205 205 205
-0.06249436 -0.08681706 0.4596729 205 205 205
-0.05609655 -0.09032585 0.4641802 205 205 205
-0.05336775 -0.09149421 0.4654093 205 205 205
-0.05189889 -0.09188706 0.465564 205 205 205
-0.04601172 -0.09342734 0.4661316 205 205 205
-0.04488723 -0.09456729 0.4680763 205 205 205
-0.03703749 -0.0994854 0.4751142 205 205 205
-0.02870271 -0.1039723 0.4810748 205 205 205
-0.02715811 -0.1043217 0.4811403 205 205 205
-0.02585611 -0.1054558 0.4830225 205 205 205
-0.02442004 -0.1061952 0.4839888 205 205 205
-0.0216327 -0.1080656 0.4868176 205 205 205
0.09178982 -0.1227225 0.4742563 205 205 205
0.09351051 -0.1194143 0.4665021 205 205 205
0.09503835 -0.1194927 0.4661576 205 205 205
0.101334 -0.1202076 0.4656076 205 205 205
0.1039833 -0.1194544 0.463107 205 205 205
0.105911 -0.1203807 0.4644803 205 205 205
0.1074344 -0.1204314 0.4640944 205 205 205
0.1104779 -0.1205224 0.4633076 205 205 205
0.1132923 -0.1201626 0.4616295 205 205 205
0.1148061 -0.1201958 0.4612196 205 205 205
0.121335 -0.1211676 0.4612618 205 205 205
0.1256171 -0.1233812 0.4647015 205 205 205
0.1274025 -0.1238272 0.4651116 205 205 205
0.1309348 -0.1220836 0.4602836 205 205 205
0.1324486 -0.1220782 0.4598145 205 205 205
0.1360257 -0.1229311 0.4605727 205 205 205
0.1375423 -0.122915 0.4600863 205 205 205
0.145093 -0.1205607 0.4528283 205 205 205
0.1495474 -0.1204288 0.4512697 205 205 205
0.1525083 -0.1203233 0.4502065 205 205 205
0.1615779 -0.1221744 0.4516321 205 205 205
0.1623773 -0.1212277 0.4493976 205 205 205
0.1642773 -0.1197609 0.4457605 205 205 205
0.1661255 -0.1182825 0.4421214 205 205 205
0.1756301 -0.1222243 0.4479695 205 205 205
0.1767291 -0.1216823 0.446534 205 205 205
0.1781987 -0.12157 0.4459144 205 205 205
0.1804331 -0.122319 0.4469221 205 205 205
0.1919384 -0.1193924 0.4378531 205 205 205
0.1921177 -0.1179545 0.4347844 205 205 205
0.1910049 -0.1152292 0.429326 205 205 205
0.1957408 -0.1050435 0.4068725 205 205 205
0.1974208 -0.103835 0.403969 205 205 205
0.1979694 -0.1003175 0.3965212 205 205 205
0.1987533 -0.09970529 0.3950744 205 205 205
0.1995279 -0.09909092 0.3936273 205 205 205
0.1998076 -0.0980541 0.3914132 205 205 205
0.2087468 -0.09092282 0.3747977 205 205 205
-0.06296588 -0.08851477 0.4599682 205 205 205
-0.06072585 -0.09045456 0.463044 205 205 205
-0.05969373 -0.09161197 0.4650277 205 205 205
-0.04661788 -0.09554601 0.467325 205 205 205
-0.04531108 -0.09631064 0.4683605 205 205 205
-0.03999734 -0.09935666 0.4724578 205 205 205
-0.03728857 -0.1008718 0.4744789 205 205 205
-0.03163012 -0.1034911 0.4775554 205 205 205
-0.02647707 -0.1080673 0.4850996 205 205 205
0.08951074 -0.122766 0.4712688 205 205 205
0.09652425 -0.1214258 0.4660298 205 205 205
0.09786861 -0.1210585 0.4647951 205 205 205
0.1026388 -0.1216915 0.4645769 205 205 205
0.1039639 -0.1213096 0.4633257 205 205 205
0.1087365 -0.1219013 0.4630433 205 205 205
0.1130738 -0.1215815 0.4609709 205 205 205
0.1180829 -0.1225512 0.4614588 205 205 205
0.1233721 -0.1239307 0.4627524 205 205 205
0.127183 -0.1252737 0.4644396 205 205 205
0.1333089 -0.1252728 0.4625748 205 205 205
0.1378873 -0.1252346 0.4611234 205 205 205
0.1403564 -0.1243101 0.45843 205 205 205
0.1412859 -0.1234024 0.4562303 205 205 205
0.1451854 -0.1224203 0.4530136 205 205 205
0.1529423 -0.1226208 0.4512243 205 205 205
0.1593858 -0.1250693 0.4545939 205 205 205
0.1605521 -0.1245601 0.4531962 205 205 205
0.1658248 -0.1233679 0.44924 205 205 205
0.1665978 -0.1224045 0.4470029 205 205 205
0.1823932 -0.1007565 0.3977297 205 205 205
0.1849896 -0.1018891 0.3994648 205 205 205
0.199903 -0.0982761 0.3886149 205 205 205
0.2011354 -0.09807537 0.3879336 205 205 205
0.2025954 -0.09682129 0.3850443 205 205 205
0.2057329 -0.09576528 0.3822127 205 205 205
-0.06015806 -0.09333634 0.4653067 205 205 205
-0.0584758 -0.09336571 0.4645807 205 205 205
-0.05721301 -0.09415043 0.4656516 205 205 205
-0.05553573 -0.09417152 0.4649145 205 205 205
-0.05278601 -0.09534816 0.4661307 205 205 205
-0.04871605 -0.09729037 0.4683716 205 205 205
-0.04040917 -0.1011243 0.4727267 205 205 205
-0.03905571 -0.1018876 0.4737379 205 205 205
-0.03617306 -0.103015 0.4748396 205 205 205
-0.03075389 -0.1064372 0.479705 205 205 205
-0.02947085 -0.1075895 0.4815899 205 205 205
0.08879512 -0.122876 0.4679497 205 205 205
0.09016801 -0.1225239 0.4667368 205 205 205
0.09306193 -0.1222498 0.4651808 205 205 205
0.09476812 -0.1227705 0.4657152 205 205 205
0.09666241 -0.1237304 0.4671213 205 205 205
0.09992683 -0.1243137 0.4672777 205 205 205
0.1039423 -0.1231691 0.4635356 205 205 205
0.1102527 -0.1238084 0.4628516 205 205 205
0.1122162 -0.124736 0.4641873 205 205 205
0.1188017 -0.1257503 0.4642503 205 205 205
0.1495011 -0.1259725 0.4555155 205 205 205
0.1549756 -0.1271451 0.4564161 205 205 205
0.1746244 -0.09319832 0.3808122 205 205 205
0.1798369 -0.09694198 0.3872668 205 205 205
0.1886301 -0.1026683 0.3969512 205 205 205
0.1987109 -0.1052161 0.3998449 205 205 205
0.2004364 -0.1014407 0.3917526 205 205 205
0.2019491 -0.1001846 0.3888603 205 205 205
-0.06467592 -0.09037345 0.4576493 205 205 205
-0.05767089 -0.09588233 0.4659221 205 205 205
-0.0547128 -0.09668729 0.4662467 205 205 205
-0.05342778 -0.09747186 0.4673024 205 205 205
-0.04915118 -0.09903899 0.4686388 205 205 205
-0.04484148 -0.1005835 0.469931 205 205 205
-0.04367991 -0.1017494 0.4718578 205 205 205
-0.0381002 -0.1044312 0.475001 205 205 205
-0.03114332 -0.1082436 0.4799527 205 205 205
0.08994087 -0.1239409 0.4660664 205 205 205
0.09454212 -0.1241876 0.4650446 205 205 205
0.09661648 -0.1256005 0.4673239 205 205 205
0.1029761 -0.1263147 0.4667326 205 205 205
0.1078065 -0.1269256 0.4664484 205 205 205
0.1108904 -0.1270174 0.4656516 205 205 205
0.1130872 -0.1283998 0.4678471 205 205 205
0.1834705 -0.09914906 0.3877892 205 205 205
0.1954944 -0.1064511 0.3998053 205 205 205
0.1980621 -0.1060786 0.3984595 205 205 205
0.1988685 -0.105455 0.3970132 205 205 205
0.1999723 -0.1037701 0.3933558 205 205 205
0.2015124 -0.102509 0.3904642 205 205 205
0.2054825 -0.1008182 0.3861822 205 205 205
0.2062078 -0.1001754 0.3847314 205 205 205
0.2069237 -0.09953056 0.3832805 205 205 205
0.2066076 -0.09803149 0.3803369 205 205 205
0.2079792 -0.09673487 0.3774429 205 205 205
0.208651 -0.0960838 0.375996 205 205 205
-0.06636297 -0.09127308 0.4568324 205 205 205
-0.06438959 -0.09363334 0.4608034 205 205 205
-0.05961149 -0.09720957 0.4660141 205 205 205
-0.05516426 -0.09842672 0.4665086 205 205 205
-0.05387593 -0.09921633 0.4675626 205 205 205
-0.05219328 -0.09922234 0.4668126 205 205 205
-0.04809073 -0.1011805 0.4690321 205 205 205
-0.04544059 -0.1027406 0.4710893 205 205 205
-0.04003606 -0.1058452 0.4751488 205 205 205
-0.03064143 -0.1124421 0.4847822 205 205 205
0.08849902 -0.1261626 0.4674795 205 205 205
0.08971267 -0.1253551 0.4653906 205 205 205
0.09278187 -0.1255231 0.4647143 205 205 205
0.09449151 -0.1260511 0.4652444 205 205 205
0.09829904 -0.1279967 0.4680323 205 205 205
0.1889721 -0.1031063 0.3913514 205 205 205
0.196943 -0.106495 0.3963051 205 205 205
0.1982166 -0.1063044 0.3956299 205 205 205
0.2033362 -0.1029302 0.3877209 205 205 205
0.2086244 -0.09622596 0.3732249 205 205 205
-0.06362971 -0.09615198 0.4621475 205 205 205
-0.05244495 -0.1005744 0.4661675 205 205 205
-0.05133668 -0.1017595 0.4681087 205 205 205
-0.05002626 -0.1025487 0.4691471 205 205 205
-0.03546945 -0.1123639 0.4829727 205 205 205
0.08797736 -0.131101 0.4741485 205 205 205
0.09443872 -0.1279187 0.4654354 205 205 205
0.1050569 -0.1314952 0.4693245 205 205 205
0.1980371 -0.1075835 0.3950089 205 205 205
0.2021351 -0.1059126 0.3907551 205 205 205
0.2024097 -0.1048333 0.3885543 205 205 205
0.2088385 -0.09896467 0.3755495 205 205 205
0.209506 -0.09830317 0.3741045 205 205 205
-0.06733032 -0.09467185 0.4573593 205 205 205
-0.06511837 -0.09667769 0.4604247 205 205 205
-0.06388132 -0.09748596 0.4615054 205 205 205
-0.06033007 -0.1002977 0.4656174 205 205 205
-0.05327903 -0.1031181 0.4682069 205 205 205
-0.05046617 -0.1043097 0.4693882 205 205 205
-0.0478124 -0.1058944 0.4714482 205 205 205
-0.04664752 -0.1070879 0.4733697 205 205 205
-0.04512374 -0.1074739 0.4734901 205 205 205
-0.04118539 -0.11024 0.4774173 205 205 205
0.091292 -0.1296282 0.4663092 205 205 205
0.09473439 -0.1307029 0.4673622 205 205 205
0.1815526 -0.09742777 0.3756709 205 205 205
0.2021471 -0.1087071 0.3930906 205 205 205
0.2037011 -0.1074136 0.3901949 205 205 205
0.2071178 -0.102611 0.3800198 205 205 205
-0.06037037 -0.1012481 0.4640692 205 205 205
-0.05503128 -0.1040738 0.4673967 205 205 205
-0.04976515 -0.1072772 0.4715471 205 205 205
0.09676807 -0.1340419 0.4697851 205 205 205
0.202273 -0.1130585 0.3983838 205 205 205
0.2062834 -0.1071555 0.3859728 205 205 205
0.2079627 -0.1047281 0.3808863 205 205 205
0.2088521 -0.1029559 0.3772564 205 205 205
0.2102134 -0.1016162 0.3743664 205 205 205
-0.06731458 -0.09930072 0.4598259 205 205 205
-0.06585062 -0.09972469 0.4600182 205 205 205
-0.06040961 -0.1021888 0.462519 205 205 205
-0.05827875 -0.104614 0.4664177 205 205 205
-0.05678293 -0.1050222 0.4665769 205 205 205
-0.05528591 -0.1054271 0.4667309 205 205 205
-0.05378765 -0.1058289 0.4668799 205 205 205
-0.05247973 -0.1066334 0.4679172 205 205 205
-0.05020551 -0.1090547 0.4717672 205 205 205
-0.04632658 -0.1118698 0.4757223 205 205 205
0.09057919 -0.1360718 0.4722192 205 205 205
0.09305421 -0.1343923 0.4680446 205 205 205
0.2059611 -0.1137349 0.3956377 205 205 205
0.2058396 -0.1068585 0.3824142 205 205 205
0.2065632 -0.1061932 0.380971 205 205 205
0.2072775 -0.105526 0.3795279 205 205 205
0.2091936 -0.104628 0.3773754 205 205 205
-0.06610306 -0.1010496 0.4593606 205 205 205
-0.06192109 -0.1027069 0.4607947 205 205 205
-0.06066266 -0.1035232 0.4618562 205 205 205
-0.05960653 -0.1047427 0.4638035 205 205 205
-0.05574059 -0.107185 0.466951 205 205 205
-0.05331147 -0.1092167 0.4699193 205 205 205
-0.05236067 -0.1108478 0.4727356 205 205 205
-0.0513859 -0.1124815 0.4755488 205 205 205
0.2106197 -0.1195348 0.4024816 205 205 205
0.2066638 -0.1089977 0.3832666 205 205 205
0.2100478 -0.1067498 0.3782184 205 205 205
0.210745 -0.106071 0.3767715 205 205 205
0.2115858 -0.1042643 0.3731515 205 205 205
-0.06805439 -0.1023477 0.4593919 205 205 205
-0.06489002 -0.1027939 0.458884 205 205 205
-0.06342299 -0.1032129 0.4590653 205 205 205
-0.06091599 -0.1048547 0.4611883 205 205 205
-0.05770177 -0.1085385 0.4670082 205 205 205
-0.05453302 -0.1126431 0.473686 205 205 205
0.2082234 -0.1104722 0.3826605 205 205 205
0.2103839 -0.1084336 0.3783195 205 205 205
0.2100492 -0.1068536 0.3754156 205 205 205
0.2114103 -0.1054839 0.3725298 205 205 205
-0.06389923 -0.1049413 0.4592815 205 205 205
-0.06242697 -0.1053589 0.4594577 205 205 205
-0.06138568 -0.1065933 0.4614011 205 205 205
-0.05925396 -0.1090652 0.4652776 205 205 205
-0.05816351 -0.1103025 0.4672106 205 205 205
-0.05765985 -0.1127832 0.4718032 205 205 205
-0.05751164 -0.1161012 0.4781706 205 205 205
0.2128713 -0.121732 0.3996732 205 205 205
0.2107309 -0.1183128 0.3937563 205 205 205
0.2085401 -0.1148986 0.387862 205 205 205
-0.06732544 -0.1058256 0.4591213 205 205 205
-0.06585188 -0.1062512 0.4593077 205 205 205
-0.06415268 -0.1062624 0.4586055 205 205 205
-0.0629008 -0.1070929 0.4596652 205 205 205
-0.05944875 -0.1137364 0.4709466 205 205 205
0.2098418 -0.1175412 0.3894142 205 205 205
0.2086151 -0.1150225 0.3850191 205 205 205
0.2090936 -0.1127358 0.38066 205 205 205
0.2107241 -0.1102107 0.3756003 205 205 205
0.2115784 -0.1083687 0.3719938 205 205 205
-0.07052316 -0.1062837 0.4580521 205 205 205
-0.06337621 -0.1088308 0.4598639 205 205 205
0.210427 -0.1153583 0.3821963 205 205 205
0.2106534 -0.1142046 0.3800205 205 205 205
-0.06830107 -0.1092948 0.4595098 205 205 205
-0.06681981 -0.1097239 0.4596963 205 205 205
-0.06474055 -0.1122487 0.4635756 205 205 205
-0.06411253 -0.114353 0.467272 205 205 205
-0.06323867 -0.1160413 0.4700853 205 205 205
0.212004 -0.1196249 0.386628 205 205 205
0.2107439 -0.1170707 0.3822626 205 205 205
0.210533 -0.1114978 0.3721516 205 205 205
-0.067536 -0.1118862 0.4607552 205 205 205
-0.06695082 -0.1140003 0.4644498 205 205 205
-0.06611163 -0.1156973 0.4672644 205 205 205
0.2125743 -0.1201886 0.384497 205 205 205
0.2128205 -0.1190171 0.3823192 205 205 205
0.2125382 -0.117379 0.3794236 205 205 205
0.2117176 -0.1152763 0.3758163 205 205 205
0.2105098 -0.1115411 0.3693533 205 205 205
-0.07029397 -0.1115004 0.4579215 205 205 205
0.2159137 -0.1247421 0.3888833 205 205 205
0.2146601 -0.1221492 0.3845306 205 205 205
0.2138816 -0.1200286 0.3809131 205 205 205
-0.07222284 -0.1157881 0.4633279 205 205 205
0.2207571 -0.1307615 0.3954048 205 205 205
0.2120462 -0.1170143 0.373049 205 205 205
0.2117025 -0.1153565 0.3701868 205 205 205
-0.07277321 -0.1145422 0.4580508 205 205 205
0.2147629 -0.1223157 0.3759676 205 205 205
