ply
format ascii 1.0
comment Generated by Floating Hands
element vertex 1992
property double x
property double y
property double z
property uchar red
property uchar green
property uchar blue
end_header
0.1483746 -0.01735737 0.4756163 205 205 205
0.1511717 -0.01732084 0.4746472 205 205 205
0.1584803 -0.0173634 0.4730585 205 205 205
0.1510565 -0.01883554 0.4743803 205 205 205
0.1549043 -0.01856819 0.4719677 205 205 205
0.155951 -0.01834675 0.4705418 205 205 205
0.1481392 -0.02038596 0.4750771 205 205 205
0.1495403 -0.02036888 0.4745948 205 205 205
0.1541152 -0.01968957 0.4698531 205 205 205
0.1561878 -0.01923605 0.4670055 205 205 205
0.1596325 -0.01954493 0.4678126 205 205 205
0.1567515 -0.0202951 0.4643873 205 205 205
0.1496236 -0.02359278 0.474957 205 205 205
0.1517719 -0.02314561 0.4721303 205 205 205
0.154587 -0.02225202 0.4669544 205 205 205
0.1587059 -0.02213847 0.4654242 205 205 205
0.1495016 -0.02510543 0.4746662 205 205 205
0.1505814 -0.02487918 0.4732547 205 205 205
0.1516522 -0.02465012 0.4718408 205 205 205
0.1537672 -0.02418337 0.4690061 205 205 205
0.1544711 -0.02374045 0.4666677 205 205 205
0.1555027 -0.02350016 0.4652461 205 205 205
0.1565255 -0.02325707 0.4638223 205 205 205
0.1624058 -0.0241497 0.4668258 205 205 205
0.1648685 -0.02471336 0.4690209 205 205 205
0.1839584 -0.02438794 0.4642647 205 205 205
0.1894271 -0.02399585 0.461798 205 205 205
0.1907888 -0.02389026 0.4611693 205 205 205
0.1619337 -0.02543853 0.4656205 205 205 205
0.1671579 -0.02590316 0.4667277 205 205 205
0.1685375 -0.02584336 0.4661769 205 205 205
0.1738132 -0.02626872 0.4671964 205 205 205
0.1807049 -0.02587673 0.4642764 205 205 205
0.1865948 -0.02571416 0.4627405 205 205 205
0.1513112 -0.02853164 0.4754209 205 205 205
0.1520663 -0.02808098 0.4730846 205 205 205
0.1545746 -0.02692564 0.4669933 205 205 205
0.1559554 -0.02689004 0.4664865 205 205 205
0.1573344 -0.02685151 0.4659749 205 205 205
0.1642028 -0.02661405 0.4633448 205 205 205
0.1659392 -0.02676974 0.4637096 205 205 205
0.1686769 -0.02664763 0.4626117 205 205 205
0.1704219 -0.02679373 0.4629565 205 205 205
0.1725545 -0.02714789 0.464193 205 205 205
0.1743132 -0.02728708 0.464521 205 205 205
0.1870234 -0.02671009 0.4600469 205 205 205
0.1526822 -0.02912704 0.4704417 205 205 205
0.1558357 -0.02837738 0.4661818 205 205 205
0.1582435 -0.02808024 0.4642423 205 205 205
0.1639848 -0.02717955 0.4588818 205 205 205
0.17849 -0.0278276 0.4592042 205 205 205
0.1923437 -0.02778449 0.4572252 205 205 205
0.1550103 -0.03034069 0.4682074 205 205 205
0.1581244 -0.02956165 0.4639327 205 205 205
0.1605126 -0.02924878 0.4619801 205 205 205
0.1615183 -0.02897803 0.4605456 205 205 205
0.1635029 -0.02842838 0.4576707 205 205 205
0.1828562 -0.02926353 0.4579904 205 205 205
0.1842103 -0.02916697 0.4573839 205 205 205
0.1877534 -0.02939808 0.4579186 205 205 205
0.1971711 -0.02936019 0.4567184 205 205 205
0.1548347 -0.03276506 0.4720545 205 205 205
0.1590524 -0.03171462 0.4663464 205 205 205
0.1643675 -0.02960868 0.4559188 205 205 205
0.1674345 -0.02970463 0.4557297 205 205 205
0.1705081 -0.029788 0.455516 205 205 205
0.1749323 -0.0297782 0.4547039 205 205 205
0.1872269 -0.03067487 0.4567175 205 205 205
0.1894265 -0.03100911 0.4578522 205 205 205
0.1939238 -0.03088979 0.4568212 205 205 205
-0.02661545 -0.01560095 0.4974711 205 205 205
0.1536293 -0.03453062 0.4731486 205 205 205
0.1554378 -0.03378012 0.4693921 205 205 205
0.1564942 -0.03351497 0.4679683 205 205 205
0.158231 -0.03274791 0.4642051 205 205 205
0.1589041 -0.03224628 0.4618688 205 205 205
0.1599175 -0.0319702 0.4604391 205 205 205
0.165598 -0.03100373 0.4550601 205 205 205
0.1669423 -0.03093838 0.454514 205 205 205
0.1713521 -0.03095098 0.4537408 205 205 205
0.1769624 -0.03161322 0.4555828 205 205 205
0.1938606 -0.03160326 0.4532333 205 205 205
0.1969853 -0.03157892 0.4528051 205 205 205
-0.02962806 -0.01622561 0.4959163 205 205 205
0.1675817 -0.03285546 0.4559847 205 205 205
0.1743135 -0.03248082 0.4531691 205 205 205
-0.02929918 -0.0169624 0.4917138 205 205 205
-0.02798807 -0.01748639 0.4928249 205 205 205
-0.02388111 -0.01886272 0.4951562 205 205 205
-0.02265949 -0.01957133 0.497223 205 205 205
0.1555193 -0.03700748 0.4696361 205 205 205
0.1606803 -0.03461818 0.4583533 205 205 205
0.163033 -0.03427133 0.4563878 205 205 205
0.17688 -0.03376943 0.45168 205 205 205
0.1812973 -0.03372258 0.4507878 205 205 205
0.1941114 -0.03399505 0.4501832 205 205 205
0.1994577 -0.03429885 0.4508168 205 205 205
0.202157 -0.03485047 0.4527339 205 205 205
-0.02952087 -0.01842503 0.4914002 205 205 205
-0.02141157 -0.02138396 0.4970162 205 205 205
0.1553178 -0.03949938 0.4734482 205 205 205
0.157162 -0.0377066 0.4655377 205 205 205
0.1588848 -0.03689812 0.4617791 205 205 205
0.1601983 -0.03583967 0.4571158 205 205 205
0.1648714 -0.03512661 0.4531788 205 205 205
0.1665914 -0.03529922 0.4535289 205 205 205
0.1688949 -0.03491973 0.4515304 205 205 205
0.1750284 -0.03507708 0.4510399 205 205 205
0.1767664 -0.03522698 0.4513442 205 205 205
0.177699 -0.03489965 0.4498748 205 205 205
0.1786225 -0.03456979 0.4484039 205 205 205
0.1799491 -0.0344738 0.4478113 205 205 205
0.1865126 -0.03476621 0.448016 205 205 205
0.1882685 -0.03488953 0.4482676 205 205 205
0.2006902 -0.03565039 0.4498072 205 205 205
0.2061228 -0.03676229 0.4536017 205 205 205
-0.03322036 -0.01996587 0.4946729 205 205 205
0.1559806 -0.03947401 0.4666143 205 205 205
0.156344 -0.03870231 0.4633781 205 205 205
0.1584065 -0.03812579 0.4605315 205 205 205
0.1617951 -0.03748341 0.4571465 205 205 205
0.1627894 -0.03718275 0.4557129 205 205 205
0.1701149 -0.03629044 0.4506331 205 205 205
0.2041749 -0.0373259 0.4498239 205 205 205
0.2087179 -0.03797136 0.451862 205 205 205
-0.03315214 -0.02104851 0.4924058 205 205 205
0.1557969 -0.04198818 0.4704066 205 205 205
0.1569017 -0.0406711 0.4648396 205 205 205
0.1595906 -0.03850155 0.4555297 205 205 205
0.1774694 -0.03780138 0.4491882 205 205 205
0.1832726 -0.03681568 0.4444483 205 205 205
0.1867606 -0.03708149 0.4449655 205 205 205
-0.03323 -0.02231329 0.491105 205 205 205
-0.03163617 -0.02245984 0.4902829 205 205 205
-0.02715958 -0.02327688 0.4897216 205 205 205
0.1614447 -0.03933544 0.4523261 205 205 205
0.1668155 -0.03907498 0.4501614 205 205 205
0.1822592 -0.03860759 0.4455772 205 205 205
0.1831599 -0.03825464 0.4440986 205 205 205
0.1914787 -0.03866385 0.4444642 205 205 205
0.1950077 -0.03890082 0.4449043 205 205 205
0.1971959 -0.0383904 0.4427405 205 205 205
0.204373 -0.03967095 0.4467173 205 205 205
0.2138819 -0.04034119 0.4483102 205 205 205
-0.03811961 -0.02311342 0.4922298 205 205 205
-0.03619726 -0.022868 0.4894918 205 205 205
-0.0346006 -0.023018 0.488681 205 205 205
-0.03157127 -0.02350765 0.4880098 205 205 205
-0.02117199 -0.02826565 0.4986961 205 205 205
0.1561966 -0.0454956 0.4714898 205 205 205
0.1569791 -0.04388379 0.4650227 205 205 205
0.1606934 -0.04134063 0.4542958 205 205 205
0.1622968 -0.04045845 0.4505436 205 205 205
0.1636376 -0.04039474 0.4500062 205 205 205
0.1710928 -0.04053779 0.4490207 205 205 205
0.1720357 -0.04020288 0.4475687 205 205 205
0.1733665 -0.04011808 0.4469976 205 205 205
0.1781616 -0.04034971 0.4470123 205 205 205
0.1852132 -0.04008408 0.4448739 205 205 205
0.2006327 -0.04005931 0.4427657 205 205 205
0.2128153 -0.04135022 0.446254 205 205 205
-0.04209426 -0.02486041 0.4963697 205 205 205
-0.03996678 -0.02441747 0.4926838 205 205 205
-0.03611103 -0.02391014 0.4872181 205 205 205
0.1571867 -0.04562266 0.4655559 205 205 205
0.1602039 -0.04252652 0.4530383 205 205 205
0.163884 -0.04208471 0.4505394 205 205 205
0.1665686 -0.04194747 0.4494477 205 205 205
0.1745755 -0.0414639 0.4460622 205 205 205
0.1763066 -0.04162886 0.4463603 205 205 205
0.179373 -0.04169273 0.4460582 205 205 205
0.182445 -0.04174354 0.4457316 205 205 205
0.188605 -0.04180546 0.4450042 205 205 205
0.1921328 -0.04118484 0.442242 205 205 205
0.193448 -0.04105647 0.4416007 205 205 205
0.2058762 -0.04182272 0.4429131 205 205 205
-0.0416549 -0.0255156 0.4921607 205 205 205
-0.03970395 -0.02526112 0.4894406 205 205 205
-0.03777425 -0.02499828 0.4867126 205 205 205
-0.03057829 -0.0267401 0.4874627 205 205 205
-0.0278276 -0.02763081 0.488694 205 205 205
-0.02677239 -0.02860979 0.4917221 205 205 205
0.1784326 -0.04261259 0.4439425 205 205 205
0.1893802 -0.04287601 0.4431419 205 205 205
0.1942 -0.04211123 0.4397299 205 205 205
0.2066145 -0.04287969 0.4410042 205 205 205
0.2102008 -0.04306465 0.4412958 205 205 205
0.2110344 -0.04264712 0.4397521 205 205 205
0.2142904 -0.04348536 0.4423915 205 205 205
-0.04515179 -0.02665101 0.4933681 205 205 205
-0.04317094 -0.02639926 0.4906645 205 205 205
-0.04138016 -0.02634837 0.488916 205 205 205
-0.03624839 -0.02636836 0.4845932 205 205 205
-0.03080259 -0.0281829 0.4871103 205 205 205
0.157622 -0.0480063 0.4624755 205 205 205
0.1659377 -0.04454766 0.4478251 205 205 205
0.1752574 -0.04397039 0.4438697 205 205 205
0.1761742 -0.04361258 0.4424116 205 205 205
0.1779019 -0.04377852 0.4426986 205 205 205
0.2002313 -0.04350666 0.4384324 205 205 205
0.2028408 -0.04320816 0.4370881 205 205 205
0.2091328 -0.04401876 0.4392352 205 205 205
-0.0532732 -0.02682104 0.4948829 205 205 205
-0.03217573 -0.0288427 0.484684 205 205 205
-0.02930508 -0.02952413 0.4849552 205 205 205
-0.02442411 -0.03241996 0.4922022 205 205 205
-0.02331968 -0.03342513 0.4952122 205 205 205
0.1570571 -0.05145775 0.4694342 205 205 205
0.157829 -0.04974695 0.4629884 205 205 205
0.161529 -0.04704776 0.4522845 205 205 205
0.1680987 -0.04555476 0.4454598 205 205 205
0.1707579 -0.04539263 0.4443372 205 205 205
0.1716889 -0.04503921 0.4428906 205 205 205
0.1847854 -0.04493346 0.4401811 205 205 205
0.1900223 -0.04445099 0.4376883 205 205 205
0.1952808 -0.04484699 0.4383294 205 205 205
0.2067573 -0.0451175 0.4378663 205 205 205
0.2145569 -0.04669661 0.4424517 205 205 205
0.2210078 -0.04745295 0.4444205 205 205 205
-0.05146638 -0.02805127 0.4918509 205 205 205
-0.0465408 -0.02855991 0.4895697 205 205 205
-0.02966883 -0.03118051 0.4855573 205 205 205
-0.02585822 -0.03309274 0.4897869 205 205 205
-0.02354629 -0.03489772 0.4948386 205 205 205
0.1576925 -0.05007449 0.4584848 205 205 205
0.1670188 -0.04732408 0.4465182 205 205 205
0.1724865 -0.04609443 0.441065 205 205 205
0.1751168 -0.04590877 0.4399124 205 205 205
0.1807725 -0.04577142 0.4384196 205 205 205
0.190787 -0.0464091 0.4390203 205 205 205
0.1925426 -0.04654757 0.4392376 205 205 205
0.195165 -0.04627929 0.4379452 205 205 205
0.2013116 -0.04623714 0.4369961 205 205 205
0.2061696 -0.0463015 0.4366383 205 205 205
0.216604 -0.04755865 0.4397781 205 205 205
0.2230632 -0.04831018 0.4417017 205 205 205
-0.05151111 -0.02929524 0.4905214 205 205 205
-0.04986563 -0.02946564 0.4897673 205 205 205
-0.04299726 -0.02965967 0.4847688 205 205 205
-0.04139055 -0.02980418 0.4839828 205 205 205
-0.03692752 -0.03065606 0.4835119 205 205 205
-0.03292213 -0.03215516 0.4858807 205 205 205
-0.02989356 -0.03261466 0.4851883 205 205 205
-0.02740896 -0.0339777 0.4883305 205 205 205
0.1572023 -0.05241149 0.4613014 205 205 205
0.1606194 -0.05053405 0.453827 205 205 205
0.1701124 -0.04795387 0.4426949 205 205 205
0.1780285 -0.0473934 0.4392276 205 205 205
0.1789245 -0.04701556 0.437767 205 205 205
0.1836908 -0.04723283 0.4376886 205 205 205
0.1854279 -0.04738938 0.437936 205 205 205
0.1871697 -0.04754226 0.4381757 205 205 205
0.1884792 -0.04741936 0.4375503 205 205 205
0.1937367 -0.04784577 0.438204 205 205 205
0.1985777 -0.04796843 0.4379396 205 205 205
0.2083179 -0.04811699 0.4372267 205 205 205
0.213704 -0.04840828 0.4376082 205 205 205
0.2168202 -0.0483171 0.4369944 205 205 205
-0.05693014 -0.03043266 0.493322 205 205 205
-0.05506035 -0.03039921 0.4916326 205 205 205
-0.0448421 -0.03094397 0.4851759 205 205 205
-0.03842354 -0.03150015 0.4820223 205 205 205
-0.03026012 -0.0342785 0.4857761 205 205 205
-0.02895173 -0.03485096 0.4868664 205 205 205
-0.02763489 -0.0354223 0.4879521 205 205 205
-0.02484964 -0.03632643 0.4891461 205 205 205
-0.02387873 -0.03760123 0.4931098 205 205 205
-0.02252065 -0.03816955 0.4941776 205 205 205
0.1577602 -0.05326402 0.4585856 205 205 205
0.1604818 -0.05197494 0.4534305 205 205 205
0.1686563 -0.04944895 0.4428677 205 205 205
0.1779038 -0.0488034 0.4388385 205 205 205
0.178385 -0.0481437 0.4365128 205 205 205
0.1818358 -0.04848163 0.4370442 205 205 205
0.1883584 -0.04883813 0.4371582 205 205 205
0.1944779 -0.04886378 0.4363112 205 205 205
0.2006151 -0.04883489 0.4353653 205 205 205
0.212275 -0.05003982 0.4379182 205 205 205
0.2153942 -0.04995812 0.4373145 205 205 205
0.2190148 -0.05013064 0.4375096 205 205 205
-0.05717207 -0.03189668 0.4929366 205 205 205
-0.04669591 -0.03222776 0.48557 205 205 205
-0.0432835 -0.03229165 0.4830608 205 205 205
-0.03594876 -0.03385827 0.4829147 205 205 205
-0.02917814 -0.03628936 0.4864837 205 205 205
-0.02373725 -0.03834533 0.4898306 205 205 205
-0.02250981 -0.03915592 0.4918595 205 205 205
0.160392 -0.05461201 0.457121 205 205 205
0.1607011 -0.05369895 0.4539176 205 205 205
0.1629648 -0.0520851 0.4478694 205 205 205
0.1645301 -0.05109171 0.444132 205 205 205
0.1671955 -0.05093976 0.4430306 205 205 205
0.1786756 -0.0498254 0.4369854 205 205 205
0.1804024 -0.04999931 0.4372523 205 205 205
0.1817116 -0.04988866 0.4366498 205 205 205
0.1860592 -0.04981878 0.4356724 205 205 205
0.1908511 -0.04999866 0.4354967 205 205 205
0.195664 -0.0501471 0.4352608 205 205 205
0.196968 -0.05000453 0.4346053 205 205 205
0.2018007 -0.05011105 0.4342917 205 205 205
0.2048751 -0.05007225 0.43377 205 205 205
0.2120105 -0.05050009 0.434309 205 205 205
0.2184024 -0.05132363 0.4362744 205 205 205
0.2207174 -0.05167934 0.4371818 205 205 205
0.2225382 -0.05175857 0.4372578 205 205 205
0.2263957 -0.05291713 0.4405956 205 205 205
0.2288243 -0.05149509 0.4358546 205 205 205
-0.05328444 -0.03280823 0.4872575 205 205 205
-0.04674609 -0.03343172 0.4842293 205 205 205
-0.04208056 -0.0340806 0.4828508 205 205 205
-0.03474106 -0.0356314 0.4826778 205 205 205
-0.03330449 -0.03597937 0.4828192 205 205 205
-0.02940509 -0.03772587 0.4860953 205 205 205
-0.02384016 -0.03955191 0.4884757 205 205 205
0.1588624 -0.05611968 0.4572409 205 205 205
0.1598442 -0.05456221 0.4517333 205 205 205
0.169331 -0.05189682 0.4406362 205 205 205
0.1754197 -0.05210455 0.4400864 205 205 205
0.1776498 -0.05161769 0.438044 205 205 205
0.1785489 -0.05122751 0.4365866 205 205 205
0.1828937 -0.05117988 0.4356431 205 205 205
0.1841993 -0.0510629 0.4350317 205 205 205
0.1946359 -0.05100437 0.4331649 205 205 205
0.1975946 -0.05000755 0.4295151 205 205 205
0.1998128 -0.05041711 0.4305307 205 205 205
0.201101 -0.0502627 0.4298612 205 205 205
0.2167932 -0.05195493 0.4333914 205 205 205
0.2195994 -0.05259465 0.4351228 205 205 205
0.221414 -0.05267809 0.4352016 205 205 205
0.2289396 -0.05399778 0.4386386 205 205 205
-0.05497084 -0.03385491 0.4866541 205 205 205
-0.05023865 -0.03456289 0.4853652 205 205 205
-0.02831586 -0.03974475 0.4867828 205 205 205
0.1587155 -0.05879475 0.4609146 205 205 205
0.1590681 -0.05786326 0.4577133 205 205 205
0.1625508 -0.05368851 0.4429895 205 205 205
0.1691982 -0.05329927 0.440232 205 205 205
0.1709153 -0.05350298 0.4405392 205 205 205
0.1788356 -0.05291672 0.4370453 205 205 205
0.1801483 -0.05280842 0.4364473 205 205 205
0.1814589 -0.05269713 0.4358449 205 205 205
0.1875509 -0.05279599 0.4350967 205 205 205
0.1923562 -0.0529778 0.4348953 205 205 205
0.1953558 -0.05198777 0.4312623 205 205 205
0.1966484 -0.05184244 0.4306077 205 205 205
0.1974752 -0.05140986 0.4291095 205 205 205
0.2120991 -0.05264395 0.4311188 205 205 205
0.2133943 -0.05246451 0.4304058 205 205 205
0.2156817 -0.05284161 0.4313305 205 205 205
0.2246394 -0.05505589 0.4372944 205 205 205
0.2299104 -0.05423264 0.4342354 205 205 205
-0.04380037 -0.03631665 0.480941 205 205 205
-0.04093691 -0.03704642 0.4812789 205 205 205
-0.03950354 -0.037407 0.4814401 205 205 205
-0.03488721 -0.03798409 0.4799782 205 205 205
-0.03345719 -0.03833143 0.4801182 205 205 205
-0.02695412 -0.0412708 0.4855384 205 205 205
-0.02562814 -0.04185526 0.4866089 205 205 205
-0.0242937 -0.04243861 0.4876747 205 205 205
-0.02195142 -0.04435911 0.4926737 205 205 205
0.1592602 -0.06085238 0.4622672 205 205 205
0.1592525 -0.05837049 0.4540951 205 205 205
0.1677377 -0.05478399 0.440383 205 205 205
0.1787056 -0.05431876 0.4366348 205 205 205
0.180019 -0.05421014 0.4360369 205 205 205
0.1813302 -0.05409846 0.4354344 205 205 205
0.1830643 -0.05427567 0.4356845 205 205 205
0.1852509 -0.05374529 0.4336005 205 205 205
0.1965266 -0.05324696 0.4301957 205 205 205
0.2008622 -0.05307861 0.4290407 205 205 205
0.2127828 -0.05361041 0.429164 205 205 205
0.2263543 -0.0566085 0.4369163 205 205 205
0.2297948 -0.0557031 0.4338033 205 205 205
-0.0381358 -0.03893508 0.4802405 205 205 205
-0.03654429 -0.03904308 0.4794347 205 205 205
-0.03495924 -0.03914644 0.4786231 205 205 205
-0.03353243 -0.0394934 0.4787623 205 205 205
-0.02966758 -0.04127053 0.4820226 205 205 205
-0.02317848 -0.04446534 0.4883254 205 205 205
0.1591234 -0.06106674 0.4577475 205 205 205
0.1591064 -0.05980951 0.453669 205 205 205
0.1719725 -0.05621824 0.4391415 205 205 205
0.1746194 -0.05602761 0.4379859 205 205 205
0.1776686 -0.05612163 0.4376746 205 205 205
0.1789883 -0.05601539 0.4370795 205 205 205
0.1851228 -0.05514357 0.4331849 205 205 205
0.1894676 -0.05505593 0.4321587 205 205 205
0.1925141 -0.05507894 0.4317283 205 205 205
0.2081281 -0.05423652 0.4268594 205 205 205
0.2187441 -0.05667287 0.4330237 205 205 205
0.224193 -0.0569411 0.4332321 205 205 205
0.2288947 -0.0558239 0.4293761 205 205 205
-0.05487021 -0.03720447 0.4816481 205 205 205
-0.04569519 -0.03877117 0.4799625 205 205 205
-0.02595392 -0.04446812 0.4848303 205 205 205
0.1595574 -0.05930311 0.446873 205 205 205
0.1648026 -0.0577403 0.4406554 205 205 205
0.1687912 -0.05749508 0.4389873 205 205 205
0.1714404 -0.0573164 0.4378528 205 205 205
0.1923871 -0.05648076 0.4313053 205 205 205
0.2023783 -0.0560216 0.4283559 205 205 205
0.2054343 -0.0559864 0.427819 205 205 205
0.2171227 -0.05724851 0.4301388 205 205 205
0.2264108 -0.05877054 0.433652 205 205 205
-0.05387411 -0.03925492 0.4823945 205 205 205
-0.04916847 -0.03992184 0.4810876 205 205 205
-0.04592826 -0.04018002 0.4795531 205 205 205
-0.03843124 -0.04150072 0.4784721 205 205 205
-0.03525785 -0.04169782 0.4768567 205 205 205
-0.03127363 -0.0432463 0.4791664 205 205 205
-0.03012247 -0.04410371 0.4812011 205 205 205
-0.02510461 -0.04701573 0.4873872 205 205 205
0.1598695 -0.06489302 0.4595252 205 205 205
0.1591627 -0.06298921 0.4536842 205 205 205
0.1604048 -0.06034327 0.4450289 205 205 205
0.1778937 -0.05820908 0.434513 205 205 205
0.1805152 -0.05798728 0.4333161 205 205 205
0.1852931 -0.0582367 0.4331879 205 205 205
0.1874688 -0.05768135 0.4310932 205 205 205
0.1913619 -0.0572792 0.4291936 205 205 205
0.1931068 -0.05743935 0.4293917 205 205 205
0.194401 -0.05729579 0.4287436 205 205 205
0.205151 -0.05633394 0.4242259 205 205 205
0.2104494 -0.05669587 0.4246012 205 205 205
0.2183005 -0.05849017 0.4289681 205 205 205
0.2255389 -0.05885635 0.429219 205 205 205
-0.05657092 -0.03939466 0.4796631 205 205 205
-0.03120907 -0.04412942 0.4768414 205 205 205
-0.02849174 -0.04506819 0.4780362 205 205 205
0.1606223 -0.0620602 0.4454728 205 205 205
0.1685128 -0.06028242 0.4381309 205 205 205
0.1755329 -0.06011819 0.4361217 205 205 205
0.1781712 -0.05990729 0.4349395 205 205 205
0.1790707 -0.05948978 0.4334862 205 205 205
0.1895202 -0.05955184 0.4317211 205 205 205
0.1916805 -0.05897401 0.429603 205 205 205
0.2013031 -0.05929078 0.428996 205 205 205
0.2038938 -0.05896572 0.4276377 205 205 205
0.2047065 -0.05849782 0.4261273 205 205 205
0.2072755 -0.05815515 0.4247464 205 205 205
0.215878 -0.05951838 0.4276276 205 205 205
0.2217894 -0.06011939 0.4286634 205 205 205
-0.05496484 -0.04069752 0.4775624 205 205 205
-0.05049036 -0.04160492 0.4772153 205 205 205
-0.04925684 -0.04223849 0.4783529 205 205 205
-0.03998248 -0.04342627 0.4755819 205 205 205
-0.03856062 -0.0437833 0.4757344 205 205 205
-0.03697604 -0.04387619 0.4749303 205 205 205
-0.0353979 -0.04396445 0.4741204 205 205 205
-0.03000792 -0.04586554 0.4765435 205 205 205
-0.02741994 -0.0470719 0.4786807 205 205 205
-0.02624477 -0.04794186 0.4806968 205 205 205
-0.02518141 -0.04908171 0.4836634 205 205 205
0.1613348 -0.06175657 0.4395777 205 205 205
0.1626685 -0.06168327 0.4390368 205 205 205
0.16533 -0.06152763 0.4379413 205 205 205
0.1683715 -0.06167309 0.4376948 205 205 205
0.1767152 -0.06140672 0.4350957 205 205 205
0.1802455 -0.06076469 0.4324497 205 205 205
0.1845955 -0.06071689 0.4314693 205 205 205
0.187642 -0.06077173 0.4310697 205 205 205
0.1898281 -0.06125736 0.432125 205 205 205
0.1915493 -0.06036608 0.4291654 205 205 205
0.2019998 -0.06022839 0.4270502 205 205 205
0.2058665 -0.05972683 0.4249988 205 205 205
0.2152542 -0.06063906 0.4263673 205 205 205
0.2252938 -0.0617423 0.4283162 205 205 205
0.2271139 -0.06182959 0.4283562 205 205 205
0.232343 -0.06288354 0.430802 205 205 205
-0.05662614 -0.04170332 0.4769287 205 205 205
-0.0492998 -0.04338274 0.4769804 205 205 205
-0.04626034 -0.04387613 0.4763953 205 205 205
-0.04465394 -0.04398698 0.4756202 205 205 205
-0.03879019 -0.04517459 0.4753108 205 205 205
-0.0288054 -0.04759796 0.4762344 205 205 205
-0.02764695 -0.04847524 0.4782518 205 205 205
-0.02553879 -0.05077766 0.4841815 205 205 205
0.1615588 -0.06346107 0.4400105 205 205 205
0.1628966 -0.06338733 0.4394681 205 205 205
0.1661311 -0.06251314 0.4360794 205 205 205
0.1704886 -0.06256403 0.4352565 205 205 205
0.1722072 -0.0627855 0.4355453 205 205 205
0.1774831 -0.0623743 0.4332053 205 205 205
0.1818407 -0.0623481 0.4322537 205 205 205
0.1831514 -0.06222815 0.4316427 205 205 205
0.1896933 -0.06265561 0.4316795 205 205 205
0.1948473 -0.06101089 0.4259458 205 205 205
0.1974208 -0.06070673 0.4246318 205 205 205
0.2017379 -0.06053612 0.4234525 205 205 205
0.2065384 -0.06064252 0.4230421 205 205 205
0.2083055 -0.06077288 0.4231641 205 205 205
0.2123476 -0.06132728 0.424197 205 205 205
0.2205218 -0.0623808 0.4261428 205 205 205
0.223352 -0.06308734 0.4278094 205 205 205
0.2251686 -0.06318207 0.4278567 205 205 205
0.2330022 -0.06381848 0.4287563 205 205 205
-0.0568639 -0.04309949 0.4764998 205 205 205
-0.05523138 -0.04323637 0.4757655 205 205 205
-0.05360509 -0.04336832 0.475025 205 205 205
-0.04346311 -0.04574523 0.4753587 205 205 205
-0.03710772 -0.04611338 0.4721801 205 205 205
-0.03046197 -0.04865318 0.4756862 205 205 205
-0.02917246 -0.04926539 0.476754 205 205 205
-0.02696621 -0.05131404 0.4817322 205 205 205
-0.0246808 -0.05336839 0.4866953 205 205 205
0.1595939 -0.07104103 0.45857 205 205 205
0.1585519 -0.06872347 0.4518768 205 205 205
0.1594526 -0.06563247 0.4423844 205 205 205
0.1614115 -0.06484915 0.4395637 205 205 205
0.1640866 -0.06469803 0.4384744 205 205 205
0.1703461 -0.0639463 0.434811 205 205 205
0.1720649 -0.06417115 0.4350986 205 205 205
0.1817023 -0.06373508 0.4318062 205 205 205
0.184323 -0.06349137 0.4305798 205 205 205
0.1878077 -0.0638688 0.4310203 205 205 205
0.1912823 -0.06314407 0.4282742 205 205 205
0.1934243 -0.06254182 0.4261494 205 205 205
0.1947152 -0.06239391 0.425499 205 205 205
0.222713 -0.06421485 0.426543 205 205 205
0.2297308 -0.06541318 0.4290523 205 205 205
0.2352473 -0.06565157 0.429079 205 205 205
0.2386988 -0.06663132 0.4314368 205 205 205
0.2330214 -0.06246149 0.4204025 205 205 205
-0.052019 -0.044618 0.4729023 205 205 205
-0.05080216 -0.04526331 0.4740383 205 205 205
-0.04957669 -0.04590778 0.4751703 205 205 205
-0.03435085 -0.04791386 0.4710748 205 205 205
-0.022432 -0.0565985 0.4902327 205 205 205
0.1583958 -0.07015181 0.4514113 205 205 205
0.1587214 -0.06911219 0.448247 205 205 205
0.1626021 -0.06616084 0.4385692 205 205 205
0.1741614 -0.06503073 0.4326303 205 205 205
0.1772021 -0.06514088 0.4323072 205 205 205
0.1794113 -0.06459347 0.4302616 205 205 205
0.1824491 -0.06467788 0.4298966 205 205 205
0.1841845 -0.06487557 0.4301273 205 205 205
0.1928963 -0.06470633 0.4280116 205 205 205
0.1937436 -0.06424174 0.4265298 205 205 205
0.2057964 -0.06310678 0.4213216 205 205 205
0.2138747 -0.06425689 0.4233777 205 205 205
0.2348273 -0.06595675 0.4254425 205 205 205
0.2314676 -0.06212397 0.415232 205 205 205
-0.0573405 -0.04588557 0.4756251 205 205 205
-0.05387224 -0.04587737 0.4732112 205 205 205
-0.04838745 -0.04767452 0.4749128 205 205 205
-0.04553527 -0.04842326 0.4752621 205 205 205
-0.03489111 -0.04984178 0.4725337 205 205 205
-0.03347085 -0.05018791 0.4726638 205 205 205
-0.02888179 -0.05380217 0.4807293 205 205 205
-0.02391358 -0.05714002 0.4877805 205 205 205
0.1592268 -0.07532584 0.4616691 205 205 205
0.158212 -0.0701969 0.4469046 205 205 205
0.1585122 -0.06914385 0.4437492 205 205 205
0.1597714 -0.06769056 0.4391921 205 205 205
0.1675632 -0.06581346 0.4318905 205 205 205
0.1728059 -0.06542705 0.4296114 205 205 205
0.1745191 -0.0656495 0.4298835 205 205 205
0.1775458 -0.06575744 0.4295551 205 205 205
0.1927013 -0.06498025 0.4244089 205 205 205
0.1970239 -0.0648469 0.4232765 205 205 205
0.2013455 -0.06468337 0.4220945 205 205 205
0.20743 -0.06462988 0.4209833 205 205 205
0.2209207 -0.06612688 0.4232014 205 205 205
0.2273872 -0.0670583 0.4249204 205 205 205
-0.05390248 -0.0469889 0.4718273 205 205 205
-0.04843157 -0.04878828 0.473524 205 205 205
-0.04700938 -0.04916374 0.4737004 205 205 205
-0.04540252 -0.04926151 0.4729278 205 205 205
-0.04238389 -0.04971939 0.4723096 205 205 205
-0.03920743 -0.04988324 0.4707242 205 205 205
0.1730658 -0.06712162 0.4300072 205 205 205
0.1865184 -0.0673793 0.4279628 205 205 205
0.19431 -0.06653039 0.4241274 205 205 205
0.1994573 -0.06590276 0.4214837 205 205 205
0.2015395 -0.06524754 0.4193185 205 205 205
0.2063235 -0.06537047 0.4188943 205 205 205
0.2116229 -0.06577994 0.4192157 205 205 205
0.212897 -0.06558863 0.4185022 205 205 205
0.2146726 -0.06571331 0.4185871 205 205 205
0.2192575 -0.06658609 0.4203299 205 205 205
0.2210518 -0.06669714 0.4203865 205 205 205
0.2238851 -0.06743775 0.4220246 205 205 205
0.2316745 -0.06813202 0.4229068 205 205 205
0.2315712 -0.06610037 0.4174201 205 205 205
-0.05110999 -0.04885932 0.4708253 205 205 205
-0.04989254 -0.04951465 0.4719517 205 205 205
-0.04421475 -0.05100937 0.4726435 205 205 205
-0.04102335 -0.05117676 0.4710713 205 205 205
-0.03802301 -0.05160825 0.4704205 205 205 205
-0.03534909 -0.05259478 0.4716391 205 205 205
-0.03280636 -0.0538603 0.4737851 205 205 205
-0.02510151 -0.05792253 0.4810641 205 205 205
0.1582119 -0.07757863 0.4589298 205 205 205
0.1586032 -0.07368754 0.4477019 205 205 205
0.1588419 -0.07119592 0.4405345 205 205 205
0.1640694 -0.06947374 0.4343582 205 205 205
0.1667234 -0.06930275 0.4332482 205 205 205
0.1676584 -0.06887725 0.4318284 205 205 205
0.1733234 -0.06882156 0.4303954 205 205 205
0.1829042 -0.06835103 0.4270569 205 205 205
0.1859417 -0.06842487 0.4266574 205 205 205
0.1906849 -0.06754115 0.4232947 205 205 205
0.2015492 -0.06776468 0.4219809 205 205 205
0.2069726 -0.06623891 0.4169227 205 205 205
0.2099997 -0.06619242 0.4163291 205 205 205
0.2140374 -0.06677693 0.4173136 205 205 205
0.2247566 -0.06745878 0.4176569 205 205 205
0.2301687 -0.06774197 0.4177177 205 205 205
0.2319803 -0.06782763 0.4177213 205 205 205
-0.05416743 -0.04945994 0.4699886 205 205 205
-0.04568503 -0.05173428 0.4710814 205 205 205
-0.02399447 -0.05996246 0.4816327 205 205 205
0.1593115 -0.07183057 0.4377884 205 205 205
0.1705409 -0.07039102 0.4310794 205 205 205
0.1748969 -0.07042064 0.4301904 205 205 205
0.1762128 -0.07031148 0.4296006 205 205 205
0.1775267 -0.07019922 0.4290064 205 205 205
0.1840635 -0.0695917 0.4259698 205 205 205
0.1857989 -0.06979608 0.4261853 205 205 205
0.1926658 -0.0682788 0.42071 205 205 205
0.2030228 -0.06814047 0.4185168 205 205 205
0.2047804 -0.06829503 0.4186438 205 205 205
0.2063491 -0.06727838 0.4156435 205 205 205
0.2081059 -0.06742272 0.415754 205 205 205
0.2151748 -0.06795894 0.4161158 205 205 205
0.2169522 -0.06808259 0.4161861 205 205 205
-0.05419558 -0.05054706 0.4685942 205 205 205
-0.0473357 -0.05273237 0.4704527 205 205 205
-0.04431877 -0.05318787 0.4698454 205 205 205
-0.04131234 -0.05362792 0.4692164 205 205 205
-0.03596782 -0.0556317 0.4716657 205 205 205
-0.03454211 -0.05598109 0.4717947 205 205 205
-0.02543649 -0.06044231 0.4791747 205 205 205
-0.0232433 -0.06291123 0.4850253 205 205 205
-0.02211127 -0.06414884 0.4879448 205 205 205
0.1585964 -0.07541047 0.4435842 205 205 205
0.1641425 -0.07255378 0.434272 205 205 205
0.1664214 -0.07203812 0.4323021 205 205 205
0.170391 -0.07175671 0.430604 205 205 205
0.172109 -0.07199876 0.4308799 205 205 205
0.1734296 -0.07189541 0.430299 205 205 205
0.1756553 -0.07133833 0.4282779 205 205 205
0.1865195 -0.07069211 0.4242486 205 205 205
0.1951832 -0.0704942 0.4220548 205 205 205
0.1969351 -0.07067323 0.4222172 205 205 205
0.2028858 -0.06950759 0.4180396 205 205 205
0.2140282 -0.06867777 0.4140409 205 205 205
0.2198698 -0.0693766 0.4150267 205 205 205
0.2211363 -0.06916393 0.4142843 205 205 205
0.2257669 -0.07003381 0.4159273 205 205 205
0.2291576 -0.07111172 0.4182969 205 205 205
0.2299064 -0.07055675 0.4167404 205 205 205
-0.04917983 -0.05401151 0.4707524 205 205 205
-0.04596661 -0.05418401 0.469218 205 205 205
-0.0387139 -0.05570744 0.4690436 205 205 205
-0.03304152 -0.05710574 0.4695655 205 205 205
-0.03162099 -0.05744807 0.4696834 205 205 205
-0.02877701 -0.05812407 0.4699045 205 205 205
-0.02119308 -0.06683715 0.4903648 205 205 205
0.1553477 -0.0780376 0.4472917 205 205 205
0.1581186 -0.07791699 0.4462318 205 205 205
0.178127 -0.07247208 0.4266082 205 205 205
0.1798539 -0.07269714 0.426847 205 205 205
0.1894116 -0.07211781 0.4233336 205 205 205
0.2006603 -0.07155281 0.4197268 205 205 205
0.2040229 -0.07069681 0.4168732 205 205 205
0.2111211 -0.06924352 0.4118822 205 205 205
0.2164146 -0.06963969 0.4121093 205 205 205
0.225633 -0.07142805 0.4154343 205 205 205
-0.05769622 -0.0527688 0.468199 205 205 205
-0.05366975 -0.05422984 0.4697298 205 205 205
-0.05245445 -0.05490511 0.4708547 205 205 205
-0.05123044 -0.05557951 0.4719755 205 205 205
-0.04780476 -0.05546585 0.4695182 205 205 205
-0.04177581 -0.05635187 0.4682836 205 205 205
-0.03453462 -0.05782384 0.4680308 205 205 205
-0.03185008 -0.05881311 0.4692118 205 205 205
-0.02564106 -0.0626319 0.476325 205 205 205
-0.02359091 -0.06545184 0.4831016 205 205 205
-0.0202545 -0.06954812 0.4927667 205 205 205
0.1562216 -0.07903212 0.4453944 205 205 205
0.1582729 -0.07820076 0.442596 205 205 205
0.1612817 -0.0769327 0.4383852 205 205 205
0.161897 -0.07615316 0.4361179 205 205 205
0.1678275 -0.07502365 0.4316266 205 205 205
0.1726013 -0.07542903 0.4316073 205 205 205
0.1775619 -0.07348345 0.4252825 205 205 205
0.1857949 -0.07424301 0.4255698 205 205 205
0.1901155 -0.07299194 0.4213817 205 205 205
0.1944397 -0.07288385 0.4202634 205 205 205
0.2013282 -0.07240843 0.4177493 205 205 205
0.2059396 -0.07135797 0.4142015 205 205 205
0.2140017 -0.07053748 0.4107619 205 205 205
0.2293071 -0.07213376 0.4126351 205 205 205
0.2300323 -0.07156761 0.4110851 205 205 205
-0.05390696 -0.05559435 0.4692548 205 205 205
-0.04042073 -0.05777107 0.4670182 205 205 205
-0.0346073 -0.05887768 0.4666162 205 205 205
-0.03065729 -0.06051652 0.468847 205 205 205
-0.02923408 -0.06085417 0.4689543 205 205 205
-0.02808618 -0.06180634 0.4709388 205 205 205
-0.02574226 -0.06371248 0.4748957 205 205 205
-0.0222252 -0.06688844 0.4817423 205 205 205
-0.02109264 -0.06815825 0.4846444 205 205 205
0.1515626 -0.08024291 0.4455826 205 205 205
0.1591222 -0.07916874 0.4406933 205 205 205
0.1604878 -0.07909744 0.440153 205 205 205
0.165958 -0.07612494 0.4308441 205 205 205
0.1672849 -0.07603329 0.4302826 205 205 205
0.1729736 -0.07598841 0.4288379 205 205 205
0.1747956 -0.07506607 0.425979 205 205 205
0.1839062 -0.075392 0.4248667 205 205 205
0.1869536 -0.07547304 0.4244479 205 205 205
0.1973331 -0.07427146 0.4192695 205 205 205
0.1994328 -0.07359453 0.4171202 205 205 205
0.2062883 -0.07305644 0.4145129 205 205 205
0.2083292 -0.07233927 0.412317 205 205 205
0.2174004 -0.0721586 0.4103971 205 205 205
0.2263078 -0.07274657 0.4105714 205 205 205
0.2281009 -0.07285117 0.4105816 205 205 205
-0.05817196 -0.05548447 0.4672484 205 205 205
-0.05393794 -0.05666161 0.4678413 205 205 205
-0.05292974 -0.05764046 0.4698958 205 205 205
-0.0500834 -0.05840902 0.4702579 205 205 205
-0.03749507 -0.05922516 0.4649419 205 205 205
-0.03608762 -0.05957512 0.4650728 205 205 205
-0.03467916 -0.05992218 0.4651986 205 205 205
-0.02803868 -0.06255127 0.4685731 205 205 205
-0.01961298 -0.06927337 0.4823255 205 205 205
-0.01845358 -0.07055432 0.4852143 205 205 205
0.1495043 -0.0843008 0.452713 205 205 205
0.1503403 -0.08204734 0.4464563 205 205 205
0.1513942 -0.08163741 0.4450738 205 205 205
0.1520997 -0.08086443 0.4428203 205 205 205
0.1565705 -0.08104751 0.4421191 205 205 205
0.158298 -0.08134156 0.4424499 205 205 205
0.1616885 -0.08040812 0.4391021 205 205 205
0.162923 -0.07881541 0.434574 205 205 205
0.1638914 -0.07837386 0.4331667 205 205 205
0.1705644 -0.07791158 0.4303445 205 205 205
0.1728187 -0.07734832 0.4283404 205 205 205
0.1811693 -0.07581995 0.4224877 205 205 205
0.18767 -0.0763441 0.4224906 205 205 205
0.1928576 -0.07575573 0.4199259 205 205 205
0.1958978 -0.07579318 0.4194334 205 205 205
0.19754 -0.07476798 0.4164805 205 205 205
0.2018443 -0.07460608 0.4152726 205 205 205
0.2048743 -0.07459669 0.4147077 205 205 205
0.2069252 -0.07388061 0.41252 205 205 205
0.2081891 -0.07369146 0.4118212 205 205 205
0.2284994 -0.0745685 0.41085 205 205 205
-0.0557991 -0.05792563 0.4680955 205 205 205
-0.05438239 -0.05831679 0.4682883 205 205 205
-0.05174496 -0.05939118 0.4695913 205 205 205
-0.04548727 -0.05999339 0.4674707 205 205 205
-0.04247387 -0.06042156 0.4668441 205 205 205
-0.03930161 -0.06052561 0.46526 205 205 205
-0.0336532 -0.06192579 0.4657733 205 205 205
-0.02684207 -0.06424433 0.4681808 205 205 205
-0.02245419 -0.06906999 0.4788534 205 205 205
-0.01973511 -0.07036595 0.4808758 205 205 205
-0.01719274 -0.0723037 0.4847597 205 205 205
0.1477611 -0.08725607 0.4566993 205 205 205
0.1581311 -0.08273253 0.4419358 205 205 205
0.1656422 -0.07883849 0.4298462 205 205 205
0.1744883 -0.07776767 0.4249846 205 205 205
0.1757985 -0.07765387 0.4243941 205 205 205
0.1771065 -0.07753702 0.4237992 205 205 205
0.1797161 -0.07729398 0.4225964 205 205 205
0.1849108 -0.07797766 0.4232438 205 205 205
0.1888204 -0.07755855 0.4213531 205 205 205
0.1914153 -0.07726349 0.4200709 205 205 205
0.2008967 -0.07648473 0.4162555 205 205 205
0.2029744 -0.07578132 0.4140893 205 205 205
0.2047306 -0.07595179 0.414205 205 205 205
0.2085418 -0.07539074 0.4121164 205 205 205
0.2125713 -0.07390463 0.4076959 205 205 205
0.220154 -0.07479193 0.4087035 205 205 205
0.2260327 -0.07549503 0.4095573 205 205 205
0.2285475 -0.07502818 0.408024 205 205 205
-0.03513827 -0.06261294 0.4642268 205 205 205
-0.03134741 -0.06459358 0.4673824 205 205 205
-0.02707137 -0.06560278 0.4676861 205 205 205
-0.01826921 -0.07144544 0.4785478 205 205 205
0.1462542 -0.09059586 0.4615476 205 205 205
0.149714 -0.08294925 0.4405697 205 205 205
0.1596326 -0.08288029 0.4377614 205 205 205
0.1664252 -0.07973447 0.4279308 205 205 205
0.1717049 -0.07933396 0.4256476 205 205 205
0.1860637 -0.07919644 0.4221097 205 205 205
0.1943077 -0.07866687 0.4190787 205 205 205
0.1968918 -0.07834511 0.417759 205 205 205
0.2020307 -0.07766397 0.4150682 205 205 205
0.2033093 -0.07748585 0.4143848 205 205 205
0.2104264 -0.07599957 0.4094051 205 205 205
0.2141901 -0.07539175 0.4072597 205 205 205
0.2241028 -0.0767477 0.4090275 205 205 205
0.2258926 -0.07686578 0.4090426 205 205 205
0.2276863 -0.07697948 0.4090494 205 205 205
-0.05866821 -0.05923868 0.4648544 205 205 205
-0.05585223 -0.06002817 0.4652512 205 205 205
-0.05444231 -0.06041859 0.4654422 205 205 205
-0.05161874 -0.06119072 0.465809 205 205 205
-0.05020512 -0.06157243 0.4659849 205 205 205
-0.03976496 -0.06321567 0.4642771 205 205 205
-0.03818657 -0.06325447 0.4634784 205 205 205
-0.03536842 -0.06395499 0.4637329 205 205 205
-0.03269828 -0.06496439 0.4649026 205 205 205
-0.03143015 -0.06562677 0.4659481 205 205 205
-0.01974929 -0.07186417 0.4760932 205 205 205
-0.01839275 -0.07251509 0.4770932 205 205 205
-0.01544944 -0.07314924 0.4772033 205 205 205
-0.01456908 -0.07545685 0.4828782 205 205 205
0.1212753 -0.09466002 0.4754969 205 205 205
0.1285505 -0.09439453 0.4724446 205 205 205
0.1307439 -0.09329651 0.4688812 205 205 205
0.1422842 -0.09474537 0.4691282 205 205 205
0.1502387 -0.08352713 0.4378107 205 205 205
0.1574406 -0.08513711 0.4400326 205 205 205
0.1584576 -0.08469754 0.4386376 205 205 205
0.1608278 -0.08417977 0.4366977 205 205 205
0.1614539 -0.08336195 0.4344428 205 205 205
0.1754867 -0.08034582 0.4233795 205 205 205
0.1807102 -0.07985675 0.4209746 205 205 205
0.1854747 -0.08018544 0.4207727 205 205 205
0.1867755 -0.08004534 0.4201444 205 205 205
0.194991 -0.07950009 0.4170956 205 205 205
0.2006012 -0.07919092 0.415234 205 205 205
0.2049219 -0.07901318 0.4139832 205 205 205
0.2057125 -0.07847027 0.4124927 205 205 205
0.2077593 -0.07773459 0.4103034 205 205 205
0.2102827 -0.077344 0.4088944 205 205 205
0.2115404 -0.077144 0.4081836 205 205 205
0.2127955 -0.07694087 0.4074686 205 205 205
-0.05630297 -0.06168209 0.4656792 205 205 205
-0.054889 -0.06207419 0.4658703 205 205 205
-0.05347372 -0.06246338 0.4660563 205 205 205
-0.05044173 -0.06292057 0.4654842 205 205 205
-0.04317541 -0.06447118 0.465356 205 205 205
-0.04175834 -0.06483505 0.4655013 205 205 205
-0.03700895 -0.06494541 0.4631092 205 205 205
-0.035599 -0.06529483 0.4632336 205 205 205
-0.03166085 -0.06697545 0.4654451 205 205 205
-0.02480454 -0.06930264 0.4677921 205 205 205
-0.01829401 -0.07290778 0.4737635 205 205 205
0.1161836 -0.09306307 0.4685893 205 205 205
0.1218586 -0.09280394 0.4660513 205 205 205
0.1394238 -0.09093575 0.4557849 205 205 205
0.1424952 -0.08935694 0.4508341 205 205 205
0.1440647 -0.08778841 0.4463648 205 205 205
0.1469494 -0.08616483 0.4413999 205 205 205
0.1531371 -0.08514938 0.4371216 205 205 205
0.1548487 -0.08546112 0.4374586 205 205 205
0.1602967 -0.08517849 0.4353185 205 205 205
0.1618984 -0.0838989 0.4316693 205 205 205
0.1624932 -0.08306892 0.42942 205 205 205
0.1638267 -0.08298199 0.4288677 205 205 205
0.1647771 -0.08251952 0.4274646 205 205 205
0.1657184 -0.08205442 0.4260603 205 205 205
0.1691411 -0.08260285 0.4266141 205 205 205
0.1713872 -0.0820235 0.4246224 205 205 205
0.1744231 -0.08217365 0.4242902 205 205 205
0.1783626 -0.08181882 0.4225014 205 205 205
0.1796715 -0.0816943 0.4218965 205 205 205
0.1809782 -0.08156664 0.4212872 205 205 205
0.1827102 -0.08180431 0.4214992 205 205 205
0.1870589 -0.08175942 0.420448 205 205 205
0.1888029 -0.08198232 0.4206325 205 205 205
0.1909596 -0.0813178 0.4185323 205 205 205
0.1922551 -0.0811643 0.4178852 205 205 205
0.1974137 -0.08051896 0.4152538 205 205 205
0.2025333 -0.07982343 0.4125543 205 205 205
0.2108923 -0.07812705 0.4068818 205 205 205
0.2121446 -0.07792393 0.406169 205 205 205
-0.05371195 -0.06381155 0.4655496 205 205 205
-0.05048022 -0.06395033 0.4640503 205 205 205
-0.04906849 -0.06432938 0.46422 205 205 205
-0.03566921 -0.06630658 0.4617974 205 205 205
-0.03315961 -0.0676512 0.4638947 205 205 205
-0.03047027 -0.068662 0.4650417 205 205 205
-0.02360126 -0.07098609 0.4673598 205 205 205
-0.02253512 -0.07231443 0.4702382 205 205 205
-0.01267938 -0.07553881 0.4734364 205 205 205
0.1070179 -0.09682138 0.4770376 205 205 205
0.1074834 -0.0949874 0.4721552 205 205 205
0.1089517 -0.09244156 0.4651022 205 205 205
0.118478 -0.09156194 0.4596678 205 205 205
0.1196794 -0.09120604 0.4583661 205 205 205
0.1208719 -0.09084679 0.4570618 205 205 205
0.1461224 -0.08677973 0.4391367 205 205 205
0.1471647 -0.08635412 0.4377724 205 205 205
0.1539814 -0.08607262 0.4352133 205 205 205
0.1621018 -0.08563039 0.4319935 205 205 205
0.1627016 -0.08479259 0.4297456 205 205 205
0.1646135 -0.08386246 0.426944 205 205 205
0.1655557 -0.08339341 0.4255411 205 205 205
0.1725426 -0.08325583 0.4235206 205 205 205
0.1882054 -0.08296302 0.4192904 205 205 205
0.1916492 -0.08214137 0.41655 205 205 205
0.2107463 -0.07946272 0.4063626 205 205 205
0.2144969 -0.07884251 0.4042121 205 205 205
0.2157418 -0.0786295 0.403487 205 205 205
0.2175037 -0.07877272 0.4035329 205 205 205
0.2210395 -0.07904617 0.4036003 205 205 205
0.2238729 -0.07989136 0.40516 205 205 205
0.2279817 -0.08049241 0.4059356 205 205 205
-0.05557671 -0.06508344 0.4657773 205 205 205
-0.05415708 -0.06547493 0.465963 205 205 205
-0.04930477 -0.06567003 0.4637095 205 205 205
-0.04187419 -0.0668736 0.4626239 205 205 205
-0.0385437 -0.0666087 0.4601077 205 205 205
-0.0332371 -0.06866001 0.4624518 205 205 205
-0.03197353 -0.0693339 0.4634919 205 205 205
-0.02913599 -0.07001042 0.4636954 205 205 205
-0.02771583 -0.07034435 0.4637898 205 205 205
-0.02642965 -0.07101099 0.4648114 205 205 205
-0.02131995 -0.07400458 0.469786 205 205 205
-0.009625304 -0.082331 0.4851436 205 205 205
0.1084537 -0.09084957 0.4569925 205 205 205
0.112998 -0.0913504 0.4567433 205 205 205
0.1161142 -0.0917961 0.4568471 205 205 205
0.1213562 -0.0911165 0.4534333 205 205 205
0.1287533 -0.091535 0.4521708 205 205 205
0.1355672 -0.09110597 0.4490257 205 205 205
0.145296 -0.08737762 0.4368738 205 205 205
0.147359 -0.08651634 0.4341516 205 205 205
0.1490503 -0.08684547 0.4345091 205 205 205
0.1507472 -0.0871711 0.4348593 205 205 205
0.1521057 -0.08711155 0.4343443 205 205 205
0.15381 -0.08743038 0.4346814 205 205 205
0.1568802 -0.08767632 0.4344798 205 205 205
0.1582386 -0.08760369 0.433944 205 205 205
0.1631195 -0.08529355 0.4269734 205 205 205
0.1644485 -0.08520309 0.4264182 205 205 205
0.1653917 -0.0847301 0.4250169 205 205 205
0.1688147 -0.08529177 0.4255653 205 205 205
0.1727824 -0.08497252 0.4238294 205 205 205
0.1754172 -0.08474399 0.4226503 205 205 205
0.1771439 -0.08500205 0.4228835 205 205 205
0.1784596 -0.08487957 0.4222815 205 205 205
0.1801925 -0.08513038 0.4225012 205 205 205
0.1832465 -0.08524467 0.4220948 205 205 205
0.1863072 -0.08407873 0.4185783 205 205 205
0.188461 -0.08341277 0.4164952 205 205 205
0.19233 -0.08295221 0.4145649 205 205 205
0.1971077 -0.08320591 0.4142039 205 205 205
0.2063307 -0.08102235 0.4071619 205 205 205
0.2088436 -0.0806308 0.4057615 205 205 205
0.2123581 -0.08095713 0.4059073 205 205 205
0.2226685 -0.08051977 0.4030935 205 205 205
0.2272999 -0.08149274 0.4046371 205 205 205
-0.05418939 -0.06650085 0.4645201 205 205 205
-0.05095378 -0.066628 0.4630247 205 205 205
-0.04954141 -0.06700832 0.4631936 205 205 205
-0.04652467 -0.067434 0.4625902 205 205 205
-0.04369937 -0.06817222 0.4628926 205 205 205
-0.03894444 -0.06826445 0.4605243 205 205 205
-0.03613109 -0.06896772 0.4607751 205 205 205
-0.03078623 -0.07101247 0.4630781 205 205 205
-0.02780689 -0.07134578 0.4623404 205 205 205
-0.01854195 -0.07566463 0.468451 205 205 205
-0.01709585 -0.07597947 0.4685063 205 205 205
-0.01285043 -0.07725371 0.4695745 205 205 205
-0.01167817 -0.07860289 0.4724077 205 205 205
-0.01048229 -0.0799538 0.4752363 205 205 205
-0.008429818 -0.08441488 0.4855435 205 205 205
0.1016551 -0.09313445 0.4609546 205 205 205
0.1047392 -0.09098666 0.4544899 205 205 205
0.1075976 -0.0910807 0.4537576 205 205 205
0.1092497 -0.09150918 0.4542788 205 205 205
0.1109082 -0.09193461 0.4547933 205 205 205
0.1209122 -0.09211866 0.4519985 205 205 205
0.1308523 -0.0921443 0.4489706 205 205 205
0.1322667 -0.09213504 0.4485192 205 205 205
0.1333914 -0.09173569 0.4471871 205 205 205
0.134799 -0.09171998 0.4467274 205 205 205
0.1390129 -0.09165349 0.4453204 205 205 205
0.1415037 -0.09120649 0.4434906 205 205 205
0.1430198 -0.08958814 0.4390498 205 205 205
0.1447954 -0.08834471 0.4354748 205 205 205
0.1471856 -0.08786178 0.4336187 205 205 205
0.1505739 -0.08852335 0.4343236 205 205 205
0.1619938 -0.08710353 0.4278381 205 205 205
0.1642822 -0.08654138 0.4258875 205 205 205
0.1656097 -0.08644747 0.425328 205 205 205
0.1720932 -0.08718622 0.425549 205 205 205
0.1830851 -0.08659288 0.4215594 205 205 205
0.192174 -0.08428626 0.4140348 205 205 205
0.1934595 -0.08412604 0.413383 205 205 205
0.1952037 -0.08433795 0.4135311 205 205 205
0.1982376 -0.08437528 0.4130033 205 205 205
0.2028719 -0.08328906 0.4094956 205 205 205
0.2237675 -0.08162856 0.4018069 205 205 205
0.2260816 -0.08212002 0.402574 205 205 205
-0.06008705 -0.06625743 0.46323 205 205 205
-0.05726038 -0.06705556 0.4636237 205 205 205
-0.04694945 -0.06909741 0.4629946 205 205 205
-0.04216425 -0.06920703 0.4606623 205 205 205
-0.03917665 -0.06959042 0.4600059 205 205 205
-0.03652523 -0.07063132 0.4611835 205 205 205
-0.03258791 -0.07234738 0.4633797 205 205 205
-0.02803702 -0.07267981 0.4618179 205 205 205
-0.02310811 -0.07605955 0.4677229 205 205 205
-0.01877332 -0.07702377 0.4679177 205 205 205
0.0264424 -0.09315248 0.4868044 205 205 205
0.03397216 -0.09167113 0.479732 205 205 205
0.04315276 -0.0936474 0.4807291 205 205 205
0.09655299 -0.09620571 0.4662809 205 205 205
0.1102591 -0.09253812 0.4524569 205 205 205
0.119046 -0.09309469 0.4509738 205 205 205
0.120214 -0.09272061 0.4496764 205 205 205
0.1213731 -0.0923433 0.4483765 205 205 205
0.1244613 -0.09275056 0.4484138 205 205 205
0.128973 -0.09314206 0.4479867 205 205 205
0.1303856 -0.09313588 0.4475411 205 205 205
0.1329186 -0.09272331 0.4457614 205 205 205
0.1354308 -0.09229803 0.4439678 205 205 205
0.1371275 -0.09266616 0.4443721 205 205 205
0.1428412 -0.09094663 0.4385059 205 205 205
0.1442946 -0.0893022 0.4340735 205 205 205
0.1544724 -0.08968355 0.4322247 205 205 205
0.1558264 -0.089614 0.4316963 205 205 205
0.1585291 -0.08946528 0.4306262 205 205 205
0.1654426 -0.08778311 0.4247921 205 205 205
0.1702022 -0.08825324 0.4247563 205 205 205
0.1715294 -0.08814584 0.4241763 205 205 205
0.1732553 -0.08842055 0.4244231 205 205 205
0.1802856 -0.08820235 0.4222508 205 205 205
0.1816051 -0.08807212 0.421637 205 205 205
0.1829222 -0.08793871 0.4210189 205 205 205
0.1859878 -0.08675588 0.4175088 205 205 205
0.1877012 -0.08570009 0.4146177 205 205 205
0.2001709 -0.08498384 0.4103219 205 205 205
0.203988 -0.08443441 0.408273 205 205 205
0.2092953 -0.08270989 0.4032138 205 205 205
0.2142701 -0.08187491 0.400356 205 205 205
0.2172634 -0.08180811 0.3996714 205 205 205
0.2190237 -0.08195356 0.3997034 205 205 205
-0.05913448 -0.06831989 0.4638223 205 205 205
-0.05750046 -0.06839311 0.4630964 205 205 205
-0.05001564 -0.06967793 0.4621459 205 205 205
-0.04680671 -0.06976569 0.4606202 205 205 205
-0.03800238 -0.07126828 0.4596095 205 205 205
-0.03675778 -0.07195967 0.4606578 205 205 205
-0.03408718 -0.07299735 0.461815 205 205 205
-0.03282069 -0.07368457 0.4628501 205 205 205
-0.02826758 -0.07401149 0.46129 205 205 205
-0.02582883 -0.07571386 0.4642462 205 205 205
-0.01611067 -0.07900928 0.4674831 205 205 205
-0.01476471 -0.07967321 0.4684572 205 205 205
-0.01331189 -0.07998077 0.4684969 205 205 205
-0.006752406 -0.08470256 0.4769904 205 205 205
0.003119068 -0.09071336 0.4871808 205 205 205
0.004509978 -0.09208933 0.4899436 205 205 205
0.01406594 -0.09003641 0.4803786 205 205 205
0.01709156 -0.09054216 0.4802485 205 205 205
0.02465709 -0.09100387 0.477977 205 205 205
0.03940569 -0.0901367 0.4693669 205 205 205
0.04235736 -0.0905222 0.4690692 205 205 205
0.09504904 -0.09487538 0.459404 205 205 205
0.09861654 -0.09351067 0.4547945 205 205 205
0.1000513 -0.09357208 0.4544497 205 205 205
0.1051323 -0.09260567 0.4503418 205 205 205
0.1131518 -0.09437389 0.4520203 205 205 205
0.1145795 -0.09440321 0.4516267 205 205 205
0.1160058 -0.09442928 0.4512284 205 205 205
0.1171849 -0.09405805 0.4499398 205 205 205
0.1200239 -0.09409391 0.4491216 205 205 205
0.1245376 -0.09451769 0.4487388 205 205 205
0.1307594 -0.09331985 0.4439118 205 205 205
0.1366448 -0.09364373 0.4429477 205 205 205
0.1402109 -0.09276974 0.4397892 205 205 205
0.1512408 -0.09076782 0.4318684 205 205 205
0.1529416 -0.09109697 0.4322026 205 205 205
0.1604341 -0.09151476 0.4312287 205 205 205
0.1623975 -0.09056351 0.4284421 205 205 205
0.1713619 -0.08948501 0.4236327 205 205 205
0.1810185 -0.08902908 0.4202712 205 205 205
0.1836446 -0.08875906 0.4190342 205 205 205
0.1862488 -0.08717521 0.4147113 205 205 205
0.1944282 -0.08662196 0.4116522 205 205 205
0.1987367 -0.08649136 0.4104555 205 205 205
0.2017674 -0.08651371 0.4098947 205 205 205
0.2046132 -0.0851946 0.406255 205 205 205
0.2083912 -0.08460748 0.4041623 205 205 205
0.2146355 -0.08356609 0.4005917 205 205 205
0.2171146 -0.08312758 0.3991347 205 205 205
0.2206393 -0.08342015 0.3991882 205 205 205
-0.06056875 -0.06892745 0.4621718 205 205 205
-0.05915544 -0.06932931 0.4623703 205 205 205
-0.05774085 -0.06972824 0.4625637 205 205 205
-0.04883876 -0.07138846 0.4617769 205 205 205
-0.03964212 -0.07223538 0.4589535 205 205 205
-0.03715457 -0.07362929 0.4610515 205 205 205
-0.03447637 -0.07467351 0.4622071 205 205 205
-0.02863963 -0.07568999 0.4616833 205 205 205
-0.02606098 -0.07705495 0.4637081 205 205 205
-0.01354338 -0.08134075 0.4679501 205 205 205
-0.01228015 -0.08236438 0.4698412 205 205 205
-0.01081793 -0.08266795 0.4698707 205 205 205
-0.009355076 -0.08296841 0.4698952 205 205 205
0.001855917 -0.08856311 0.4782665 205 205 205
0.007826367 -0.09003003 0.4790787 205 205 205
0.01087642 -0.09018986 0.4780615 205 205 205
0.0124413 -0.0897064 0.4761537 205 205 205
0.01698986 -0.08934222 0.4731851 205 205 205
0.02737523 -0.08984973 0.4697984 205 205 205
0.0317642 -0.08974106 0.4676142 205 205 205
0.03898993 -0.0896097 0.4641902 205 205 205
0.04044694 -0.08980173 0.4640455 205 205 205
0.09247037 -0.09729393 0.462196 205 205 205
0.09392168 -0.0942831 0.4543414 205 205 205
0.09535594 -0.09435397 0.4540119 205 205 205
0.09782869 -0.09369368 0.4515447 205 205 205
0.1020972 -0.09386685 0.4505041 205 205 205
0.1067951 -0.09480539 0.4512033 205 205 205
0.1112978 -0.09531895 0.4509596 205 205 205
0.1143858 -0.09577804 0.4510653 205 205 205
0.1153289 -0.09500884 0.4488968 205 205 205
0.1195795 -0.09506697 0.4476796 205 205 205
0.1224068 -0.09508968 0.4468447 205 205 205
0.125497 -0.09549728 0.4468683 205 205 205
0.1269096 -0.09549732 0.4464332 205 205 205
0.1294514 -0.09508986 0.4446751 205 205 205
0.130573 -0.09468243 0.4433545 205 205 205
0.1322592 -0.09506737 0.4437746 205 205 205
0.136162 -0.09461171 0.4415211 205 205 205
0.1397194 -0.09373009 0.4383695 205 205 205
0.1404752 -0.09290033 0.4361628 205 205 205
0.1418475 -0.0928621 0.4356796 205 205 205
0.1510646 -0.09210906 0.4313188 205 205 205
0.1622248 -0.09190617 0.4278915 205 205 205
0.1689239 -0.09142807 0.4250724 205 205 205
0.1791181 -0.09010673 0.4195136 205 205 205
0.1808527 -0.0903669 0.4197219 205 205 205
0.1825921 -0.09062321 0.4199226 205 205 205
0.1847899 -0.08995594 0.4178602 205 205 205
0.1856624 -0.08942355 0.4164191 205 205 205
0.1860868 -0.08850025 0.414167 205 205 205
0.187822 -0.08873995 0.4143428 205 205 205
0.1925278 -0.08772621 0.4109614 205 205 205
0.1938089 -0.08756196 0.4103076 205 205 205
0.2011325 -0.08746088 0.4085569 205 205 205
0.2082372 -0.08592822 0.4036192 205 205 205
0.2102395 -0.08514058 0.4014281 205 205 205
0.2117067 -0.08396431 0.3984565 205 205 205
0.216443 -0.08406805 0.3978272 205 205 205
0.2206639 -0.08376171 0.3963777 205 205 205
-0.0593964 -0.07066144 0.4618327 205 205 205
-0.05493816 -0.0715161 0.4614786 205 205 205
-0.05190482 -0.07195526 0.4609096 205 205 205
-0.03738848 -0.07495651 0.4605139 205 205 205
-0.0334406 -0.07670178 0.4626991 205 205 205
-0.02901337 -0.07737318 0.4620683 205 205 205
-0.02512211 -0.07943376 0.4650941 205 205 205
-0.02368159 -0.07976187 0.4651678 205 205 205
-0.01791139 -0.08104423 0.4654129 205 205 205
-0.01512534 -0.08202847 0.4664322 205 205 205
-0.005347455 -0.0859524 0.4712357 205 205 205
0.007761457 -0.08994415 0.4747975 205 205 205
0.01381554 -0.08985601 0.4718207 205 205 205
0.01680024 -0.08997568 0.4707663 205 205 205
0.01827959 -0.09021875 0.4706945 205 205 205
0.01977058 -0.09008018 0.4696923 205 205 205
0.02123897 -0.09069543 0.470536 205 205 205
0.02272265 -0.09054929 0.4695241 205 205 205
0.02419876 -0.09039877 0.4685077 205 205 205
0.02859342 -0.09030334 0.4663554 205 205 205
0.03005859 -0.09051881 0.4662445 205 205 205
0.03735012 -0.09116342 0.4646936 205 205 205
0.04471016 -0.09249967 0.4648626 205 205 205
0.05276546 -0.09727275 0.4731638 205 205 205
0.09102177 -0.1025053 0.4712746 205 205 205
0.1113327 -0.09708887 0.4512812 205 205 205
0.1127625 -0.09712127 0.4508923 205 205 205
0.1275811 -0.09605888 0.4436809 205 205 205
0.128984 -0.09605233 0.4432388 205 205 205
0.1331838 -0.09601333 0.4418846 205 205 205
0.1367679 -0.09514299 0.4387586 205 205 205
0.1430373 -0.09416457 0.4346355 205 205 205
0.1542943 -0.09411603 0.4314194 205 205 205
0.1580064 -0.09349584 0.4289738 205 205 205
0.1597199 -0.09381454 0.4292741 205 205 205
0.1610717 -0.09373118 0.4287267 205 205 205
0.1714188 -0.09255251 0.4233589 205 205 205
0.172749 -0.09244063 0.4227732 205 205 205
0.173674 -0.09192982 0.4213579 205 205 205
0.1745898 -0.09141645 0.4199415 205 205 205
0.1785335 -0.09104452 0.4181418 205 205 205
0.1828856 -0.09103736 0.4171171 205 205 205
0.1854849 -0.08943071 0.412809 205 205 205
0.1974789 -0.08836901 0.407773 205 205 205
0.2030354 -0.08802719 0.4058518 205 205 205
0.2055636 -0.08764318 0.4044698 205 205 205
-0.06082618 -0.07125338 0.4601773 205 205 205
-0.05396929 -0.07357447 0.4620307 205 205 205
-0.05112765 -0.0743484 0.4623713 205 205 205
-0.04028175 -0.07521967 0.4588012 205 205 205
-0.02666132 -0.08008799 0.4635399 205 205 205
-0.02103099 -0.0817546 0.4647473 205 205 205
-0.01390749 -0.08368775 0.4659151 205 205 205
-0.01255329 -0.08435937 0.4668741 205 205 205
-0.009642124 -0.08496215 0.4669266 205 205 205
-0.005348121 -0.08621358 0.4678935 205 205 205
-0.003959545 -0.08687294 0.4688228 205 205 205
0.0003795715 -0.08809476 0.4697296 205 205 205
0.01065681 -0.09034865 0.4704342 205 205 205
0.01366908 -0.09009853 0.468476 205 205 205
0.04730006 -0.09344309 0.4621231 205 205 205
0.04882218 -0.09400955 0.4628657 205 205 205
0.08996081 -0.1054496 0.474603 205 205 205
0.08928993 -0.1003146 0.4625807 205 205 205
0.09352028 -0.09701175 0.4532107 205 205 205
0.09658138 -0.09755361 0.4534412 205 205 205
0.1033358 -0.09703631 0.4499121 205 205 205
0.1049747 -0.09748873 0.4504391 205 205 205
0.1094787 -0.09801881 0.4502073 205 205 205
0.1191947 -0.09779412 0.4465468 205 205 205
0.1301966 -0.09740023 0.4422243 205 205 205
0.1332856 -0.09777565 0.4421842 205 205 205
0.1357894 -0.09732823 0.440391 205 205 205
0.1414836 -0.09554778 0.4345616 205 205 205
0.144548 -0.09586511 0.4344376 205 205 205
0.148325 -0.09530663 0.4320782 205 205 205
0.1493506 -0.09484521 0.4307176 205 205 205
0.1541155 -0.09545913 0.4308567 205 205 205
0.1612619 -0.09547488 0.4290033 205 205 205
0.1622455 -0.09498596 0.4276124 205 205 205
0.1662847 -0.09470608 0.4259302 205 205 205
0.1729764 -0.09417542 0.4230383 205 205 205
0.1743085 -0.09405972 0.4224468 205 205 205
0.1774656 -0.09289654 0.4190082 205 205 205
0.184457 -0.09262191 0.416747 205 205 205
0.1848968 -0.09168543 0.4145004 205 205 205
0.2064345 -0.08739941 0.4001888 205 205 205
0.2131492 -0.08674355 0.397417 205 205 205
0.2143849 -0.08652539 0.3966951 205 205 205
0.2173718 -0.08646285 0.3960001 205 205 205
0.2198309 -0.08600341 0.3945241 205 205 205
-0.05562895 -0.07451231 0.4613036 205 205 205
-0.05420968 -0.07490436 0.4614809 205 205 205
-0.04794385 -0.07540056 0.4593872 205 205 205
-0.04175007 -0.07582556 0.457205 205 205 205
-0.04034304 -0.07618504 0.4573355 205 205 205
-0.02947986 -0.08003414 0.46097 205 205 205
-0.02805268 -0.0803697 0.4610572 205 205 205
-0.009695091 -0.08557303 0.4645146 205 205 205
-0.002654151 -0.08814695 0.4673291 205 205 205
-0.001190616 -0.08842946 0.4673225 205 205 205
0.0002108663 -0.0890858 0.4682351 205 205 205
0.003038239 -0.09039339 0.4700449 205 205 205
0.01046308 -0.09134115 0.4689368 205 205 205
0.0134416 -0.09146648 0.4679047 205 205 205
0.02228137 -0.09252524 0.4665366 205 205 205
0.02668986 -0.09320359 0.4662468 205 205 205
0.03252495 -0.09328184 0.4639502 205 205 205
0.03541956 -0.09329871 0.4627741 205 205 205
0.03684417 -0.09310534 0.4617196 205 205 205
0.04275973 -0.09465754 0.4629652 205 205 205
0.05006672 -0.09554489 0.4621133 205 205 205
0.05344477 -0.09826432 0.4672239 205 205 205
0.088429 -0.1036458 0.4668032 205 205 205
0.08917795 -0.09854618 0.4544955 205 205 205
0.09188153 -0.09829826 0.4529624 205 205 205
0.1049899 -0.09925704 0.4507529 205 205 205
0.1137981 -0.09988775 0.4493496 205 205 205
0.1164093 -0.09952746 0.4476683 205 205 205
0.120927 -0.09998386 0.4473097 205 205 205
0.1263361 -0.09959332 0.4447212 205 205 205
0.1300067 -0.09875547 0.4416514 205 205 205
0.139166 -0.09777784 0.4366756 205 205 205
0.1429906 -0.09725279 0.4343629 205 205 205
0.1471079 -0.09710703 0.432869 205 205 205
0.1484769 -0.09705199 0.432362 205 205 205
0.1556472 -0.09713516 0.4306027 205 205 205
0.1741356 -0.09539565 0.4218802 205 205 205
0.1816627 -0.0942308 0.4174276 205 205 205
0.1924953 -0.09207767 0.4100976 205 205 205
0.1963463 -0.09157003 0.4081197 205 205 205
0.2022331 -0.09026717 0.4039569 205 205 205
0.2039821 -0.09046917 0.4040509 205 205 205
0.2062771 -0.08870225 0.3996354 205 205 205
0.2087664 -0.08829433 0.3982325 205 205 205
-0.06153537 -0.07423879 0.4599916 205 205 205
-0.05465827 -0.07657867 0.4618404 205 205 205
-0.05302959 -0.07662147 0.4610977 205 205 205
-0.0499878 -0.07704206 0.4605109 205 205 205
-0.04676729 -0.07709477 0.4589859 205 205 205
-0.04498135 -0.07676074 0.4572977 205 205 205
-0.04339091 -0.07677376 0.4565206 205 205 205
-0.04040344 -0.07714094 0.4558675 205 205 205
-0.0377597 -0.07820812 0.4570315 205 205 205
-0.02985732 -0.08172429 0.4613334 205 205 205
-0.02569304 -0.08309226 0.4625011 205 205 205
-0.01849656 -0.08470612 0.4628139 205 205 205
-0.01292131 -0.08668961 0.46482 205 205 205
-0.01001644 -0.08729267 0.464871 205 205 205
-0.005654539 -0.08817416 0.4649102 205 205 205
-0.004274176 -0.08884004 0.4658361 205 205 205
0.001388902 -0.09110627 0.4685665 205 205 205
0.002861956 -0.0913813 0.4685445 205 205 205
0.00879869 -0.09206541 0.467484 205 205 205
0.01766502 -0.09279271 0.4652843 205 205 205
0.01913031 -0.09303121 0.4652076 205 205 205
0.02205605 -0.09388921 0.46596 205 205 205
0.03961626 -0.09564065 0.4626951 205 205 205
0.04258947 -0.09641653 0.4633045 205 205 205
0.04698699 -0.09696064 0.4628063 205 205 205
0.04838849 -0.09673551 0.4617161 205 205 205
0.05138274 -0.09747592 0.4622636 205 205 205
0.08862981 -0.09908882 0.4521237 205 205 205
0.09006465 -0.09916921 0.451809 205 205 205
0.09167784 -0.09965635 0.452384 205 205 205
0.09761456 -0.1003443 0.4519458 205 205 205
0.09905163 -0.1004057 0.4516006 205 205 205
0.1006896 -0.1008748 0.4521397 205 205 205
0.1021285 -0.1009298 0.4517841 205 205 205
0.1095314 -0.1015678 0.4508174 205 205 205
0.1124024 -0.1016356 0.450042 205 205 205
0.1138361 -0.1016646 0.4496472 205 205 205
0.1181298 -0.101732 0.4484342 205 205 205
0.1238369 -0.101776 0.4467506 205 205 205
0.1264124 -0.101366 0.4450103 205 205 205
0.1317865 -0.1009191 0.4423529 205 205 205
0.1368073 -0.1000084 0.4387702 205 205 205
0.138201 -0.09997866 0.4382957 205 205 205
0.1395932 -0.0999457 0.4378166 205 205 205
0.1496614 -0.09833271 0.4312774 205 205 205
0.1585472 -0.09873346 0.429792 205 205 205
0.167275 -0.09727921 0.4242214 205 205 205
0.176621 -0.09648656 0.4201128 205 205 205
0.1792722 -0.09623111 0.4188996 205 205 205
0.1880115 -0.0934727 0.4106714 205 205 205
0.1893016 -0.09331617 0.4100308 205 205 205
0.1910405 -0.09355772 0.4101833 205 205 205
0.192784 -0.09379518 0.410328 205 205 205
0.1953616 -0.09345812 0.4090104 205 205 205
0.1966468 -0.09328479 0.4083452 205 205 205
0.198738 -0.09253021 0.4062159 205 205 205
0.2081058 -0.08919998 0.396905 205 205 205
0.2130413 -0.08834671 0.3940591 205 205 205
0.2154931 -0.08790135 0.3926121 205 205 205
-0.05653577 -0.07786211 0.4620142 205 205 205
-0.05510844 -0.07825751 0.4621916 205 205 205
-0.04362617 -0.07808193 0.4559663 205 205 205
-0.0408121 -0.07880618 0.4562308 205 205 205
-0.03799384 -0.07951863 0.4564758 205 205 205
-0.0339145 -0.08092915 0.4577248 205 205 205
-0.03264893 -0.08163802 0.4587441 205 205 205
-0.02852022 -0.08302197 0.459937 205 205 205
-0.02579484 -0.08405577 0.461015 205 205 205
-0.02436068 -0.08438426 0.4610869 205 205 205
-0.02161121 -0.08540429 0.4621363 205 205 205
-0.01573896 -0.08629148 0.461415 205 205 205
-0.01440163 -0.08697503 0.4623732 205 205 205
-0.01160735 -0.08795987 0.4633543 205 205 205
-0.004581206 -0.09057277 0.4661816 205 205 205
-0.003117511 -0.09085927 0.4661794 205 205 205
0.005626773 -0.09289966 0.4669823 205 205 205
0.01011428 -0.09290832 0.4650144 205 205 205
0.02329576 -0.09626988 0.4671234 205 205 205
0.02477373 -0.09649782 0.4670258 205 205 205
0.03359386 -0.09700119 0.4645017 205 205 205
0.03800588 -0.0976051 0.4640909 205 205 205
0.04535766 -0.09854752 0.4633071 205 205 205
0.04682757 -0.09872641 0.4631354 205 205 205
0.04969952 -0.09867039 0.461865 205 205 205
0.08730448 -0.1084284 0.4703957 205 205 205
0.1023363 -0.103122 0.4529698 205 205 205
0.1264865 -0.1031433 0.445291 205 205 205
0.1330013 -0.1022594 0.4413081 205 205 205
0.1346993 -0.1026548 0.4417065 205 205 205
0.1386171 -0.1021588 0.439428 205 205 205
0.1463426 -0.1010801 0.4347696 205 205 205
0.1577089 -0.1009809 0.4314298 205 205 205
0.1631851 -0.1006455 0.4292265 205 205 205
0.1705595 -0.09922276 0.4241399 205 205 205
0.1795138 -0.09796931 0.4191359 205 205 205
0.1821643 -0.09769955 0.4179024 205 205 205
0.1843761 -0.09700965 0.4158456 205 205 205
0.1861283 -0.09590194 0.4129757 205 205 205
0.1935244 -0.09592161 0.4113443 205 205 205
0.203945 -0.09209733 0.4006752 205 205 205
0.2072047 -0.09109712 0.3978149 205 205 205
0.2121661 -0.090252 0.3949784 205 205 205
0.2123684 -0.08924309 0.3927385 205 205 205
-0.05798822 -0.07844017 0.4603533 205 205 205
-0.045454 -0.07938051 0.4561818 205 205 205
-0.04386174 -0.07938766 0.4554069 205 205 205
-0.04245499 -0.07975184 0.4555412 205 205 205
-0.03839596 -0.08119146 0.4568307 205 205 205
-0.03288356 -0.08295534 0.4581788 205 205 205
-0.03131247 -0.08292813 0.4573572 205 205 205
-0.01907746 -0.08775216 0.4625915 205 205 205
-0.01752088 -0.08768948 0.4617196 205 205 205
-0.01618457 -0.08838006 0.462681 205 205 205
-0.00748942 -0.09019005 0.4628301 205 205 205
-0.001748837 -0.09172182 0.4637499 205 205 205
0.005444742 -0.09386768 0.4654769 205 205 205
0.009885418 -0.09426085 0.4644307 205 205 205
0.01278514 -0.09516136 0.4652398 205 205 205
0.01572358 -0.09565674 0.46511 205 205 205
0.01864871 -0.09653588 0.4658782 205 205 205
0.02750362 -0.09831153 0.4662243 205 205 205
0.0304445 -0.09834455 0.4650777 205 205 205
0.03334587 -0.09796033 0.4629973 205 205 205
0.03631223 -0.0987689 0.4636433 205 205 205
0.04807732 -0.1002659 0.4623677 205 205 205
0.04948051 -0.1000309 0.4612752 205 205 205
0.05101685 -0.100608 0.4619992 205 205 205
0.05270947 -0.1019999 0.4645367 205 205 205
0.05473806 -0.1050271 0.4707028 205 205 205
0.08711559 -0.1025395 0.4530522 205 205 205
0.08982883 -0.1022876 0.4515319 205 205 205
0.100885 -0.1048524 0.4536177 205 205 205
0.1025408 -0.1053261 0.454144 205 205 205
0.1037861 -0.1049599 0.4528957 205 205 205
0.1087894 -0.1063529 0.4544198 205 205 205
0.1102465 -0.1063921 0.4540341 205 205 205
0.1117023 -0.1064281 0.4536437 205 205 205
0.1126945 -0.1056224 0.4514924 205 205 205
0.1158239 -0.1060965 0.4515676 205 205 205
0.1175137 -0.1065383 0.4520337 205 205 205
0.1223666 -0.1074249 0.452519 205 205 205
0.1270961 -0.1057641 0.4472975 205 205 205
0.131967 -0.1044698 0.4428997 205 205 205
0.1412246 -0.1034423 0.4378688 205 205 205
0.1520157 -0.1026119 0.4329714 205 205 205
0.1588962 -0.1022485 0.4302966 205 205 205
0.1661049 -0.102219 0.4283377 205 205 205
0.17426 -0.1015753 0.4248366 205 205 205
0.1796547 -0.1010807 0.422414 205 205 205
0.1824114 -0.09944084 0.4181276 205 205 205
0.185517 -0.09818882 0.4146347 205 205 205
0.1885784 -0.09829636 0.4141611 205 205 205
0.1911979 -0.09798057 0.4128676 205 205 205
0.1951093 -0.09748268 0.4108953 205 205 205
0.1985313 -0.09654978 0.4080996 205 205 205
0.1993484 -0.09596265 0.4066394 205 205 205
0.2092439 -0.0905626 0.3928382 205 205 205
0.2134349 -0.09030673 0.3914556 205 205 205
0.2141351 -0.08968479 0.3899776 205 205 205
0.2153511 -0.08945756 0.3892525 205 205 205
0.2160359 -0.08883127 0.3877726 205 205 205
0.2177752 -0.08899373 0.3877904 205 205 205
-0.0620345 -0.0778445 0.4573932 205 205 205
-0.05375262 -0.08059085 0.4593996 205 205 205
-0.0505088 -0.08064421 0.4579034 205 205 205
-0.04870167 -0.08030187 0.4562349 205 205 205
-0.04004541 -0.08214374 0.4561434 205 205 205
-0.02220248 -0.08844516 0.4619028 205 205 205
-0.02075766 -0.08876728 0.4619596 205 205 205
-0.01641857 -0.08971518 0.4621002 205 205 205
-0.0107151 -0.09132182 0.4631362 205 205 205
-0.009172655 -0.09123357 0.4622353 205 205 205
-0.004894176 -0.09249641 0.463175 205 205 205
0.005164021 -0.09561403 0.4658048 205 205 205
0.0139721 -0.0975613 0.4664199 205 205 205
0.0183902 -0.09869507 0.4671173 205 205 205
0.01987218 -0.09893387 0.4670341 205 205 205
0.02431979 -0.1000335 0.4676696 205 205 205
0.02875557 -0.0998953 0.4655145 205 205 205
0.031694 -0.09991838 0.4643594 205 205 205
0.03467211 -0.1007391 0.4650123 205 205 205
0.03618263 -0.1013488 0.4657872 205 205 205
0.04220766 -0.102948 0.4670063 205 205 205
0.04364728 -0.1027268 0.4659311 205 205 205
0.08801196 -0.1031371 0.4503623 205 205 205
0.1012793 -0.1074861 0.4556681 205 205 205
0.1092411 -0.1089991 0.4564508 205 205 205
0.1119506 -0.1086521 0.4547911 205 205 205
0.1141713 -0.1074459 0.4513654 205 205 205
0.1160967 -0.1083172 0.4527102 205 205 205
0.1294856 -0.1066999 0.4449338 205 205 205
0.134892 -0.1062138 0.4422318 205 205 205
0.1391377 -0.1061317 0.4408036 205 205 205
0.1430559 -0.1055974 0.4384829 205 205 205
0.1587103 -0.1035926 0.4297023 205 205 205
0.1758313 -0.1032174 0.4244589 205 205 205
0.1817421 -0.1017401 0.4197744 205 205 205
0.1857747 -0.09992521 0.4148503 205 205 205
0.1870907 -0.09977496 0.4142144 205 205 205
0.1957768 -0.09822227 0.4088563 205 205 205
0.1978943 -0.09745826 0.406732 205 205 205
0.2020582 -0.09589761 0.4024551 205 205 205
0.2127573 -0.09118764 0.390132 205 205 205
0.2176181 -0.09027021 0.3872246 205 205 205
-0.05803798 -0.08036454 0.4573895 205 205 205
-0.0566224 -0.08076172 0.4575692 205 205 205
-0.0537875 -0.08154709 0.4579139 205 205 205
-0.05074861 -0.08195657 0.457329 205 205 205
-0.04913534 -0.08197285 0.4565735 205 205 205
-0.03477598 -0.0852361 0.4569324 205 205 205
-0.01943154 -0.09003349 0.4605101 205 205 205
-0.01654513 -0.0906617 0.460598 205 205 205
-0.01365582 -0.09127763 0.4606661 205 205 205
-0.01230656 -0.09196947 0.4616091 205 205 205
-0.005204029 -0.09422858 0.4635015 205 205 205
0.006403626 -0.09723388 0.46517 205 205 205
0.01223279 -0.09907015 0.4667989 205 205 205
0.01371413 -0.09932213 0.4667355 205 205 205
0.01663876 -0.1006222 0.4684236 205 205 205
0.01814418 -0.1004623 0.4674299 205 205 205
0.02557702 -0.1016291 0.4669611 205 205 205
0.03000759 -0.1014739 0.464794 205 205 205
0.04930226 -0.1044035 0.46371 205 205 205
0.0527055 -0.1072368 0.4687673 205 205 205
0.09337653 -0.1076847 0.4550159 205 205 205
0.09539092 -0.1090307 0.4573395 205 205 205
0.09871664 -0.1100161 0.4584177 205 205 205
0.1086368 -0.1124727 0.4606115 205 205 205
0.1101261 -0.1125161 0.4602227 205 205 205
0.122495 -0.113593 0.4586744 205 205 205
0.1309921 -0.1084796 0.444732 205 205 205
0.1324213 -0.1084653 0.4442722 205 205 205
0.133849 -0.1084476 0.4438077 205 205 205
0.138123 -0.1083745 0.4423862 205 205 205
0.144898 -0.1077601 0.4390757 205 205 205
0.1519284 -0.1074889 0.4365038 205 205 205
0.1550887 -0.1060126 0.4323947 205 205 205
0.159236 -0.1057819 0.4307682 205 205 205
0.1627189 -0.1064585 0.4313205 205 205 205
0.1641009 -0.1063679 0.4307573 205 205 205
0.1719619 -0.1053332 0.4264645 205 205 205
0.1750844 -0.1055239 0.4260898 205 205 205
0.176448 -0.1054035 0.4254863 205 205 205
0.1778094 -0.1052798 0.4248783 205 205 205
0.1833198 -0.1033557 0.419358 205 205 205
0.1842326 -0.102795 0.4179256 205 205 205
0.18735 -0.1015151 0.4144203 205 205 205
0.1939148 -0.100711 0.4111688 205 205 205
0.1956768 -0.1009549 0.4112931 205 205 205
0.2028509 -0.09802269 0.4034212 205 205 205
0.2031587 -0.09700676 0.4011841 205 205 205
0.21086 -0.0922805 0.3895215 205 205 205
0.2132954 -0.09183443 0.3880881 205 205 205
0.214509 -0.09160674 0.3873655 205 205 205
-0.0509887 -0.08326645 0.4567495 205 205 205
-0.04616539 -0.08329163 0.454469 205 205 205
-0.04175429 -0.08401895 0.453959 205 205 205
-0.03374403 -0.08727137 0.4573637 205 205 205
-0.03216645 -0.08723623 0.456546 205 205 205
-0.02917429 -0.08753314 0.4558076 205 205 205
-0.02775215 -0.0878671 0.4558874 205 205 205
-0.02503671 -0.08891046 0.4569461 205 205 205
-0.02373585 -0.08962156 0.4579253 205 205 205
-0.02255037 -0.09071762 0.459814 205 205 205
-0.02110877 -0.09103987 0.45987 205 205 205
-0.01811092 -0.09128642 0.4590526 205 205 205
-0.01533483 -0.09229819 0.4600445 205 205 205
0.004648102 -0.09871918 0.4655207 205 205 205
0.006124117 -0.09898677 0.4654822 205 205 205
0.007600521 -0.09925121 0.4654387 205 205 205
0.01788017 -0.1026412 0.4686473 205 205 205
0.01938673 -0.1024749 0.4676499 205 205 205
0.02831092 -0.1030289 0.4652161 205 205 205
0.03884843 -0.1061395 0.4679155 205 205 205
0.04927344 -0.1070257 0.4658159 205 205 205
0.08674018 -0.1149501 0.4696716 205 205 205
0.08681722 -0.1074482 0.4530282 205 205 205
0.08827025 -0.107533 0.4527147 205 205 205
0.0974011 -0.1121913 0.4599127 205 205 205
0.1069326 -0.1138284 0.4603646 205 205 205
0.1142442 -0.116573 0.4640449 205 205 205
0.1152939 -0.115747 0.4618887 205 205 205
0.1178184 -0.1149435 0.4593161 205 205 205
0.1227548 -0.1184263 0.4654223 205 205 205
0.1247693 -0.1193028 0.4667192 205 205 205
0.129968 -0.1154604 0.4566776 205 205 205
0.1303667 -0.113735 0.4527724 205 205 205
0.139948 -0.1105668 0.4429908 205 205 205
0.1421853 -0.1096348 0.4403076 205 205 205
0.1513228 -0.1101947 0.4389369 205 205 205
0.1552181 -0.1095714 0.4365034 205 205 205
0.1688026 -0.1082795 0.4300745 205 205 205
0.1739248 -0.1074157 0.426895 205 205 205
0.1770613 -0.1076011 0.4265021 205 205 205
0.1849568 -0.1035601 0.4158916 205 205 205
0.186283 -0.1034115 0.4152569 205 205 205
0.1924305 -0.1022005 0.4112297 205 205 205
0.1932869 -0.1016143 0.4097834 205 205 205
0.1949715 -0.1004349 0.4068887 205 205 205
0.1980171 -0.1004961 0.4063329 205 205 205
0.2022002 -0.09891556 0.4020565 205 205 205
0.2037693 -0.09769558 0.3991351 205 205 205
-0.06276245 -0.0817693 0.4556598 205 205 205
-0.06135032 -0.08217664 0.4558535 205 205 205
-0.05122911 -0.08457376 0.4561647 205 205 205
-0.02527125 -0.0902209 0.4563579 205 205 205
-0.02278623 -0.09203959 0.4592204 205 205 205
-0.02134435 -0.09236237 0.459276 205 205 205
-0.01257984 -0.09383868 0.4585929 205 205 205
-0.01123058 -0.09453542 0.4595272 205 205 205
-0.009873016 -0.09523064 0.4604567 205 205 205
-0.005750541 -0.09730698 0.4632157 205 205 205
-0.002890186 -0.09828221 0.4641169 205 205 205
-0.001486888 -0.09896706 0.4650165 205 205 205
0.008684597 -0.102492 0.4684313 205 205 205
0.01014142 -0.1031605 0.4692897 205 205 205
0.01456017 -0.1051544 0.471832 205 205 205
0.02811236 -0.1056341 0.4673312 205 205 205
0.02962208 -0.1062684 0.4681208 205 205 205
0.03108556 -0.1056528 0.466177 205 205 205
0.03414638 -0.1073242 0.4686382 205 205 205
0.03567937 -0.1079486 0.4694055 205 205 205
0.04032438 -0.1098083 0.4716725 205 205 205
0.04634115 -0.11015 0.4700858 205 205 205
0.05129204 -0.1132198 0.4749457 205 205 205
0.08761399 -0.1193796 0.4752513 205 205 205
0.09219356 -0.1120659 0.4576524 205 205 205
0.09698275 -0.1165329 0.4658102 205 205 205
0.09981838 -0.1162399 0.4642181 205 205 205
0.1013264 -0.1163041 0.4638561 205 205 205
0.1077684 -0.1173924 0.4641116 205 205 205
0.1101344 -0.1191716 0.4672253 205 205 205
0.1120941 -0.120082 0.4685768 205 205 205
0.1140678 -0.1209893 0.4699193 205 205 205
0.1158302 -0.1214602 0.47038 205 205 205
0.1169116 -0.1206276 0.4682188 205 205 205
0.1202084 -0.1211184 0.4682412 205 205 205
0.1377665 -0.115488 0.4506383 205 205 205
0.141249 -0.1141016 0.4466161 205 205 205
0.1521154 -0.1128582 0.4408315 205 205 205
0.1560454 -0.1122291 0.4383873 205 205 205
0.1613438 -0.1114884 0.4353532 205 205 205
0.1689896 -0.1100647 0.4302762 205 205 205
0.1707562 -0.1103887 0.4305096 205 205 205
0.1731406 -0.1097386 0.428506 205 205 205
0.1828655 -0.1074436 0.421179 205 205 205
0.1847182 -0.1063075 0.4183154 205 205 205
0.1878614 -0.1050086 0.4148074 205 205 205
0.2028186 -0.099604 0.400003 205 205 205
0.2038809 -0.09795535 0.3963185 205 205 205
0.2046394 -0.09733658 0.3948606 205 205 205
0.2053886 -0.09671584 0.3934025 205 205 205
0.2061283 -0.09609305 0.3919441 205 205 205
0.2088016 -0.09462582 0.3883225 205 205 205
0.2095072 -0.0939946 0.3868617 205 205 205
0.2131388 -0.09332129 0.384719 205 205 205
0.2155464 -0.09285685 0.3832709 205 205 205
-0.06159322 -0.08348049 0.4552648 205 205 205
-0.05876459 -0.08428756 0.4556366 205 205 205
-0.0540948 -0.08473112 0.4543486 205 205 205
-0.05126871 -0.08550416 0.4546695 205 205 205
-0.04805078 -0.08551245 0.4531587 205 205 205
-0.0356445 -0.08954149 0.4560838 205 205 205
-0.03437351 -0.09027647 0.4570922 205 205 205
-0.03294215 -0.09062332 0.4571867 205 205 205
-0.02720749 -0.09198019 0.4575156 205 205 205
-0.02314761 -0.09375222 0.4595323 205 205 205
-0.02158042 -0.09368227 0.4586768 205 205 205
-0.02013747 -0.09400244 0.4587271 205 205 205
-0.009002143 -0.0984598 0.4635114 205 205 205
0.01278438 -0.1066922 0.4721842 205 205 205
0.01429786 -0.1069472 0.4721135 205 205 205
0.02790952 -0.1082578 0.4694312 205 205 205
0.04667104 -0.1157853 0.4784873 205 205 205
0.04846379 -0.1176721 0.4819125 205 205 205
0.05009585 -0.1182827 0.4826206 205 205 205
0.08770197 -0.1136269 0.4588803 205 205 205
0.09049848 -0.1133619 0.4573506 205 205 205
0.1001705 -0.1189547 0.466211 205 205 205
0.1038038 -0.1203887 0.46811 205 205 205
0.1395797 -0.1199421 0.4559595 205 205 205
0.1427954 -0.1158862 0.4463294 205 205 205
0.1521161 -0.116472 0.4449201 205 205 205
0.162213 -0.1141575 0.4372072 205 205 205
0.168236 -0.1142242 0.4357393 205 205 205
0.1720854 -0.1134796 0.433152 205 205 205
0.175503 -0.1122742 0.42972 205 205 205
0.1839281 -0.1100742 0.4229641 205 205 205
0.1924808 -0.1038175 0.4077916 205 205 205
0.1954504 -0.1024466 0.4042439 205 205 205
0.1975511 -0.1016608 0.4021282 205 205 205
0.2005793 -0.1017083 0.4015467 205 205 205
0.202942 -0.0998592 0.3971816 205 205 205
0.2037109 -0.09923854 0.3957259 205 205 205
0.2044703 -0.09861585 0.3942699 205 205 205
0.2079204 -0.09652185 0.3891982 205 205 205
0.2093429 -0.0952533 0.3862804 205 205 205
-0.06324895 -0.08437305 0.454478 205 205 205
-0.06183641 -0.08478175 0.4546709 205 205 205
-0.05596006 -0.08601177 0.4544908 205 205 205
-0.05433558 -0.08602866 0.4537559 205 205 205
-0.03856535 -0.0897518 0.454367 205 205 205
-0.03031398 -0.09261857 0.4567601 205 205 205
-0.02614162 -0.09401907 0.4578926 205 205 205
-0.02351068 -0.09546927 0.4598359 205 205 205
-0.01892973 -0.09563782 0.4581675 205 205 205
-0.01748504 -0.09595235 0.4582077 205 205 205
-0.01469627 -0.09697376 0.4591832 205 205 205
-0.01198439 -0.09838942 0.4610494 205 205 205
-0.007937749 -0.100907 0.4647222 205 205 205
-0.0006766643 -0.1031692 0.4664959 205 205 205
0.002128458 -0.1049599 0.4691717 205 205 205
0.01236818 -0.1105668 0.4770025 205 205 205
0.02006582 -0.1114111 0.4756828 205 205 205
0.02621951 -0.1136228 0.4779817 205 205 205
0.0324883 -0.1162177 0.4810961 205 205 205
0.1467287 -0.1189484 0.4480461 205 205 205
0.1593863 -0.1197946 0.4462693 205 205 205
0.1641035 -0.1199974 0.4454039 205 205 205
0.1655587 -0.1199118 0.4448287 205 205 205
0.1684509 -0.1178842 0.4397878 205 205 205
0.173409 -0.1165961 0.4357759 205 205 205
0.1750797 -0.1150615 0.4321262 205 205 205
0.1800745 -0.1155671 0.4319037 205 205 205
0.1832822 -0.1157402 0.4314539 205 205 205
0.1854019 -0.1131564 0.4255341 205 205 205
0.1887465 -0.1104003 0.4189775 205 205 205
0.1900964 -0.1102443 0.4183271 205 205 205
0.1927525 -0.1055534 0.4079649 205 205 205
0.1957349 -0.1041727 0.4044157 205 205 205
0.1994539 -0.1021537 0.3994015 205 205 205
0.2002449 -0.1015366 0.3979525 205 205 205
0.2022841 -0.1007199 0.3958178 205 205 205
0.2065242 -0.09800021 0.3893103 205 205 205
0.2079604 -0.09672871 0.3864002 205 205 205
-0.06349253 -0.0856711 0.4538794 205 205 205
-0.06207974 -0.08608041 0.4540718 205 205 205
-0.05783355 -0.0872904 0.4546196 205 205 205
-0.04711821 -0.08847111 0.4521129 205 205 205
-0.04570702 -0.08884334 0.4522497 205 205 205
-0.04429476 -0.08921259 0.4523817 205 205 205
-0.03771092 -0.0921872 0.4556852 205 205 205
-0.02809506 -0.09579391 0.4590289 205 205 205
-0.02664725 -0.09612919 0.4590987 205 205 205
-0.02519856 -0.09646138 0.4591635 205 205 205
-0.01368056 -0.09941296 0.4604123 205 205 205
-0.01112874 -0.1016504 0.464082 205 205 205
-0.009740828 -0.1023606 0.465001 205 205 205
0.004691185 -0.1085377 0.4720945 205 205 205
0.01345187 -0.1155843 0.4835369 205 205 205
0.01655189 -0.1169462 0.4851872 205 205 205
0.1504903 -0.1238443 0.4535905 205 205 205
0.1532485 -0.1255665 0.4564111 205 205 205
0.157093 -0.1245034 0.4530993 205 205 205
0.1626956 -0.1237761 0.4500223 205 205 205
0.1681851 -0.1248505 0.450763 205 205 205
0.1715099 -0.1251056 0.4503968 205 205 205
0.1741038 -0.124464 0.4483682 205 205 205
0.1740448 -0.1207281 0.4406177 205 205 205
0.1765421 -0.1200641 0.4385843 205 205 205
0.1768158 -0.118629 0.4355356 205 205 205
0.1912073 -0.1128898 0.4200647 205 205 205
0.1926155 -0.1097963 0.4133647 205 205 205
0.195556 -0.1054721 0.4038034 205 205 205
0.1976663 -0.1046764 0.4016882 205 205 205
0.1989481 -0.1044893 0.4010123 205 205 205
0.2025956 -0.1024259 0.3959782 205 205 205
0.2048792 -0.1005339 0.3916213 205 205 205
0.2068566 -0.09968696 0.3894689 205 205 205
0.2080891 -0.09947164 0.3887654 205 205 205
0.2116007 -0.09624289 0.3814797 205 205 205
-0.06209403 -0.0869991 0.4525703 205 205 205
-0.06068348 -0.08740498 0.4527569 205 205 205
-0.05927163 -0.08780786 0.4529386 205 205 205
-0.05319802 -0.08862203 0.4518164 205 205 205
-0.05178746 -0.08900785 0.4519727 205 205 205
-0.05017652 -0.08900493 0.4512234 205 205 205
-0.04594573 -0.09013239 0.4516475 205 205 205
-0.04329997 -0.09125979 0.4528085 205 205 205
-0.04205806 -0.09201632 0.4538337 205 205 205
-0.04063477 -0.09237904 0.4539513 205 205 205
-0.03937936 -0.09313241 0.4549677 205 205 205
-0.03396426 -0.09533941 0.4571802 205 205 205
-0.0326735 -0.096085 0.4581741 205 205 205
-0.03122809 -0.09643006 0.4582584 205 205 205
-0.0272904 -0.09865249 0.4611987 205 205 205
-0.02596083 -0.09939063 0.4621696 205 205 205
-0.01818098 -0.09939619 0.4587943 205 205 205
-0.01294017 -0.1030955 0.4643448 205 205 205
-0.005768365 -0.1058376 0.4670915 205 205 205
-0.004347694 -0.1065451 0.4679884 205 205 205
-0.0001595821 -0.1094916 0.4724615 205 205 205
0.00112826 -0.1114473 0.4760574 205 205 205
0.002609276 -0.1121494 0.4769278 205 205 205
0.1937578 -0.1124338 0.4150822 205 205 205
0.1937385 -0.1094741 0.4090663 205 205 205
0.1941472 -0.1084289 0.4068455 205 205 205
0.2005235 -0.1060228 0.4004845 205 205 205
0.2081317 -0.09966127 0.3859614 205 205 205
0.2127748 -0.09617282 0.3779782 205 205 205
-0.06398037 -0.08825927 0.4526666 205 205 205
-0.05463707 -0.08913338 0.4501505 205 205 205
-0.05302387 -0.08913463 0.4494126 205 205 205
-0.04514153 -0.09257569 0.4529726 205 205 205
-0.0439011 -0.09333926 0.4540007 205 205 205
-0.04265201 -0.09410179 0.4550246 205 205 205
-0.03580259 -0.09669726 0.4573705 205 205 205
-0.03451318 -0.09744994 0.4583674 205 205 205
-0.03321517 -0.09820135 0.4593598 205 205 205
-0.03176193 -0.09854878 0.4594441 205 205 205
-0.03059356 -0.09970034 0.4613309 205 205 205
-0.02473749 -0.1010535 0.4616002 205 205 205
-0.01603383 -0.1034009 0.4627594 205 205 205
-0.01466015 -0.1041262 0.4636894 205 205 205
-0.01337504 -0.1052638 0.4655197 205 205 205
-0.0119808 -0.1059867 0.46644 205 205 205
-0.006165269 -0.1080264 0.46826 205 205 205
-0.003300963 -0.1094505 0.4700447 205 205 205
0.000414533 -0.116209 0.4826373 205 205 205
0.1944643 -0.1131578 0.4129941 205 205 205
0.1953506 -0.1125448 0.4115465 205 205 205
0.1961821 -0.1104343 0.4071005 205 205 205
0.1983382 -0.1096309 0.404978 205 205 205
0.1995299 -0.1079433 0.4013119 205 205 205
0.2077453 -0.1019939 0.3875588 205 205 205
0.2096928 -0.101122 0.3853965 205 205 205
0.2112657 -0.09872521 0.3802922 205 205 205
-0.06116969 -0.08998362 0.4515353 205 205 205
-0.05953433 -0.09000143 0.4508212 205 205 205
-0.05790519 -0.09001409 0.4501013 205 205 205
-0.05487758 -0.09041359 0.4495404 205 205 205
-0.05206445 -0.09118859 0.4498555 205 205 205
-0.04964002 -0.09273896 0.4519472 205 205 205
-0.04163595 -0.09616647 0.4554219 205 205 205
-0.0362028 -0.09840969 0.4576463 205 205 205
-0.03083665 -0.1010253 0.4606974 205 205 205
-0.0208117 -0.1041902 0.4629202 205 205 205
-0.01796732 -0.1052481 0.4638979 205 205 205
-0.009755211 -0.110463 0.4712297 205 205 205
0.2014432 -0.1084087 0.3985519 205 205 205
0.2025481 -0.1066941 0.3948949 205 205 205
0.2028378 -0.1056157 0.3926906 205 205 205
0.2048499 -0.1047646 0.3905494 205 205 205
0.2107423 -0.1021489 0.3840755 205 205 205
0.2114446 -0.101488 0.3826201 205 205 205
0.2124403 -0.09863397 0.376789 205 205 205
-0.03821871 -0.1001744 0.4587142 205 205 205
-0.03676408 -0.1005332 0.458813 205 205 205
-0.02560884 -0.1049471 0.4630286 205 205 205
-0.01704629 -0.1081608 0.4659858 205 205 205
-0.01069518 -0.1152158 0.4777829 205 205 205
-0.009313316 -0.1163749 0.479586 205 205 205
0.2018693 -0.1116629 0.4016537 205 205 205
0.204672 -0.1060276 0.3899301 205 205 205
0.2054214 -0.1053764 0.388483 205 205 205
0.2078989 -0.1049436 0.3870781 205 205 205
0.2112714 -0.1027335 0.3820094 205 205 205
-0.06306808 -0.09214321 0.4501082 205 205 205
-0.06165677 -0.09255166 0.4502931 205 205 205
-0.05654756 -0.09217758 0.4472482 205 205 205
-0.05395304 -0.0933563 0.448464 205 205 205
-0.05254546 -0.09374356 0.4486184 205 205 205
-0.04391393 -0.09920818 0.4558375 205 205 205
-0.03991681 -0.1011253 0.4579703 205 205 205
-0.03879068 -0.1023065 0.4598688 205 205 205
-0.03602106 -0.103437 0.4609598 205 205 205
-0.03293506 -0.1037325 0.4602346 205 205 205
-0.02062076 -0.1101237 0.4679642 205 205 205
-0.01631056 -0.111941 0.4698532 205 205 205
0.2025031 -0.1123161 0.3995607 205 205 205
0.2023559 -0.1107786 0.3965968 205 205 205
0.2049855 -0.107731 0.3900549 205 205 205
-0.05198476 -0.09661057 0.4508189 205 205 205
-0.05096069 -0.09780329 0.4527501 205 205 205
-0.03757394 -0.1039857 0.4593184 205 205 205
-0.03642409 -0.1051737 0.4612047 205 205 205
-0.03479875 -0.1051154 0.4603972 205 205 205
-0.02905349 -0.1069285 0.4615998 205 205 205
-0.02784458 -0.1081101 0.4634588 205 205 205
-0.02525203 -0.1100524 0.4662657 205 205 205
-0.02399848 -0.111234 0.4681111 205 205 205
-0.01505906 -0.1207918 0.4835903 205 205 205
0.202791 -0.1140565 0.3996717 205 205 205
0.2037523 -0.110753 0.3930648 205 205 205
0.2052964 -0.1094386 0.3901716 205 205 205
0.2060543 -0.1087783 0.3887247 205 205 205
0.209703 -0.1054465 0.3814878 205 205 205
0.2128249 -0.1043062 0.3786048 205 205 205
-0.05140401 -0.09949969 0.4530009 205 205 205
-0.04203269 -0.1037903 0.4574606 205 205 205
-0.03120249 -0.109174 0.4635574 205 205 205
-0.02985329 -0.1099444 0.4645222 205 205 205
-0.02238744 -0.1175307 0.4764856 205 205 205
-0.02106353 -0.118725 0.4783136 205 205 205
0.2046032 -0.1187209 0.405008 205 205 205
0.204374 -0.1155975 0.3990766 205 205 205
0.2053216 -0.1122636 0.3924741 205 205 205
0.2117737 -0.1073454 0.3816129 205 205 205
-0.06261916 -0.09678578 0.4492775 205 205 205
-0.05552209 -0.09879746 0.4501248 205 205 205
-0.05041084 -0.1015872 0.4533843 205 205 205
-0.04897159 -0.1019711 0.4535205 205 205 205
-0.04645934 -0.1035594 0.4555602 205 205 205
-0.04262577 -0.105933 0.4585874 205 205 205
-0.03723496 -0.1086592 0.4616685 205 205 205
-0.03560035 -0.108597 0.4608642 205 205 205
-0.034424 -0.1097999 0.4627344 205 205 205
-0.03337815 -0.1114275 0.465494 205 205 205
-0.02915077 -0.1133344 0.4674902 205 205 205
0.2071522 -0.121199 0.4058933 205 205 205
0.2053183 -0.1151076 0.3947681 205 205 205
0.2103685 -0.1088193 0.3816973 205 205 205
0.2110785 -0.108138 0.3802499 205 205 205
-0.05740426 -0.1000889 0.4502038 205 205 205
-0.04077482 -0.1100979 0.4625856 205 205 205
-0.03780165 -0.1108329 0.4627785 205 205 205
-0.03146941 -0.1160499 0.4703099 205 205 205
-0.03021781 -0.1172643 0.4721594 205 205 205
0.2092385 -0.123228 0.4059988 205 205 205
0.2077462 -0.1132361 0.3875788 205 205 205
0.2129735 -0.107306 0.3752784 205 205 205
-0.06169247 -0.09974312 0.4481593 205 205 205
-0.05234083 -0.1037779 0.4519294 205 205 205
-0.04985023 -0.1053905 0.453979 205 205 205
-0.03970288 -0.1122216 0.4628931 205 205 205
-0.03718664 -0.1142409 0.4657447 205 205 205
0.2075585 -0.1144919 0.3869264 205 205 205
0.2097887 -0.1124399 0.382591 205 205 205
0.2133173 -0.1089809 0.3753648 205 205 205
-0.05668238 -0.1034596 0.4499322 205 205 205
-0.05258716 -0.1050626 0.4512649 205 205 205
-0.05134674 -0.1058734 0.4522896 205 205 205
-0.04684654 -0.1103833 0.4590042 205 205 205
-0.04424701 -0.1119982 0.4610081 205 205 205
-0.04327724 -0.1136615 0.4637772 205 205 205
-0.0404465 -0.1148416 0.4648678 205 205 205
-0.03654526 -0.1176785 0.4686874 205 205 205
-0.03509542 -0.1231939 0.478615 205 205 205
0.2118604 -0.1242887 0.4009608 205 205 205
0.208859 -0.1171321 0.388473 205 205 205
0.2110434 -0.1122954 0.3790536 205 205 205
0.2124471 -0.1109019 0.3761672 205 205 205
-0.06525344 -0.1018706 0.4473602 205 205 205
-0.06218351 -0.1022808 0.4468414 205 205 205
-0.06076477 -0.1026887 0.4470141 205 205 205
-0.05591767 -0.1059785 0.4511831 205 205 205
-0.05447758 -0.1063751 0.451333 205 205 205
-0.05112506 -0.1096782 0.4561694 205 205 205
-0.04764833 -0.1129831 0.4609713 205 205 205
-0.04634202 -0.1137981 0.4619743 205 205 205
-0.03741385 -0.1207765 0.4715262 205 205 205
-0.03722102 -0.1250864 0.4795852 205 205 205
0.2122625 -0.1121246 0.3755199 205 205 205
-0.06526302 -0.1027193 0.4458159 205 205 205
-0.06361343 -0.1027147 0.4451204 205 205 205
-0.06101042 -0.103954 0.4463471 205 205 205
-0.05860553 -0.1056087 0.4484354 205 205 205
-0.05283826 -0.1105855 0.4553468 205 205 205
-0.05176679 -0.111838 0.4572463 205 205 205
-0.04528121 -0.1159387 0.4622721 205 205 205
-0.04313308 -0.1188798 0.466902 205 205 205
-0.04106591 -0.1222654 0.4724005 205 205 205
-0.03859547 -0.1247794 0.4761145 205 205 205
0.2112343 -0.1208286 0.3886054 205 205 205
0.2109994 -0.1191926 0.3856988 205 205 205
0.2131146 -0.114274 0.3763026 205 205 205
-0.06574697 -0.1044012 0.4460203 205 205 205
-0.06170929 -0.1060658 0.4474283 205 205 205
-0.0584981 -0.1094205 0.4523062 205 205 205
-0.05280386 -0.1148744 0.4600702 205 205 205
-0.04889471 -0.1173624 0.4630964 205 205 205
0.2120643 -0.120212 0.3842994 205 205 205
0.2125274 -0.1178562 0.3799631 205 205 205
0.2136229 -0.1147851 0.3742018 205 205 205
-0.06599404 -0.1056623 0.4453428 205 205 205
-0.06338327 -0.1069201 0.4465754 205 205 205
-0.05404334 -0.1183712 0.4637525 205 205 205
-0.04655782 -0.1247163 0.4723995 205 205 205
-0.06766018 -0.1064997 0.4444743 205 205 205
-0.06386249 -0.1086131 0.4467627 205 205 205
-0.05009449 -0.1257287 0.4723096 205 205 205
0.2195923 -0.1332282 0.3995696 205 205 205
0.2142844 -0.1181646 0.3742919 205 205 205
-0.06672837 -0.1086071 0.4448424 205 205 205
-0.06359424 -0.1120293 0.4497269 205 205 205
0.2283241 -0.14322 0.4118306 205 205 205
0.2187152 -0.1323726 0.3952022 205 205 205
0.2165081 -0.1287608 0.389422 205 205 205
0.2152649 -0.1261148 0.3850968 205 205 205
0.2150058 -0.1244308 0.3822149 205 205 205
0.2144187 -0.1210646 0.3764746 205 205 205
-0.06721694 -0.1102974 0.4450159 205 205 205
-0.06352514 -0.1159149 0.4535389 205 205 205
-0.06272268 -0.1176536 0.4563148 205 205 205
0.2245012 -0.1394879 0.4030903 205 205 205
0.2183145 -0.1319718 0.3915727 205 205 205
0.2155685 -0.1278555 0.3851072 205 205 205
-0.06259144 -0.1215942 0.4600941 205 205 205
0.2153496 -0.1261877 0.3793691 205 205 205
0.2174313 -0.1281494 0.3793336 205 205 205
-0.06844916 -0.1149457 0.4446216 205 205 205
-0.06628086 -0.1171334 0.4475681 205 205 205
0.2347986 -0.1509725 0.4075626 205 205 205
-0.0703853 -0.1170203 0.4429915 205 205 205
-0.0689508 -0.11745 0.4431764 205 205 205
0.2323933 -0.1485706 0.4010417 205 205 205
-0.07162876 -0.1200804 0.4456864 205 205 205
0.2235419 -0.1383387 0.3833495 205 205 205
-0.07213137 -0.1217938 0.4457984 205 205 205
